{
	"credit": "Made with Blockbench",
	"textures": {
		"0": "gci:items/common/all_in_one",
		"particle": "gci:items/common/all_in_one"
	},
	"elements": [
		{
			"from": [7.672, 10.71831, -13.26137],
			"to": [8.064, 11.94231, 8.31463],
			"rotation": {"angle": 0, "axis": "y", "origin": [7.868, 10.86631, -12.93737]},
			"faces": {
				"north": {"uv": [1.75, 2.75, 1.849, 3.375], "rotation": 270, "texture": "#0"},
				"east": {"uv": [1.75, 2.75, 1.849, 3.375], "rotation": 270, "texture": "#0"},
				"south": {"uv": [1.75, 2.75, 1.849, 3.375], "rotation": 270, "texture": "#0"},
				"west": {"uv": [1.75, 2.75, 1.849, 3.375], "rotation": 270, "texture": "#0"},
				"up": {"uv": [1.75, 2.75, 1.849, 3.375], "rotation": 270, "texture": "#0"},
				"down": {"uv": [1.75, 2.75, 1.849, 3.375], "rotation": 270, "texture": "#0"}
			}
		},
		{
			"from": [7.672, 11.904, -15.072],
			"to": [8.064, 12.552, 8.328],
			"rotation": {"angle": 0, "axis": "y", "origin": [15, 19.552, 8]},
			"faces": {
				"north": {"uv": [1.75, 2.75, 1.849, 3.375], "texture": "#0"},
				"east": {"uv": [1.75, 2.75, 1.849, 3.375], "texture": "#0"},
				"south": {"uv": [1.75, 2.75, 1.849, 3.375], "texture": "#0"},
				"west": {"uv": [1.75, 2.75, 1.849, 3.375], "texture": "#0"},
				"up": {"uv": [1.75, 2.75, 1.849, 3.375], "texture": "#0"},
				"down": {"uv": [1.75, 2.75, 1.849, 3.375], "texture": "#0"}
			}
		},
		{
			"from": [7.672, 11.0882, -14.44892],
			"to": [8.064, 12.2162, -13.12892],
			"rotation": {"angle": 22.5, "axis": "x", "origin": [7.868, 11.2362, -14.12492]},
			"faces": {
				"north": {"uv": [1.75, 2.75, 1.849, 3.375], "rotation": 270, "texture": "#0"},
				"east": {"uv": [1.75, 2.75, 1.849, 3.375], "rotation": 270, "texture": "#0"},
				"south": {"uv": [1.75, 2.75, 1.849, 3.375], "rotation": 270, "texture": "#0"},
				"west": {"uv": [1.75, 2.75, 1.849, 3.375], "rotation": 270, "texture": "#0"},
				"up": {"uv": [1.75, 2.75, 1.849, 3.375], "rotation": 270, "texture": "#0"},
				"down": {"uv": [1.75, 2.75, 1.849, 3.375], "rotation": 270, "texture": "#0"}
			}
		},
		{
			"from": [7.672, 11.5676, -15.08774],
			"to": [8.064, 12.2796, -14.21574],
			"rotation": {"angle": 45, "axis": "x", "origin": [7.868, 11.7156, -14.76374]},
			"faces": {
				"north": {"uv": [1.75, 2.75, 1.849, 3.375], "rotation": 270, "texture": "#0"},
				"east": {"uv": [1.75, 2.75, 1.849, 3.375], "rotation": 270, "texture": "#0"},
				"south": {"uv": [1.75, 2.75, 1.849, 3.375], "rotation": 270, "texture": "#0"},
				"west": {"uv": [1.75, 2.75, 1.849, 3.375], "rotation": 270, "texture": "#0"},
				"up": {"uv": [1.75, 2.75, 1.849, 3.375], "rotation": 270, "texture": "#0"},
				"down": {"uv": [1.75, 2.75, 1.849, 3.375], "rotation": 270, "texture": "#0"}
			}
		},
		{
			"from": [7.672, 12.43873, -15.34547],
			"to": [8.064, 12.55273, -14.63347],
			"rotation": {"angle": 0, "axis": "y", "origin": [7.868, 12.21873, -15.19747]},
			"faces": {
				"north": {"uv": [1.75, 2.75, 1.849, 3.375], "texture": "#0"},
				"east": {"uv": [1.75, 2.75, 1.849, 3.375], "texture": "#0"},
				"south": {"uv": [1.75, 2.75, 1.849, 3.375], "texture": "#0"},
				"west": {"uv": [1.75, 2.75, 1.849, 3.375], "texture": "#0"},
				"up": {"uv": [1.75, 2.75, 1.849, 3.375], "texture": "#0"},
				"down": {"uv": [1.75, 2.75, 1.849, 3.375], "texture": "#0"}
			}
		},
		{
			"from": [7.672, 11.87203, -15.23274],
			"to": [8.064, 12.52003, -14.93674],
			"rotation": {"angle": -22.5, "axis": "x", "origin": [7.868, 12.19603, -15.08474]},
			"faces": {
				"north": {"uv": [1.75, 2.75, 1.849, 3.375], "texture": "#0"},
				"east": {"uv": [1.75, 2.75, 1.849, 3.375], "texture": "#0"},
				"south": {"uv": [1.75, 2.75, 1.849, 3.375], "texture": "#0"},
				"west": {"uv": [1.75, 2.75, 1.849, 3.375], "texture": "#0"},
				"up": {"uv": [1.75, 2.75, 1.849, 3.375], "texture": "#0"},
				"down": {"uv": [1.75, 2.75, 1.849, 3.375], "texture": "#0"}
			}
		},
		{
			"from": [7.448, 8.91385, 8.33863],
			"to": [8.288, 14.21385, 9.46663],
			"rotation": {"angle": 0, "axis": "y", "origin": [7.868, 10.75785, -8.58537]},
			"faces": {
				"north": {"uv": [2.125, 2.5, 2.125, 2.828], "texture": "#0"},
				"east": {"uv": [2.125, 2.5, 2.125, 2.828], "texture": "#0"},
				"south": {"uv": [2.125, 2.5, 2.125, 2.828], "texture": "#0"},
				"west": {"uv": [2.125, 2.5, 2.125, 2.828], "texture": "#0"},
				"up": {"uv": [2.125, 2.5, 2.125, 2.828], "texture": "#0"},
				"down": {"uv": [2.125, 2.5, 2.125, 2.828], "texture": "#0"}
			}
		},
		{
			"from": [7.544, 10.83385, 8.40263],
			"to": [8.192, 12.35785, 14.55463],
			"rotation": {"angle": 0, "axis": "y", "origin": [7.868, 10.75785, -8.61737]},
			"faces": {
				"north": {"uv": [9.25, 12.5, 9.25, 12.828], "texture": "#0"},
				"east": {"uv": [9.25, 12.5, 9.25, 12.828], "texture": "#0"},
				"south": {"uv": [9.25, 12.5, 9.25, 12.828], "texture": "#0"},
				"west": {"uv": [9.25, 12.5, 9.25, 12.828], "texture": "#0"},
				"up": {"uv": [9.25, 12.5, 9.25, 12.828], "texture": "#0"},
				"down": {"uv": [9.25, 12.5, 9.25, 12.828], "texture": "#0"}
			}
		},
		{
			"from": [7.448, 10.51385, 14.57863],
			"to": [8.288, 12.64585, 15.70663],
			"rotation": {"angle": 0, "axis": "y", "origin": [7.868, 10.75785, -2.34537]},
			"faces": {
				"north": {"uv": [2.125, 2.5, 2.125, 2.828], "texture": "#0"},
				"east": {"uv": [2.125, 2.5, 2.125, 2.828], "texture": "#0"},
				"south": {"uv": [2.125, 2.5, 2.125, 2.828], "texture": "#0"},
				"west": {"uv": [2.125, 2.5, 2.125, 2.828], "texture": "#0"},
				"up": {"uv": [2.125, 2.5, 2.125, 2.828], "texture": "#0"},
				"down": {"uv": [2.125, 2.5, 2.125, 2.828], "texture": "#0"}
			}
		}
	],
	"display": {
		"thirdperson_righthand": {
			"rotation": [91, 0, 0],
			"translation": [0, 1.25, -2.25],
			"scale": [1, 1, 0.77]
		},
		"thirdperson_lefthand": {
			"rotation": [91, 0, 0],
			"translation": [0, 1.25, -2.25],
			"scale": [-1, 1, 0.77]
		},
		"firstperson_righthand": {
			"rotation": [57, 0, 0],
			"translation": [0, 0, -2.5]
		},
		"firstperson_lefthand": {
			"rotation": [57, 0, 0]
		},
		"gui": {
			"rotation": [43, 35, -43],
			"translation": [-2, -5.25, 0],
			"scale": [-0.64, 1, 0.61]
		},
		"head": {
			"rotation": [-1, 10, 90],
			"translation": [11.5, 8, 6.75],
			"scale": [1.61, 1.64, 1.19]
		},
		"fixed": {
			"rotation": [0, 91, 0],
			"translation": [8, -5, -3]
		}
	},
	"groups": [
		{
			"name": "blade",
			"origin": [7.868, 12.19603, -15.08474],
			"children": [0, 1, 2, 3, 4, 5,
				{
					"name": "hilt",
					"origin": [7.868, 10.75785, -3.30537],
					"children": [6, 7, 8]
				}
			]
		}
	]
}
