{
    "textures": {
        "0": "gci:items/common/mpz",
        "1": "gci:items/common/all_in_one",
        "particle": "gci:items/common/mpz"
    },
    "elements": [
        {
            "from": [
                7.958,
                5.04097,
                6.2576
            ],
            "to": [
                8.682,
                7.24097,
                8.6076
            ],
            "rotation": {
                "angle": 0,
                "axis": "y",
                "origin": [
                    8.32,
                    7.79097,
                    2.63957
                ]
            },
            "faces": {
                "north": {
                    "uv": [
                        9,
                        1,
                        9.66667,
                        1.33333
                    ],
                    "texture": "#0"
                },
                "east": {
                    "uv": [
                        9,
                        1,
                        9.66667,
                        1.33333
                    ],
                    "texture": "#0"
                },
                "south": {
                    "uv": [
                        9,
                        1,
                        9.66667,
                        1.33333
                    ],
                    "texture": "#0"
                },
                "west": {
                    "uv": [
                        9,
                        1,
                        9.66667,
                        1.33333
                    ],
                    "texture": "#0"
                },
                "up": {
                    "uv": [
                        9,
                        1,
                        9.66667,
                        1.33333
                    ],
                    "texture": "#0"
                },
                "down": {
                    "uv": [
                        9,
                        1,
                        9.66667,
                        1.33333
                    ],
                    "texture": "#0"
                }
            }
        },
        {
            "from": [
                7.948,
                4.94097,
                6.1576
            ],
            "to": [
                8.692,
                5.04097,
                8.7076
            ],
            "rotation": {
                "angle": 0,
                "axis": "y",
                "origin": [
                    8.32,
                    8.59097,
                    2.63957
                ]
            },
            "faces": {
                "north": {
                    "uv": [
                        9,
                        1,
                        9.66667,
                        1.33333
                    ],
                    "texture": "#0"
                },
                "east": {
                    "uv": [
                        9,
                        1,
                        9.66667,
                        1.33333
                    ],
                    "texture": "#0"
                },
                "south": {
                    "uv": [
                        9,
                        1,
                        9.66667,
                        1.33333
                    ],
                    "texture": "#0"
                },
                "west": {
                    "uv": [
                        9,
                        1,
                        9.66667,
                        1.33333
                    ],
                    "texture": "#0"
                },
                "up": {
                    "uv": [
                        9,
                        1,
                        9.66667,
                        1.33333
                    ],
                    "texture": "#0"
                },
                "down": {
                    "uv": [
                        9,
                        1,
                        9.66667,
                        1.33333
                    ],
                    "texture": "#0"
                }
            }
        },
        {
            "from": [
                7.948,
                5.11597,
                6.3826
            ],
            "to": [
                8.692,
                6.96597,
                6.4826
            ],
            "rotation": {
                "angle": 0,
                "axis": "y",
                "origin": [
                    8.32,
                    5.69097,
                    6.4326
                ]
            },
            "faces": {
                "north": {
                    "uv": [
                        6.33333,
                        1.33333,
                        7,
                        1.66667
                    ],
                    "rotation": 270,
                    "texture": "#0"
                },
                "east": {
                    "uv": [
                        6.33333,
                        1.33333,
                        7,
                        1.66667
                    ],
                    "rotation": 270,
                    "texture": "#0"
                },
                "south": {
                    "uv": [
                        6.33333,
                        1.33333,
                        7,
                        1.66667
                    ],
                    "rotation": 270,
                    "texture": "#0"
                },
                "west": {
                    "uv": [
                        6.33333,
                        1.33333,
                        7,
                        1.66667
                    ],
                    "rotation": 270,
                    "texture": "#0"
                },
                "up": {
                    "uv": [
                        6.33333,
                        1.33333,
                        7,
                        1.66667
                    ],
                    "rotation": 270,
                    "texture": "#0"
                },
                "down": {
                    "uv": [
                        6.33333,
                        1.33333,
                        7,
                        1.66667
                    ],
                    "rotation": 270,
                    "texture": "#0"
                }
            }
        },
        {
            "from": [
                7.948,
                5.11597,
                6.7826
            ],
            "to": [
                8.692,
                6.96597,
                6.8826
            ],
            "rotation": {
                "angle": 0,
                "axis": "y",
                "origin": [
                    8.32,
                    5.69097,
                    6.8326
                ]
            },
            "faces": {
                "north": {
                    "uv": [
                        6.33333,
                        1.33333,
                        7,
                        1.66667
                    ],
                    "rotation": 270,
                    "texture": "#0"
                },
                "east": {
                    "uv": [
                        6.33333,
                        1.33333,
                        7,
                        1.66667
                    ],
                    "rotation": 270,
                    "texture": "#0"
                },
                "south": {
                    "uv": [
                        6.33333,
                        1.33333,
                        7,
                        1.66667
                    ],
                    "rotation": 270,
                    "texture": "#0"
                },
                "west": {
                    "uv": [
                        6.33333,
                        1.33333,
                        7,
                        1.66667
                    ],
                    "rotation": 270,
                    "texture": "#0"
                },
                "up": {
                    "uv": [
                        6.33333,
                        1.33333,
                        7,
                        1.66667
                    ],
                    "rotation": 270,
                    "texture": "#0"
                },
                "down": {
                    "uv": [
                        6.33333,
                        1.33333,
                        7,
                        1.66667
                    ],
                    "rotation": 270,
                    "texture": "#0"
                }
            }
        },
        {
            "from": [
                7.948,
                5.11597,
                7.1826
            ],
            "to": [
                8.692,
                6.96597,
                7.2826
            ],
            "rotation": {
                "angle": 0,
                "axis": "y",
                "origin": [
                    8.32,
                    5.69097,
                    7.2326
                ]
            },
            "faces": {
                "north": {
                    "uv": [
                        6.33333,
                        1.33333,
                        7,
                        1.66667
                    ],
                    "rotation": 270,
                    "texture": "#0"
                },
                "east": {
                    "uv": [
                        6.33333,
                        1.33333,
                        7,
                        1.66667
                    ],
                    "rotation": 270,
                    "texture": "#0"
                },
                "south": {
                    "uv": [
                        6.33333,
                        1.33333,
                        7,
                        1.66667
                    ],
                    "rotation": 270,
                    "texture": "#0"
                },
                "west": {
                    "uv": [
                        6.33333,
                        1.33333,
                        7,
                        1.66667
                    ],
                    "rotation": 270,
                    "texture": "#0"
                },
                "up": {
                    "uv": [
                        6.33333,
                        1.33333,
                        7,
                        1.66667
                    ],
                    "rotation": 270,
                    "texture": "#0"
                },
                "down": {
                    "uv": [
                        6.33333,
                        1.33333,
                        7,
                        1.66667
                    ],
                    "rotation": 270,
                    "texture": "#0"
                }
            }
        },
        {
            "from": [
                7.948,
                5.11597,
                7.5826
            ],
            "to": [
                8.692,
                6.96597,
                7.6826
            ],
            "rotation": {
                "angle": 0,
                "axis": "y",
                "origin": [
                    8.32,
                    5.69097,
                    7.6326
                ]
            },
            "faces": {
                "north": {
                    "uv": [
                        6.33333,
                        1.33333,
                        7,
                        1.66667
                    ],
                    "rotation": 270,
                    "texture": "#0"
                },
                "east": {
                    "uv": [
                        6.33333,
                        1.33333,
                        7,
                        1.66667
                    ],
                    "rotation": 270,
                    "texture": "#0"
                },
                "south": {
                    "uv": [
                        6.33333,
                        1.33333,
                        7,
                        1.66667
                    ],
                    "rotation": 270,
                    "texture": "#0"
                },
                "west": {
                    "uv": [
                        6.33333,
                        1.33333,
                        7,
                        1.66667
                    ],
                    "rotation": 270,
                    "texture": "#0"
                },
                "up": {
                    "uv": [
                        6.33333,
                        1.33333,
                        7,
                        1.66667
                    ],
                    "rotation": 270,
                    "texture": "#0"
                },
                "down": {
                    "uv": [
                        6.33333,
                        1.33333,
                        7,
                        1.66667
                    ],
                    "rotation": 270,
                    "texture": "#0"
                }
            }
        },
        {
            "from": [
                7.948,
                5.11597,
                7.9826
            ],
            "to": [
                8.692,
                6.96597,
                8.0826
            ],
            "rotation": {
                "angle": 0,
                "axis": "y",
                "origin": [
                    8.32,
                    5.69097,
                    8.0326
                ]
            },
            "faces": {
                "north": {
                    "uv": [
                        6.33333,
                        1.33333,
                        7,
                        1.66667
                    ],
                    "rotation": 270,
                    "texture": "#0"
                },
                "east": {
                    "uv": [
                        6.33333,
                        1.33333,
                        7,
                        1.66667
                    ],
                    "rotation": 270,
                    "texture": "#0"
                },
                "south": {
                    "uv": [
                        6.33333,
                        1.33333,
                        7,
                        1.66667
                    ],
                    "rotation": 270,
                    "texture": "#0"
                },
                "west": {
                    "uv": [
                        6.33333,
                        1.33333,
                        7,
                        1.66667
                    ],
                    "rotation": 270,
                    "texture": "#0"
                },
                "up": {
                    "uv": [
                        6.33333,
                        1.33333,
                        7,
                        1.66667
                    ],
                    "rotation": 270,
                    "texture": "#0"
                },
                "down": {
                    "uv": [
                        6.33333,
                        1.33333,
                        7,
                        1.66667
                    ],
                    "rotation": 270,
                    "texture": "#0"
                }
            }
        },
        {
            "from": [
                7.948,
                5.11597,
                8.3826
            ],
            "to": [
                8.692,
                6.96597,
                8.4826
            ],
            "rotation": {
                "angle": 0,
                "axis": "y",
                "origin": [
                    8.32,
                    5.69097,
                    8.4326
                ]
            },
            "faces": {
                "north": {
                    "uv": [
                        6.33333,
                        1.33333,
                        7,
                        1.66667
                    ],
                    "rotation": 270,
                    "texture": "#0"
                },
                "east": {
                    "uv": [
                        6.33333,
                        1.33333,
                        7,
                        1.66667
                    ],
                    "rotation": 270,
                    "texture": "#0"
                },
                "south": {
                    "uv": [
                        6.33333,
                        1.33333,
                        7,
                        1.66667
                    ],
                    "rotation": 270,
                    "texture": "#0"
                },
                "west": {
                    "uv": [
                        6.33333,
                        1.33333,
                        7,
                        1.66667
                    ],
                    "rotation": 270,
                    "texture": "#0"
                },
                "up": {
                    "uv": [
                        6.33333,
                        1.33333,
                        7,
                        1.66667
                    ],
                    "rotation": 270,
                    "texture": "#0"
                },
                "down": {
                    "uv": [
                        6.33333,
                        1.33333,
                        7,
                        1.66667
                    ],
                    "rotation": 270,
                    "texture": "#0"
                }
            }
        }
    ],
    "display": {
        "thirdperson_righthand": {
            "translation": [
                -0.25,
                1,
                6.25
            ]
        },
        "thirdperson_lefthand": {
            "translation": [
                0,
                1,
                6.25
            ]
        },
        "firstperson_righthand": {
            "translation": [
                -2.25,
                3,
                5.75
            ]
        },
        "firstperson_lefthand": {
            "translation": [
                -1.75,
                3.5,
                6.25
            ]
        },
        "ground": {
            "translation": [
                0,
                0,
                8.5
            ]
        },
        "gui": {
            "rotation": [
                31,
                33,
                -21
            ],
            "translation": [
                4,
                -1.25,
                0
            ],
            "scale": [
                0.86,
                0.86,
                0.86
            ]
        },
        "fixed": {
            "rotation": [
                90,
                45,
                -90
            ],
            "translation": [
                5.75,
                -4.25,
                -1.75
            ]
        }
    }
}