{
    "textures": {
        "2": "gci:items/common/mpz"
    },
    "elements": [
        {
            "name": "magazin_tipa",
            "from": [
                5.3193,
                0.60852,
                8.75222
            ],
            "to": [
                7.3093,
                0.80852,
                11.45222
            ],
            "rotation": {
                "angle": 0,
                "axis": "y",
                "origin": [
                    6.3193,
                    7.31427,
                    8.50199
                ]
            },
            "faces": {
                "north": {
                    "uv": [
                        2.76667,
                        0,
                        2.96667,
                        1.99
                    ],
                    "rotation": 270,
                    "texture": "#2"
                },
                "east": {
                    "uv": [
                        2.76667,
                        0,
                        2.96667,
                        2.5
                    ],
                    "rotation": 270,
                    "texture": "#2"
                },
                "south": {
                    "uv": [
                        2.76667,
                        0,
                        2.96667,
                        1.99
                    ],
                    "rotation": 270,
                    "texture": "#2"
                },
                "west": {
                    "uv": [
                        2.76667,
                        0,
                        2.96667,
                        2.5
                    ],
                    "rotation": 90,
                    "texture": "#2"
                },
                "up": {
                    "uv": [
                        2.76667,
                        0,
                        4.75667,
                        2.5
                    ],
                    "rotation": 180,
                    "texture": "#2"
                },
                "down": {
                    "uv": [
                        2.76667,
                        0,
                        4.75667,
                        2.5
                    ],
                    "texture": "#2"
                }
            }
        },
        {
            "name": "magazin_tipa",
            "from": [
                5.5183,
                0.82852,
                9.02222
            ],
            "to": [
                7.1103,
                1.98852,
                11.18222
            ],
            "rotation": {
                "angle": 0,
                "axis": "y",
                "origin": [
                    6.3183,
                    5.99312,
                    8.80204
                ]
            },
            "faces": {
                "north": {
                    "uv": [
                        2.76667,
                        0,
                        2.96667,
                        1.99
                    ],
                    "rotation": 270,
                    "texture": "#2"
                },
                "east": {
                    "uv": [
                        2.76667,
                        0,
                        2.96667,
                        2.5
                    ],
                    "rotation": 270,
                    "texture": "#2"
                },
                "south": {
                    "uv": [
                        2.76667,
                        0,
                        2.96667,
                        1.99
                    ],
                    "rotation": 270,
                    "texture": "#2"
                },
                "west": {
                    "uv": [
                        2.76667,
                        0,
                        2.96667,
                        2.5
                    ],
                    "rotation": 90,
                    "texture": "#2"
                },
                "up": {
                    "uv": [
                        2.76667,
                        0,
                        4.75667,
                        2.5
                    ],
                    "rotation": 180,
                    "texture": "#2"
                },
                "down": {
                    "uv": [
                        2.76667,
                        0,
                        4.75667,
                        2.5
                    ],
                    "texture": "#2"
                }
            }
        }
    ],
    "display": {
        "thirdperson_righthand": {
            "rotation": [
                -3,
                2,
                4
            ],
            "translation": [
                1.25,
                1,
                0.25
            ],
            "scale": [
                0.65,
                0.65,
                0.5
            ]
        },
        "thirdperson_lefthand": {
            "translation": [
                -1,
                0.75,
                0.25
            ],
            "scale": [
                0.65,
                0.65,
                0.5
            ]
        },
        "firstperson_righthand": {
            "rotation": [
                -3,
                0,
                0
            ],
            "translation": [
                0.75,
                2.75,
                1.75
            ],
            "scale": [
                0.65,
                0.65,
                0.5
            ]
        },
        "firstperson_lefthand": {
            "rotation": [
                0,
                0,
                -3
            ],
            "translation": [
                0,
                3,
                1
            ],
            "scale": [
                0.65,
                0.65,
                0.5
            ]
        },
        "ground": {
            "scale": [
                0.65,
                0.65,
                0.5
            ]
        },
        "gui": {
            "rotation": [
                90,
                45,
                -90
            ],
            "translation": [
                2.25,
                -1.5,
                0
            ],
            "scale": [
                1.08,
                0.88,
                0.85
            ]
        },
        "head": {
            "translation": [
                1.75,
                -1.5,
                -6.5
            ]
        },
        "fixed": {
            "rotation": [
                90,
                45,
                -90
            ],
            "translation": [
                1.5,
                1.75,
                -2
            ],
            "scale": [
                1.53,
                1.42,
                1.39
            ]
        }
    }
}