{
    "textures": {
        "0": "gci:items/common/all_in_one", 
        "particle": "gci:items/common/all_in_one"
    }, 
    "elements": [
        {
            "to": [
                8.18157, 
                9.39986, 
                16.932
            ], 
            "rotation": {
                "origin": [
                    8.13157, 
                    9.29986, 
                    6.91
                ], 
                "angle": 0, 
                "axis": "y"
            }, 
            "from": [
                8.08157, 
                9.19986, 
                11.88
            ], 
            "faces": {
                "north": {
                    "uv": [
                        2, 
                        3, 
                        2.25, 
                        4
                    ], 
                    "texture": "#0"
                }, 
                "west": {
                    "uv": [
                        2, 
                        3, 
                        2.25, 
                        4
                    ], 
                    "texture": "#0"
                }, 
                "up": {
                    "uv": [
                        2, 
                        3, 
                        2.25, 
                        4
                    ], 
                    "texture": "#0"
                }, 
                "down": {
                    "uv": [
                        2, 
                        3, 
                        2.25, 
                        4
                    ], 
                    "texture": "#0"
                }, 
                "east": {
                    "uv": [
                        2, 
                        3, 
                        2.25, 
                        4
                    ], 
                    "texture": "#0"
                }, 
                "south": {
                    "uv": [
                        2, 
                        3, 
                        2.25, 
                        4
                    ], 
                    "texture": "#0"
                }
            }
        }, 
        {
            "to": [
                8.59757, 
                9.55986, 
                16.868
            ], 
            "rotation": {
                "origin": [
                    8.13157, 
                    9.29986, 
                    7.038
                ], 
                "angle": 0, 
                "axis": "y"
            }, 
            "from": [
                8.04957, 
                6.95986, 
                16.808
            ], 
            "faces": {
                "north": {
                    "uv": [
                        3.875, 
                        3, 
                        4.75, 
                        3
                    ], 
                    "texture": "#0"
                }, 
                "west": {
                    "uv": [
                        3.875, 
                        3, 
                        4.75, 
                        3
                    ], 
                    "texture": "#0"
                }, 
                "up": {
                    "uv": [
                        3.875, 
                        3, 
                        4.75, 
                        3
                    ], 
                    "texture": "#0"
                }, 
                "down": {
                    "uv": [
                        3.875, 
                        3, 
                        4.75, 
                        3
                    ], 
                    "texture": "#0"
                }, 
                "east": {
                    "uv": [
                        3.875, 
                        3, 
                        4.75, 
                        3
                    ], 
                    "texture": "#0"
                }, 
                "south": {
                    "uv": [
                        3.875, 
                        2.5, 
                        4.5, 
                        4.25
                    ], 
                    "texture": "#0"
                }
            }
        }, 
        {
            "to": [
                8.59757, 
                9.55986, 
                16.808
            ], 
            "rotation": {
                "origin": [
                    8.13157, 
                    9.29986, 
                    6.978
                ], 
                "angle": 0, 
                "axis": "y"
            }, 
            "from": [
                8.04957, 
                6.95986, 
                16.588
            ], 
            "faces": {
                "north": {
                    "uv": [
                        1.125, 
                        4.75, 
                        1.125, 
                        6.125
                    ], 
                    "texture": "#0"
                }, 
                "west": {
                    "rotation": 180, 
                    "uv": [
                        1, 
                        4.75, 
                        1.5, 
                        6.25
                    ], 
                    "texture": "#0"
                }, 
                "up": {
                    "uv": [
                        1, 
                        4.75, 
                        1.5, 
                        6.25
                    ], 
                    "texture": "#0"
                }, 
                "down": {
                    "rotation": 90, 
                    "uv": [
                        1, 
                        4.75, 
                        1.5, 
                        6.25
                    ], 
                    "texture": "#0"
                }, 
                "east": {
                    "uv": [
                        1, 
                        4.75, 
                        1.5, 
                        6.25
                    ], 
                    "texture": "#0"
                }, 
                "south": {
                    "uv": [
                        1, 
                        4.75, 
                        1.5, 
                        6.25
                    ], 
                    "texture": "#0"
                }
            }
        }, 
        {
            "to": [
                8.62957, 
                7.41586, 
                16.648
            ], 
            "rotation": {
                "origin": [
                    8.13157, 
                    9.33186, 
                    6.946
                ], 
                "angle": 0, 
                "axis": "y"
            }, 
            "from": [
                8.01757, 
                6.99186, 
                16.556
            ], 
            "faces": {
                "north": {
                    "uv": [
                        2.375, 
                        2.5, 
                        2.375, 
                        3.875
                    ], 
                    "texture": "#0"
                }, 
                "west": {
                    "uv": [
                        2.375, 
                        2.5, 
                        2.375, 
                        3.875
                    ], 
                    "texture": "#0"
                }, 
                "up": {
                    "uv": [
                        2.375, 
                        2.5, 
                        2.375, 
                        3.875
                    ], 
                    "texture": "#0"
                }, 
                "down": {
                    "uv": [
                        2.375, 
                        2.5, 
                        2.375, 
                        3.875
                    ], 
                    "texture": "#0"
                }, 
                "east": {
                    "uv": [
                        2.375, 
                        2.5, 
                        2.375, 
                        3.875
                    ], 
                    "texture": "#0"
                }, 
                "south": {
                    "uv": [
                        2.375, 
                        2.5, 
                        2.375, 
                        3.875
                    ], 
                    "texture": "#0"
                }
            }
        }, 
        {
            "to": [
                8.43757, 
                7.12786, 
                16.68
            ], 
            "rotation": {
                "origin": [
                    8.32357, 
                    7.07586, 
                    16.634
                ], 
                "angle": 22.5, 
                "axis": "x"
            }, 
            "from": [
                8.20957, 
                7.02386, 
                11.628
            ], 
            "faces": {
                "north": {
                    "uv": [
                        2.375, 
                        2.5, 
                        2.375, 
                        3.875
                    ], 
                    "texture": "#0"
                }, 
                "west": {
                    "uv": [
                        2.375, 
                        2.5, 
                        2.375, 
                        3.875
                    ], 
                    "texture": "#0"
                }, 
                "up": {
                    "uv": [
                        2.375, 
                        2.5, 
                        2.375, 
                        3.875
                    ], 
                    "texture": "#0"
                }, 
                "down": {
                    "uv": [
                        2.375, 
                        2.5, 
                        2.375, 
                        3.875
                    ], 
                    "texture": "#0"
                }, 
                "east": {
                    "uv": [
                        2.375, 
                        2.5, 
                        2.375, 
                        3.875
                    ], 
                    "texture": "#0"
                }, 
                "south": {
                    "uv": [
                        2.375, 
                        2.5, 
                        2.375, 
                        3.875
                    ], 
                    "texture": "#0"
                }
            }
        }, 
        {
            "to": [
                8.98856, 
                10.13437, 
                16.868
            ], 
            "rotation": {
                "origin": [
                    9.16256, 
                    8.83437, 
                    16.758
                ], 
                "angle": 45, 
                "axis": "z"
            }, 
            "from": [
                8.88856, 
                10.06237, 
                16.808
            ], 
            "faces": {
                "north": {
                    "uv": [
                        3.875, 
                        3, 
                        4.75, 
                        3
                    ], 
                    "texture": "#0"
                }, 
                "west": {
                    "uv": [
                        3.875, 
                        3, 
                        4.75, 
                        3
                    ], 
                    "texture": "#0"
                }, 
                "up": {
                    "uv": [
                        3.875, 
                        3, 
                        4.75, 
                        3
                    ], 
                    "texture": "#0"
                }, 
                "down": {
                    "uv": [
                        3.875, 
                        3, 
                        4.75, 
                        3
                    ], 
                    "texture": "#0"
                }, 
                "east": {
                    "uv": [
                        3.875, 
                        3, 
                        4.75, 
                        3
                    ], 
                    "texture": "#0"
                }, 
                "south": {
                    "uv": [
                        3.875, 
                        3, 
                        4.75, 
                        3
                    ], 
                    "texture": "#0"
                }
            }
        }, 
        {
            "to": [
                8.98856, 
                10.13437, 
                16.808
            ], 
            "rotation": {
                "origin": [
                    9.16256, 
                    8.83437, 
                    16.698
                ], 
                "angle": 45, 
                "axis": "z"
            }, 
            "from": [
                8.88856, 
                10.06237, 
                16.588
            ], 
            "faces": {
                "north": {
                    "uv": [
                        1, 
                        4.75, 
                        1.5, 
                        6.25
                    ], 
                    "texture": "#0"
                }, 
                "west": {
                    "uv": [
                        1, 
                        4.75, 
                        1.5, 
                        6.25
                    ], 
                    "texture": "#0"
                }, 
                "up": {
                    "rotation": 270, 
                    "uv": [
                        1, 
                        4.75, 
                        1.5, 
                        6.25
                    ], 
                    "texture": "#0"
                }, 
                "down": {
                    "uv": [
                        1, 
                        4.75, 
                        1.5, 
                        6.25
                    ], 
                    "texture": "#0"
                }, 
                "east": {
                    "uv": [
                        1, 
                        4.75, 
                        1.5, 
                        6.25
                    ], 
                    "texture": "#0"
                }, 
                "south": {
                    "uv": [
                        1, 
                        4.75, 
                        1.5, 
                        6.25
                    ], 
                    "texture": "#0"
                }
            }
        }, 
        {
            "to": [
                8.23025, 
                9.65245, 
                16.868
            ], 
            "rotation": {
                "origin": [
                    8.18025, 
                    9.61645, 
                    16.758
                ], 
                "angle": 22.5, 
                "axis": "z"
            }, 
            "from": [
                8.13025, 
                9.54845, 
                16.808
            ], 
            "faces": {
                "north": {
                    "uv": [
                        3.875, 
                        3, 
                        4.75, 
                        3
                    ], 
                    "texture": "#0"
                }, 
                "west": {
                    "uv": [
                        3.875, 
                        3, 
                        4.75, 
                        3
                    ], 
                    "texture": "#0"
                }, 
                "up": {
                    "uv": [
                        3.875, 
                        3, 
                        4.75, 
                        3
                    ], 
                    "texture": "#0"
                }, 
                "down": {
                    "uv": [
                        3.875, 
                        3, 
                        4.75, 
                        3
                    ], 
                    "texture": "#0"
                }, 
                "east": {
                    "uv": [
                        3.875, 
                        3, 
                        4.75, 
                        3
                    ], 
                    "texture": "#0"
                }, 
                "south": {
                    "uv": [
                        3.875, 
                        3, 
                        4.75, 
                        3
                    ], 
                    "texture": "#0"
                }
            }
        }, 
        {
            "to": [
                8.23025, 
                9.65245, 
                16.808
            ], 
            "rotation": {
                "origin": [
                    8.18025, 
                    9.61645, 
                    16.698
                ], 
                "angle": 22.5, 
                "axis": "z"
            }, 
            "from": [
                8.13025, 
                9.54845, 
                16.588
            ], 
            "faces": {
                "north": {
                    "uv": [
                        1, 
                        4.75, 
                        1.5, 
                        6.25
                    ], 
                    "texture": "#0"
                }, 
                "west": {
                    "uv": [
                        1, 
                        4.75, 
                        1.5, 
                        6.25
                    ], 
                    "texture": "#0"
                }, 
                "up": {
                    "rotation": 270, 
                    "uv": [
                        1, 
                        4.75, 
                        1.5, 
                        6.25
                    ], 
                    "texture": "#0"
                }, 
                "down": {
                    "uv": [
                        1, 
                        4.75, 
                        1.5, 
                        6.25
                    ], 
                    "texture": "#0"
                }, 
                "east": {
                    "uv": [
                        1, 
                        4.75, 
                        1.5, 
                        6.25
                    ], 
                    "texture": "#0"
                }, 
                "south": {
                    "uv": [
                        1, 
                        4.75, 
                        1.5, 
                        6.25
                    ], 
                    "texture": "#0"
                }
            }
        }, 
        {
            "to": [
                8.44067, 
                9.66884, 
                16.868
            ], 
            "rotation": {
                "origin": [
                    8.39067, 
                    9.63284, 
                    16.758
                ], 
                "angle": 0, 
                "axis": "y"
            }, 
            "from": [
                8.21267, 
                9.53284, 
                16.808
            ], 
            "faces": {
                "north": {
                    "uv": [
                        3.875, 
                        3, 
                        4.75, 
                        3
                    ], 
                    "texture": "#0"
                }, 
                "west": {
                    "uv": [
                        3.875, 
                        3, 
                        4.75, 
                        3
                    ], 
                    "texture": "#0"
                }, 
                "up": {
                    "uv": [
                        3.875, 
                        3, 
                        4.75, 
                        3
                    ], 
                    "texture": "#0"
                }, 
                "down": {
                    "uv": [
                        3.875, 
                        3, 
                        4.75, 
                        3
                    ], 
                    "texture": "#0"
                }, 
                "east": {
                    "uv": [
                        3.875, 
                        3, 
                        4.75, 
                        3
                    ], 
                    "texture": "#0"
                }, 
                "south": {
                    "uv": [
                        3.875, 
                        3, 
                        4.75, 
                        3
                    ], 
                    "texture": "#0"
                }
            }
        }, 
        {
            "to": [
                8.44067, 
                9.66884, 
                16.808
            ], 
            "rotation": {
                "origin": [
                    8.39067, 
                    9.63284, 
                    16.698
                ], 
                "angle": 0, 
                "axis": "y"
            }, 
            "from": [
                8.21267, 
                9.53284, 
                16.588
            ], 
            "faces": {
                "north": {
                    "uv": [
                        1, 
                        4.75, 
                        1.5, 
                        6.25
                    ], 
                    "texture": "#0"
                }, 
                "west": {
                    "uv": [
                        1, 
                        4.75, 
                        1.5, 
                        6.25
                    ], 
                    "texture": "#0"
                }, 
                "up": {
                    "rotation": 270, 
                    "uv": [
                        1, 
                        4.75, 
                        1.5, 
                        6.25
                    ], 
                    "texture": "#0"
                }, 
                "down": {
                    "uv": [
                        1, 
                        4.75, 
                        1.5, 
                        6.25
                    ], 
                    "texture": "#0"
                }, 
                "east": {
                    "uv": [
                        1, 
                        4.75, 
                        1.5, 
                        6.25
                    ], 
                    "texture": "#0"
                }, 
                "south": {
                    "uv": [
                        1, 
                        4.75, 
                        1.5, 
                        6.25
                    ], 
                    "texture": "#0"
                }
            }
        }, 
        {
            "to": [
                8.51689, 
                9.65245, 
                16.868
            ], 
            "rotation": {
                "origin": [
                    8.46689, 
                    9.61645, 
                    16.758
                ], 
                "angle": -22.5, 
                "axis": "z"
            }, 
            "from": [
                8.41689, 
                9.54845, 
                16.808
            ], 
            "faces": {
                "north": {
                    "uv": [
                        3.875, 
                        3, 
                        4.75, 
                        3
                    ], 
                    "texture": "#0"
                }, 
                "west": {
                    "uv": [
                        3.875, 
                        3, 
                        4.75, 
                        3
                    ], 
                    "texture": "#0"
                }, 
                "up": {
                    "uv": [
                        3.875, 
                        3, 
                        4.75, 
                        3
                    ], 
                    "texture": "#0"
                }, 
                "down": {
                    "uv": [
                        3.875, 
                        3, 
                        4.75, 
                        3
                    ], 
                    "texture": "#0"
                }, 
                "east": {
                    "uv": [
                        3.875, 
                        3, 
                        4.75, 
                        3
                    ], 
                    "texture": "#0"
                }, 
                "south": {
                    "uv": [
                        3.875, 
                        3, 
                        4.75, 
                        3
                    ], 
                    "texture": "#0"
                }
            }
        }, 
        {
            "to": [
                8.51689, 
                9.65245, 
                16.808
            ], 
            "rotation": {
                "origin": [
                    8.46689, 
                    9.61645, 
                    16.698
                ], 
                "angle": -22.5, 
                "axis": "z"
            }, 
            "from": [
                8.41689, 
                9.54845, 
                16.588
            ], 
            "faces": {
                "north": {
                    "uv": [
                        1, 
                        4.75, 
                        1.5, 
                        6.25
                    ], 
                    "texture": "#0"
                }, 
                "west": {
                    "uv": [
                        1, 
                        4.75, 
                        1.5, 
                        6.25
                    ], 
                    "texture": "#0"
                }, 
                "up": {
                    "rotation": 270, 
                    "uv": [
                        1, 
                        4.75, 
                        1.5, 
                        6.25
                    ], 
                    "texture": "#0"
                }, 
                "down": {
                    "uv": [
                        1, 
                        4.75, 
                        1.5, 
                        6.25
                    ], 
                    "texture": "#0"
                }, 
                "east": {
                    "uv": [
                        1, 
                        4.75, 
                        1.5, 
                        6.25
                    ], 
                    "texture": "#0"
                }, 
                "south": {
                    "uv": [
                        1, 
                        4.75, 
                        1.5, 
                        6.25
                    ], 
                    "texture": "#0"
                }
            }
        }, 
        {
            "to": [
                8.58676, 
                9.60576, 
                16.868
            ], 
            "rotation": {
                "origin": [
                    8.53676, 
                    9.56976, 
                    16.758
                ], 
                "angle": -45, 
                "axis": "z"
            }, 
            "from": [
                8.48676, 
                9.50176, 
                16.808
            ], 
            "faces": {
                "north": {
                    "uv": [
                        3.875, 
                        3, 
                        4.75, 
                        3
                    ], 
                    "texture": "#0"
                }, 
                "west": {
                    "uv": [
                        3.875, 
                        3, 
                        4.75, 
                        3
                    ], 
                    "texture": "#0"
                }, 
                "up": {
                    "uv": [
                        3.875, 
                        3, 
                        4.75, 
                        3
                    ], 
                    "texture": "#0"
                }, 
                "down": {
                    "uv": [
                        3.875, 
                        3, 
                        4.75, 
                        3
                    ], 
                    "texture": "#0"
                }, 
                "east": {
                    "uv": [
                        3.875, 
                        3, 
                        4.75, 
                        3
                    ], 
                    "texture": "#0"
                }, 
                "south": {
                    "uv": [
                        3.875, 
                        3, 
                        4.75, 
                        3
                    ], 
                    "texture": "#0"
                }
            }
        }, 
        {
            "to": [
                8.58676, 
                9.60576, 
                16.808
            ], 
            "rotation": {
                "origin": [
                    8.53676, 
                    9.56976, 
                    16.698
                ], 
                "angle": -45, 
                "axis": "z"
            }, 
            "from": [
                8.48676, 
                9.50176, 
                16.588
            ], 
            "faces": {
                "north": {
                    "uv": [
                        1, 
                        4.75, 
                        1.5, 
                        6.25
                    ], 
                    "texture": "#0"
                }, 
                "west": {
                    "uv": [
                        1, 
                        4.75, 
                        1.5, 
                        6.25
                    ], 
                    "texture": "#0"
                }, 
                "up": {
                    "rotation": 270, 
                    "uv": [
                        1, 
                        4.75, 
                        1.5, 
                        6.25
                    ], 
                    "texture": "#0"
                }, 
                "down": {
                    "uv": [
                        1, 
                        4.75, 
                        1.5, 
                        6.25
                    ], 
                    "texture": "#0"
                }, 
                "east": {
                    "uv": [
                        1, 
                        4.75, 
                        1.5, 
                        6.25
                    ], 
                    "texture": "#0"
                }, 
                "south": {
                    "uv": [
                        1, 
                        4.75, 
                        1.5, 
                        6.25
                    ], 
                    "texture": "#0"
                }
            }
        }, 
        {
            "to": [
                8.66157, 
                9.59186, 
                12.196
            ], 
            "rotation": {
                "origin": [
                    8.13157, 
                    9.29986, 
                    6.91
                ], 
                "angle": 0, 
                "axis": "y"
            }, 
            "from": [
                7.98557, 
                8.94386, 
                11.336
            ], 
            "faces": {
                "north": {
                    "uv": [
                        14.375, 
                        6.25, 
                        14.375, 
                        6.625
                    ], 
                    "texture": "#0"
                }, 
                "west": {
                    "uv": [
                        14.375, 
                        6.25, 
                        14.375, 
                        6.625
                    ], 
                    "texture": "#0"
                }, 
                "up": {
                    "uv": [
                        14.375, 
                        6.25, 
                        14.375, 
                        6.625
                    ], 
                    "texture": "#0"
                }, 
                "down": {
                    "uv": [
                        14.375, 
                        6.25, 
                        14.375, 
                        6.625
                    ], 
                    "texture": "#0"
                }, 
                "east": {
                    "uv": [
                        14.375, 
                        6.25, 
                        14.375, 
                        6.625
                    ], 
                    "texture": "#0"
                }, 
                "south": {
                    "uv": [
                        14.375, 
                        6.25, 
                        14.375, 
                        6.625
                    ], 
                    "texture": "#0"
                }
            }
        }, 
        {
            "to": [
                8.69357, 
                9.23986, 
                11.728
            ], 
            "rotation": {
                "origin": [
                    8.32357, 
                    9.17186, 
                    11.66
                ], 
                "angle": 45, 
                "axis": "x"
            }, 
            "from": [
                7.95357, 
                9.10386, 
                11.592
            ], 
            "faces": {
                "north": {
                    "uv": [
                        2.375, 
                        2.875, 
                        2.375, 
                        3.25
                    ], 
                    "texture": "#0"
                }, 
                "west": {
                    "uv": [
                        2.375, 
                        2.875, 
                        2.375, 
                        3.25
                    ], 
                    "texture": "#0"
                }, 
                "up": {
                    "uv": [
                        2.375, 
                        2.875, 
                        2.375, 
                        3.25
                    ], 
                    "texture": "#0"
                }, 
                "down": {
                    "uv": [
                        2.375, 
                        2.875, 
                        2.375, 
                        3.25
                    ], 
                    "texture": "#0"
                }, 
                "east": {
                    "uv": [
                        2.375, 
                        2.875, 
                        2.375, 
                        3.25
                    ], 
                    "texture": "#0"
                }, 
                "south": {
                    "uv": [
                        2.375, 
                        2.875, 
                        2.375, 
                        3.25
                    ], 
                    "texture": "#0"
                }
            }
        }, 
        {
            "to": [
                8.39157, 
                7.35186, 
                16.894
            ], 
            "rotation": {
                "origin": [
                    8.32357, 
                    7.28386, 
                    16.716
                ], 
                "angle": -45, 
                "axis": "z"
            }, 
            "from": [
                8.25557, 
                7.21586, 
                16.538
            ], 
            "faces": {
                "north": {
                    "uv": [
                        6.625, 
                        2.25, 
                        6.625, 
                        2.625
                    ], 
                    "texture": "#0"
                }, 
                "west": {
                    "uv": [
                        6.625, 
                        2.25, 
                        6.625, 
                        2.625
                    ], 
                    "texture": "#0"
                }, 
                "up": {
                    "uv": [
                        6.625, 
                        2.25, 
                        6.625, 
                        2.625
                    ], 
                    "texture": "#0"
                }, 
                "down": {
                    "uv": [
                        6.625, 
                        2.25, 
                        6.625, 
                        2.625
                    ], 
                    "texture": "#0"
                }, 
                "east": {
                    "uv": [
                        6.625, 
                        2.25, 
                        6.625, 
                        2.625
                    ], 
                    "texture": "#0"
                }, 
                "south": {
                    "uv": [
                        6.625, 
                        2.25, 
                        6.625, 
                        2.625
                    ], 
                    "texture": "#0"
                }
            }
        }, 
        {
            "to": [
                8.56442, 
                9.39986, 
                16.932
            ], 
            "rotation": {
                "origin": [
                    8.51442, 
                    9.29986, 
                    6.91
                ], 
                "angle": 0, 
                "axis": "y"
            }, 
            "from": [
                8.46442, 
                9.19986, 
                11.88
            ], 
            "faces": {
                "north": {
                    "uv": [
                        2, 
                        3, 
                        2.25, 
                        4
                    ], 
                    "texture": "#0"
                }, 
                "west": {
                    "uv": [
                        2, 
                        3, 
                        2.25, 
                        4
                    ], 
                    "texture": "#0"
                }, 
                "up": {
                    "uv": [
                        2, 
                        3, 
                        2.25, 
                        4
                    ], 
                    "texture": "#0"
                }, 
                "down": {
                    "uv": [
                        2, 
                        3, 
                        2.25, 
                        4
                    ], 
                    "texture": "#0"
                }, 
                "east": {
                    "uv": [
                        2, 
                        3, 
                        2.25, 
                        4
                    ], 
                    "texture": "#0"
                }, 
                "south": {
                    "uv": [
                        2, 
                        3, 
                        2.25, 
                        4
                    ], 
                    "texture": "#0"
                }
            }
        }, 
        {
            "to": [
                8.56442, 
                9.39986, 
                16.932
            ], 
            "rotation": {
                "origin": [
                    8.323, 
                    9.29986, 
                    7.91
                ], 
                "angle": 45, 
                "axis": "z"
            }, 
            "from": [
                8.14442, 
                9.19986, 
                11.88
            ], 
            "faces": {
                "north": {
                    "rotation": 180, 
                    "uv": [
                        2, 
                        3, 
                        2.25, 
                        4
                    ], 
                    "texture": "#0"
                }, 
                "west": {
                    "rotation": 180, 
                    "uv": [
                        2, 
                        3, 
                        2.25, 
                        4
                    ], 
                    "texture": "#0"
                }, 
                "up": {
                    "rotation": 180, 
                    "uv": [
                        2, 
                        3, 
                        2.25, 
                        4
                    ], 
                    "texture": "#0"
                }, 
                "down": {
                    "rotation": 180, 
                    "uv": [
                        2, 
                        3, 
                        2.25, 
                        4
                    ], 
                    "texture": "#0"
                }, 
                "east": {
                    "rotation": 180, 
                    "uv": [
                        2, 
                        3, 
                        2.25, 
                        4
                    ], 
                    "texture": "#0"
                }, 
                "south": {
                    "rotation": 180, 
                    "uv": [
                        2, 
                        3, 
                        2.25, 
                        4
                    ], 
                    "texture": "#0"
                }
            }
        }, 
        {
            "to": [
                8.423, 
                9.54129, 
                16.932
            ], 
            "rotation": {
                "origin": [
                    8.323, 
                    9.29986, 
                    7.91
                ], 
                "angle": 45, 
                "axis": "z"
            }, 
            "from": [
                8.223, 
                9.44129, 
                11.88
            ], 
            "faces": {
                "north": {
                    "rotation": 90, 
                    "uv": [
                        2, 
                        3, 
                        2.25, 
                        4
                    ], 
                    "texture": "#0"
                }, 
                "west": {
                    "rotation": 90, 
                    "uv": [
                        2, 
                        3, 
                        2.25, 
                        4
                    ], 
                    "texture": "#0"
                }, 
                "up": {
                    "rotation": 90, 
                    "uv": [
                        2, 
                        3, 
                        2.25, 
                        4
                    ], 
                    "texture": "#0"
                }, 
                "down": {
                    "rotation": 90, 
                    "uv": [
                        2, 
                        3, 
                        2.25, 
                        4
                    ], 
                    "texture": "#0"
                }, 
                "east": {
                    "rotation": 90, 
                    "uv": [
                        2, 
                        3, 
                        2.25, 
                        4
                    ], 
                    "texture": "#0"
                }, 
                "south": {
                    "rotation": 90, 
                    "uv": [
                        2, 
                        3, 
                        2.25, 
                        4
                    ], 
                    "texture": "#0"
                }
            }
        }, 
        {
            "to": [
                8.423, 
                9.54129, 
                16.932
            ], 
            "rotation": {
                "origin": [
                    8.06442, 
                    9.39986, 
                    -5.84
                ], 
                "angle": 0, 
                "axis": "y"
            }, 
            "from": [
                8.223, 
                9.44129, 
                11.88
            ], 
            "faces": {
                "north": {
                    "rotation": 270, 
                    "uv": [
                        2, 
                        3, 
                        2.25, 
                        4
                    ], 
                    "texture": "#0"
                }, 
                "west": {
                    "rotation": 270, 
                    "uv": [
                        2, 
                        3, 
                        2.25, 
                        4
                    ], 
                    "texture": "#0"
                }, 
                "up": {
                    "rotation": 270, 
                    "uv": [
                        2, 
                        3, 
                        2.25, 
                        4
                    ], 
                    "texture": "#0"
                }, 
                "down": {
                    "rotation": 270, 
                    "uv": [
                        2, 
                        3, 
                        2.25, 
                        4
                    ], 
                    "texture": "#0"
                }, 
                "east": {
                    "rotation": 270, 
                    "uv": [
                        2, 
                        3, 
                        2.25, 
                        4
                    ], 
                    "texture": "#0"
                }, 
                "south": {
                    "rotation": 270, 
                    "uv": [
                        2, 
                        3, 
                        2.25, 
                        4
                    ], 
                    "texture": "#0"
                }
            }
        }, 
        {
            "to": [
                8.423, 
                9.47844, 
                16.932
            ], 
            "rotation": {
                "origin": [
                    8.323, 
                    9.29986, 
                    7.91
                ], 
                "angle": 45, 
                "axis": "z"
            }, 
            "from": [
                8.223, 
                9.05844, 
                11.88
            ], 
            "faces": {
                "north": {
                    "rotation": 90, 
                    "uv": [
                        2, 
                        3, 
                        2.25, 
                        4
                    ], 
                    "texture": "#0"
                }, 
                "west": {
                    "rotation": 90, 
                    "uv": [
                        2, 
                        3, 
                        2.25, 
                        4
                    ], 
                    "texture": "#0"
                }, 
                "up": {
                    "rotation": 90, 
                    "uv": [
                        2, 
                        3, 
                        2.25, 
                        4
                    ], 
                    "texture": "#0"
                }, 
                "down": {
                    "rotation": 90, 
                    "uv": [
                        2, 
                        3, 
                        2.25, 
                        4
                    ], 
                    "texture": "#0"
                }, 
                "east": {
                    "rotation": 90, 
                    "uv": [
                        2, 
                        3, 
                        2.25, 
                        4
                    ], 
                    "texture": "#0"
                }, 
                "south": {
                    "rotation": 90, 
                    "uv": [
                        2, 
                        3, 
                        2.25, 
                        4
                    ], 
                    "texture": "#0"
                }
            }
        }, 
        {
            "to": [
                8.423, 
                9.15844, 
                16.932
            ], 
            "rotation": {
                "origin": [
                    8.06442, 
                    9.01702, 
                    -5.84
                ], 
                "angle": 0, 
                "axis": "y"
            }, 
            "from": [
                8.223, 
                9.05844, 
                11.88
            ], 
            "faces": {
                "north": {
                    "rotation": 270, 
                    "uv": [
                        2, 
                        3, 
                        2.25, 
                        4
                    ], 
                    "texture": "#0"
                }, 
                "west": {
                    "rotation": 270, 
                    "uv": [
                        2, 
                        3, 
                        2.25, 
                        4
                    ], 
                    "texture": "#0"
                }, 
                "up": {
                    "rotation": 270, 
                    "uv": [
                        2, 
                        3, 
                        2.25, 
                        4
                    ], 
                    "texture": "#0"
                }, 
                "down": {
                    "rotation": 270, 
                    "uv": [
                        2, 
                        3, 
                        2.25, 
                        4
                    ], 
                    "texture": "#0"
                }, 
                "east": {
                    "rotation": 270, 
                    "uv": [
                        2, 
                        3, 
                        2.25, 
                        4
                    ], 
                    "texture": "#0"
                }, 
                "south": {
                    "rotation": 270, 
                    "uv": [
                        2, 
                        3, 
                        2.25, 
                        4
                    ], 
                    "texture": "#0"
                }
            }
        }, 
        {
            "to": [
                8.18157, 
                9.39986, 
                16.932
            ], 
            "rotation": {
                "origin": [
                    8.323, 
                    9.29986, 
                    7.91
                ], 
                "angle": 45, 
                "axis": "z"
            }, 
            "from": [
                8.08157, 
                9.19986, 
                11.88
            ], 
            "faces": {
                "north": {
                    "rotation": 180, 
                    "uv": [
                        2, 
                        3, 
                        2.25, 
                        4
                    ], 
                    "texture": "#0"
                }, 
                "west": {
                    "rotation": 180, 
                    "uv": [
                        2, 
                        3, 
                        2.25, 
                        4
                    ], 
                    "texture": "#0"
                }, 
                "up": {
                    "rotation": 180, 
                    "uv": [
                        2, 
                        3, 
                        2.25, 
                        4
                    ], 
                    "texture": "#0"
                }, 
                "down": {
                    "rotation": 180, 
                    "uv": [
                        2, 
                        3, 
                        2.25, 
                        4
                    ], 
                    "texture": "#0"
                }, 
                "east": {
                    "rotation": 180, 
                    "uv": [
                        2, 
                        3, 
                        2.25, 
                        4
                    ], 
                    "texture": "#0"
                }, 
                "south": {
                    "rotation": 180, 
                    "uv": [
                        2, 
                        3, 
                        2.25, 
                        4
                    ], 
                    "texture": "#0"
                }
            }
        }
    ], 
    "display": {
        "thirdperson_righthand": {
            "translation": [
                -1.25, 
                -1.25, 
                -3.75
            ], 
            "scale": [
                1.7, 
                1.7, 
                1.7
            ]
        }, 
        "head": {
            "rotation": [
                0, 
                -139, 
                90
            ], 
            "scale": [
                1.36, 
                1.36, 
                1.36
            ], 
            "translation": [
                0.75, 
                6.5, 
                0.5
            ]
        }, 
        "thirdperson_lefthand": {
            "translation": [
                0, 
                -1.25, 
                -3.75
            ], 
            "scale": [
                1.7, 
                1.7, 
                1.7
            ]
        }, 
        "gui": {
            "rotation": [
                11, 
                16, 
                -16
            ], 
            "scale": [
                2.2, 
                2.24, 
                2.83
            ], 
            "translation": [
                -2, 
                0, 
                0
            ]
        }, 
        "firstperson_righthand": {
            "rotation": [
                1, 
                1, 
                0
            ], 
            "scale": [
                1.19, 
                1.14, 
                0.87
            ], 
            "translation": [
                -5.25, 
                5, 
                4
            ]
        }, 
        "firstperson_lefthand": {
            "rotation": [
                1, 
                1, 
                0
            ], 
            "scale": [
                1.19, 
                1.14, 
                0.87
            ], 
            "translation": [
                -5.25, 
                5, 
                4
            ]
        }, 
        "fixed": {
            "rotation": [
                90, 
                45, 
                -90
            ], 
            "scale": [
                1.7, 
                1.7, 
                1.7
            ], 
            "translation": [
                -4.75, 
                2.75, 
                -1.75
            ]
        }, 
        "ground": {
            "translation": [
                0, 
                0, 
                -2.75
            ], 
            "scale": [
                1.7, 
                1.7, 
                1.7
            ]
        }
    }
}