{
    "textures": {
        "0": "gci:items/common/mpz",
        "particle": "gci:items/common/mpz"
    },
    "elements": [
        {
            "from": [
                1.67744,
                4.30187,
                7.21
            ],
            "to": [
                2.16744,
                4.52187,
                8.76
            ],
            "rotation": {
                "angle": 0,
                "axis": "y",
                "origin": [
                    3.62744,
                    4.91187,
                    8.72
                ]
            },
            "faces": {
                "north": {
                    "uv": [
                        3.26667,
                        11.06667,
                        4.66667,
                        12.36667
                    ],
                    "rotation": 270,
                    "texture": "#0"
                },
                "east": {
                    "uv": [
                        3.26667,
                        11.06667,
                        4.66667,
                        12.36667
                    ],
                    "rotation": 270,
                    "texture": "#0"
                },
                "south": {
                    "uv": [
                        3.26667,
                        11.06667,
                        4.66667,
                        12.36667
                    ],
                    "rotation": 270,
                    "texture": "#0"
                },
                "west": {
                    "uv": [
                        3.26667,
                        11.06667,
                        4.66667,
                        12.36667
                    ],
                    "rotation": 270,
                    "texture": "#0"
                },
                "up": {
                    "uv": [
                        3.26667,
                        11.06667,
                        4.66667,
                        12.36667
                    ],
                    "rotation": 270,
                    "texture": "#0"
                },
                "down": {
                    "uv": [
                        3.26667,
                        11.06667,
                        4.66667,
                        12.36667
                    ],
                    "rotation": 270,
                    "texture": "#0"
                }
            }
        },
        {
            "from": [
                1.67744,
                4.30187,
                7.21
            ],
            "to": [
                2.16744,
                4.52187,
                8.76
            ],
            "rotation": {
                "angle": 0,
                "axis": "y",
                "origin": [
                    3.62744,
                    4.91187,
                    8.72
                ]
            },
            "faces": {
                "north": {
                    "uv": [
                        3.26667,
                        11.06667,
                        4.66667,
                        12.36667
                    ],
                    "rotation": 270,
                    "texture": "#0"
                },
                "east": {
                    "uv": [
                        3.26667,
                        11.06667,
                        4.66667,
                        12.36667
                    ],
                    "rotation": 270,
                    "texture": "#0"
                },
                "south": {
                    "uv": [
                        3.26667,
                        11.06667,
                        4.66667,
                        12.36667
                    ],
                    "rotation": 270,
                    "texture": "#0"
                },
                "west": {
                    "uv": [
                        3.26667,
                        11.06667,
                        4.66667,
                        12.36667
                    ],
                    "rotation": 270,
                    "texture": "#0"
                },
                "up": {
                    "uv": [
                        3.26667,
                        11.06667,
                        4.66667,
                        12.36667
                    ],
                    "rotation": 270,
                    "texture": "#0"
                },
                "down": {
                    "uv": [
                        3.26667,
                        11.06667,
                        4.66667,
                        12.36667
                    ],
                    "rotation": 270,
                    "texture": "#0"
                }
            }
        },
        {
            "from": [
                1.6724,
                4.30187,
                7.91
            ],
            "to": [
                2.1724,
                4.45187,
                8.06
            ],
            "rotation": {
                "angle": 0,
                "axis": "y",
                "origin": [
                    3.62744,
                    4.91187,
                    8.72
                ]
            },
            "faces": {
                "north": {
                    "uv": [
                        8.6,
                        0.73333,
                        10,
                        2.03333
                    ],
                    "rotation": 270,
                    "texture": "#0"
                },
                "east": {
                    "uv": [
                        8.6,
                        0.73333,
                        10,
                        2.03333
                    ],
                    "rotation": 270,
                    "texture": "#0"
                },
                "south": {
                    "uv": [
                        8.6,
                        0.73333,
                        10,
                        2.03333
                    ],
                    "rotation": 270,
                    "texture": "#0"
                },
                "west": {
                    "uv": [
                        8.6,
                        0.73333,
                        10,
                        2.03333
                    ],
                    "rotation": 270,
                    "texture": "#0"
                },
                "up": {
                    "uv": [
                        8.6,
                        0.73333,
                        10,
                        2.03333
                    ],
                    "rotation": 270,
                    "texture": "#0"
                },
                "down": {
                    "uv": [
                        8.6,
                        0.73333,
                        10,
                        2.03333
                    ],
                    "rotation": 270,
                    "texture": "#0"
                }
            }
        },
        {
            "from": [
                1.6724,
                4.30187,
                8.51
            ],
            "to": [
                2.1724,
                4.45187,
                8.66
            ],
            "rotation": {
                "angle": 0,
                "axis": "y",
                "origin": [
                    3.62744,
                    4.91187,
                    8.72
                ]
            },
            "faces": {
                "north": {
                    "uv": [
                        8.6,
                        0.73333,
                        10,
                        2.03333
                    ],
                    "rotation": 270,
                    "texture": "#0"
                },
                "east": {
                    "uv": [
                        8.6,
                        0.73333,
                        10,
                        2.03333
                    ],
                    "rotation": 270,
                    "texture": "#0"
                },
                "south": {
                    "uv": [
                        8.6,
                        0.73333,
                        10,
                        2.03333
                    ],
                    "rotation": 270,
                    "texture": "#0"
                },
                "west": {
                    "uv": [
                        8.6,
                        0.73333,
                        10,
                        2.03333
                    ],
                    "rotation": 270,
                    "texture": "#0"
                },
                "up": {
                    "uv": [
                        8.6,
                        0.73333,
                        10,
                        2.03333
                    ],
                    "rotation": 270,
                    "texture": "#0"
                },
                "down": {
                    "uv": [
                        8.6,
                        0.73333,
                        10,
                        2.03333
                    ],
                    "rotation": 270,
                    "texture": "#0"
                }
            }
        },
        {
            "from": [
                1.67744,
                3.44723,
                7.58005
            ],
            "to": [
                2.16744,
                4.41723,
                9.13005
            ],
            "rotation": {
                "angle": 22.5,
                "axis": "x",
                "origin": [
                    1.92242,
                    5.28973,
                    8.65505
                ]
            },
            "faces": {
                "north": {
                    "uv": [
                        3.26667,
                        11.06667,
                        4.66667,
                        12.36667
                    ],
                    "rotation": 270,
                    "texture": "#0"
                },
                "east": {
                    "uv": [
                        3.26667,
                        11.06667,
                        4.66667,
                        12.36667
                    ],
                    "rotation": 270,
                    "texture": "#0"
                },
                "south": {
                    "uv": [
                        3.26667,
                        11.06667,
                        4.66667,
                        12.36667
                    ],
                    "rotation": 270,
                    "texture": "#0"
                },
                "west": {
                    "uv": [
                        3.26667,
                        11.06667,
                        4.66667,
                        12.36667
                    ],
                    "rotation": 270,
                    "texture": "#0"
                },
                "up": {
                    "uv": [
                        3.26667,
                        11.06667,
                        4.66667,
                        12.36667
                    ],
                    "rotation": 270,
                    "texture": "#0"
                },
                "down": {
                    "uv": [
                        3.26667,
                        11.06667,
                        4.66667,
                        12.36667
                    ],
                    "rotation": 270,
                    "texture": "#0"
                }
            }
        },
        {
            "from": [
                1.6724,
                3.62551,
                8.59797
            ],
            "to": [
                2.1724,
                4.07551,
                8.74797
            ],
            "rotation": {
                "angle": 22.5,
                "axis": "x",
                "origin": [
                    1.92242,
                    5.91801,
                    8.97297
                ]
            },
            "faces": {
                "north": {
                    "uv": [
                        8.6,
                        0.73333,
                        10,
                        2.03333
                    ],
                    "rotation": 270,
                    "texture": "#0"
                },
                "east": {
                    "uv": [
                        8.6,
                        0.73333,
                        10,
                        2.03333
                    ],
                    "rotation": 270,
                    "texture": "#0"
                },
                "south": {
                    "uv": [
                        8.6,
                        0.73333,
                        10,
                        2.03333
                    ],
                    "rotation": 270,
                    "texture": "#0"
                },
                "west": {
                    "uv": [
                        8.6,
                        0.73333,
                        10,
                        2.03333
                    ],
                    "rotation": 270,
                    "texture": "#0"
                },
                "up": {
                    "uv": [
                        8.6,
                        0.73333,
                        10,
                        2.03333
                    ],
                    "rotation": 270,
                    "texture": "#0"
                },
                "down": {
                    "uv": [
                        8.6,
                        0.73333,
                        10,
                        2.03333
                    ],
                    "rotation": 270,
                    "texture": "#0"
                }
            }
        },
        {
            "from": [
                1.6724,
                3.70506,
                7.30066
            ],
            "to": [
                2.1724,
                3.85506,
                7.90066
            ],
            "rotation": {
                "angle": -45,
                "axis": "x",
                "origin": [
                    1.9224,
                    3.78006,
                    7.67566
                ]
            },
            "faces": {
                "north": {
                    "uv": [
                        8.6,
                        0.73333,
                        10,
                        2.03333
                    ],
                    "rotation": 90,
                    "texture": "#0"
                },
                "east": {
                    "uv": [
                        8.6,
                        0.73333,
                        10,
                        2.03333
                    ],
                    "rotation": 180,
                    "texture": "#0"
                },
                "south": {
                    "uv": [
                        8.6,
                        0.73333,
                        10,
                        2.03333
                    ],
                    "rotation": 270,
                    "texture": "#0"
                },
                "west": {
                    "uv": [
                        8.6,
                        0.73333,
                        10,
                        2.03333
                    ],
                    "texture": "#0"
                },
                "up": {
                    "uv": [
                        8.6,
                        0.73333,
                        10,
                        2.03333
                    ],
                    "rotation": 90,
                    "texture": "#0"
                },
                "down": {
                    "uv": [
                        8.6,
                        0.73333,
                        10,
                        2.03333
                    ],
                    "rotation": 270,
                    "texture": "#0"
                }
            }
        },
        {
            "from": [
                1.6724,
                3.37005,
                6.70195
            ],
            "to": [
                2.1724,
                3.52005,
                7.45195
            ],
            "rotation": {
                "angle": -22.5,
                "axis": "x",
                "origin": [
                    1.9224,
                    3.44505,
                    7.22695
                ]
            },
            "faces": {
                "north": {
                    "uv": [
                        8.6,
                        0.73333,
                        10,
                        2.03333
                    ],
                    "rotation": 90,
                    "texture": "#0"
                },
                "east": {
                    "uv": [
                        8.6,
                        0.73333,
                        10,
                        2.03333
                    ],
                    "rotation": 180,
                    "texture": "#0"
                },
                "south": {
                    "uv": [
                        8.6,
                        0.73333,
                        10,
                        2.03333
                    ],
                    "rotation": 270,
                    "texture": "#0"
                },
                "west": {
                    "uv": [
                        8.6,
                        0.73333,
                        10,
                        2.03333
                    ],
                    "texture": "#0"
                },
                "up": {
                    "uv": [
                        8.6,
                        0.73333,
                        10,
                        2.03333
                    ],
                    "rotation": 90,
                    "texture": "#0"
                },
                "down": {
                    "uv": [
                        8.6,
                        0.73333,
                        10,
                        2.03333
                    ],
                    "rotation": 270,
                    "texture": "#0"
                }
            }
        },
        {
            "from": [
                1.6724,
                3.47363,
                8.89922
            ],
            "to": [
                2.1724,
                4.37363,
                9.04922
            ],
            "rotation": {
                "angle": 22.5,
                "axis": "x",
                "origin": [
                    1.92242,
                    5.31613,
                    8.67422
                ]
            },
            "faces": {
                "north": {
                    "uv": [
                        8.6,
                        0.73333,
                        10,
                        2.03333
                    ],
                    "rotation": 270,
                    "texture": "#0"
                },
                "east": {
                    "uv": [
                        8.6,
                        0.73333,
                        10,
                        2.03333
                    ],
                    "rotation": 270,
                    "texture": "#0"
                },
                "south": {
                    "uv": [
                        8.6,
                        0.73333,
                        10,
                        2.03333
                    ],
                    "rotation": 270,
                    "texture": "#0"
                },
                "west": {
                    "uv": [
                        8.6,
                        0.73333,
                        10,
                        2.03333
                    ],
                    "rotation": 270,
                    "texture": "#0"
                },
                "up": {
                    "uv": [
                        8.6,
                        0.73333,
                        10,
                        2.03333
                    ],
                    "rotation": 270,
                    "texture": "#0"
                },
                "down": {
                    "uv": [
                        8.6,
                        0.73333,
                        10,
                        2.03333
                    ],
                    "rotation": 270,
                    "texture": "#0"
                }
            }
        },
        {
            "from": [
                1.6724,
                2.12015,
                10.00253
            ],
            "to": [
                2.1724,
                3.02015,
                10.15253
            ],
            "rotation": {
                "angle": 45,
                "axis": "x",
                "origin": [
                    1.92242,
                    5.46265,
                    9.77753
                ]
            },
            "faces": {
                "north": {
                    "uv": [
                        8.6,
                        0.73333,
                        10,
                        2.03333
                    ],
                    "rotation": 270,
                    "texture": "#0"
                },
                "east": {
                    "uv": [
                        8.6,
                        0.73333,
                        10,
                        2.03333
                    ],
                    "rotation": 270,
                    "texture": "#0"
                },
                "south": {
                    "uv": [
                        8.6,
                        0.73333,
                        10,
                        2.03333
                    ],
                    "rotation": 270,
                    "texture": "#0"
                },
                "west": {
                    "uv": [
                        8.6,
                        0.73333,
                        10,
                        2.03333
                    ],
                    "rotation": 270,
                    "texture": "#0"
                },
                "up": {
                    "uv": [
                        8.6,
                        0.73333,
                        10,
                        2.03333
                    ],
                    "rotation": 270,
                    "texture": "#0"
                },
                "down": {
                    "uv": [
                        8.6,
                        0.73333,
                        10,
                        2.03333
                    ],
                    "rotation": 270,
                    "texture": "#0"
                }
            }
        },
        {
            "from": [
                1.6724,
                3.74014,
                6.34976
            ],
            "to": [
                2.1724,
                3.89014,
                7.34976
            ],
            "rotation": {
                "angle": -22.5,
                "axis": "x",
                "origin": [
                    1.92242,
                    4.11514,
                    9.79226
                ]
            },
            "faces": {
                "north": {
                    "uv": [
                        8.6,
                        0.73333,
                        10,
                        2.03333
                    ],
                    "rotation": 90,
                    "texture": "#0"
                },
                "east": {
                    "uv": [
                        8.6,
                        0.73333,
                        10,
                        2.03333
                    ],
                    "rotation": 180,
                    "texture": "#0"
                },
                "south": {
                    "uv": [
                        8.6,
                        0.73333,
                        10,
                        2.03333
                    ],
                    "rotation": 270,
                    "texture": "#0"
                },
                "west": {
                    "uv": [
                        8.6,
                        0.73333,
                        10,
                        2.03333
                    ],
                    "texture": "#0"
                },
                "up": {
                    "uv": [
                        8.6,
                        0.73333,
                        10,
                        2.03333
                    ],
                    "rotation": 90,
                    "texture": "#0"
                },
                "down": {
                    "uv": [
                        8.6,
                        0.73333,
                        10,
                        2.03333
                    ],
                    "rotation": 270,
                    "texture": "#0"
                }
            }
        },
        {
            "from": [
                1.67744,
                1.7838,
                9.36264
            ],
            "to": [
                2.16744,
                2.7538,
                10.91264
            ],
            "rotation": {
                "angle": 45,
                "axis": "x",
                "origin": [
                    1.92242,
                    6.1263,
                    10.43764
                ]
            },
            "faces": {
                "north": {
                    "uv": [
                        3.26667,
                        11.06667,
                        4.66667,
                        12.36667
                    ],
                    "rotation": 270,
                    "texture": "#0"
                },
                "east": {
                    "uv": [
                        3.26667,
                        11.06667,
                        4.66667,
                        12.36667
                    ],
                    "rotation": 270,
                    "texture": "#0"
                },
                "south": {
                    "uv": [
                        3.26667,
                        11.06667,
                        4.66667,
                        12.36667
                    ],
                    "rotation": 270,
                    "texture": "#0"
                },
                "west": {
                    "uv": [
                        3.26667,
                        11.06667,
                        4.66667,
                        12.36667
                    ],
                    "rotation": 270,
                    "texture": "#0"
                },
                "up": {
                    "uv": [
                        3.26667,
                        11.06667,
                        4.66667,
                        12.36667
                    ],
                    "rotation": 270,
                    "texture": "#0"
                },
                "down": {
                    "uv": [
                        3.26667,
                        11.06667,
                        4.66667,
                        12.36667
                    ],
                    "rotation": 270,
                    "texture": "#0"
                }
            }
        },
        {
            "from": [
                1.67744,
                4.35694,
                6.21829
            ],
            "to": [
                2.16744,
                5.90694,
                7.18829
            ],
            "rotation": {
                "angle": -22.5,
                "axis": "x",
                "origin": [
                    1.92242,
                    4.83194,
                    11.56079
                ]
            },
            "faces": {
                "north": {
                    "uv": [
                        3.26667,
                        11.06667,
                        4.66667,
                        12.36667
                    ],
                    "rotation": 90,
                    "texture": "#0"
                },
                "east": {
                    "uv": [
                        3.26667,
                        11.06667,
                        4.66667,
                        12.36667
                    ],
                    "rotation": 180,
                    "texture": "#0"
                },
                "south": {
                    "uv": [
                        3.26667,
                        11.06667,
                        4.66667,
                        12.36667
                    ],
                    "rotation": 270,
                    "texture": "#0"
                },
                "west": {
                    "uv": [
                        3.26667,
                        11.06667,
                        4.66667,
                        12.36667
                    ],
                    "texture": "#0"
                },
                "up": {
                    "uv": [
                        3.26667,
                        11.06667,
                        4.66667,
                        12.36667
                    ],
                    "rotation": 90,
                    "texture": "#0"
                },
                "down": {
                    "uv": [
                        3.26667,
                        11.06667,
                        4.66667,
                        12.36667
                    ],
                    "rotation": 270,
                    "texture": "#0"
                }
            }
        },
        {
            "from": [
                1.67744,
                2.34861,
                5.83674
            ],
            "to": [
                2.16744,
                3.89861,
                6.80674
            ],
            "rotation": {
                "angle": 0,
                "axis": "x",
                "origin": [
                    1.92244,
                    3.12361,
                    8.44674
                ]
            },
            "faces": {
                "north": {
                    "uv": [
                        3.26667,
                        11.06667,
                        4.66667,
                        12.36667
                    ],
                    "rotation": 90,
                    "texture": "#0"
                },
                "east": {
                    "uv": [
                        3.26667,
                        11.06667,
                        4.66667,
                        12.36667
                    ],
                    "rotation": 180,
                    "texture": "#0"
                },
                "south": {
                    "uv": [
                        3.26667,
                        11.06667,
                        4.66667,
                        12.36667
                    ],
                    "rotation": 270,
                    "texture": "#0"
                },
                "west": {
                    "uv": [
                        3.26667,
                        11.06667,
                        4.66667,
                        12.36667
                    ],
                    "texture": "#0"
                },
                "up": {
                    "uv": [
                        3.26667,
                        11.06667,
                        4.66667,
                        12.36667
                    ],
                    "rotation": 90,
                    "texture": "#0"
                },
                "down": {
                    "uv": [
                        3.26667,
                        11.06667,
                        4.66667,
                        12.36667
                    ],
                    "rotation": 270,
                    "texture": "#0"
                }
            }
        },
        {
            "from": [
                1.67744,
                1.01187,
                5.30698
            ],
            "to": [
                2.16744,
                2.56187,
                6.27698
            ],
            "rotation": {
                "angle": 22.5,
                "axis": "x",
                "origin": [
                    1.92244,
                    2.78687,
                    9.41698
                ]
            },
            "faces": {
                "north": {
                    "uv": [
                        3.26667,
                        11.06667,
                        4.66667,
                        12.36667
                    ],
                    "rotation": 90,
                    "texture": "#0"
                },
                "east": {
                    "uv": [
                        3.26667,
                        11.06667,
                        4.66667,
                        12.36667
                    ],
                    "rotation": 180,
                    "texture": "#0"
                },
                "south": {
                    "uv": [
                        3.26667,
                        11.06667,
                        4.66667,
                        12.36667
                    ],
                    "rotation": 270,
                    "texture": "#0"
                },
                "west": {
                    "uv": [
                        3.26667,
                        11.06667,
                        4.66667,
                        12.36667
                    ],
                    "texture": "#0"
                },
                "up": {
                    "uv": [
                        3.26667,
                        11.06667,
                        4.66667,
                        12.36667
                    ],
                    "rotation": 90,
                    "texture": "#0"
                },
                "down": {
                    "uv": [
                        3.26667,
                        11.06667,
                        4.66667,
                        12.36667
                    ],
                    "rotation": 270,
                    "texture": "#0"
                }
            }
        },
        {
            "from": [
                1.67744,
                2.83577,
                4.76064
            ],
            "to": [
                2.16744,
                4.38577,
                5.63064
            ],
            "rotation": {
                "angle": 45,
                "axis": "x",
                "origin": [
                    1.92244,
                    3.61077,
                    5.14564
                ]
            },
            "faces": {
                "north": {
                    "uv": [
                        3.26667,
                        11.06667,
                        4.66667,
                        12.36667
                    ],
                    "rotation": 90,
                    "texture": "#0"
                },
                "east": {
                    "uv": [
                        3.26667,
                        11.06667,
                        4.66667,
                        12.36667
                    ],
                    "rotation": 180,
                    "texture": "#0"
                },
                "south": {
                    "uv": [
                        3.26667,
                        11.06667,
                        4.66667,
                        12.36667
                    ],
                    "rotation": 270,
                    "texture": "#0"
                },
                "west": {
                    "uv": [
                        3.26667,
                        11.06667,
                        4.66667,
                        12.36667
                    ],
                    "texture": "#0"
                },
                "up": {
                    "uv": [
                        3.26667,
                        11.06667,
                        4.66667,
                        12.36667
                    ],
                    "rotation": 90,
                    "texture": "#0"
                },
                "down": {
                    "uv": [
                        3.26667,
                        11.06667,
                        4.66667,
                        12.36667
                    ],
                    "rotation": 270,
                    "texture": "#0"
                }
            }
        },
        {
            "from": [
                1.67744,
                3.59466,
                4.0808
            ],
            "to": [
                2.16744,
                4.16466,
                5.6308
            ],
            "rotation": {
                "angle": -22.5,
                "axis": "x",
                "origin": [
                    1.92244,
                    4.07966,
                    4.8558
                ]
            },
            "faces": {
                "north": {
                    "uv": [
                        3.26667,
                        11.06667,
                        4.66667,
                        12.36667
                    ],
                    "rotation": 90,
                    "texture": "#0"
                },
                "east": {
                    "uv": [
                        3.26667,
                        11.06667,
                        4.66667,
                        12.36667
                    ],
                    "rotation": 90,
                    "texture": "#0"
                },
                "south": {
                    "uv": [
                        3.26667,
                        11.06667,
                        4.66667,
                        12.36667
                    ],
                    "rotation": 90,
                    "texture": "#0"
                },
                "west": {
                    "uv": [
                        3.26667,
                        11.06667,
                        4.66667,
                        12.36667
                    ],
                    "rotation": 90,
                    "texture": "#0"
                },
                "up": {
                    "uv": [
                        3.26667,
                        11.06667,
                        4.66667,
                        12.36667
                    ],
                    "rotation": 270,
                    "texture": "#0"
                },
                "down": {
                    "uv": [
                        3.26667,
                        11.06667,
                        4.66667,
                        12.36667
                    ],
                    "rotation": 270,
                    "texture": "#0"
                }
            }
        },
        {
            "from": [
                1.67744,
                3.86161,
                4.10726
            ],
            "to": [
                2.16744,
                4.43161,
                5.65726
            ],
            "rotation": {
                "angle": 0,
                "axis": "x",
                "origin": [
                    1.92244,
                    4.34661,
                    4.88226
                ]
            },
            "faces": {
                "north": {
                    "uv": [
                        3.26667,
                        11.06667,
                        4.66667,
                        12.36667
                    ],
                    "rotation": 90,
                    "texture": "#0"
                },
                "east": {
                    "uv": [
                        3.26667,
                        11.06667,
                        4.66667,
                        12.36667
                    ],
                    "rotation": 90,
                    "texture": "#0"
                },
                "south": {
                    "uv": [
                        3.26667,
                        11.06667,
                        4.66667,
                        12.36667
                    ],
                    "rotation": 90,
                    "texture": "#0"
                },
                "west": {
                    "uv": [
                        3.26667,
                        11.06667,
                        4.66667,
                        12.36667
                    ],
                    "rotation": 90,
                    "texture": "#0"
                },
                "up": {
                    "uv": [
                        3.26667,
                        11.06667,
                        4.66667,
                        12.36667
                    ],
                    "rotation": 270,
                    "texture": "#0"
                },
                "down": {
                    "uv": [
                        3.26667,
                        11.06667,
                        4.66667,
                        12.36667
                    ],
                    "rotation": 270,
                    "texture": "#0"
                }
            }
        },
        {
            "from": [
                1.57744,
                4.36161,
                4.00726
            ],
            "to": [
                2.26744,
                4.53161,
                5.66726
            ],
            "rotation": {
                "angle": 0,
                "axis": "x",
                "origin": [
                    1.92244,
                    4.34661,
                    4.88226
                ]
            },
            "faces": {
                "north": {
                    "uv": [
                        5.93333,
                        11.4,
                        7.33333,
                        12.7
                    ],
                    "rotation": 90,
                    "texture": "#0"
                },
                "east": {
                    "uv": [
                        5.93333,
                        11.4,
                        7.33333,
                        12.7
                    ],
                    "rotation": 90,
                    "texture": "#0"
                },
                "south": {
                    "uv": [
                        5.93333,
                        11.4,
                        7.33333,
                        12.7
                    ],
                    "rotation": 90,
                    "texture": "#0"
                },
                "west": {
                    "uv": [
                        5.93333,
                        11.4,
                        7.33333,
                        12.7
                    ],
                    "rotation": 90,
                    "texture": "#0"
                },
                "up": {
                    "uv": [
                        5.93333,
                        11.4,
                        7.33333,
                        12.7
                    ],
                    "rotation": 270,
                    "texture": "#0"
                },
                "down": {
                    "uv": [
                        5.93333,
                        11.4,
                        7.33333,
                        12.7
                    ],
                    "rotation": 270,
                    "texture": "#0"
                }
            }
        }
    ],
    "display": {
        "thirdperson_righthand": {
            "translation": [
                9.25,
                4.25,
                -1.25
            ],
            "scale": [
                1.5,
                1.2,
                1.2
            ]
        },
        "thirdperson_lefthand": {
            "translation": [
                -9,
                4.25,
                -1.25
            ],
            "scale": [
                1.5,
                1.2,
                1.2
            ]
        },
        "firstperson_righthand": {
            "translation": [
                4,
                9,
                5
            ],
            "scale": [
                1.5,
                1.2,
                1.2
            ]
        },
        "firstperson_lefthand": {
            "translation": [
                -13.75,
                9,
                5
            ],
            "scale": [
                1.5,
                1.2,
                1.2
            ]
        },
        "ground": {
            "translation": [
                9.5,
                4.75,
                0
            ],
            "scale": [
                1.5,
                1.2,
                1.2
            ]
        },
        "gui": {
            "rotation": [
                90,
                54,
                -90
            ],
            "translation": [
                3,
                2.75,
                0
            ]
        },
        "head": {
            "translation": [
                4.25,
                12.5,
                0
            ]
        },
        "fixed": {
            "rotation": [
                90,
                45,
                -90
            ],
            "translation": [
                3.5,
                2,
                -10
            ],
            "scale": [
                1.5,
                1.2,
                1.2
            ]
        }
    }
}