{
    "textures": {
        "0": "gci:items/common/all_in_one",
        "particle": "gci:items/common/all_in_one"
    },
    "elements": [
        {
            "from": [
                8.11801,
                3.4684,
                -8.306
            ],
            "to": [
                8.24201,
                3.8404,
                -7.562
            ],
            "rotation": {
                "angle": 45,
                "axis": "z",
                "origin": [
                    7.46098,
                    3.73412,
                    -17.72151
                ]
            },
            "faces": {
                "north": {
                    "uv": [
                        14.375,
                        6.75,
                        14.625,
                        6.825
                    ],
                    "rotation": 180,
                    "texture": "#0"
                },
                "east": {
                    "uv": [
                        14.375,
                        6.75,
                        14.625,
                        6.825
                    ],
                    "rotation": 180,
                    "texture": "#0"
                },
                "south": {
                    "uv": [
                        14.375,
                        6.75,
                        14.625,
                        6.825
                    ],
                    "rotation": 180,
                    "texture": "#0"
                },
                "west": {
                    "uv": [
                        14.375,
                        6.75,
                        14.625,
                        6.825
                    ],
                    "rotation": 180,
                    "texture": "#0"
                },
                "up": {
                    "uv": [
                        14.375,
                        6.75,
                        14.625,
                        6.825
                    ],
                    "rotation": 180,
                    "texture": "#0"
                },
                "down": {
                    "uv": [
                        14.375,
                        6.75,
                        14.625,
                        6.825
                    ],
                    "rotation": 180,
                    "texture": "#0"
                }
            }
        },
        {
            "from": [
                7.85795,
                4.50371,
                -8.306
            ],
            "to": [
                8.22995,
                4.62771,
                -7.562
            ],
            "rotation": {
                "angle": 45,
                "axis": "z",
                "origin": [
                    7.98195,
                    4.56571,
                    -23.62
                ]
            },
            "faces": {
                "north": {
                    "uv": [
                        14.375,
                        6.75,
                        14.625,
                        6.825
                    ],
                    "rotation": 90,
                    "texture": "#0"
                },
                "east": {
                    "uv": [
                        14.375,
                        6.75,
                        14.625,
                        6.825
                    ],
                    "rotation": 90,
                    "texture": "#0"
                },
                "south": {
                    "uv": [
                        14.375,
                        6.75,
                        14.625,
                        6.825
                    ],
                    "rotation": 90,
                    "texture": "#0"
                },
                "west": {
                    "uv": [
                        14.375,
                        6.75,
                        14.625,
                        6.825
                    ],
                    "rotation": 90,
                    "texture": "#0"
                },
                "up": {
                    "uv": [
                        14.375,
                        6.75,
                        14.625,
                        6.825
                    ],
                    "rotation": 90,
                    "texture": "#0"
                },
                "down": {
                    "uv": [
                        14.375,
                        6.75,
                        14.625,
                        6.825
                    ],
                    "rotation": 90,
                    "texture": "#0"
                }
            }
        },
        {
            "from": [
                8.35395,
                4.08034,
                -8.306
            ],
            "to": [
                8.72595,
                4.20434,
                -7.562
            ],
            "rotation": {
                "angle": 45,
                "axis": "z",
                "origin": [
                    8.47795,
                    4.14234,
                    -23.62
                ]
            },
            "faces": {
                "north": {
                    "uv": [
                        14.375,
                        6.75,
                        14.625,
                        6.825
                    ],
                    "rotation": 90,
                    "texture": "#0"
                },
                "east": {
                    "uv": [
                        14.375,
                        6.75,
                        14.625,
                        6.825
                    ],
                    "rotation": 90,
                    "texture": "#0"
                },
                "south": {
                    "uv": [
                        14.375,
                        6.75,
                        14.625,
                        6.825
                    ],
                    "rotation": 90,
                    "texture": "#0"
                },
                "west": {
                    "uv": [
                        14.375,
                        6.75,
                        14.625,
                        6.825
                    ],
                    "rotation": 90,
                    "texture": "#0"
                },
                "up": {
                    "uv": [
                        14.375,
                        6.75,
                        14.625,
                        6.825
                    ],
                    "rotation": 90,
                    "texture": "#0"
                },
                "down": {
                    "uv": [
                        14.375,
                        6.75,
                        14.625,
                        6.825
                    ],
                    "rotation": 90,
                    "texture": "#0"
                }
            }
        },
        {
            "from": [
                7.78853,
                4.18602,
                -7.97819
            ],
            "to": [
                7.98853,
                4.58602,
                -0.53419
            ],
            "rotation": {
                "angle": 22.5,
                "axis": "x",
                "origin": [
                    8.29241,
                    4.38602,
                    -8.1745
                ]
            },
            "faces": {
                "north": {
                    "uv": [
                        14.375,
                        6.75,
                        14.625,
                        6.825
                    ],
                    "rotation": 270,
                    "texture": "#0"
                },
                "east": {
                    "uv": [
                        14.375,
                        6.75,
                        14.625,
                        6.825
                    ],
                    "rotation": 180,
                    "texture": "#0"
                },
                "south": {
                    "uv": [
                        14.375,
                        6.75,
                        14.625,
                        6.825
                    ],
                    "rotation": 90,
                    "texture": "#0"
                },
                "west": {
                    "uv": [
                        14.375,
                        6.75,
                        14.625,
                        6.825
                    ],
                    "texture": "#0"
                },
                "up": {
                    "uv": [
                        14.375,
                        6.75,
                        14.625,
                        6.825
                    ],
                    "rotation": 90,
                    "texture": "#0"
                },
                "down": {
                    "uv": [
                        14.375,
                        6.75,
                        14.625,
                        6.825
                    ],
                    "rotation": 270,
                    "texture": "#0"
                }
            }
        },
        {
            "from": [
                8.58853,
                4.18602,
                -7.97819
            ],
            "to": [
                8.78853,
                4.58602,
                -0.53419
            ],
            "rotation": {
                "angle": 22.5,
                "axis": "x",
                "origin": [
                    8.29241,
                    4.38602,
                    -8.1745
                ]
            },
            "faces": {
                "north": {
                    "uv": [
                        14.375,
                        6.75,
                        14.625,
                        6.825
                    ],
                    "rotation": 270,
                    "texture": "#0"
                },
                "east": {
                    "uv": [
                        14.375,
                        6.75,
                        14.625,
                        6.825
                    ],
                    "rotation": 180,
                    "texture": "#0"
                },
                "south": {
                    "uv": [
                        14.375,
                        6.75,
                        14.625,
                        6.825
                    ],
                    "rotation": 90,
                    "texture": "#0"
                },
                "west": {
                    "uv": [
                        14.375,
                        6.75,
                        14.625,
                        6.825
                    ],
                    "texture": "#0"
                },
                "up": {
                    "uv": [
                        14.375,
                        6.75,
                        14.625,
                        6.825
                    ],
                    "rotation": 90,
                    "texture": "#0"
                },
                "down": {
                    "uv": [
                        14.375,
                        6.75,
                        14.625,
                        6.825
                    ],
                    "rotation": 270,
                    "texture": "#0"
                }
            }
        },
        {
            "from": [
                7.64828,
                3.78602,
                -0.54481
            ],
            "to": [
                8.04828,
                4.98602,
                -0.34481
            ],
            "rotation": {
                "angle": 22.5,
                "axis": "x",
                "origin": [
                    8.29241,
                    4.38602,
                    -8.1745
                ]
            },
            "faces": {
                "north": {
                    "uv": [
                        14.375,
                        6.75,
                        14.625,
                        6.825
                    ],
                    "rotation": 270,
                    "texture": "#0"
                },
                "east": {
                    "uv": [
                        14.375,
                        6.75,
                        14.625,
                        6.825
                    ],
                    "rotation": 180,
                    "texture": "#0"
                },
                "south": {
                    "uv": [
                        14.375,
                        6.75,
                        14.625,
                        6.825
                    ],
                    "rotation": 90,
                    "texture": "#0"
                },
                "west": {
                    "uv": [
                        14.375,
                        6.75,
                        14.625,
                        6.825
                    ],
                    "texture": "#0"
                },
                "up": {
                    "uv": [
                        14.375,
                        6.75,
                        14.625,
                        6.825
                    ],
                    "rotation": 90,
                    "texture": "#0"
                },
                "down": {
                    "uv": [
                        14.375,
                        6.75,
                        14.625,
                        6.825
                    ],
                    "rotation": 270,
                    "texture": "#0"
                }
            }
        },
        {
            "from": [
                8.54428,
                3.78602,
                -0.54481
            ],
            "to": [
                8.94428,
                4.98602,
                -0.34481
            ],
            "rotation": {
                "angle": 22.5,
                "axis": "x",
                "origin": [
                    8.29241,
                    4.38602,
                    -8.1745
                ]
            },
            "faces": {
                "north": {
                    "uv": [
                        14.375,
                        6.75,
                        14.625,
                        6.825
                    ],
                    "rotation": 270,
                    "texture": "#0"
                },
                "east": {
                    "uv": [
                        14.375,
                        6.75,
                        14.625,
                        6.825
                    ],
                    "rotation": 180,
                    "texture": "#0"
                },
                "south": {
                    "uv": [
                        14.375,
                        6.75,
                        14.625,
                        6.825
                    ],
                    "rotation": 90,
                    "texture": "#0"
                },
                "west": {
                    "uv": [
                        14.375,
                        6.75,
                        14.625,
                        6.825
                    ],
                    "texture": "#0"
                },
                "up": {
                    "uv": [
                        14.375,
                        6.75,
                        14.625,
                        6.825
                    ],
                    "rotation": 90,
                    "texture": "#0"
                },
                "down": {
                    "uv": [
                        14.375,
                        6.75,
                        14.625,
                        6.825
                    ],
                    "rotation": 270,
                    "texture": "#0"
                }
            }
        },
        {
            "from": [
                8.57315,
                4.27386,
                -8.306
            ],
            "to": [
                8.69715,
                4.52186,
                -7.562
            ],
            "rotation": {
                "angle": 0,
                "axis": "y",
                "origin": [
                    8.63515,
                    4.39786,
                    -23.62
                ]
            },
            "faces": {
                "north": {
                    "uv": [
                        14.375,
                        6.75,
                        14.625,
                        6.825
                    ],
                    "texture": "#0"
                },
                "east": {
                    "uv": [
                        14.375,
                        6.75,
                        14.625,
                        6.825
                    ],
                    "texture": "#0"
                },
                "south": {
                    "uv": [
                        14.375,
                        6.75,
                        14.625,
                        6.825
                    ],
                    "texture": "#0"
                },
                "west": {
                    "uv": [
                        14.375,
                        6.75,
                        14.625,
                        6.825
                    ],
                    "texture": "#0"
                },
                "up": {
                    "uv": [
                        14.375,
                        6.75,
                        14.625,
                        6.825
                    ],
                    "texture": "#0"
                },
                "down": {
                    "uv": [
                        14.375,
                        6.75,
                        14.625,
                        6.825
                    ],
                    "texture": "#0"
                }
            }
        },
        {
            "from": [
                7.85042,
                4.27386,
                -8.306
            ],
            "to": [
                7.97442,
                4.52186,
                -7.562
            ],
            "rotation": {
                "angle": 0,
                "axis": "y",
                "origin": [
                    7.91242,
                    4.39786,
                    -23.62
                ]
            },
            "faces": {
                "north": {
                    "uv": [
                        14.375,
                        6.75,
                        14.625,
                        6.825
                    ],
                    "texture": "#0"
                },
                "east": {
                    "uv": [
                        14.375,
                        6.75,
                        14.625,
                        6.825
                    ],
                    "texture": "#0"
                },
                "south": {
                    "uv": [
                        14.375,
                        6.75,
                        14.625,
                        6.825
                    ],
                    "texture": "#0"
                },
                "west": {
                    "uv": [
                        14.375,
                        6.75,
                        14.625,
                        6.825
                    ],
                    "texture": "#0"
                },
                "up": {
                    "uv": [
                        14.375,
                        6.75,
                        14.625,
                        6.825
                    ],
                    "texture": "#0"
                },
                "down": {
                    "uv": [
                        14.375,
                        6.75,
                        14.625,
                        6.825
                    ],
                    "texture": "#0"
                }
            }
        },
        {
            "from": [
                8.11347,
                4.66091,
                -8.306
            ],
            "to": [
                8.43575,
                4.78491,
                -7.562
            ],
            "rotation": {
                "angle": 0,
                "axis": "y",
                "origin": [
                    7.91683,
                    4.60955,
                    -39.43
                ]
            },
            "faces": {
                "north": {
                    "uv": [
                        14.375,
                        6.75,
                        14.625,
                        6.825
                    ],
                    "rotation": 270,
                    "texture": "#0"
                },
                "east": {
                    "uv": [
                        14.375,
                        6.75,
                        14.625,
                        6.825
                    ],
                    "rotation": 270,
                    "texture": "#0"
                },
                "south": {
                    "uv": [
                        14.375,
                        6.75,
                        14.625,
                        6.825
                    ],
                    "rotation": 270,
                    "texture": "#0"
                },
                "west": {
                    "uv": [
                        14.375,
                        6.75,
                        14.625,
                        6.825
                    ],
                    "rotation": 270,
                    "texture": "#0"
                },
                "up": {
                    "uv": [
                        14.375,
                        6.75,
                        14.625,
                        6.825
                    ],
                    "rotation": 270,
                    "texture": "#0"
                },
                "down": {
                    "uv": [
                        14.375,
                        6.75,
                        14.625,
                        6.825
                    ],
                    "rotation": 270,
                    "texture": "#0"
                }
            }
        },
        {
            "from": [
                8.11347,
                4.01082,
                -8.306
            ],
            "to": [
                8.43575,
                4.13482,
                -7.562
            ],
            "rotation": {
                "angle": 0,
                "axis": "y",
                "origin": [
                    7.91683,
                    3.95946,
                    -39.43
                ]
            },
            "faces": {
                "north": {
                    "uv": [
                        14.375,
                        6.75,
                        14.625,
                        6.825
                    ],
                    "rotation": 270,
                    "texture": "#0"
                },
                "east": {
                    "uv": [
                        14.375,
                        6.75,
                        14.625,
                        6.825
                    ],
                    "rotation": 270,
                    "texture": "#0"
                },
                "south": {
                    "uv": [
                        14.375,
                        6.75,
                        14.625,
                        6.825
                    ],
                    "rotation": 270,
                    "texture": "#0"
                },
                "west": {
                    "uv": [
                        14.375,
                        6.75,
                        14.625,
                        6.825
                    ],
                    "rotation": 270,
                    "texture": "#0"
                },
                "up": {
                    "uv": [
                        14.375,
                        6.75,
                        14.625,
                        6.825
                    ],
                    "rotation": 270,
                    "texture": "#0"
                },
                "down": {
                    "uv": [
                        14.375,
                        6.75,
                        14.625,
                        6.825
                    ],
                    "rotation": 270,
                    "texture": "#0"
                }
            }
        },
        {
            "from": [
                8.61401,
                3.89177,
                -8.306
            ],
            "to": [
                8.73801,
                4.26377,
                -7.562
            ],
            "rotation": {
                "angle": 45,
                "axis": "z",
                "origin": [
                    7.95698,
                    4.15749,
                    -23.54951
                ]
            },
            "faces": {
                "north": {
                    "uv": [
                        14.375,
                        6.75,
                        14.625,
                        6.825
                    ],
                    "rotation": 180,
                    "texture": "#0"
                },
                "east": {
                    "uv": [
                        14.375,
                        6.75,
                        14.625,
                        6.825
                    ],
                    "rotation": 180,
                    "texture": "#0"
                },
                "south": {
                    "uv": [
                        14.375,
                        6.75,
                        14.625,
                        6.825
                    ],
                    "rotation": 180,
                    "texture": "#0"
                },
                "west": {
                    "uv": [
                        14.375,
                        6.75,
                        14.625,
                        6.825
                    ],
                    "rotation": 180,
                    "texture": "#0"
                },
                "up": {
                    "uv": [
                        14.375,
                        6.75,
                        14.625,
                        6.825
                    ],
                    "rotation": 180,
                    "texture": "#0"
                },
                "down": {
                    "uv": [
                        14.375,
                        6.75,
                        14.625,
                        6.825
                    ],
                    "rotation": 180,
                    "texture": "#0"
                }
            }
        },
        {
            "from": [
                8.11801,
                3.4684,
                -8.306
            ],
            "to": [
                8.24201,
                3.8404,
                -7.562
            ],
            "rotation": {
                "angle": 45,
                "axis": "z",
                "origin": [
                    7.46098,
                    3.73412,
                    -17.72151
                ]
            },
            "faces": {
                "north": {
                    "uv": [
                        14.375,
                        6.75,
                        14.625,
                        6.825
                    ],
                    "rotation": 180,
                    "texture": "#0"
                },
                "east": {
                    "uv": [
                        14.375,
                        6.75,
                        14.625,
                        6.825
                    ],
                    "rotation": 180,
                    "texture": "#0"
                },
                "south": {
                    "uv": [
                        14.375,
                        6.75,
                        14.625,
                        6.825
                    ],
                    "rotation": 180,
                    "texture": "#0"
                },
                "west": {
                    "uv": [
                        14.375,
                        6.75,
                        14.625,
                        6.825
                    ],
                    "rotation": 180,
                    "texture": "#0"
                },
                "up": {
                    "uv": [
                        14.375,
                        6.75,
                        14.625,
                        6.825
                    ],
                    "rotation": 180,
                    "texture": "#0"
                },
                "down": {
                    "uv": [
                        14.375,
                        6.75,
                        14.625,
                        6.825
                    ],
                    "rotation": 180,
                    "texture": "#0"
                }
            }
        },
        {
            "from": [
                7.85795,
                4.50371,
                -8.306
            ],
            "to": [
                8.22995,
                4.62771,
                -7.562
            ],
            "rotation": {
                "angle": 45,
                "axis": "z",
                "origin": [
                    7.98195,
                    4.56571,
                    -23.62
                ]
            },
            "faces": {
                "north": {
                    "uv": [
                        14.375,
                        6.75,
                        14.625,
                        6.825
                    ],
                    "rotation": 90,
                    "texture": "#0"
                },
                "east": {
                    "uv": [
                        14.375,
                        6.75,
                        14.625,
                        6.825
                    ],
                    "rotation": 90,
                    "texture": "#0"
                },
                "south": {
                    "uv": [
                        14.375,
                        6.75,
                        14.625,
                        6.825
                    ],
                    "rotation": 90,
                    "texture": "#0"
                },
                "west": {
                    "uv": [
                        14.375,
                        6.75,
                        14.625,
                        6.825
                    ],
                    "rotation": 90,
                    "texture": "#0"
                },
                "up": {
                    "uv": [
                        14.375,
                        6.75,
                        14.625,
                        6.825
                    ],
                    "rotation": 90,
                    "texture": "#0"
                },
                "down": {
                    "uv": [
                        14.375,
                        6.75,
                        14.625,
                        6.825
                    ],
                    "rotation": 90,
                    "texture": "#0"
                }
            }
        },
        {
            "from": [
                8.35395,
                4.08034,
                -8.306
            ],
            "to": [
                8.72595,
                4.20434,
                -7.562
            ],
            "rotation": {
                "angle": 45,
                "axis": "z",
                "origin": [
                    8.47795,
                    4.14234,
                    -23.62
                ]
            },
            "faces": {
                "north": {
                    "uv": [
                        14.375,
                        6.75,
                        14.625,
                        6.825
                    ],
                    "rotation": 90,
                    "texture": "#0"
                },
                "east": {
                    "uv": [
                        14.375,
                        6.75,
                        14.625,
                        6.825
                    ],
                    "rotation": 90,
                    "texture": "#0"
                },
                "south": {
                    "uv": [
                        14.375,
                        6.75,
                        14.625,
                        6.825
                    ],
                    "rotation": 90,
                    "texture": "#0"
                },
                "west": {
                    "uv": [
                        14.375,
                        6.75,
                        14.625,
                        6.825
                    ],
                    "rotation": 90,
                    "texture": "#0"
                },
                "up": {
                    "uv": [
                        14.375,
                        6.75,
                        14.625,
                        6.825
                    ],
                    "rotation": 90,
                    "texture": "#0"
                },
                "down": {
                    "uv": [
                        14.375,
                        6.75,
                        14.625,
                        6.825
                    ],
                    "rotation": 90,
                    "texture": "#0"
                }
            }
        },
        {
            "from": [
                7.78853,
                4.18602,
                -7.97819
            ],
            "to": [
                7.98853,
                4.58602,
                -0.53419
            ],
            "rotation": {
                "angle": 22.5,
                "axis": "x",
                "origin": [
                    8.29241,
                    4.38602,
                    -8.1745
                ]
            },
            "faces": {
                "north": {
                    "uv": [
                        14.375,
                        6.75,
                        14.625,
                        6.825
                    ],
                    "rotation": 270,
                    "texture": "#0"
                },
                "east": {
                    "uv": [
                        14.375,
                        6.75,
                        14.625,
                        6.825
                    ],
                    "rotation": 180,
                    "texture": "#0"
                },
                "south": {
                    "uv": [
                        14.375,
                        6.75,
                        14.625,
                        6.825
                    ],
                    "rotation": 90,
                    "texture": "#0"
                },
                "west": {
                    "uv": [
                        14.375,
                        6.75,
                        14.625,
                        6.825
                    ],
                    "texture": "#0"
                },
                "up": {
                    "uv": [
                        14.375,
                        6.75,
                        14.625,
                        6.825
                    ],
                    "rotation": 90,
                    "texture": "#0"
                },
                "down": {
                    "uv": [
                        14.375,
                        6.75,
                        14.625,
                        6.825
                    ],
                    "rotation": 270,
                    "texture": "#0"
                }
            }
        },
        {
            "from": [
                8.58853,
                4.18602,
                -7.97819
            ],
            "to": [
                8.78853,
                4.58602,
                -0.53419
            ],
            "rotation": {
                "angle": 22.5,
                "axis": "x",
                "origin": [
                    8.29241,
                    4.38602,
                    -8.1745
                ]
            },
            "faces": {
                "north": {
                    "uv": [
                        14.375,
                        6.75,
                        14.625,
                        6.825
                    ],
                    "rotation": 270,
                    "texture": "#0"
                },
                "east": {
                    "uv": [
                        14.375,
                        6.75,
                        14.625,
                        6.825
                    ],
                    "rotation": 180,
                    "texture": "#0"
                },
                "south": {
                    "uv": [
                        14.375,
                        6.75,
                        14.625,
                        6.825
                    ],
                    "rotation": 90,
                    "texture": "#0"
                },
                "west": {
                    "uv": [
                        14.375,
                        6.75,
                        14.625,
                        6.825
                    ],
                    "texture": "#0"
                },
                "up": {
                    "uv": [
                        14.375,
                        6.75,
                        14.625,
                        6.825
                    ],
                    "rotation": 90,
                    "texture": "#0"
                },
                "down": {
                    "uv": [
                        14.375,
                        6.75,
                        14.625,
                        6.825
                    ],
                    "rotation": 270,
                    "texture": "#0"
                }
            }
        },
        {
            "from": [
                7.64828,
                3.78602,
                -0.54481
            ],
            "to": [
                8.04828,
                4.98602,
                -0.34481
            ],
            "rotation": {
                "angle": 22.5,
                "axis": "x",
                "origin": [
                    8.29241,
                    4.38602,
                    -8.1745
                ]
            },
            "faces": {
                "north": {
                    "uv": [
                        14.375,
                        6.75,
                        14.625,
                        6.825
                    ],
                    "rotation": 270,
                    "texture": "#0"
                },
                "east": {
                    "uv": [
                        14.375,
                        6.75,
                        14.625,
                        6.825
                    ],
                    "rotation": 180,
                    "texture": "#0"
                },
                "south": {
                    "uv": [
                        14.375,
                        6.75,
                        14.625,
                        6.825
                    ],
                    "rotation": 90,
                    "texture": "#0"
                },
                "west": {
                    "uv": [
                        14.375,
                        6.75,
                        14.625,
                        6.825
                    ],
                    "texture": "#0"
                },
                "up": {
                    "uv": [
                        14.375,
                        6.75,
                        14.625,
                        6.825
                    ],
                    "rotation": 90,
                    "texture": "#0"
                },
                "down": {
                    "uv": [
                        14.375,
                        6.75,
                        14.625,
                        6.825
                    ],
                    "rotation": 270,
                    "texture": "#0"
                }
            }
        },
        {
            "from": [
                8.54428,
                3.78602,
                -0.54481
            ],
            "to": [
                8.94428,
                4.98602,
                -0.34481
            ],
            "rotation": {
                "angle": 22.5,
                "axis": "x",
                "origin": [
                    8.29241,
                    4.38602,
                    -8.1745
                ]
            },
            "faces": {
                "north": {
                    "uv": [
                        14.375,
                        6.75,
                        14.625,
                        6.825
                    ],
                    "rotation": 270,
                    "texture": "#0"
                },
                "east": {
                    "uv": [
                        14.375,
                        6.75,
                        14.625,
                        6.825
                    ],
                    "rotation": 180,
                    "texture": "#0"
                },
                "south": {
                    "uv": [
                        14.375,
                        6.75,
                        14.625,
                        6.825
                    ],
                    "rotation": 90,
                    "texture": "#0"
                },
                "west": {
                    "uv": [
                        14.375,
                        6.75,
                        14.625,
                        6.825
                    ],
                    "texture": "#0"
                },
                "up": {
                    "uv": [
                        14.375,
                        6.75,
                        14.625,
                        6.825
                    ],
                    "rotation": 90,
                    "texture": "#0"
                },
                "down": {
                    "uv": [
                        14.375,
                        6.75,
                        14.625,
                        6.825
                    ],
                    "rotation": 270,
                    "texture": "#0"
                }
            }
        },
        {
            "from": [
                8.57315,
                4.27386,
                -8.306
            ],
            "to": [
                8.69715,
                4.52186,
                -7.562
            ],
            "rotation": {
                "angle": 0,
                "axis": "y",
                "origin": [
                    8.63515,
                    4.39786,
                    -23.62
                ]
            },
            "faces": {
                "north": {
                    "uv": [
                        14.375,
                        6.75,
                        14.625,
                        6.825
                    ],
                    "texture": "#0"
                },
                "east": {
                    "uv": [
                        14.375,
                        6.75,
                        14.625,
                        6.825
                    ],
                    "texture": "#0"
                },
                "south": {
                    "uv": [
                        14.375,
                        6.75,
                        14.625,
                        6.825
                    ],
                    "texture": "#0"
                },
                "west": {
                    "uv": [
                        14.375,
                        6.75,
                        14.625,
                        6.825
                    ],
                    "texture": "#0"
                },
                "up": {
                    "uv": [
                        14.375,
                        6.75,
                        14.625,
                        6.825
                    ],
                    "texture": "#0"
                },
                "down": {
                    "uv": [
                        14.375,
                        6.75,
                        14.625,
                        6.825
                    ],
                    "texture": "#0"
                }
            }
        },
        {
            "from": [
                7.85042,
                4.27386,
                -8.306
            ],
            "to": [
                7.97442,
                4.52186,
                -7.562
            ],
            "rotation": {
                "angle": 0,
                "axis": "y",
                "origin": [
                    7.91242,
                    4.39786,
                    -23.62
                ]
            },
            "faces": {
                "north": {
                    "uv": [
                        14.375,
                        6.75,
                        14.625,
                        6.825
                    ],
                    "texture": "#0"
                },
                "east": {
                    "uv": [
                        14.375,
                        6.75,
                        14.625,
                        6.825
                    ],
                    "texture": "#0"
                },
                "south": {
                    "uv": [
                        14.375,
                        6.75,
                        14.625,
                        6.825
                    ],
                    "texture": "#0"
                },
                "west": {
                    "uv": [
                        14.375,
                        6.75,
                        14.625,
                        6.825
                    ],
                    "texture": "#0"
                },
                "up": {
                    "uv": [
                        14.375,
                        6.75,
                        14.625,
                        6.825
                    ],
                    "texture": "#0"
                },
                "down": {
                    "uv": [
                        14.375,
                        6.75,
                        14.625,
                        6.825
                    ],
                    "texture": "#0"
                }
            }
        },
        {
            "from": [
                8.11347,
                4.66091,
                -8.306
            ],
            "to": [
                8.43575,
                4.78491,
                -7.562
            ],
            "rotation": {
                "angle": 0,
                "axis": "y",
                "origin": [
                    7.91683,
                    4.60955,
                    -39.43
                ]
            },
            "faces": {
                "north": {
                    "uv": [
                        14.375,
                        6.75,
                        14.625,
                        6.825
                    ],
                    "rotation": 270,
                    "texture": "#0"
                },
                "east": {
                    "uv": [
                        14.375,
                        6.75,
                        14.625,
                        6.825
                    ],
                    "rotation": 270,
                    "texture": "#0"
                },
                "south": {
                    "uv": [
                        14.375,
                        6.75,
                        14.625,
                        6.825
                    ],
                    "rotation": 270,
                    "texture": "#0"
                },
                "west": {
                    "uv": [
                        14.375,
                        6.75,
                        14.625,
                        6.825
                    ],
                    "rotation": 270,
                    "texture": "#0"
                },
                "up": {
                    "uv": [
                        14.375,
                        6.75,
                        14.625,
                        6.825
                    ],
                    "rotation": 270,
                    "texture": "#0"
                },
                "down": {
                    "uv": [
                        14.375,
                        6.75,
                        14.625,
                        6.825
                    ],
                    "rotation": 270,
                    "texture": "#0"
                }
            }
        },
        {
            "from": [
                8.11347,
                4.01082,
                -8.306
            ],
            "to": [
                8.43575,
                4.13482,
                -7.562
            ],
            "rotation": {
                "angle": 0,
                "axis": "y",
                "origin": [
                    7.91683,
                    3.95946,
                    -39.43
                ]
            },
            "faces": {
                "north": {
                    "uv": [
                        14.375,
                        6.75,
                        14.625,
                        6.825
                    ],
                    "rotation": 270,
                    "texture": "#0"
                },
                "east": {
                    "uv": [
                        14.375,
                        6.75,
                        14.625,
                        6.825
                    ],
                    "rotation": 270,
                    "texture": "#0"
                },
                "south": {
                    "uv": [
                        14.375,
                        6.75,
                        14.625,
                        6.825
                    ],
                    "rotation": 270,
                    "texture": "#0"
                },
                "west": {
                    "uv": [
                        14.375,
                        6.75,
                        14.625,
                        6.825
                    ],
                    "rotation": 270,
                    "texture": "#0"
                },
                "up": {
                    "uv": [
                        14.375,
                        6.75,
                        14.625,
                        6.825
                    ],
                    "rotation": 270,
                    "texture": "#0"
                },
                "down": {
                    "uv": [
                        14.375,
                        6.75,
                        14.625,
                        6.825
                    ],
                    "rotation": 270,
                    "texture": "#0"
                }
            }
        }
    ],
    "display": {
        "thirdperson_righthand": {
            "translation": [
                -1.5,
                3.5,
                -3.5
            ],
            "scale": [
                0.8,
                0.8,
                0.8
            ]
        },
        "thirdperson_lefthand": {
            "translation": [
                -0.75,
                3.5,
                -3.5
            ],
            "scale": [
                0.8,
                0.8,
                0.8
            ]
        },
        "firstperson_righthand": {
            "translation": [
                -5.75,
                6,
                0
            ],
            "scale": [
                1,
                1,
                0.9
            ]
        },
        "firstperson_lefthand": {
            "translation": [
                -5.5,
                4.75,
                0
            ],
            "scale": [
                1,
                1,
                0.9
            ]
        },
        "ground": {
            "rotation": [
                0,
                0,
                45
            ],
            "scale": [
                0.88,
                0.88,
                0.88
            ]
        },
        "gui": {
            "rotation": [
                20,
                27,
                -14
            ],
            "translation": [
                -1,
                2,
                0
            ]
        },
        "head": {
            "rotation": [
                0,
                122,
                90
            ],
            "translation": [
                -3.25,
                7.25,
                1.75
            ]
        },
        "fixed": {
            "rotation": [
                90,
                45,
                -90
            ],
            "translation": [
                2,
                3.25,
                -1.25
            ]
        }
    }
}