{
    "shoot":{
        "category":"player",
        "sounds":[
            "gci:shoot"
        ]
    },
    "reload":{
        "category":"player",
        "sounds":[
            "gci:reload"
        ]
    },
    "shoot_sniper":{
        "category":"player",
        "sounds":[
            "gci:shoot_sniper"
        ]
    },
    "shoot_silenced":{
        "category":"player",
        "sounds":[
            "gci:shoot_silenced"
        ]
    },
    "suppressorshot":{
        "category":"neutral",
        "sounds":[
            "gci:suppressorshot"
        ]
    },
    "highcalshot":{
        "category":"neutral",
        "sounds":[
            "gci:highcalshot"
        ]
    },
    "medcalshot":{
        "category":"neutral",
        "sounds":[
            "gci:medcalshot"
        ]
    },
    "smallcalshot":{
        "category":"neutral",
        "sounds":[
            "gci:smallcalshot"
        ]
    },
    "bulletcrack":{
        "category":"neutral",
        "sounds":[
            "gci:bulletcrack"
        ]
    },
    "swing":{
        "category":"neutral",
        "sounds":[
            "gci:swing"
        ]
    },
    "macehit":{
        "category":"neutral",
        "sounds":[
            "gci:macehit"
        ]
    },
    "bladehit":{
        "category":"neutral",
        "sounds":[
            "gci:bladehit"
        ]
    },
    "klin":{
        "category":"neutral",
        "sounds":[
            "gci:klin"
        ]
    },
    "punch":{
        "category":"neutral",
        "sounds":[
            "gci:punch"
        ]
    },
    "whip":{
        "category":"neutral",
        "sounds":[
            "gci:whip"
        ]
    },
    "parirovanie":{
        "category":"neutral",
        "sounds":[
            "gci:parirovanie"
        ]
    },
    "bulletstickbody":{
        "category":"neutral",
        "sounds":[
            "gci:bulletstickbody"
        ]
    },
    "shieldbeatsound":{
        "category":"neutral",
        "sounds":[
            "gci:shieldbeatsound"
        ]
    },
    "punchmiss":{
        "category":"neutral",
        "sounds":[
            "gci:punchmiss"
        ]
    },
    "ring":{
        "category":"neutral",
        "sounds":[
            "gci:ring"
        ]
    },
    "ring_low":{
        "category":"neutral",
        "sounds":[
            "gci:ring_low"
        ]
    },
    "flysound":{
        "category":"neutral",
        "sounds":[
            "gci:flysound"
        ]
    },
    "hitsound":{
        "category":"neutral",
        "sounds":[
            "gci:hitsound"
        ]
    },
    "guitar_hit":{
        "category":"neutral",
        "sounds":[
            "gci:guitar_hit"
        ]
    },
    "guitar_miss":{
        "category":"neutral",
        "sounds":[
            "gci:guitar_miss"
        ]
    },
}
