{
	"credit": "Made with Blockbench",
	"textures": {
		"0": "gci:items/common/all_in_one",
		"particle": "gci:items/common/all_in_one"
	},
	"elements": [
		{
			"from": [8.16922, 9.51986, -7.292],
			"to": [8.26922, 9.71986, -7.04],
			"rotation": {"angle": 45, "axis": "z", "origin": [8.0278, 9.61986, -6.11]},
			"faces": {
				"north": {"uv": [2, 3.25, 2, 3.375], "rotation": 270, "texture": "#0"},
				"east": {"uv": [2, 3.25, 2, 3.375], "rotation": 270, "texture": "#0"},
				"south": {"uv": [2, 3.25, 2, 3.375], "rotation": 270, "texture": "#0"},
				"west": {"uv": [2, 3.25, 2, 3.375], "rotation": 270, "texture": "#0"},
				"up": {"uv": [2, 3.25, 2, 3.375], "rotation": 270, "texture": "#0"},
				"down": {"uv": [2, 3.25, 2, 3.375], "rotation": 270, "texture": "#0"}
			}
		},
		{
			"from": [8.16922, 9.51986, -8.316],
			"to": [8.26922, 9.71986, -8.256],
			"rotation": {"angle": 45, "axis": "z", "origin": [8.0278, 9.61986, -7.134]},
			"faces": {
				"north": {"uv": [2, 3.25, 2, 3.375], "rotation": 270, "texture": "#0"},
				"east": {"uv": [2, 3.25, 2, 3.375], "rotation": 270, "texture": "#0"},
				"south": {"uv": [2, 3.25, 2, 3.375], "rotation": 270, "texture": "#0"},
				"west": {"uv": [2, 3.25, 2, 3.375], "rotation": 270, "texture": "#0"},
				"up": {"uv": [2, 3.25, 2, 3.375], "rotation": 270, "texture": "#0"},
				"down": {"uv": [2, 3.25, 2, 3.375], "rotation": 270, "texture": "#0"}
			}
		},
		{
			"from": [7.78637, 9.51986, -7.292],
			"to": [7.88637, 9.71986, -7.04],
			"rotation": {"angle": 45, "axis": "z", "origin": [8.0278, 9.61986, -6.11]},
			"faces": {
				"north": {"uv": [2, 3.25, 2, 3.375], "rotation": 270, "texture": "#0"},
				"east": {"uv": [2, 3.25, 2, 3.375], "rotation": 270, "texture": "#0"},
				"south": {"uv": [2, 3.25, 2, 3.375], "rotation": 270, "texture": "#0"},
				"west": {"uv": [2, 3.25, 2, 3.375], "rotation": 270, "texture": "#0"},
				"up": {"uv": [2, 3.25, 2, 3.375], "rotation": 270, "texture": "#0"},
				"down": {"uv": [2, 3.25, 2, 3.375], "rotation": 270, "texture": "#0"}
			}
		},
		{
			"from": [7.78637, 9.51986, -8.316],
			"to": [7.88637, 9.71986, -8.256],
			"rotation": {"angle": 45, "axis": "z", "origin": [8.0278, 9.61986, -7.134]},
			"faces": {
				"north": {"uv": [2, 3.25, 2, 3.375], "rotation": 270, "texture": "#0"},
				"east": {"uv": [2, 3.25, 2, 3.375], "rotation": 270, "texture": "#0"},
				"south": {"uv": [2, 3.25, 2, 3.375], "rotation": 270, "texture": "#0"},
				"west": {"uv": [2, 3.25, 2, 3.375], "rotation": 270, "texture": "#0"},
				"up": {"uv": [2, 3.25, 2, 3.375], "rotation": 270, "texture": "#0"},
				"down": {"uv": [2, 3.25, 2, 3.375], "rotation": 270, "texture": "#0"}
			}
		},
		{
			"from": [7.9278, 9.37844, -7.292],
			"to": [8.1278, 9.47844, -7.04],
			"rotation": {"angle": 0, "axis": "y", "origin": [7.76922, 9.33702, -19.86]},
			"faces": {
				"north": {"uv": [2, 3.25, 2, 3.375], "rotation": 270, "texture": "#0"},
				"east": {"uv": [2, 3.25, 2, 3.375], "rotation": 270, "texture": "#0"},
				"south": {"uv": [2, 3.25, 2, 3.375], "rotation": 270, "texture": "#0"},
				"west": {"uv": [2, 3.25, 2, 3.375], "rotation": 270, "texture": "#0"},
				"up": {"uv": [2, 3.25, 2, 3.375], "rotation": 270, "texture": "#0"},
				"down": {"uv": [2, 3.25, 2, 3.375], "rotation": 270, "texture": "#0"}
			}
		},
		{
			"from": [7.9278, 9.37844, -8.316],
			"to": [8.1278, 9.47844, -8.256],
			"rotation": {"angle": 0, "axis": "y", "origin": [7.76922, 9.33702, -20.884]},
			"faces": {
				"north": {"uv": [2, 3.25, 2, 3.375], "rotation": 270, "texture": "#0"},
				"east": {"uv": [2, 3.25, 2, 3.375], "rotation": 270, "texture": "#0"},
				"south": {"uv": [2, 3.25, 2, 3.375], "rotation": 270, "texture": "#0"},
				"west": {"uv": [2, 3.25, 2, 3.375], "rotation": 270, "texture": "#0"},
				"up": {"uv": [2, 3.25, 2, 3.375], "rotation": 270, "texture": "#0"},
				"down": {"uv": [2, 3.25, 2, 3.375], "rotation": 270, "texture": "#0"}
			}
		},
		{
			"from": [7.8958, 9.31444, -8.316],
			"to": [8.1598, 9.44644, -7.264],
			"rotation": {"angle": 0, "axis": "y", "origin": [7.76922, 9.27302, -20.532]},
			"faces": {
				"north": {"uv": [2, 3.25, 2, 3.375], "rotation": 270, "texture": "#0"},
				"east": {"uv": [2, 3.25, 2, 3.375], "rotation": 270, "texture": "#0"},
				"south": {"uv": [2, 3.25, 2, 3.375], "rotation": 270, "texture": "#0"},
				"west": {"uv": [2, 3.25, 2, 3.375], "rotation": 270, "texture": "#0"},
				"up": {"uv": [2, 3.25, 2, 3.375], "rotation": 270, "texture": "#0"},
				"down": {"uv": [2, 3.25, 2, 3.375], "rotation": 270, "texture": "#0"}
			}
		},
		{
			"from": [8.23322, 9.48237, -8.316],
			"to": [8.36522, 9.81037, -8.128],
			"rotation": {"angle": -45, "axis": "z", "origin": [8.0598, 9.64637, -7.982]},
			"faces": {
				"north": {"uv": [2, 3.25, 2, 3.375], "rotation": 180, "texture": "#0"},
				"east": {"uv": [2, 3.25, 2, 3.375], "rotation": 180, "texture": "#0"},
				"south": {"uv": [2, 3.25, 2, 3.375], "rotation": 180, "texture": "#0"},
				"west": {"uv": [2, 3.25, 2, 3.375], "rotation": 180, "texture": "#0"},
				"up": {"uv": [2, 3.25, 2, 3.375], "rotation": 180, "texture": "#0"},
				"down": {"uv": [2, 3.25, 2, 3.375], "rotation": 180, "texture": "#0"}
			}
		},
		{
			"from": [8.23322, 9.48237, -8.316],
			"to": [8.36522, 9.58637, -7.392],
			"rotation": {"angle": -45, "axis": "z", "origin": [8.0598, 9.64637, -7.982]},
			"faces": {
				"north": {"uv": [2, 3.25, 2, 3.375], "rotation": 180, "texture": "#0"},
				"east": {"uv": [2, 3.25, 2, 3.375], "rotation": 180, "texture": "#0"},
				"south": {"uv": [2, 3.25, 2, 3.375], "rotation": 180, "texture": "#0"},
				"west": {"uv": [2, 3.25, 2, 3.375], "rotation": 180, "texture": "#0"},
				"up": {"uv": [2, 3.25, 2, 3.375], "rotation": 180, "texture": "#0"},
				"down": {"uv": [2, 3.25, 2, 3.375], "rotation": 180, "texture": "#0"}
			}
		},
		{
			"from": [8.23322, 9.48237, -7.452],
			"to": [8.36522, 9.81037, -7.264],
			"rotation": {"angle": -45, "axis": "z", "origin": [8.0598, 9.64637, -7.118]},
			"faces": {
				"north": {"uv": [2, 3.25, 2, 3.375], "rotation": 180, "texture": "#0"},
				"east": {"uv": [2, 3.25, 2, 3.375], "rotation": 180, "texture": "#0"},
				"south": {"uv": [2, 3.25, 2, 3.375], "rotation": 180, "texture": "#0"},
				"west": {"uv": [2, 3.25, 2, 3.375], "rotation": 180, "texture": "#0"},
				"up": {"uv": [2, 3.25, 2, 3.375], "rotation": 180, "texture": "#0"},
				"down": {"uv": [2, 3.25, 2, 3.375], "rotation": 180, "texture": "#0"}
			}
		},
		{
			"from": [8.23322, 9.48237, -8.028],
			"to": [8.36522, 9.81037, -7.84],
			"rotation": {"angle": -45, "axis": "z", "origin": [8.0598, 9.64637, -7.694]},
			"faces": {
				"north": {"uv": [2, 3.25, 2, 3.375], "rotation": 180, "texture": "#0"},
				"east": {"uv": [2, 3.25, 2, 3.375], "rotation": 180, "texture": "#0"},
				"south": {"uv": [2, 3.25, 2, 3.375], "rotation": 180, "texture": "#0"},
				"west": {"uv": [2, 3.25, 2, 3.375], "rotation": 180, "texture": "#0"},
				"up": {"uv": [2, 3.25, 2, 3.375], "rotation": 180, "texture": "#0"},
				"down": {"uv": [2, 3.25, 2, 3.375], "rotation": 180, "texture": "#0"}
			}
		},
		{
			"from": [8.23322, 9.48237, -7.74],
			"to": [8.36522, 9.81037, -7.552],
			"rotation": {"angle": -45, "axis": "z", "origin": [8.0598, 9.64637, -7.406]},
			"faces": {
				"north": {"uv": [2, 3.25, 2, 3.375], "rotation": 180, "texture": "#0"},
				"east": {"uv": [2, 3.25, 2, 3.375], "rotation": 180, "texture": "#0"},
				"south": {"uv": [2, 3.25, 2, 3.375], "rotation": 180, "texture": "#0"},
				"west": {"uv": [2, 3.25, 2, 3.375], "rotation": 180, "texture": "#0"},
				"up": {"uv": [2, 3.25, 2, 3.375], "rotation": 180, "texture": "#0"},
				"down": {"uv": [2, 3.25, 2, 3.375], "rotation": 180, "texture": "#0"}
			}
		},
		{
			"from": [7.8958, 9.76678, -8.316],
			"to": [8.2238, 9.89878, -8.128],
			"rotation": {"angle": -45, "axis": "z", "origin": [8.0598, 9.59336, -7.982]},
			"faces": {
				"north": {"uv": [2, 3.25, 2, 3.375], "rotation": 90, "texture": "#0"},
				"east": {"uv": [2, 3.25, 2, 3.375], "rotation": 90, "texture": "#0"},
				"south": {"uv": [2, 3.25, 2, 3.375], "rotation": 90, "texture": "#0"},
				"west": {"uv": [2, 3.25, 2, 3.375], "rotation": 90, "texture": "#0"},
				"up": {"uv": [2, 3.25, 2, 3.375], "rotation": 90, "texture": "#0"},
				"down": {"uv": [2, 3.25, 2, 3.375], "rotation": 90, "texture": "#0"}
			}
		},
		{
			"from": [7.8958, 9.76678, -7.452],
			"to": [8.2238, 9.89878, -7.264],
			"rotation": {"angle": -45, "axis": "z", "origin": [8.0598, 9.59336, -7.118]},
			"faces": {
				"north": {"uv": [2, 3.25, 2, 3.375], "rotation": 90, "texture": "#0"},
				"east": {"uv": [2, 3.25, 2, 3.375], "rotation": 90, "texture": "#0"},
				"south": {"uv": [2, 3.25, 2, 3.375], "rotation": 90, "texture": "#0"},
				"west": {"uv": [2, 3.25, 2, 3.375], "rotation": 90, "texture": "#0"},
				"up": {"uv": [2, 3.25, 2, 3.375], "rotation": 90, "texture": "#0"},
				"down": {"uv": [2, 3.25, 2, 3.375], "rotation": 90, "texture": "#0"}
			}
		},
		{
			"from": [7.8958, 9.76678, -8.284],
			"to": [7.9678, 9.89878, -7.264],
			"rotation": {"angle": -45, "axis": "z", "origin": [8.0598, 9.59336, -7.118]},
			"faces": {
				"north": {"uv": [2, 3.25, 2, 3.375], "rotation": 90, "texture": "#0"},
				"east": {"uv": [2, 3.25, 2, 3.375], "rotation": 90, "texture": "#0"},
				"south": {"uv": [2, 3.25, 2, 3.375], "rotation": 90, "texture": "#0"},
				"west": {"uv": [2, 3.25, 2, 3.375], "rotation": 90, "texture": "#0"},
				"up": {"uv": [2, 3.25, 2, 3.375], "rotation": 90, "texture": "#0"},
				"down": {"uv": [2, 3.25, 2, 3.375], "rotation": 90, "texture": "#0"}
			}
		},
		{
			"from": [7.8958, 9.76678, -8.028],
			"to": [8.2238, 9.89878, -7.84],
			"rotation": {"angle": -45, "axis": "z", "origin": [8.0598, 9.59336, -7.694]},
			"faces": {
				"north": {"uv": [2, 3.25, 2, 3.375], "rotation": 90, "texture": "#0"},
				"east": {"uv": [2, 3.25, 2, 3.375], "rotation": 90, "texture": "#0"},
				"south": {"uv": [2, 3.25, 2, 3.375], "rotation": 90, "texture": "#0"},
				"west": {"uv": [2, 3.25, 2, 3.375], "rotation": 90, "texture": "#0"},
				"up": {"uv": [2, 3.25, 2, 3.375], "rotation": 90, "texture": "#0"},
				"down": {"uv": [2, 3.25, 2, 3.375], "rotation": 90, "texture": "#0"}
			}
		},
		{
			"from": [7.8958, 9.76678, -7.74],
			"to": [8.2238, 9.89878, -7.552],
			"rotation": {"angle": -45, "axis": "z", "origin": [8.0598, 9.59336, -7.406]},
			"faces": {
				"north": {"uv": [2, 3.25, 2, 3.375], "rotation": 90, "texture": "#0"},
				"east": {"uv": [2, 3.25, 2, 3.375], "rotation": 90, "texture": "#0"},
				"south": {"uv": [2, 3.25, 2, 3.375], "rotation": 90, "texture": "#0"},
				"west": {"uv": [2, 3.25, 2, 3.375], "rotation": 90, "texture": "#0"},
				"up": {"uv": [2, 3.25, 2, 3.375], "rotation": 90, "texture": "#0"},
				"down": {"uv": [2, 3.25, 2, 3.375], "rotation": 90, "texture": "#0"}
			}
		},
		{
			"from": [8.25973, 9.54637, -8.316],
			"to": [8.39173, 9.69137, -8.128],
			"rotation": {"angle": 0, "axis": "y", "origin": [8.34173, 9.51837, -7.758]},
			"faces": {
				"north": {"uv": [2, 3.25, 2, 3.375], "rotation": 180, "texture": "#0"},
				"east": {"uv": [2, 3.25, 2, 3.375], "rotation": 180, "texture": "#0"},
				"south": {"uv": [2, 3.25, 2, 3.375], "rotation": 180, "texture": "#0"},
				"west": {"uv": [2, 3.25, 2, 3.375], "rotation": 180, "texture": "#0"},
				"up": {"uv": [2, 3.25, 2, 3.375], "rotation": 180, "texture": "#0"},
				"down": {"uv": [2, 3.25, 2, 3.375], "rotation": 180, "texture": "#0"}
			}
		},
		{
			"from": [8.25973, 9.54637, -7.452],
			"to": [8.39173, 9.69137, -7.264],
			"rotation": {"angle": 0, "axis": "y", "origin": [8.34173, 9.51837, -6.894]},
			"faces": {
				"north": {"uv": [2, 3.25, 2, 3.375], "rotation": 180, "texture": "#0"},
				"east": {"uv": [2, 3.25, 2, 3.375], "rotation": 180, "texture": "#0"},
				"south": {"uv": [2, 3.25, 2, 3.375], "rotation": 180, "texture": "#0"},
				"west": {"uv": [2, 3.25, 2, 3.375], "rotation": 180, "texture": "#0"},
				"up": {"uv": [2, 3.25, 2, 3.375], "rotation": 180, "texture": "#0"},
				"down": {"uv": [2, 3.25, 2, 3.375], "rotation": 180, "texture": "#0"}
			}
		},
		{
			"from": [8.25973, 9.54637, -8.028],
			"to": [8.39173, 9.69137, -7.84],
			"rotation": {"angle": 0, "axis": "y", "origin": [8.34173, 9.51837, -7.47]},
			"faces": {
				"north": {"uv": [2, 3.25, 2, 3.375], "rotation": 180, "texture": "#0"},
				"east": {"uv": [2, 3.25, 2, 3.375], "rotation": 180, "texture": "#0"},
				"south": {"uv": [2, 3.25, 2, 3.375], "rotation": 180, "texture": "#0"},
				"west": {"uv": [2, 3.25, 2, 3.375], "rotation": 180, "texture": "#0"},
				"up": {"uv": [2, 3.25, 2, 3.375], "rotation": 180, "texture": "#0"},
				"down": {"uv": [2, 3.25, 2, 3.375], "rotation": 180, "texture": "#0"}
			}
		},
		{
			"from": [8.25973, 9.54637, -7.74],
			"to": [8.39173, 9.69137, -7.552],
			"rotation": {"angle": 0, "axis": "y", "origin": [8.34173, 9.51837, -7.182]},
			"faces": {
				"north": {"uv": [2, 3.25, 2, 3.375], "rotation": 180, "texture": "#0"},
				"east": {"uv": [2, 3.25, 2, 3.375], "rotation": 180, "texture": "#0"},
				"south": {"uv": [2, 3.25, 2, 3.375], "rotation": 180, "texture": "#0"},
				"west": {"uv": [2, 3.25, 2, 3.375], "rotation": 180, "texture": "#0"},
				"up": {"uv": [2, 3.25, 2, 3.375], "rotation": 180, "texture": "#0"},
				"down": {"uv": [2, 3.25, 2, 3.375], "rotation": 180, "texture": "#0"}
			}
		},
		{
			"from": [7.66387, 9.54637, -8.316],
			"to": [7.79587, 9.69137, -8.128],
			"rotation": {"angle": 0, "axis": "y", "origin": [7.71387, 9.51837, -7.758]},
			"faces": {
				"north": {"uv": [2, 3.25, 2, 3.375], "rotation": 180, "texture": "#0"},
				"east": {"uv": [2, 3.25, 2, 3.375], "rotation": 180, "texture": "#0"},
				"south": {"uv": [2, 3.25, 2, 3.375], "rotation": 180, "texture": "#0"},
				"west": {"uv": [2, 3.25, 2, 3.375], "rotation": 180, "texture": "#0"},
				"up": {"uv": [2, 3.25, 2, 3.375], "rotation": 180, "texture": "#0"},
				"down": {"uv": [2, 3.25, 2, 3.375], "rotation": 180, "texture": "#0"}
			}
		},
		{
			"from": [7.66387, 9.54637, -7.452],
			"to": [7.79587, 9.69137, -7.264],
			"rotation": {"angle": 0, "axis": "y", "origin": [7.71387, 9.51837, -6.894]},
			"faces": {
				"north": {"uv": [2, 3.25, 2, 3.375], "rotation": 180, "texture": "#0"},
				"east": {"uv": [2, 3.25, 2, 3.375], "rotation": 180, "texture": "#0"},
				"south": {"uv": [2, 3.25, 2, 3.375], "rotation": 180, "texture": "#0"},
				"west": {"uv": [2, 3.25, 2, 3.375], "rotation": 180, "texture": "#0"},
				"up": {"uv": [2, 3.25, 2, 3.375], "rotation": 180, "texture": "#0"},
				"down": {"uv": [2, 3.25, 2, 3.375], "rotation": 180, "texture": "#0"}
			}
		},
		{
			"from": [7.66387, 9.54637, -8.028],
			"to": [7.79587, 9.69137, -7.84],
			"rotation": {"angle": 0, "axis": "y", "origin": [7.71387, 9.51837, -7.47]},
			"faces": {
				"north": {"uv": [2, 3.25, 2, 3.375], "rotation": 180, "texture": "#0"},
				"east": {"uv": [2, 3.25, 2, 3.375], "rotation": 180, "texture": "#0"},
				"south": {"uv": [2, 3.25, 2, 3.375], "rotation": 180, "texture": "#0"},
				"west": {"uv": [2, 3.25, 2, 3.375], "rotation": 180, "texture": "#0"},
				"up": {"uv": [2, 3.25, 2, 3.375], "rotation": 180, "texture": "#0"},
				"down": {"uv": [2, 3.25, 2, 3.375], "rotation": 180, "texture": "#0"}
			}
		},
		{
			"from": [7.66387, 9.54637, -7.74],
			"to": [7.79587, 9.69137, -7.552],
			"rotation": {"angle": 0, "axis": "y", "origin": [7.71387, 9.51837, -7.182]},
			"faces": {
				"north": {"uv": [2, 3.25, 2, 3.375], "rotation": 180, "texture": "#0"},
				"east": {"uv": [2, 3.25, 2, 3.375], "rotation": 180, "texture": "#0"},
				"south": {"uv": [2, 3.25, 2, 3.375], "rotation": 180, "texture": "#0"},
				"west": {"uv": [2, 3.25, 2, 3.375], "rotation": 180, "texture": "#0"},
				"up": {"uv": [2, 3.25, 2, 3.375], "rotation": 180, "texture": "#0"},
				"down": {"uv": [2, 3.25, 2, 3.375], "rotation": 180, "texture": "#0"}
			}
		},
		{
			"from": [7.9278, 9.76129, -7.292],
			"to": [8.1278, 9.86129, -7.04],
			"rotation": {"angle": 0, "axis": "y", "origin": [7.76922, 9.71986, -19.86]},
			"faces": {
				"north": {"uv": [2, 3.25, 2, 3.375], "rotation": 270, "texture": "#0"},
				"east": {"uv": [2, 3.25, 2, 3.375], "rotation": 270, "texture": "#0"},
				"south": {"uv": [2, 3.25, 2, 3.375], "rotation": 270, "texture": "#0"},
				"west": {"uv": [2, 3.25, 2, 3.375], "rotation": 270, "texture": "#0"},
				"up": {"uv": [2, 3.25, 2, 3.375], "rotation": 270, "texture": "#0"},
				"down": {"uv": [2, 3.25, 2, 3.375], "rotation": 270, "texture": "#0"}
			}
		},
		{
			"from": [7.9278, 9.76129, -8.316],
			"to": [8.1278, 9.86129, -8.256],
			"rotation": {"angle": 0, "axis": "y", "origin": [7.76922, 9.71986, -20.884]},
			"faces": {
				"north": {"uv": [2, 3.25, 2, 3.375], "rotation": 270, "texture": "#0"},
				"east": {"uv": [2, 3.25, 2, 3.375], "rotation": 270, "texture": "#0"},
				"south": {"uv": [2, 3.25, 2, 3.375], "rotation": 270, "texture": "#0"},
				"west": {"uv": [2, 3.25, 2, 3.375], "rotation": 270, "texture": "#0"},
				"up": {"uv": [2, 3.25, 2, 3.375], "rotation": 270, "texture": "#0"},
				"down": {"uv": [2, 3.25, 2, 3.375], "rotation": 270, "texture": "#0"}
			}
		},
		{
			"from": [7.8958, 9.79329, -8.316],
			"to": [8.1598, 9.92529, -7.264],
			"rotation": {"angle": 0, "axis": "y", "origin": [7.76922, 9.78386, -20.532]},
			"faces": {
				"north": {"uv": [2, 3.25, 2, 3.375], "rotation": 270, "texture": "#0"},
				"east": {"uv": [2, 3.25, 2, 3.375], "rotation": 270, "texture": "#0"},
				"south": {"uv": [2, 3.25, 2, 3.375], "rotation": 270, "texture": "#0"},
				"west": {"uv": [2, 3.25, 2, 3.375], "rotation": 270, "texture": "#0"},
				"up": {"uv": [2, 3.25, 2, 3.375], "rotation": 270, "texture": "#0"},
				"down": {"uv": [2, 3.25, 2, 3.375], "rotation": 270, "texture": "#0"}
			}
		},
		{
			"from": [7.69038, 9.42936, -8.316],
			"to": [7.82238, 9.75736, -8.128],
			"rotation": {"angle": -45, "axis": "z", "origin": [7.9958, 9.59336, -7.982]},
			"faces": {
				"north": {"uv": [2, 3.25, 2, 3.375], "rotation": 180, "texture": "#0"},
				"east": {"uv": [2, 3.25, 2, 3.375], "rotation": 180, "texture": "#0"},
				"south": {"uv": [2, 3.25, 2, 3.375], "rotation": 180, "texture": "#0"},
				"west": {"uv": [2, 3.25, 2, 3.375], "rotation": 180, "texture": "#0"},
				"up": {"uv": [2, 3.25, 2, 3.375], "rotation": 180, "texture": "#0"},
				"down": {"uv": [2, 3.25, 2, 3.375], "rotation": 180, "texture": "#0"}
			}
		},
		{
			"from": [7.69038, 9.68536, -8.316],
			"to": [7.82238, 9.75736, -7.424],
			"rotation": {"angle": -45, "axis": "z", "origin": [7.9958, 9.59336, -7.982]},
			"faces": {
				"north": {"uv": [2, 3.25, 2, 3.375], "rotation": 180, "texture": "#0"},
				"east": {"uv": [2, 3.25, 2, 3.375], "rotation": 180, "texture": "#0"},
				"south": {"uv": [2, 3.25, 2, 3.375], "rotation": 180, "texture": "#0"},
				"west": {"uv": [2, 3.25, 2, 3.375], "rotation": 180, "texture": "#0"},
				"up": {"uv": [2, 3.25, 2, 3.375], "rotation": 180, "texture": "#0"},
				"down": {"uv": [2, 3.25, 2, 3.375], "rotation": 180, "texture": "#0"}
			}
		},
		{
			"from": [7.69038, 9.42936, -7.452],
			"to": [7.82238, 9.75736, -7.264],
			"rotation": {"angle": -45, "axis": "z", "origin": [7.9958, 9.59336, -7.118]},
			"faces": {
				"north": {"uv": [2, 3.25, 2, 3.375], "rotation": 180, "texture": "#0"},
				"east": {"uv": [2, 3.25, 2, 3.375], "rotation": 180, "texture": "#0"},
				"south": {"uv": [2, 3.25, 2, 3.375], "rotation": 180, "texture": "#0"},
				"west": {"uv": [2, 3.25, 2, 3.375], "rotation": 180, "texture": "#0"},
				"up": {"uv": [2, 3.25, 2, 3.375], "rotation": 180, "texture": "#0"},
				"down": {"uv": [2, 3.25, 2, 3.375], "rotation": 180, "texture": "#0"}
			}
		},
		{
			"from": [7.69038, 9.42936, -8.028],
			"to": [7.82238, 9.75736, -7.84],
			"rotation": {"angle": -45, "axis": "z", "origin": [7.9958, 9.59336, -7.694]},
			"faces": {
				"north": {"uv": [2, 3.25, 2, 3.375], "rotation": 180, "texture": "#0"},
				"east": {"uv": [2, 3.25, 2, 3.375], "rotation": 180, "texture": "#0"},
				"south": {"uv": [2, 3.25, 2, 3.375], "rotation": 180, "texture": "#0"},
				"west": {"uv": [2, 3.25, 2, 3.375], "rotation": 180, "texture": "#0"},
				"up": {"uv": [2, 3.25, 2, 3.375], "rotation": 180, "texture": "#0"},
				"down": {"uv": [2, 3.25, 2, 3.375], "rotation": 180, "texture": "#0"}
			}
		},
		{
			"from": [7.69038, 9.42936, -7.74],
			"to": [7.82238, 9.75736, -7.552],
			"rotation": {"angle": -45, "axis": "z", "origin": [7.9958, 9.59336, -7.406]},
			"faces": {
				"north": {"uv": [2, 3.25, 2, 3.375], "rotation": 180, "texture": "#0"},
				"east": {"uv": [2, 3.25, 2, 3.375], "rotation": 180, "texture": "#0"},
				"south": {"uv": [2, 3.25, 2, 3.375], "rotation": 180, "texture": "#0"},
				"west": {"uv": [2, 3.25, 2, 3.375], "rotation": 180, "texture": "#0"},
				"up": {"uv": [2, 3.25, 2, 3.375], "rotation": 180, "texture": "#0"},
				"down": {"uv": [2, 3.25, 2, 3.375], "rotation": 180, "texture": "#0"}
			}
		},
		{
			"from": [7.8318, 9.34095, -8.316],
			"to": [8.1598, 9.47295, -8.128],
			"rotation": {"angle": -45, "axis": "z", "origin": [7.9958, 9.64637, -7.982]},
			"faces": {
				"north": {"uv": [2, 3.25, 2, 3.375], "rotation": 90, "texture": "#0"},
				"east": {"uv": [2, 3.25, 2, 3.375], "rotation": 90, "texture": "#0"},
				"south": {"uv": [2, 3.25, 2, 3.375], "rotation": 90, "texture": "#0"},
				"west": {"uv": [2, 3.25, 2, 3.375], "rotation": 90, "texture": "#0"},
				"up": {"uv": [2, 3.25, 2, 3.375], "rotation": 90, "texture": "#0"},
				"down": {"uv": [2, 3.25, 2, 3.375], "rotation": 90, "texture": "#0"}
			}
		},
		{
			"from": [8.0558, 9.34095, -8.316],
			"to": [8.1598, 9.47295, -7.392],
			"rotation": {"angle": -45, "axis": "z", "origin": [7.9958, 9.64637, -7.982]},
			"faces": {
				"north": {"uv": [2, 3.25, 2, 3.375], "rotation": 90, "texture": "#0"},
				"east": {"uv": [2, 3.25, 2, 3.375], "rotation": 90, "texture": "#0"},
				"south": {"uv": [2, 3.25, 2, 3.375], "rotation": 90, "texture": "#0"},
				"west": {"uv": [2.375, 3.375, 2.375, 3.5], "rotation": 90, "texture": "#0"},
				"up": {"uv": [2, 3.25, 2, 3.375], "rotation": 90, "texture": "#0"},
				"down": {"uv": [2, 3.25, 2, 3.375], "rotation": 90, "texture": "#0"}
			}
		},
		{
			"from": [7.8318, 9.34095, -7.452],
			"to": [8.1598, 9.47295, -7.264],
			"rotation": {"angle": -45, "axis": "z", "origin": [7.9958, 9.64637, -7.118]},
			"faces": {
				"north": {"uv": [2, 3.25, 2, 3.375], "rotation": 90, "texture": "#0"},
				"east": {"uv": [2, 3.25, 2, 3.375], "rotation": 90, "texture": "#0"},
				"south": {"uv": [2, 3.25, 2, 3.375], "rotation": 90, "texture": "#0"},
				"west": {"uv": [2, 3.25, 2, 3.375], "rotation": 90, "texture": "#0"},
				"up": {"uv": [2, 3.25, 2, 3.375], "rotation": 90, "texture": "#0"},
				"down": {"uv": [2, 3.25, 2, 3.375], "rotation": 90, "texture": "#0"}
			}
		},
		{
			"from": [7.8318, 9.34095, -8.028],
			"to": [8.1598, 9.47295, -7.84],
			"rotation": {"angle": -45, "axis": "z", "origin": [7.9958, 9.64637, -7.694]},
			"faces": {
				"north": {"uv": [2, 3.25, 2, 3.375], "rotation": 90, "texture": "#0"},
				"east": {"uv": [2, 3.25, 2, 3.375], "rotation": 90, "texture": "#0"},
				"south": {"uv": [2, 3.25, 2, 3.375], "rotation": 90, "texture": "#0"},
				"west": {"uv": [2, 3.25, 2, 3.375], "rotation": 90, "texture": "#0"},
				"up": {"uv": [2, 3.25, 2, 3.375], "rotation": 90, "texture": "#0"},
				"down": {"uv": [2, 3.25, 2, 3.375], "rotation": 90, "texture": "#0"}
			}
		},
		{
			"from": [7.8318, 9.34095, -7.74],
			"to": [8.1598, 9.47295, -7.552],
			"rotation": {"angle": -45, "axis": "z", "origin": [7.9958, 9.64637, -7.406]},
			"faces": {
				"north": {"uv": [2, 3.25, 2, 3.375], "rotation": 90, "texture": "#0"},
				"east": {"uv": [2, 3.25, 2, 3.375], "rotation": 90, "texture": "#0"},
				"south": {"uv": [2, 3.25, 2, 3.375], "rotation": 90, "texture": "#0"},
				"west": {"uv": [2, 3.25, 2, 3.375], "rotation": 90, "texture": "#0"},
				"up": {"uv": [2, 3.25, 2, 3.375], "rotation": 90, "texture": "#0"},
				"down": {"uv": [2, 3.25, 2, 3.375], "rotation": 90, "texture": "#0"}
			}
		},
		{
			"from": [7.78637, 9.51986, -7.292],
			"to": [7.88637, 9.71986, -7.04],
			"rotation": {"angle": 0, "axis": "y", "origin": [7.83637, 9.61986, -7.11]},
			"faces": {
				"north": {"uv": [2, 3.25, 2, 3.375], "rotation": 270, "texture": "#0"},
				"east": {"uv": [2, 3.25, 2, 3.375], "rotation": 270, "texture": "#0"},
				"south": {"uv": [2, 3.25, 2, 3.375], "rotation": 270, "texture": "#0"},
				"west": {"uv": [2, 3.25, 2, 3.375], "rotation": 270, "texture": "#0"},
				"up": {"uv": [2, 3.25, 2, 3.375], "rotation": 270, "texture": "#0"},
				"down": {"uv": [2, 3.25, 2, 3.375], "rotation": 270, "texture": "#0"}
			}
		},
		{
			"from": [7.78637, 9.51986, -8.316],
			"to": [7.88637, 9.71986, -8.256],
			"rotation": {"angle": 0, "axis": "y", "origin": [7.83637, 9.61986, -8.134]},
			"faces": {
				"north": {"uv": [2, 3.25, 2, 3.375], "rotation": 270, "texture": "#0"},
				"east": {"uv": [2, 3.25, 2, 3.375], "rotation": 270, "texture": "#0"},
				"south": {"uv": [2, 3.25, 2, 3.375], "rotation": 270, "texture": "#0"},
				"west": {"uv": [2, 3.25, 2, 3.375], "rotation": 270, "texture": "#0"},
				"up": {"uv": [2, 3.25, 2, 3.375], "rotation": 270, "texture": "#0"},
				"down": {"uv": [2, 3.25, 2, 3.375], "rotation": 270, "texture": "#0"}
			}
		},
		{
			"from": [8.16922, 9.51986, -7.292],
			"to": [8.26922, 9.71986, -7.04],
			"rotation": {"angle": 0, "axis": "y", "origin": [8.21922, 9.61986, -7.11]},
			"faces": {
				"north": {"uv": [2, 3.25, 2, 3.375], "rotation": 270, "texture": "#0"},
				"east": {"uv": [2, 3.25, 2, 3.375], "rotation": 270, "texture": "#0"},
				"south": {"uv": [2, 3.25, 2, 3.375], "rotation": 270, "texture": "#0"},
				"west": {"uv": [2, 3.25, 2, 3.375], "rotation": 270, "texture": "#0"},
				"up": {"uv": [2, 3.25, 2, 3.375], "rotation": 270, "texture": "#0"},
				"down": {"uv": [2, 3.25, 2, 3.375], "rotation": 270, "texture": "#0"}
			}
		},
		{
			"from": [8.16922, 9.51986, -8.316],
			"to": [8.26922, 9.71986, -8.256],
			"rotation": {"angle": 0, "axis": "y", "origin": [8.21922, 9.61986, -8.134]},
			"faces": {
				"north": {"uv": [2, 3.25, 2, 3.375], "rotation": 270, "texture": "#0"},
				"east": {"uv": [2, 3.25, 2, 3.375], "rotation": 270, "texture": "#0"},
				"south": {"uv": [2, 3.25, 2, 3.375], "rotation": 270, "texture": "#0"},
				"west": {"uv": [2, 3.25, 2, 3.375], "rotation": 270, "texture": "#0"},
				"up": {"uv": [2, 3.25, 2, 3.375], "rotation": 270, "texture": "#0"},
				"down": {"uv": [2, 3.25, 2, 3.375], "rotation": 270, "texture": "#0"}
			}
		},
		{
			"from": [7.9278, 9.37844, -7.292],
			"to": [8.1278, 9.47844, -7.04],
			"rotation": {"angle": 45, "axis": "z", "origin": [8.0278, 9.61986, -6.11]},
			"faces": {
				"north": {"uv": [2, 3.25, 2, 3.375], "rotation": 270, "texture": "#0"},
				"east": {"uv": [2, 3.25, 2, 3.375], "rotation": 270, "texture": "#0"},
				"south": {"uv": [2, 3.25, 2, 3.375], "rotation": 270, "texture": "#0"},
				"west": {"uv": [2, 3.25, 2, 3.375], "rotation": 270, "texture": "#0"},
				"up": {"uv": [2, 3.25, 2, 3.375], "rotation": 270, "texture": "#0"},
				"down": {"uv": [2, 3.25, 2, 3.375], "rotation": 270, "texture": "#0"}
			}
		},
		{
			"from": [7.9278, 9.37844, -8.316],
			"to": [8.1278, 9.47844, -8.256],
			"rotation": {"angle": 45, "axis": "z", "origin": [8.0278, 9.61986, -7.134]},
			"faces": {
				"north": {"uv": [2, 3.25, 2, 3.375], "rotation": 270, "texture": "#0"},
				"east": {"uv": [2, 3.25, 2, 3.375], "rotation": 270, "texture": "#0"},
				"south": {"uv": [2, 3.25, 2, 3.375], "rotation": 270, "texture": "#0"},
				"west": {"uv": [2, 3.25, 2, 3.375], "rotation": 270, "texture": "#0"},
				"up": {"uv": [2, 3.25, 2, 3.375], "rotation": 270, "texture": "#0"},
				"down": {"uv": [2, 3.25, 2, 3.375], "rotation": 270, "texture": "#0"}
			}
		},
		{
			"from": [7.9278, 9.76129, -7.292],
			"to": [8.1278, 9.86129, -7.04],
			"rotation": {"angle": 45, "axis": "z", "origin": [8.0278, 9.61986, -6.11]},
			"faces": {
				"north": {"uv": [2, 3.25, 2, 3.375], "rotation": 270, "texture": "#0"},
				"east": {"uv": [2, 3.25, 2, 3.375], "rotation": 270, "texture": "#0"},
				"south": {"uv": [2, 3.25, 2, 3.375], "rotation": 270, "texture": "#0"},
				"west": {"uv": [2, 3.25, 2, 3.375], "rotation": 270, "texture": "#0"},
				"up": {"uv": [2, 3.25, 2, 3.375], "rotation": 270, "texture": "#0"},
				"down": {"uv": [2, 3.25, 2, 3.375], "rotation": 270, "texture": "#0"}
			}
		},
		{
			"from": [7.9278, 9.76129, -8.316],
			"to": [8.1278, 9.86129, -8.256],
			"rotation": {"angle": 45, "axis": "z", "origin": [8.0278, 9.61986, -7.134]},
			"faces": {
				"north": {"uv": [2, 3.25, 2, 3.375], "rotation": 270, "texture": "#0"},
				"east": {"uv": [2, 3.25, 2, 3.375], "rotation": 270, "texture": "#0"},
				"south": {"uv": [2, 3.25, 2, 3.375], "rotation": 270, "texture": "#0"},
				"west": {"uv": [2, 3.25, 2, 3.375], "rotation": 270, "texture": "#0"},
				"up": {"uv": [2, 3.25, 2, 3.375], "rotation": 270, "texture": "#0"},
				"down": {"uv": [2, 3.25, 2, 3.375], "rotation": 270, "texture": "#0"}
			}
		}
	],
	"display": {
		"thirdperson_righthand": {
			"rotation": [0.5, 0, 1.25],
			"translation": [-1.25, -0.75, -6],
			"scale": [1, 1, 0.83]
		},
		"thirdperson_lefthand": {
			"rotation": [3, 0, 0],
			"translation": [-0.75, -0.75, -5.75],
			"scale": [1, 1, 0.83]
		},
		"firstperson_righthand": {
			"rotation": [1, 1, 0],
			"translation": [-5.25, 3.5, -0.75],
			"scale": [1.19, 1.14, 0.87]
		},
		"firstperson_lefthand": {
			"rotation": [1, 1, 0],
			"translation": [-3.5, 3.25, -4.5],
			"scale": [1.19, 1.14, 0.87]
		},
		"ground": {
			"translation": [0, 0, -3.25]
		},
		"gui": {
			"rotation": [11, 16, -16],
			"translation": [-0.75, -0.25, 0],
			"scale": [1.25, 1.28, 1.60945]
		},
		"head": {
			"rotation": [0, -139, 90],
			"translation": [2.5, 6.5, 4.5],
			"scale": [1.36, 1.36, 1.36]
		},
		"fixed": {
			"rotation": [0, -90, 0],
			"translation": [4, 0, -1.75],
			"scale": [1.58, 1.39, 1.28]
		}
	}
}