{
	"credit": "Made with Blockbench",
	"texture_size": [512, 512],
	"textures": {
		"6": "ямодели/texture1",
		"8": "ямодели/texture3"
	},
	"elements": [
		{
			"name": "supressor",
			"from": [8.13776, 4.15659, -1.96611],
			"to": [8.86959, 4.88482, 1.18174],
			"rotation": {"angle": 0, "axis": "y", "origin": [7.53565, 11.20763, 14.90713]},
			"faces": {
				"north": {"uv": [0.032, 0.032, 0.38078, 0.37891], "texture": "#8"},
				"east": {"uv": [0.032, 0.032, 0.75, 0.37891], "texture": "#6"},
				"south": {"uv": [0.032, 0.032, 0.38078, 0.37891], "texture": "#6"},
				"west": {"uv": [0.032, 0.032, 0.75, 0.37891], "texture": "#6"},
				"up": {"uv": [0.032, 0.032, 0.38078, 0.75], "texture": "#6"},
				"down": {"uv": [0.032, 0.032, 0.38078, 0.75], "texture": "#6"}
			}
		},
		{
			"name": "supressor",
			"from": [8.24753, 4.26582, 1.08185],
			"to": [8.75981, 4.77558, 1.41893],
			"rotation": {"angle": 0, "axis": "y", "origin": [7.82606, 9.20155, 10.81421]},
			"faces": {
				"north": {"uv": [0.032, 0.032, 0.38078, 0.37891], "texture": "#8"},
				"east": {"uv": [0.032, 0.032, 0.75, 0.37891], "texture": "#6"},
				"south": {"uv": [0.032, 0.032, 0.38078, 0.37891], "texture": "#6"},
				"west": {"uv": [0.032, 0.032, 0.75, 0.37891], "texture": "#6"},
				"up": {"uv": [0.032, 0.032, 0.38078, 0.75], "texture": "#6"},
				"down": {"uv": [0.032, 0.032, 0.38078, 0.75], "texture": "#6"}
			}
		}
	],
	"display": {
		"thirdperson_righthand": {
			"translation": [0, 7.5, -2.75],
			"scale": [1.5, 1.5, 1.5]
		},
		"thirdperson_lefthand": {
			"translation": [0, 7.5, -2.75],
			"scale": [1.5, 1.5, 1.5]
		},
		"firstperson_righthand": {
			"translation": [-8, 11, 6.5]
		},
		"firstperson_lefthand": {
			"translation": [-7, 11, 6.5]
		},
		"ground": {
			"translation": [0, 4.25, 0]
		},
		"gui": {
			"rotation": [0, 94, 0],
			"translation": [0, 4.75, 0]
		},
		"head": {
			"translation": [0, 10.75, -6]
		},
		"fixed": {
			"rotation": [0, 93, 0],
			"translation": [-0.25, 4.25, 0],
			"scale": [1.2, 1.2, 1.2]
		}
	},
	"groups": [
		{
			"name": "supressor",
			"origin": [7.82606, 9.20155, 10.81421],
			"children": [0, 1]
		}
	]
}