{
    "textures": {
        "0": "gci:items/common/mpz",
        "particle": "gci:items/common/mpz"
    },
    "elements": [
        {
            "from": [
                1.58635,
                2.97419,
                0.79726
            ],
            "to": [
                2.24283,
                4.51739,
                1.77278
            ],
            "rotation": {
                "angle": 0,
                "axis": "y",
                "origin": [
                    1.86342,
                    3.15059,
                    0.26942
                ]
            },
            "faces": {
                "north": {
                    "uv": [
                        6,
                        3.66666,
                        6.66667,
                        4
                    ],
                    "rotation": 270,
                    "texture": "#0"
                },
                "east": {
                    "uv": [
                        6,
                        3.66666,
                        6.66667,
                        4
                    ],
                    "rotation": 270,
                    "texture": "#0"
                },
                "south": {
                    "uv": [
                        6,
                        3.66666,
                        6.66667,
                        4
                    ],
                    "rotation": 270,
                    "texture": "#0"
                },
                "west": {
                    "uv": [
                        6,
                        3.66666,
                        6.66667,
                        4
                    ],
                    "rotation": 270,
                    "texture": "#0"
                },
                "up": {
                    "uv": [
                        6,
                        3.66666,
                        6.66667,
                        4
                    ],
                    "rotation": 270,
                    "texture": "#0"
                },
                "down": {
                    "uv": [
                        6,
                        3.66666,
                        6.66667,
                        4
                    ],
                    "rotation": 270,
                    "texture": "#0"
                }
            }
        },
        {
            "from": [
                1.58635,
                1.75354,
                0.65392
            ],
            "to": [
                2.24283,
                3.19674,
                1.62944
            ],
            "rotation": {
                "angle": 22.5,
                "axis": "x",
                "origin": [
                    1.91459,
                    2.72514,
                    1.14168
                ]
            },
            "faces": {
                "north": {
                    "uv": [
                        6,
                        3.66666,
                        6.66667,
                        4
                    ],
                    "rotation": 270,
                    "texture": "#0"
                },
                "east": {
                    "uv": [
                        6,
                        3.66666,
                        6.66667,
                        4
                    ],
                    "rotation": 270,
                    "texture": "#0"
                },
                "south": {
                    "uv": [
                        6,
                        3.66666,
                        6.66667,
                        4
                    ],
                    "rotation": 270,
                    "texture": "#0"
                },
                "west": {
                    "uv": [
                        6,
                        3.66666,
                        6.66667,
                        4
                    ],
                    "rotation": 270,
                    "texture": "#0"
                },
                "up": {
                    "uv": [
                        6,
                        3.66666,
                        6.66667,
                        4
                    ],
                    "rotation": 270,
                    "texture": "#0"
                },
                "down": {
                    "uv": [
                        6,
                        3.66666,
                        6.66667,
                        4
                    ],
                    "rotation": 270,
                    "texture": "#0"
                }
            }
        },
        {
            "from": [
                1.56135,
                1.77854,
                1.45392
            ],
            "to": [
                2.26783,
                3.19674,
                1.52944
            ],
            "rotation": {
                "angle": 22.5,
                "axis": "x",
                "origin": [
                    1.91459,
                    2.72514,
                    1.04168
                ]
            },
            "faces": {
                "north": {
                    "uv": [
                        6,
                        3.66666,
                        6.66667,
                        4
                    ],
                    "rotation": 270,
                    "texture": "#0"
                },
                "east": {
                    "uv": [
                        6,
                        3.66666,
                        6.66667,
                        4
                    ],
                    "rotation": 270,
                    "texture": "#0"
                },
                "south": {
                    "uv": [
                        6,
                        3.66666,
                        6.66667,
                        4
                    ],
                    "rotation": 270,
                    "texture": "#0"
                },
                "west": {
                    "uv": [
                        6,
                        3.66666,
                        6.66667,
                        4
                    ],
                    "rotation": 270,
                    "texture": "#0"
                },
                "up": {
                    "uv": [
                        6,
                        3.66666,
                        6.66667,
                        4
                    ],
                    "rotation": 270,
                    "texture": "#0"
                },
                "down": {
                    "uv": [
                        6,
                        3.66666,
                        6.66667,
                        4
                    ],
                    "rotation": 270,
                    "texture": "#0"
                }
            }
        },
        {
            "from": [
                1.56135,
                2.97419,
                1.59726
            ],
            "to": [
                2.26783,
                4.51739,
                1.67278
            ],
            "rotation": {
                "angle": 0,
                "axis": "y",
                "origin": [
                    1.86342,
                    3.15059,
                    0.16942
                ]
            },
            "faces": {
                "north": {
                    "uv": [
                        6,
                        3.66666,
                        6.66667,
                        4
                    ],
                    "rotation": 270,
                    "texture": "#0"
                },
                "east": {
                    "uv": [
                        6,
                        3.66666,
                        6.66667,
                        4
                    ],
                    "rotation": 270,
                    "texture": "#0"
                },
                "south": {
                    "uv": [
                        6,
                        3.66666,
                        6.66667,
                        4
                    ],
                    "rotation": 270,
                    "texture": "#0"
                },
                "west": {
                    "uv": [
                        6,
                        3.66666,
                        6.66667,
                        4
                    ],
                    "rotation": 270,
                    "texture": "#0"
                },
                "up": {
                    "uv": [
                        6,
                        3.66666,
                        6.66667,
                        4
                    ],
                    "rotation": 270,
                    "texture": "#0"
                },
                "down": {
                    "uv": [
                        6,
                        3.66666,
                        6.66667,
                        4
                    ],
                    "rotation": 270,
                    "texture": "#0"
                }
            }
        },
        {
            "from": [
                1.56135,
                1.90354,
                1.15392
            ],
            "to": [
                2.26783,
                3.29674,
                1.22944
            ],
            "rotation": {
                "angle": 22.5,
                "axis": "x",
                "origin": [
                    1.91459,
                    2.82514,
                    0.74168
                ]
            },
            "faces": {
                "north": {
                    "uv": [
                        6,
                        3.66666,
                        6.66667,
                        4
                    ],
                    "rotation": 270,
                    "texture": "#0"
                },
                "east": {
                    "uv": [
                        6,
                        3.66666,
                        6.66667,
                        4
                    ],
                    "rotation": 270,
                    "texture": "#0"
                },
                "south": {
                    "uv": [
                        6,
                        3.66666,
                        6.66667,
                        4
                    ],
                    "rotation": 270,
                    "texture": "#0"
                },
                "west": {
                    "uv": [
                        6,
                        3.66666,
                        6.66667,
                        4
                    ],
                    "rotation": 270,
                    "texture": "#0"
                },
                "up": {
                    "uv": [
                        6,
                        3.66666,
                        6.66667,
                        4
                    ],
                    "rotation": 270,
                    "texture": "#0"
                },
                "down": {
                    "uv": [
                        6,
                        3.66666,
                        6.66667,
                        4
                    ],
                    "rotation": 270,
                    "texture": "#0"
                }
            }
        },
        {
            "from": [
                1.56135,
                3.07419,
                1.29726
            ],
            "to": [
                2.26783,
                4.51739,
                1.37278
            ],
            "rotation": {
                "angle": 0,
                "axis": "y",
                "origin": [
                    1.86342,
                    3.25059,
                    -0.13058
                ]
            },
            "faces": {
                "north": {
                    "uv": [
                        6,
                        3.66666,
                        6.66667,
                        4
                    ],
                    "rotation": 270,
                    "texture": "#0"
                },
                "east": {
                    "uv": [
                        6,
                        3.66666,
                        6.66667,
                        4
                    ],
                    "rotation": 270,
                    "texture": "#0"
                },
                "south": {
                    "uv": [
                        6,
                        3.66666,
                        6.66667,
                        4
                    ],
                    "rotation": 270,
                    "texture": "#0"
                },
                "west": {
                    "uv": [
                        6,
                        3.66666,
                        6.66667,
                        4
                    ],
                    "rotation": 270,
                    "texture": "#0"
                },
                "up": {
                    "uv": [
                        6,
                        3.66666,
                        6.66667,
                        4
                    ],
                    "rotation": 270,
                    "texture": "#0"
                },
                "down": {
                    "uv": [
                        6,
                        3.66666,
                        6.66667,
                        4
                    ],
                    "rotation": 270,
                    "texture": "#0"
                }
            }
        },
        {
            "from": [
                1.56135,
                3.22419,
                0.97226
            ],
            "to": [
                2.26783,
                4.56739,
                1.04778
            ],
            "rotation": {
                "angle": 0,
                "axis": "y",
                "origin": [
                    1.86342,
                    3.40059,
                    -0.45558
                ]
            },
            "faces": {
                "north": {
                    "uv": [
                        6,
                        3.66666,
                        6.66667,
                        4
                    ],
                    "rotation": 270,
                    "texture": "#0"
                },
                "east": {
                    "uv": [
                        6,
                        3.66666,
                        6.66667,
                        4
                    ],
                    "rotation": 270,
                    "texture": "#0"
                },
                "south": {
                    "uv": [
                        6,
                        3.66666,
                        6.66667,
                        4
                    ],
                    "rotation": 270,
                    "texture": "#0"
                },
                "west": {
                    "uv": [
                        6,
                        3.66666,
                        6.66667,
                        4
                    ],
                    "rotation": 270,
                    "texture": "#0"
                },
                "up": {
                    "uv": [
                        6,
                        3.66666,
                        6.66667,
                        4
                    ],
                    "rotation": 270,
                    "texture": "#0"
                },
                "down": {
                    "uv": [
                        6,
                        3.66666,
                        6.66667,
                        4
                    ],
                    "rotation": 270,
                    "texture": "#0"
                }
            }
        },
        {
            "from": [
                1.56135,
                2.05354,
                0.82892
            ],
            "to": [
                2.26783,
                3.44674,
                0.90444
            ],
            "rotation": {
                "angle": 22.5,
                "axis": "x",
                "origin": [
                    1.91459,
                    2.97514,
                    0.41668
                ]
            },
            "faces": {
                "north": {
                    "uv": [
                        6,
                        3.66666,
                        6.66667,
                        4
                    ],
                    "rotation": 270,
                    "texture": "#0"
                },
                "east": {
                    "uv": [
                        6,
                        3.66666,
                        6.66667,
                        4
                    ],
                    "rotation": 270,
                    "texture": "#0"
                },
                "south": {
                    "uv": [
                        6,
                        3.66666,
                        6.66667,
                        4
                    ],
                    "rotation": 270,
                    "texture": "#0"
                },
                "west": {
                    "uv": [
                        6,
                        3.66666,
                        6.66667,
                        4
                    ],
                    "rotation": 270,
                    "texture": "#0"
                },
                "up": {
                    "uv": [
                        6,
                        3.66666,
                        6.66667,
                        4
                    ],
                    "rotation": 270,
                    "texture": "#0"
                },
                "down": {
                    "uv": [
                        6,
                        3.66666,
                        6.66667,
                        4
                    ],
                    "rotation": 270,
                    "texture": "#0"
                }
            }
        },
        {
            "from": [
                1.55353,
                1.71504,
                0.64171
            ],
            "to": [
                2.27566,
                1.74254,
                1.71478
            ],
            "rotation": {
                "angle": 22.5,
                "axis": "x",
                "origin": [
                    1.91459,
                    2.87378,
                    1.20324
                ]
            },
            "faces": {
                "north": {
                    "uv": [
                        6,
                        3.66666,
                        6.66667,
                        4
                    ],
                    "rotation": 270,
                    "texture": "#0"
                },
                "east": {
                    "uv": [
                        6,
                        3.66666,
                        6.66667,
                        4
                    ],
                    "rotation": 270,
                    "texture": "#0"
                },
                "south": {
                    "uv": [
                        6,
                        3.66666,
                        6.66667,
                        4
                    ],
                    "rotation": 270,
                    "texture": "#0"
                },
                "west": {
                    "uv": [
                        6,
                        3.66666,
                        6.66667,
                        4
                    ],
                    "rotation": 270,
                    "texture": "#0"
                },
                "up": {
                    "uv": [
                        6,
                        3.66666,
                        6.66667,
                        4
                    ],
                    "rotation": 270,
                    "texture": "#0"
                },
                "down": {
                    "uv": [
                        6,
                        3.66666,
                        6.66667,
                        4
                    ],
                    "rotation": 270,
                    "texture": "#0"
                }
            }
        }
    ],
    "display": {
        "thirdperson_righthand": {
            "translation": [
                6.25,
                3.75,
                5
            ]
        },
        "thirdperson_lefthand": {
            "translation": [
                -6,
                3.5,
                5
            ]
        },
        "firstperson_righthand": {
            "translation": [
                2,
                9,
                13
            ],
            "scale": [
                1.25,
                1.25,
                1.25
            ]
        },
        "firstperson_lefthand": {
            "translation": [
                -13,
                9,
                13
            ],
            "scale": [
                1.25,
                1.25,
                1.25
            ]
        },
        "ground": {
            "translation": [
                7.25,
                5.5,
                10.5
            ]
        },
        "gui": {
            "rotation": [
                90,
                45,
                -90
            ],
            "translation": [
                6.25,
                -2,
                0
            ],
            "scale": [
                0.8,
                0.8,
                0.8
            ]
        },
        "head": {
            "translation": [
                2.5,
                13.5,
                0
            ]
        },
        "fixed": {
            "rotation": [
                90,
                45,
                -90
            ],
            "translation": [
                7.25,
                -2.25,
                -8
            ]
        }
    }
}