{
    "textures": {
        "0": "gci:items/common/mpz",
        "particle": "MPZ"
    },
    "elements": [
        {
            "from": [
                4.7113,
                3.2707,
                4.78937
            ],
            "to": [
                5.2887,
                3.3907,
                5.88937
            ],
            "rotation": {
                "angle": 0,
                "axis": "y",
                "origin": [
                    5.1226,
                    3.3407,
                    5.83937
                ]
            },
            "faces": {
                "north": {
                    "uv": [
                        11.16667,
                        0.6,
                        12.66667,
                        2.01667
                    ],
                    "texture": "#0"
                },
                "east": {
                    "uv": [
                        11.16667,
                        0.6,
                        12.66667,
                        2.01667
                    ],
                    "texture": "#0"
                },
                "south": {
                    "uv": [
                        11.16667,
                        0.6,
                        12.66667,
                        2.01667
                    ],
                    "texture": "#0"
                },
                "west": {
                    "uv": [
                        11.16667,
                        0.6,
                        12.66667,
                        2.01667
                    ],
                    "texture": "#0"
                },
                "up": {
                    "uv": [
                        11.16667,
                        0.6,
                        12.66667,
                        2.01667
                    ],
                    "texture": "#0"
                },
                "down": {
                    "uv": [
                        11.16667,
                        0.6,
                        12.66667,
                        2.01667
                    ],
                    "texture": "#0"
                }
            }
        },
        {
            "from": [
                4.7113,
                3.3707,
                4.98937
            ],
            "to": [
                5.2887,
                4.2907,
                5.88937
            ],
            "rotation": {
                "angle": 0,
                "axis": "y",
                "origin": [
                    5.1226,
                    3.3407,
                    5.83937
                ]
            },
            "faces": {
                "north": {
                    "uv": [
                        11.16667,
                        0.6,
                        12.66667,
                        2.01667
                    ],
                    "texture": "#0"
                },
                "east": {
                    "uv": [
                        11.16667,
                        0.6,
                        12.66667,
                        2.01667
                    ],
                    "texture": "#0"
                },
                "south": {
                    "uv": [
                        11.16667,
                        0.6,
                        12.66667,
                        2.01667
                    ],
                    "texture": "#0"
                },
                "west": {
                    "uv": [
                        11.16667,
                        0.6,
                        12.66667,
                        2.01667
                    ],
                    "texture": "#0"
                },
                "up": {
                    "uv": [
                        11.16667,
                        0.6,
                        12.66667,
                        2.01667
                    ],
                    "texture": "#0"
                },
                "down": {
                    "uv": [
                        11.16667,
                        0.6,
                        12.66667,
                        2.01667
                    ],
                    "texture": "#0"
                }
            }
        },
        {
            "from": [
                4.7113,
                4.08348,
                4.84759
            ],
            "to": [
                5.2887,
                5.00348,
                5.74759
            ],
            "rotation": {
                "angle": -22.5,
                "axis": "x",
                "origin": [
                    5,
                    4.54348,
                    5.29759
                ]
            },
            "faces": {
                "north": {
                    "uv": [
                        11.16667,
                        0.6,
                        12.66667,
                        2.01667
                    ],
                    "texture": "#0"
                },
                "east": {
                    "uv": [
                        11.16667,
                        0.6,
                        12.66667,
                        2.01667
                    ],
                    "texture": "#0"
                },
                "south": {
                    "uv": [
                        11.16667,
                        0.6,
                        12.66667,
                        2.01667
                    ],
                    "texture": "#0"
                },
                "west": {
                    "uv": [
                        11.16667,
                        0.6,
                        12.66667,
                        2.01667
                    ],
                    "texture": "#0"
                },
                "up": {
                    "uv": [
                        11.16667,
                        0.6,
                        12.66667,
                        2.01667
                    ],
                    "texture": "#0"
                },
                "down": {
                    "uv": [
                        11.16667,
                        0.6,
                        12.66667,
                        2.01667
                    ],
                    "texture": "#0"
                }
            }
        },
        {
            "from": [
                4.7113,
                4.79625,
                4.70581
            ],
            "to": [
                5.2887,
                5.71625,
                5.60581
            ],
            "rotation": {
                "angle": 0,
                "axis": "x",
                "origin": [
                    5,
                    5.25625,
                    5.15581
                ]
            },
            "faces": {
                "north": {
                    "uv": [
                        11.16667,
                        0.6,
                        12.66667,
                        2.01667
                    ],
                    "texture": "#0"
                },
                "east": {
                    "uv": [
                        11.16667,
                        0.6,
                        12.66667,
                        2.01667
                    ],
                    "texture": "#0"
                },
                "south": {
                    "uv": [
                        11.16667,
                        0.6,
                        12.66667,
                        2.01667
                    ],
                    "texture": "#0"
                },
                "west": {
                    "uv": [
                        11.16667,
                        0.6,
                        12.66667,
                        2.01667
                    ],
                    "texture": "#0"
                },
                "up": {
                    "uv": [
                        11.16667,
                        0.6,
                        12.66667,
                        2.01667
                    ],
                    "texture": "#0"
                },
                "down": {
                    "uv": [
                        11.16667,
                        0.6,
                        12.66667,
                        2.01667
                    ],
                    "texture": "#0"
                }
            }
        }
    ],
    "display": {
        "thirdperson_righthand": {
            "translation": [
                3,
                2.75,
                4.25
            ]
        },
        "thirdperson_lefthand": {
            "translation": [
                -3,
                2.75,
                4.25
            ]
        },
        "firstperson_righthand": {
            "translation": [
                -2.5,
                6.75,
                8
            ]
        },
        "firstperson_lefthand": {
            "translation": [
                -8.25,
                6.75,
                8
            ]
        },
        "ground": {
            "translation": [
                2.5,
                4.75,
                5
            ]
        },
        "gui": {
            "rotation": [
                90,
                45,
                -90
            ],
            "translation": [
                9.75,
                -2.5,
                0
            ],
            "scale": [
                2,
                2,
                2
            ]
        },
        "fixed": {
            "rotation": [
                90,
                45,
                -90
            ],
            "translation": [
                5.25,
                -0.75,
                -3.75
            ]
        }
    }
}