{
	"credit": "Made with Blockbench",
	"textures": {
		"0": "gci:items/common/mpz",
		"particle": "pics/MPZ"
	},
	"elements": [
		{
			"name": "cube3",
			"from": [7.3, 2, 7],
			"to": [7.7, 7.5, 7.2],
			"rotation": {"angle": 0, "axis": "y", "origin": [7.5, 5, 7.5]},
			"faces": {
				"north": {"uv": [3.66667, 11.33333, 4.33367, 12.66633], "texture": "#0"},
				"east": {"uv": [3.66667, 11.33333, 4.33367, 12.66633], "texture": "#0"},
				"south": {"uv": [3.66667, 11.33333, 4.33367, 12.66633], "texture": "#0"},
				"west": {"uv": [3.66667, 11.33333, 4.33367, 12.66633], "texture": "#0"},
				"up": {"uv": [3.66667, 11.33333, 4.33367, 12.66633], "texture": "#0"},
				"down": {"uv": [3.66667, 11.33333, 4.33367, 12.66633], "texture": "#0"}
			}
		},
		{
			"name": "cube4",
			"from": [7.23783, 6.65, 6.83583],
			"to": [7.77383, 14.02, 7.10383],
			"rotation": {"angle": 0, "axis": "y", "origin": [7.50583, 10, 7.50583]},
			"faces": {
				"north": {"uv": [3.66667, 11.33333, 4.33367, 12.66633], "texture": "#0"},
				"east": {"uv": [3.66667, 11.33333, 4.33367, 12.66633], "texture": "#0"},
				"south": {"uv": [3.66667, 11.33333, 4.33367, 12.66633], "texture": "#0"},
				"west": {"uv": [3.66667, 11.33333, 4.33367, 12.66633], "texture": "#0"},
				"up": {"uv": [3.66667, 11.33333, 4.33367, 12.66633], "texture": "#0"},
				"down": {"uv": [3.66667, 11.33333, 4.33367, 12.66633], "texture": "#0"}
			}
		},
		{
			"name": "cube5",
			"from": [7.17707, 14, 6.6754],
			"to": [7.846, 21.6, 7.00986],
			"rotation": {"angle": 0, "axis": "y", "origin": [7.51154, 17, 7.51154]},
			"faces": {
				"north": {"uv": [3.66667, 11.33333, 4.33367, 12.66633], "texture": "#0"},
				"east": {"uv": [3.66667, 11.33333, 4.33367, 12.66633], "texture": "#0"},
				"south": {"uv": [3.66667, 11.33333, 4.33367, 12.66633], "texture": "#0"},
				"west": {"uv": [3.66667, 11.33333, 4.33367, 12.66633], "texture": "#0"},
				"up": {"uv": [3.66667, 11.33333, 4.33367, 12.66633], "texture": "#0"},
				"down": {"uv": [3.66667, 11.33333, 4.33367, 12.66633], "texture": "#0"}
			}
		},
		{
			"name": "cube6",
			"from": [7.25065, 21.5, 6.85933],
			"to": [7.77242, 21.9, 7.12021],
			"rotation": {"angle": 0, "axis": "y", "origin": [7.51154, 25, 7.51154]},
			"faces": {
				"north": {"uv": [3.66667, 11.33333, 4.33367, 12.66633], "texture": "#0"},
				"east": {"uv": [3.66667, 11.33333, 4.33367, 12.66633], "texture": "#0"},
				"south": {"uv": [3.66667, 11.33333, 4.33367, 12.66633], "texture": "#0"},
				"west": {"uv": [3.66667, 11.33333, 4.33367, 12.66633], "texture": "#0"},
				"up": {"uv": [3.66667, 11.33333, 4.33367, 12.66633], "texture": "#0"},
				"down": {"uv": [3.66667, 11.33333, 4.33367, 12.66633], "texture": "#0"}
			}
		},
		{
			"name": "cube4",
			"from": [7.3, 2, 7.76569],
			"to": [7.7, 7.5, 7.96569],
			"rotation": {"angle": 0, "axis": "y", "origin": [7.5, 5, 14.26569]},
			"faces": {
				"north": {"uv": [3.66667, 11.33333, 4.33367, 12.66633], "texture": "#0"},
				"east": {"uv": [3.66667, 11.33333, 4.33367, 12.66633], "texture": "#0"},
				"south": {"uv": [3.66667, 11.33333, 4.33367, 12.66633], "texture": "#0"},
				"west": {"uv": [3.66667, 11.33333, 4.33367, 12.66633], "texture": "#0"},
				"up": {"uv": [3.66667, 11.33333, 4.33367, 12.66633], "texture": "#0"},
				"down": {"uv": [3.66667, 11.33333, 4.33367, 12.66633], "texture": "#0"}
			}
		},
		{
			"name": "cube5",
			"from": [7.23783, 6.65, 7.86185],
			"to": [7.77383, 14.02, 8.12985],
			"rotation": {"angle": 0, "axis": "y", "origin": [7.50583, 10, 16.57185]},
			"faces": {
				"north": {"uv": [3.66667, 11.33333, 4.33367, 12.66633], "texture": "#0"},
				"east": {"uv": [3.66667, 11.33333, 4.33367, 12.66633], "texture": "#0"},
				"south": {"uv": [3.66667, 11.33333, 4.33367, 12.66633], "texture": "#0"},
				"west": {"uv": [3.66667, 11.33333, 4.33367, 12.66633], "texture": "#0"},
				"up": {"uv": [3.66667, 11.33333, 4.33367, 12.66633], "texture": "#0"},
				"down": {"uv": [3.66667, 11.33333, 4.33367, 12.66633], "texture": "#0"}
			}
		},
		{
			"name": "cube6",
			"from": [7.17707, 14, 7.95585],
			"to": [7.846, 21.6, 8.29031],
			"rotation": {"angle": 0, "axis": "y", "origin": [7.51154, 17, 18.82593]},
			"faces": {
				"north": {"uv": [3.66667, 11.33333, 4.33367, 12.66633], "texture": "#0"},
				"east": {"uv": [3.66667, 11.33333, 4.33367, 12.66633], "texture": "#0"},
				"south": {"uv": [3.66667, 11.33333, 4.33367, 12.66633], "texture": "#0"},
				"west": {"uv": [3.66667, 11.33333, 4.33367, 12.66633], "texture": "#0"},
				"up": {"uv": [3.66667, 11.33333, 4.33367, 12.66633], "texture": "#0"},
				"down": {"uv": [3.66667, 11.33333, 4.33367, 12.66633], "texture": "#0"}
			}
		},
		{
			"name": "cube7",
			"from": [7.25065, 21.5, 7.8581],
			"to": [7.77242, 21.9, 8.11898],
			"rotation": {"angle": 0, "axis": "y", "origin": [7.51154, 25, 16.33676]},
			"faces": {
				"north": {"uv": [3.66667, 11.33333, 4.33367, 12.66633], "texture": "#0"},
				"east": {"uv": [3.66667, 11.33333, 4.33367, 12.66633], "texture": "#0"},
				"south": {"uv": [3.66667, 11.33333, 4.33367, 12.66633], "texture": "#0"},
				"west": {"uv": [3.66667, 11.33333, 4.33367, 12.66633], "texture": "#0"},
				"up": {"uv": [3.66667, 11.33333, 4.33367, 12.66633], "texture": "#0"},
				"down": {"uv": [3.66667, 11.33333, 4.33367, 12.66633], "texture": "#0"}
			}
		},
		{
			"name": "cube4",
			"from": [7.85355, 2, 7.5364],
			"to": [8.25355, 7.5, 7.7364],
			"rotation": {"angle": 45, "axis": "y", "origin": [8.05355, 5, 8.0364]},
			"faces": {
				"north": {"uv": [3.66667, 11.33333, 4.33367, 12.66633], "texture": "#0"},
				"east": {"uv": [3.66667, 11.33333, 4.33367, 12.66633], "texture": "#0"},
				"south": {"uv": [3.66667, 11.33333, 4.33367, 12.66633], "texture": "#0"},
				"west": {"uv": [3.66667, 11.33333, 4.33367, 12.66633], "texture": "#0"},
				"up": {"uv": [3.66667, 11.33333, 4.33367, 12.66633], "texture": "#0"},
				"down": {"uv": [3.66667, 11.33333, 4.33367, 12.66633], "texture": "#0"}
			}
		},
		{
			"name": "cube5",
			"from": [7.9796, 6.65, 7.5546],
			"to": [8.5156, 14.02, 7.8226],
			"rotation": {"angle": 45, "axis": "y", "origin": [8.2476, 10, 8.2246]},
			"faces": {
				"north": {"uv": [3.66667, 11.33333, 4.33367, 12.66633], "texture": "#0"},
				"east": {"uv": [3.66667, 11.33333, 4.33367, 12.66633], "texture": "#0"},
				"south": {"uv": [3.66667, 11.33333, 4.33367, 12.66633], "texture": "#0"},
				"west": {"uv": [3.66667, 11.33333, 4.33367, 12.66633], "texture": "#0"},
				"up": {"uv": [3.66667, 11.33333, 4.33367, 12.66633], "texture": "#0"},
				"down": {"uv": [3.66667, 11.33333, 4.33367, 12.66633], "texture": "#0"}
			}
		},
		{
			"name": "cube6",
			"from": [8.10279, 14, 7.5724],
			"to": [8.77172, 21.6, 7.90687],
			"rotation": {"angle": 45, "axis": "y", "origin": [8.43725, 17, 8.40856]},
			"faces": {
				"north": {"uv": [3.66667, 11.33333, 4.33367, 12.66633], "texture": "#0"},
				"east": {"uv": [3.66667, 11.33333, 4.33367, 12.66633], "texture": "#0"},
				"south": {"uv": [3.66667, 11.33333, 4.33367, 12.66633], "texture": "#0"},
				"west": {"uv": [3.66667, 11.33333, 4.33367, 12.66633], "texture": "#0"},
				"up": {"uv": [3.66667, 11.33333, 4.33367, 12.66633], "texture": "#0"},
				"down": {"uv": [3.66667, 11.33333, 4.33367, 12.66633], "texture": "#0"}
			}
		},
		{
			"name": "cube7",
			"from": [7.97271, 21.5, 7.55901],
			"to": [8.49448, 21.9, 7.81989],
			"rotation": {"angle": 45, "axis": "y", "origin": [8.2336, 25, 8.21122]},
			"faces": {
				"north": {"uv": [3.66667, 11.33333, 4.33367, 12.66633], "texture": "#0"},
				"east": {"uv": [3.66667, 11.33333, 4.33367, 12.66633], "texture": "#0"},
				"south": {"uv": [3.66667, 11.33333, 4.33367, 12.66633], "texture": "#0"},
				"west": {"uv": [3.66667, 11.33333, 4.33367, 12.66633], "texture": "#0"},
				"up": {"uv": [3.66667, 11.33333, 4.33367, 12.66633], "texture": "#0"},
				"down": {"uv": [3.66667, 11.33333, 4.33367, 12.66633], "texture": "#0"}
			}
		},
		{
			"name": "cube5",
			"from": [7.31213, 2, 6.99497],
			"to": [7.71213, 7.5, 7.19497],
			"rotation": {"angle": 45, "axis": "y", "origin": [7.51213, 5, 7.49497]},
			"faces": {
				"north": {"uv": [3.66667, 11.33333, 4.33367, 12.66633], "texture": "#0"},
				"east": {"uv": [3.66667, 11.33333, 4.33367, 12.66633], "texture": "#0"},
				"south": {"uv": [3.66667, 11.33333, 4.33367, 12.66633], "texture": "#0"},
				"west": {"uv": [3.66667, 11.33333, 4.33367, 12.66633], "texture": "#0"},
				"up": {"uv": [3.66667, 11.33333, 4.33367, 12.66633], "texture": "#0"},
				"down": {"uv": [3.66667, 11.33333, 4.33367, 12.66633], "texture": "#0"}
			}
		},
		{
			"name": "cube6",
			"from": [7.25409, 6.65, 6.8291],
			"to": [7.79009, 14.02, 7.0971],
			"rotation": {"angle": 45, "axis": "y", "origin": [7.52209, 10, 7.4991]},
			"faces": {
				"north": {"uv": [3.66667, 11.33333, 4.33367, 12.66633], "texture": "#0"},
				"east": {"uv": [3.66667, 11.33333, 4.33367, 12.66633], "texture": "#0"},
				"south": {"uv": [3.66667, 11.33333, 4.33367, 12.66633], "texture": "#0"},
				"west": {"uv": [3.66667, 11.33333, 4.33367, 12.66633], "texture": "#0"},
				"up": {"uv": [3.66667, 11.33333, 4.33367, 12.66633], "texture": "#0"},
				"down": {"uv": [3.66667, 11.33333, 4.33367, 12.66633], "texture": "#0"}
			}
		},
		{
			"name": "cube7",
			"from": [7.19736, 14, 6.66697],
			"to": [7.86629, 21.6, 7.00144],
			"rotation": {"angle": 45, "axis": "y", "origin": [7.53182, 17, 7.50313]},
			"faces": {
				"north": {"uv": [3.66667, 11.33333, 4.33367, 12.66633], "texture": "#0"},
				"east": {"uv": [3.66667, 11.33333, 4.33367, 12.66633], "texture": "#0"},
				"south": {"uv": [3.66667, 11.33333, 4.33367, 12.66633], "texture": "#0"},
				"west": {"uv": [3.66667, 11.33333, 4.33367, 12.66633], "texture": "#0"},
				"up": {"uv": [3.66667, 11.33333, 4.33367, 12.66633], "texture": "#0"},
				"down": {"uv": [3.66667, 11.33333, 4.33367, 12.66633], "texture": "#0"}
			}
		},
		{
			"name": "cube8",
			"from": [7.26648, 21.5, 6.85278],
			"to": [7.78824, 21.9, 7.11366],
			"rotation": {"angle": 45, "axis": "y", "origin": [7.52736, 25, 7.50498]},
			"faces": {
				"north": {"uv": [3.66667, 11.33333, 4.33367, 12.66633], "texture": "#0"},
				"east": {"uv": [3.66667, 11.33333, 4.33367, 12.66633], "texture": "#0"},
				"south": {"uv": [3.66667, 11.33333, 4.33367, 12.66633], "texture": "#0"},
				"west": {"uv": [3.66667, 11.33333, 4.33367, 12.66633], "texture": "#0"},
				"up": {"uv": [3.66667, 11.33333, 4.33367, 12.66633], "texture": "#0"},
				"down": {"uv": [3.66667, 11.33333, 4.33367, 12.66633], "texture": "#0"}
			}
		},
		{
			"name": "cube4",
			"from": [7.78284, 2, 7.28284],
			"to": [7.98284, 7.5, 7.68284],
			"rotation": {"angle": 0, "axis": "y", "origin": [7.48284, 5, 7.48284]},
			"faces": {
				"north": {"uv": [3.66667, 11.33333, 4.33367, 12.66633], "rotation": 90, "texture": "#0"},
				"east": {"uv": [3.66667, 11.33333, 4.33367, 12.66633], "rotation": 90, "texture": "#0"},
				"south": {"uv": [3.66667, 11.33333, 4.33367, 12.66633], "rotation": 90, "texture": "#0"},
				"west": {"uv": [3.66667, 11.33333, 4.33367, 12.66633], "rotation": 90, "texture": "#0"},
				"up": {"uv": [3.66667, 11.33333, 4.33367, 12.66633], "rotation": 90, "texture": "#0"},
				"down": {"uv": [3.66667, 11.33333, 4.33367, 12.66633], "rotation": 90, "texture": "#0"}
			}
		},
		{
			"name": "cube5",
			"from": [7.88484, 6.65, 7.21484],
			"to": [8.15284, 14.02, 7.75084],
			"rotation": {"angle": 0, "axis": "y", "origin": [7.48284, 10, 7.48284]},
			"faces": {
				"north": {"uv": [3.66667, 11.33333, 4.33367, 12.66633], "rotation": 90, "texture": "#0"},
				"east": {"uv": [3.66667, 11.33333, 4.33367, 12.66633], "rotation": 90, "texture": "#0"},
				"south": {"uv": [3.66667, 11.33333, 4.33367, 12.66633], "rotation": 90, "texture": "#0"},
				"west": {"uv": [3.66667, 11.33333, 4.33367, 12.66633], "rotation": 90, "texture": "#0"},
				"up": {"uv": [3.66667, 11.33333, 4.33367, 12.66633], "rotation": 90, "texture": "#0"},
				"down": {"uv": [3.66667, 11.33333, 4.33367, 12.66633], "rotation": 90, "texture": "#0"}
			}
		},
		{
			"name": "cube6",
			"from": [7.98454, 14, 7.14838],
			"to": [8.319, 21.6, 7.81731],
			"rotation": {"angle": 0, "axis": "y", "origin": [7.48284, 17, 7.48284]},
			"faces": {
				"north": {"uv": [3.66667, 11.33333, 4.33367, 12.66633], "rotation": 90, "texture": "#0"},
				"east": {"uv": [3.66667, 11.33333, 4.33367, 12.66633], "rotation": 90, "texture": "#0"},
				"south": {"uv": [3.66667, 11.33333, 4.33367, 12.66633], "rotation": 90, "texture": "#0"},
				"west": {"uv": [3.66667, 11.33333, 4.33367, 12.66633], "rotation": 90, "texture": "#0"},
				"up": {"uv": [3.66667, 11.33333, 4.33367, 12.66633], "rotation": 90, "texture": "#0"},
				"down": {"uv": [3.66667, 11.33333, 4.33367, 12.66633], "rotation": 90, "texture": "#0"}
			}
		},
		{
			"name": "cube7",
			"from": [7.88048, 21.5, 7.22827],
			"to": [8.14136, 21.9, 7.75004],
			"rotation": {"angle": 0, "axis": "y", "origin": [7.48916, 25, 7.48916]},
			"faces": {
				"north": {"uv": [3.66667, 11.33333, 4.33367, 12.66633], "rotation": 90, "texture": "#0"},
				"east": {"uv": [3.66667, 11.33333, 4.33367, 12.66633], "rotation": 90, "texture": "#0"},
				"south": {"uv": [3.66667, 11.33333, 4.33367, 12.66633], "rotation": 90, "texture": "#0"},
				"west": {"uv": [3.66667, 11.33333, 4.33367, 12.66633], "rotation": 90, "texture": "#0"},
				"up": {"uv": [3.66667, 11.33333, 4.33367, 12.66633], "rotation": 90, "texture": "#0"},
				"down": {"uv": [3.66667, 11.33333, 4.33367, 12.66633], "rotation": 90, "texture": "#0"}
			}
		},
		{
			"name": "cube5",
			"from": [7.01716, 2, 7.28284],
			"to": [7.21716, 7.5, 7.68284],
			"rotation": {"angle": 0, "axis": "y", "origin": [6.71716, 5, 7.48284]},
			"faces": {
				"north": {"uv": [3.66667, 11.33333, 4.33367, 12.66633], "rotation": 90, "texture": "#0"},
				"east": {"uv": [3.66667, 11.33333, 4.33367, 12.66633], "rotation": 90, "texture": "#0"},
				"south": {"uv": [3.66667, 11.33333, 4.33367, 12.66633], "rotation": 90, "texture": "#0"},
				"west": {"uv": [3.66667, 11.33333, 4.33367, 12.66633], "rotation": 90, "texture": "#0"},
				"up": {"uv": [3.66667, 11.33333, 4.33367, 12.66633], "rotation": 90, "texture": "#0"},
				"down": {"uv": [3.66667, 11.33333, 4.33367, 12.66633], "rotation": 90, "texture": "#0"}
			}
		},
		{
			"name": "cube6",
			"from": [6.85882, 6.65, 7.21484],
			"to": [7.12682, 14.02, 7.75084],
			"rotation": {"angle": 0, "axis": "y", "origin": [6.45682, 10, 7.48284]},
			"faces": {
				"north": {"uv": [3.66667, 11.33333, 4.33367, 12.66633], "rotation": 90, "texture": "#0"},
				"east": {"uv": [3.66667, 11.33333, 4.33367, 12.66633], "rotation": 90, "texture": "#0"},
				"south": {"uv": [3.66667, 11.33333, 4.33367, 12.66633], "rotation": 90, "texture": "#0"},
				"west": {"uv": [3.66667, 11.33333, 4.33367, 12.66633], "rotation": 90, "texture": "#0"},
				"up": {"uv": [3.66667, 11.33333, 4.33367, 12.66633], "rotation": 90, "texture": "#0"},
				"down": {"uv": [3.66667, 11.33333, 4.33367, 12.66633], "rotation": 90, "texture": "#0"}
			}
		},
		{
			"name": "cube7",
			"from": [6.70407, 14, 7.14838],
			"to": [7.03853, 21.6, 7.81731],
			"rotation": {"angle": 0, "axis": "y", "origin": [6.20237, 17, 7.48284]},
			"faces": {
				"north": {"uv": [3.66667, 11.33333, 4.33367, 12.66633], "rotation": 90, "texture": "#0"},
				"east": {"uv": [3.66667, 11.33333, 4.33367, 12.66633], "rotation": 90, "texture": "#0"},
				"south": {"uv": [3.66667, 11.33333, 4.33367, 12.66633], "rotation": 90, "texture": "#0"},
				"west": {"uv": [3.66667, 11.33333, 4.33367, 12.66633], "rotation": 90, "texture": "#0"},
				"up": {"uv": [3.66667, 11.33333, 4.33367, 12.66633], "rotation": 90, "texture": "#0"},
				"down": {"uv": [3.66667, 11.33333, 4.33367, 12.66633], "rotation": 90, "texture": "#0"}
			}
		},
		{
			"name": "cube8",
			"from": [6.88171, 21.5, 7.22827],
			"to": [7.14259, 21.9, 7.75004],
			"rotation": {"angle": 0, "axis": "y", "origin": [6.49039, 25, 7.48916]},
			"faces": {
				"north": {"uv": [3.66667, 11.33333, 4.33367, 12.66633], "rotation": 90, "texture": "#0"},
				"east": {"uv": [3.66667, 11.33333, 4.33367, 12.66633], "rotation": 90, "texture": "#0"},
				"south": {"uv": [3.66667, 11.33333, 4.33367, 12.66633], "rotation": 90, "texture": "#0"},
				"west": {"uv": [3.66667, 11.33333, 4.33367, 12.66633], "rotation": 90, "texture": "#0"},
				"up": {"uv": [3.66667, 11.33333, 4.33367, 12.66633], "rotation": 90, "texture": "#0"},
				"down": {"uv": [3.66667, 11.33333, 4.33367, 12.66633], "rotation": 90, "texture": "#0"}
			}
		},
		{
			"name": "cube9",
			"from": [7.1, 21.5, 7.1],
			"to": [7.95, 21.9, 7.9],
			"rotation": {"angle": 0, "axis": "y", "origin": [6.49039, 25, 7.48916]},
			"faces": {
				"north": {"uv": [3.66667, 11.33333, 4.33367, 12.66633], "rotation": 90, "texture": "#0"},
				"east": {"uv": [3.66667, 11.33333, 4.33367, 12.66633], "rotation": 90, "texture": "#0"},
				"south": {"uv": [3.66667, 11.33333, 4.33367, 12.66633], "rotation": 90, "texture": "#0"},
				"west": {"uv": [3.66667, 11.33333, 4.33367, 12.66633], "rotation": 90, "texture": "#0"},
				"up": {"uv": [3.66667, 11.33333, 4.33367, 12.66633], "rotation": 90, "texture": "#0"},
				"down": {"uv": [3.66667, 11.33333, 4.33367, 12.66633], "rotation": 90, "texture": "#0"}
			}
		},
		{
			"name": "cube4",
			"from": [7.28787, 2, 6.99497],
			"to": [7.68787, 7.5, 7.19497],
			"rotation": {"angle": -45, "axis": "y", "origin": [7.48787, 5, 7.49497]},
			"faces": {
				"north": {"uv": [3.66667, 11.33333, 4.33367, 12.66633], "texture": "#0"},
				"east": {"uv": [3.66667, 11.33333, 4.33367, 12.66633], "texture": "#0"},
				"south": {"uv": [3.66667, 11.33333, 4.33367, 12.66633], "texture": "#0"},
				"west": {"uv": [3.66667, 11.33333, 4.33367, 12.66633], "texture": "#0"},
				"up": {"uv": [3.66667, 11.33333, 4.33367, 12.66633], "texture": "#0"},
				"down": {"uv": [3.66667, 11.33333, 4.33367, 12.66633], "texture": "#0"}
			}
		},
		{
			"name": "cube5",
			"from": [7.22158, 6.65, 6.8291],
			"to": [7.75758, 14.02, 7.0971],
			"rotation": {"angle": -45, "axis": "y", "origin": [7.48958, 10, 7.4991]},
			"faces": {
				"north": {"uv": [3.66667, 11.33333, 4.33367, 12.66633], "texture": "#0"},
				"east": {"uv": [3.66667, 11.33333, 4.33367, 12.66633], "texture": "#0"},
				"south": {"uv": [3.66667, 11.33333, 4.33367, 12.66633], "texture": "#0"},
				"west": {"uv": [3.66667, 11.33333, 4.33367, 12.66633], "texture": "#0"},
				"up": {"uv": [3.66667, 11.33333, 4.33367, 12.66633], "texture": "#0"},
				"down": {"uv": [3.66667, 11.33333, 4.33367, 12.66633], "texture": "#0"}
			}
		},
		{
			"name": "cube6",
			"from": [7.15678, 14, 6.66697],
			"to": [7.82571, 21.6, 7.00144],
			"rotation": {"angle": -45, "axis": "y", "origin": [7.49125, 17, 7.50313]},
			"faces": {
				"north": {"uv": [3.66667, 11.33333, 4.33367, 12.66633], "texture": "#0"},
				"east": {"uv": [3.66667, 11.33333, 4.33367, 12.66633], "texture": "#0"},
				"south": {"uv": [3.66667, 11.33333, 4.33367, 12.66633], "texture": "#0"},
				"west": {"uv": [3.66667, 11.33333, 4.33367, 12.66633], "texture": "#0"},
				"up": {"uv": [3.66667, 11.33333, 4.33367, 12.66633], "texture": "#0"},
				"down": {"uv": [3.66667, 11.33333, 4.33367, 12.66633], "texture": "#0"}
			}
		},
		{
			"name": "cube7",
			"from": [7.23483, 21.5, 6.85278],
			"to": [7.75659, 21.9, 7.11366],
			"rotation": {"angle": -45, "axis": "y", "origin": [7.49571, 25, 7.50498]},
			"faces": {
				"north": {"uv": [3.66667, 11.33333, 4.33367, 12.66633], "texture": "#0"},
				"east": {"uv": [3.66667, 11.33333, 4.33367, 12.66633], "texture": "#0"},
				"south": {"uv": [3.66667, 11.33333, 4.33367, 12.66633], "texture": "#0"},
				"west": {"uv": [3.66667, 11.33333, 4.33367, 12.66633], "texture": "#0"},
				"up": {"uv": [3.66667, 11.33333, 4.33367, 12.66633], "texture": "#0"},
				"down": {"uv": [3.66667, 11.33333, 4.33367, 12.66633], "texture": "#0"}
			}
		},
		{
			"name": "cube5",
			"from": [6.74645, 2, 7.5364],
			"to": [7.14645, 7.5, 7.7364],
			"rotation": {"angle": -45, "axis": "y", "origin": [6.94645, 5, 8.0364]},
			"faces": {
				"north": {"uv": [3.66667, 11.33333, 4.33367, 12.66633], "texture": "#0"},
				"east": {"uv": [3.66667, 11.33333, 4.33367, 12.66633], "texture": "#0"},
				"south": {"uv": [3.66667, 11.33333, 4.33367, 12.66633], "texture": "#0"},
				"west": {"uv": [3.66667, 11.33333, 4.33367, 12.66633], "texture": "#0"},
				"up": {"uv": [3.66667, 11.33333, 4.33367, 12.66633], "texture": "#0"},
				"down": {"uv": [3.66667, 11.33333, 4.33367, 12.66633], "texture": "#0"}
			}
		},
		{
			"name": "cube6",
			"from": [6.49607, 6.65, 7.5546],
			"to": [7.03207, 14.02, 7.8226],
			"rotation": {"angle": -45, "axis": "y", "origin": [6.76407, 10, 8.2246]},
			"faces": {
				"north": {"uv": [3.66667, 11.33333, 4.33367, 12.66633], "texture": "#0"},
				"east": {"uv": [3.66667, 11.33333, 4.33367, 12.66633], "texture": "#0"},
				"south": {"uv": [3.66667, 11.33333, 4.33367, 12.66633], "texture": "#0"},
				"west": {"uv": [3.66667, 11.33333, 4.33367, 12.66633], "texture": "#0"},
				"up": {"uv": [3.66667, 11.33333, 4.33367, 12.66633], "texture": "#0"},
				"down": {"uv": [3.66667, 11.33333, 4.33367, 12.66633], "texture": "#0"}
			}
		},
		{
			"name": "cube7",
			"from": [6.25135, 14, 7.5724],
			"to": [6.92028, 21.6, 7.90687],
			"rotation": {"angle": -45, "axis": "y", "origin": [6.58582, 17, 8.40856]},
			"faces": {
				"north": {"uv": [3.66667, 11.33333, 4.33367, 12.66633], "texture": "#0"},
				"east": {"uv": [3.66667, 11.33333, 4.33367, 12.66633], "texture": "#0"},
				"south": {"uv": [3.66667, 11.33333, 4.33367, 12.66633], "texture": "#0"},
				"west": {"uv": [3.66667, 11.33333, 4.33367, 12.66633], "texture": "#0"},
				"up": {"uv": [3.66667, 11.33333, 4.33367, 12.66633], "texture": "#0"},
				"down": {"uv": [3.66667, 11.33333, 4.33367, 12.66633], "texture": "#0"}
			}
		},
		{
			"name": "cube8",
			"from": [6.89754, 21.5, 7.71183],
			"to": [7.4193, 21.9, 7.97271],
			"rotation": {"angle": -45, "axis": "y", "origin": [7.15842, 21.7, 7.84227]},
			"faces": {
				"north": {"uv": [3.66667, 11.33333, 4.33367, 12.66633], "texture": "#0"},
				"east": {"uv": [3.66667, 11.33333, 4.33367, 12.66633], "texture": "#0"},
				"south": {"uv": [3.66667, 11.33333, 4.33367, 12.66633], "texture": "#0"},
				"west": {"uv": [3.66667, 11.33333, 4.33367, 12.66633], "texture": "#0"},
				"up": {"uv": [3.66667, 11.33333, 4.33367, 12.66633], "texture": "#0"},
				"down": {"uv": [3.66667, 11.33333, 4.33367, 12.66633], "texture": "#0"}
			}
		},
		{
			"name": "cube12",
			"from": [7.21653, 2.3, 7.90635],
			"to": [7.80654, 3, 8.20136],
			"rotation": {"angle": 45, "axis": "y", "origin": [7.51154, 2.7, 7.48916]},
			"faces": {
				"north": {"uv": [0.333, 3.333, 1.999, 5], "texture": "#0"},
				"east": {"uv": [0.333, 3.333, 1.999, 5], "texture": "#0"},
				"south": {"uv": [0.333, 3.333, 1.999, 5], "texture": "#0"},
				"west": {"uv": [0.333, 3.333, 1.999, 5], "texture": "#0"},
				"up": {"uv": [0.333, 3.333, 1.999, 5], "texture": "#0"},
				"down": {"uv": [0.333, 3.333, 1.999, 5], "texture": "#0"}
			}
		},
		{
			"name": "cube12",
			"from": [7.21653, 2.3, 7.90635],
			"to": [7.80654, 3, 8.20136],
			"rotation": {"angle": 0, "axis": "y", "origin": [7.51154, 2.7, 7.48916]},
			"faces": {
				"north": {"uv": [0.333, 3.333, 1.999, 5], "texture": "#0"},
				"east": {"uv": [0.333, 3.333, 1.999, 5], "texture": "#0"},
				"south": {"uv": [0.333, 3.333, 1.999, 5], "texture": "#0"},
				"west": {"uv": [0.333, 3.333, 1.999, 5], "texture": "#0"},
				"up": {"uv": [0.333, 3.333, 1.999, 5], "texture": "#0"},
				"down": {"uv": [0.333, 3.333, 1.999, 5], "texture": "#0"}
			}
		},
		{
			"name": "cube13",
			"from": [7.21653, 2.3, 7.90635],
			"to": [7.80654, 3, 8.20136],
			"rotation": {"angle": -45, "axis": "y", "origin": [7.51154, 2.7, 7.48916]},
			"faces": {
				"north": {"uv": [0.333, 3.333, 1.999, 5], "texture": "#0"},
				"east": {"uv": [0.333, 3.333, 1.999, 5], "texture": "#0"},
				"south": {"uv": [0.333, 3.333, 1.999, 5], "texture": "#0"},
				"west": {"uv": [0.333, 3.333, 1.999, 5], "texture": "#0"},
				"up": {"uv": [0.333, 3.333, 1.999, 5], "texture": "#0"},
				"down": {"uv": [0.333, 3.333, 1.999, 5], "texture": "#0"}
			}
		},
		{
			"name": "cube13",
			"from": [6.79934, 2.3, 7.19415],
			"to": [7.09434, 3, 7.78416],
			"rotation": {"angle": 0, "axis": "y", "origin": [7.51154, 2.7, 7.48916]},
			"faces": {
				"north": {"uv": [0.333, 3.333, 1.999, 5], "rotation": 90, "texture": "#0"},
				"east": {"uv": [0.333, 3.333, 1.999, 5], "rotation": 90, "texture": "#0"},
				"south": {"uv": [0.333, 3.333, 1.999, 5], "rotation": 90, "texture": "#0"},
				"west": {"uv": [0.333, 3.333, 1.999, 5], "rotation": 90, "texture": "#0"},
				"up": {"uv": [0.333, 3.333, 1.999, 5], "rotation": 90, "texture": "#0"},
				"down": {"uv": [0.333, 3.333, 1.999, 5], "rotation": 90, "texture": "#0"}
			}
		},
		{
			"name": "cube13",
			"from": [7.21653, 2.3, 6.77695],
			"to": [7.80654, 3, 7.07196],
			"rotation": {"angle": 45, "axis": "y", "origin": [7.51154, 2.7, 7.48916]},
			"faces": {
				"north": {"uv": [0.333, 3.333, 1.999, 5], "texture": "#0"},
				"east": {"uv": [0.333, 3.333, 1.999, 5], "texture": "#0"},
				"south": {"uv": [0.333, 3.333, 1.999, 5], "texture": "#0"},
				"west": {"uv": [0.333, 3.333, 1.999, 5], "texture": "#0"},
				"up": {"uv": [0.333, 3.333, 1.999, 5], "texture": "#0"},
				"down": {"uv": [0.333, 3.333, 1.999, 5], "texture": "#0"}
			}
		},
		{
			"name": "cube11",
			"from": [7.21653, 2.3, 6.77695],
			"to": [7.80654, 3, 7.07196],
			"rotation": {"angle": 0, "axis": "y", "origin": [7.51154, 2.7, 7.48916]},
			"faces": {
				"north": {"uv": [0.333, 3.333, 1.999, 5], "texture": "#0"},
				"east": {"uv": [0.333, 3.333, 1.999, 5], "texture": "#0"},
				"south": {"uv": [0.333, 3.333, 1.999, 5], "texture": "#0"},
				"west": {"uv": [0.333, 3.333, 1.999, 5], "texture": "#0"},
				"up": {"uv": [0.333, 3.333, 1.999, 5], "texture": "#0"},
				"down": {"uv": [0.333, 3.333, 1.999, 5], "texture": "#0"}
			}
		},
		{
			"name": "cube12",
			"from": [7.21653, 2.3, 6.77695],
			"to": [7.80654, 3, 7.07196],
			"rotation": {"angle": -45, "axis": "y", "origin": [7.51154, 2.7, 7.48916]},
			"faces": {
				"north": {"uv": [0.333, 3.333, 1.999, 5], "texture": "#0"},
				"east": {"uv": [0.333, 3.333, 1.999, 5], "texture": "#0"},
				"south": {"uv": [0.333, 3.333, 1.999, 5], "texture": "#0"},
				"west": {"uv": [0.333, 3.333, 1.999, 5], "texture": "#0"},
				"up": {"uv": [0.333, 3.333, 1.999, 5], "texture": "#0"},
				"down": {"uv": [0.333, 3.333, 1.999, 5], "texture": "#0"}
			}
		},
		{
			"name": "cube12",
			"from": [7.92873, 2.3, 7.19415],
			"to": [8.22374, 3, 7.78416],
			"rotation": {"angle": 0, "axis": "y", "origin": [7.51154, 2.7, 7.48916]},
			"faces": {
				"north": {"uv": [0.333, 3.333, 1.999, 5], "rotation": 90, "texture": "#0"},
				"east": {"uv": [0.333, 3.333, 1.999, 5], "rotation": 90, "texture": "#0"},
				"south": {"uv": [0.333, 3.333, 1.999, 5], "rotation": 90, "texture": "#0"},
				"west": {"uv": [0.333, 3.333, 1.999, 5], "rotation": 90, "texture": "#0"},
				"up": {"uv": [0.333, 3.333, 1.999, 5], "rotation": 90, "texture": "#0"},
				"down": {"uv": [0.333, 3.333, 1.999, 5], "rotation": 90, "texture": "#0"}
			}
		},
		{
			"name": "cube4",
			"from": [7.18, 2.03, 7.18],
			"to": [7.82, 2.17, 7.82],
			"rotation": {"angle": 0, "axis": "y", "origin": [8, 8, 8]},
			"faces": {
				"north": {"uv": [3.66667, 11.33333, 4.66567, 12.33333], "texture": "#0"},
				"east": {"uv": [3.66667, 11.33333, 4.66567, 12.33333], "texture": "#0"},
				"south": {"uv": [3.66667, 11.33333, 4.66567, 12.33333], "texture": "#0"},
				"west": {"uv": [3.66667, 11.33333, 4.66567, 12.33333], "texture": "#0"},
				"up": {"uv": [3.66667, 11.33333, 4.66567, 12.33333], "texture": "#0"},
				"down": {"uv": [3.66667, 11.33333, 4.66567, 12.33333], "texture": "#0"}
			}
		}
	],
	"display": {
		"thirdperson_righthand": {
			"translation": [0.5, 1, 1.25]
		},
		"thirdperson_lefthand": {
			"rotation": [2, 0, 0],
			"translation": [0, 0, 1.75]
		},
		"firstperson_righthand": {
			"rotation": [-16, 0, 0]
		},
		"gui": {
			"rotation": [0, 0, 45],
			"translation": [3.25, -3, 0]
		},
		"fixed": {
			"rotation": [90, 45, -90]
		}
	},
	"groups": [
		{
			"name": "base",
			"origin": [8, 10, 8],
			"color": 0,
			"children": [0, 1, 2, 3, 4, 5, 6, 7, 8, 9, 10, 11, 12, 13, 14, 15, 16, 17, 18, 19, 20, 21, 22, 23, 24, 25, 26, 27, 28, 29, 30, 31, 32, 33, 34, 35, 36, 37, 38, 39, 40, 41]
		}
	]
}