{
    "textures": {
        "1": "gci:items/common/mpz"
    },
    "elements": [
        {
            "from": [
                6.3163,
                8.7775,
                17.09884
            ],
            "to": [
                6.93454,
                9.34662,
                25.04374
            ],
            "rotation": {
                "angle": -45,
                "axis": "z",
                "origin": [
                    6.9239,
                    8.13213,
                    29.89585
                ]
            },
            "faces": {
                "north": {
                    "uv": [
                        12,
                        1.33333,
                        12.49167,
                        1.86667
                    ],
                    "rotation": 270,
                    "texture": "#1"
                },
                "east": {
                    "uv": [
                        12,
                        1.33333,
                        12.49167,
                        1.86667
                    ],
                    "texture": "#1"
                },
                "south": {
                    "uv": [
                        12,
                        1.33333,
                        12.49167,
                        1.86667
                    ],
                    "rotation": 90,
                    "texture": "#1"
                },
                "west": {
                    "uv": [
                        12,
                        1.33333,
                        12.49167,
                        1.86667
                    ],
                    "rotation": 180,
                    "texture": "#1"
                },
                "up": {
                    "uv": [
                        12,
                        1.33333,
                        12.49167,
                        1.86667
                    ],
                    "rotation": 90,
                    "texture": "#1"
                },
                "down": {
                    "uv": [
                        12,
                        1.33333,
                        12.49167,
                        1.86667
                    ],
                    "rotation": 90,
                    "texture": "#1"
                }
            }
        },
        {
            "from": [
                6.60227,
                8.94254,
                17.09884
            ],
            "to": [
                7.28233,
                9.44984,
                25.04374
            ],
            "rotation": {
                "angle": 0,
                "axis": "y",
                "origin": [
                    6.9239,
                    8.13213,
                    29.89585
                ]
            },
            "faces": {
                "north": {
                    "uv": [
                        12,
                        1.33333,
                        12.49167,
                        1.86667
                    ],
                    "texture": "#1"
                },
                "east": {
                    "uv": [
                        12,
                        1.33333,
                        12.49167,
                        1.86667
                    ],
                    "texture": "#1"
                },
                "south": {
                    "uv": [
                        12,
                        1.33333,
                        12.49167,
                        1.86667
                    ],
                    "texture": "#1"
                },
                "west": {
                    "uv": [
                        12,
                        1.33333,
                        12.49167,
                        1.86667
                    ],
                    "texture": "#1"
                },
                "up": {
                    "uv": [
                        12,
                        1.33333,
                        12.49167,
                        1.86667
                    ],
                    "rotation": 270,
                    "texture": "#1"
                },
                "down": {
                    "uv": [
                        12,
                        1.33333,
                        12.49167,
                        1.86667
                    ],
                    "rotation": 90,
                    "texture": "#1"
                }
            }
        },
        {
            "from": [
                5.83542,
                8.1475,
                17.09884
            ],
            "to": [
                6.30454,
                8.86574,
                25.04374
            ],
            "rotation": {
                "angle": -45,
                "axis": "z",
                "origin": [
                    6.9239,
                    8.13213,
                    29.89585
                ]
            },
            "faces": {
                "north": {
                    "uv": [
                        12,
                        1.33333,
                        12.49167,
                        1.86667
                    ],
                    "rotation": 180,
                    "texture": "#1"
                },
                "east": {
                    "uv": [
                        12,
                        1.33333,
                        12.49167,
                        1.86667
                    ],
                    "rotation": 180,
                    "texture": "#1"
                },
                "south": {
                    "uv": [
                        12,
                        1.33333,
                        12.49167,
                        1.86667
                    ],
                    "rotation": 180,
                    "texture": "#1"
                },
                "west": {
                    "uv": [
                        12,
                        1.33333,
                        12.49167,
                        1.86667
                    ],
                    "rotation": 180,
                    "texture": "#1"
                },
                "up": {
                    "uv": [
                        12,
                        1.33333,
                        12.49167,
                        1.86667
                    ],
                    "rotation": 270,
                    "texture": "#1"
                },
                "down": {
                    "uv": [
                        12,
                        1.33333,
                        12.49167,
                        1.86667
                    ],
                    "rotation": 90,
                    "texture": "#1"
                }
            }
        },
        {
            "from": [
                6.16511,
                8.29444,
                17.09884
            ],
            "to": [
                6.63423,
                9.01268,
                25.04374
            ],
            "rotation": {
                "angle": 0,
                "axis": "y",
                "origin": [
                    6.9239,
                    8.13213,
                    29.89585
                ]
            },
            "faces": {
                "north": {
                    "uv": [
                        12,
                        1.33333,
                        12.49167,
                        1.86667
                    ],
                    "rotation": 180,
                    "texture": "#1"
                },
                "east": {
                    "uv": [
                        12,
                        1.33333,
                        12.49167,
                        1.86667
                    ],
                    "rotation": 180,
                    "texture": "#1"
                },
                "south": {
                    "uv": [
                        12,
                        1.33333,
                        12.49167,
                        1.86667
                    ],
                    "rotation": 180,
                    "texture": "#1"
                },
                "west": {
                    "uv": [
                        12,
                        1.33333,
                        12.49167,
                        1.86667
                    ],
                    "rotation": 180,
                    "texture": "#1"
                },
                "up": {
                    "uv": [
                        12,
                        1.33333,
                        12.49167,
                        1.86667
                    ],
                    "rotation": 270,
                    "texture": "#1"
                },
                "down": {
                    "uv": [
                        12,
                        1.33333,
                        12.49167,
                        1.86667
                    ],
                    "rotation": 90,
                    "texture": "#1"
                }
            }
        },
        {
            "from": [
                6.27259,
                7.71034,
                17.09884
            ],
            "to": [
                6.89083,
                8.27946,
                25.04374
            ],
            "rotation": {
                "angle": -45,
                "axis": "z",
                "origin": [
                    6.9239,
                    8.13213,
                    29.89585
                ]
            },
            "faces": {
                "north": {
                    "uv": [
                        12,
                        1.33333,
                        12.49167,
                        1.86667
                    ],
                    "rotation": 270,
                    "texture": "#1"
                },
                "east": {
                    "uv": [
                        12,
                        1.33333,
                        12.49167,
                        1.86667
                    ],
                    "texture": "#1"
                },
                "south": {
                    "uv": [
                        12,
                        1.33333,
                        12.49167,
                        1.86667
                    ],
                    "rotation": 90,
                    "texture": "#1"
                },
                "west": {
                    "uv": [
                        12,
                        1.33333,
                        12.49167,
                        1.86667
                    ],
                    "rotation": 180,
                    "texture": "#1"
                },
                "up": {
                    "uv": [
                        12,
                        1.33333,
                        12.49167,
                        1.86667
                    ],
                    "rotation": 90,
                    "texture": "#1"
                },
                "down": {
                    "uv": [
                        12,
                        1.33333,
                        12.49167,
                        1.86667
                    ],
                    "rotation": 90,
                    "texture": "#1"
                }
            }
        },
        {
            "from": [
                6.60227,
                7.85727,
                17.09884
            ],
            "to": [
                7.28233,
                8.36457,
                25.04374
            ],
            "rotation": {
                "angle": 0,
                "axis": "y",
                "origin": [
                    6.9239,
                    8.13213,
                    29.89585
                ]
            },
            "faces": {
                "north": {
                    "uv": [
                        12,
                        1.33333,
                        12.49167,
                        1.86667
                    ],
                    "texture": "#1"
                },
                "east": {
                    "uv": [
                        12,
                        1.33333,
                        12.49167,
                        1.86667
                    ],
                    "texture": "#1"
                },
                "south": {
                    "uv": [
                        12,
                        1.33333,
                        12.49167,
                        1.86667
                    ],
                    "texture": "#1"
                },
                "west": {
                    "uv": [
                        12,
                        1.33333,
                        12.49167,
                        1.86667
                    ],
                    "texture": "#1"
                },
                "up": {
                    "uv": [
                        12,
                        1.33333,
                        12.49167,
                        1.86667
                    ],
                    "rotation": 270,
                    "texture": "#1"
                },
                "down": {
                    "uv": [
                        12,
                        1.33333,
                        12.49167,
                        1.86667
                    ],
                    "rotation": 90,
                    "texture": "#1"
                }
            }
        },
        {
            "from": [
                6.90257,
                8.19124,
                17.09884
            ],
            "to": [
                7.37169,
                8.90948,
                25.04374
            ],
            "rotation": {
                "angle": -45,
                "axis": "z",
                "origin": [
                    6.9239,
                    8.13213,
                    29.89585
                ]
            },
            "faces": {
                "north": {
                    "uv": [
                        12,
                        1.33333,
                        12.49167,
                        1.86667
                    ],
                    "rotation": 180,
                    "texture": "#1"
                },
                "east": {
                    "uv": [
                        12,
                        1.33333,
                        12.49167,
                        1.86667
                    ],
                    "rotation": 180,
                    "texture": "#1"
                },
                "south": {
                    "uv": [
                        12,
                        1.33333,
                        12.49167,
                        1.86667
                    ],
                    "rotation": 180,
                    "texture": "#1"
                },
                "west": {
                    "uv": [
                        12,
                        1.33333,
                        12.49167,
                        1.86667
                    ],
                    "rotation": 180,
                    "texture": "#1"
                },
                "up": {
                    "uv": [
                        12,
                        1.33333,
                        12.49167,
                        1.86667
                    ],
                    "rotation": 270,
                    "texture": "#1"
                },
                "down": {
                    "uv": [
                        12,
                        1.33333,
                        12.49167,
                        1.86667
                    ],
                    "rotation": 90,
                    "texture": "#1"
                }
            }
        },
        {
            "from": [
                6.3163,
                8.7775,
                17.09884
            ],
            "to": [
                6.93454,
                9.34662,
                25.04374
            ],
            "rotation": {
                "angle": -45,
                "axis": "z",
                "origin": [
                    6.9239,
                    8.13213,
                    29.89585
                ]
            },
            "faces": {
                "north": {
                    "uv": [
                        12,
                        1.33333,
                        12.49167,
                        1.86667
                    ],
                    "rotation": 270,
                    "texture": "#1"
                },
                "east": {
                    "uv": [
                        12,
                        1.33333,
                        12.49167,
                        1.86667
                    ],
                    "texture": "#1"
                },
                "south": {
                    "uv": [
                        12,
                        1.33333,
                        12.49167,
                        1.86667
                    ],
                    "rotation": 90,
                    "texture": "#1"
                },
                "west": {
                    "uv": [
                        12,
                        1.33333,
                        12.49167,
                        1.86667
                    ],
                    "rotation": 180,
                    "texture": "#1"
                },
                "up": {
                    "uv": [
                        12,
                        1.33333,
                        12.49167,
                        1.86667
                    ],
                    "rotation": 90,
                    "texture": "#1"
                },
                "down": {
                    "uv": [
                        12,
                        1.33333,
                        12.49167,
                        1.86667
                    ],
                    "rotation": 90,
                    "texture": "#1"
                }
            }
        },
        {
            "from": [
                6.60227,
                8.94254,
                17.09884
            ],
            "to": [
                7.28233,
                9.44984,
                25.04374
            ],
            "rotation": {
                "angle": 0,
                "axis": "y",
                "origin": [
                    6.9239,
                    8.13213,
                    29.89585
                ]
            },
            "faces": {
                "north": {
                    "uv": [
                        12,
                        1.33333,
                        12.49167,
                        1.86667
                    ],
                    "texture": "#1"
                },
                "east": {
                    "uv": [
                        12,
                        1.33333,
                        12.49167,
                        1.86667
                    ],
                    "texture": "#1"
                },
                "south": {
                    "uv": [
                        12,
                        1.33333,
                        12.49167,
                        1.86667
                    ],
                    "texture": "#1"
                },
                "west": {
                    "uv": [
                        12,
                        1.33333,
                        12.49167,
                        1.86667
                    ],
                    "texture": "#1"
                },
                "up": {
                    "uv": [
                        12,
                        1.33333,
                        12.49167,
                        1.86667
                    ],
                    "rotation": 270,
                    "texture": "#1"
                },
                "down": {
                    "uv": [
                        12,
                        1.33333,
                        12.49167,
                        1.86667
                    ],
                    "rotation": 90,
                    "texture": "#1"
                }
            }
        },
        {
            "from": [
                5.83542,
                8.1475,
                17.09884
            ],
            "to": [
                6.30454,
                8.86574,
                25.04374
            ],
            "rotation": {
                "angle": -45,
                "axis": "z",
                "origin": [
                    6.9239,
                    8.13213,
                    29.89585
                ]
            },
            "faces": {
                "north": {
                    "uv": [
                        12,
                        1.33333,
                        12.49167,
                        1.86667
                    ],
                    "rotation": 180,
                    "texture": "#1"
                },
                "east": {
                    "uv": [
                        12,
                        1.33333,
                        12.49167,
                        1.86667
                    ],
                    "rotation": 180,
                    "texture": "#1"
                },
                "south": {
                    "uv": [
                        12,
                        1.33333,
                        12.49167,
                        1.86667
                    ],
                    "rotation": 180,
                    "texture": "#1"
                },
                "west": {
                    "uv": [
                        12,
                        1.33333,
                        12.49167,
                        1.86667
                    ],
                    "rotation": 180,
                    "texture": "#1"
                },
                "up": {
                    "uv": [
                        12,
                        1.33333,
                        12.49167,
                        1.86667
                    ],
                    "rotation": 270,
                    "texture": "#1"
                },
                "down": {
                    "uv": [
                        12,
                        1.33333,
                        12.49167,
                        1.86667
                    ],
                    "rotation": 90,
                    "texture": "#1"
                }
            }
        },
        {
            "from": [
                6.16511,
                8.29444,
                17.09884
            ],
            "to": [
                6.63423,
                9.01268,
                25.04374
            ],
            "rotation": {
                "angle": 0,
                "axis": "y",
                "origin": [
                    6.9239,
                    8.13213,
                    29.89585
                ]
            },
            "faces": {
                "north": {
                    "uv": [
                        12,
                        1.33333,
                        12.49167,
                        1.86667
                    ],
                    "rotation": 180,
                    "texture": "#1"
                },
                "east": {
                    "uv": [
                        12,
                        1.33333,
                        12.49167,
                        1.86667
                    ],
                    "rotation": 180,
                    "texture": "#1"
                },
                "south": {
                    "uv": [
                        12,
                        1.33333,
                        12.49167,
                        1.86667
                    ],
                    "rotation": 180,
                    "texture": "#1"
                },
                "west": {
                    "uv": [
                        12,
                        1.33333,
                        12.49167,
                        1.86667
                    ],
                    "rotation": 180,
                    "texture": "#1"
                },
                "up": {
                    "uv": [
                        12,
                        1.33333,
                        12.49167,
                        1.86667
                    ],
                    "rotation": 270,
                    "texture": "#1"
                },
                "down": {
                    "uv": [
                        12,
                        1.33333,
                        12.49167,
                        1.86667
                    ],
                    "rotation": 90,
                    "texture": "#1"
                }
            }
        },
        {
            "from": [
                6.27259,
                7.71034,
                17.09884
            ],
            "to": [
                6.89083,
                8.27946,
                25.04374
            ],
            "rotation": {
                "angle": -45,
                "axis": "z",
                "origin": [
                    6.9239,
                    8.13213,
                    29.89585
                ]
            },
            "faces": {
                "north": {
                    "uv": [
                        12,
                        1.33333,
                        12.49167,
                        1.86667
                    ],
                    "rotation": 270,
                    "texture": "#1"
                },
                "east": {
                    "uv": [
                        12,
                        1.33333,
                        12.49167,
                        1.86667
                    ],
                    "texture": "#1"
                },
                "south": {
                    "uv": [
                        12,
                        1.33333,
                        12.49167,
                        1.86667
                    ],
                    "rotation": 90,
                    "texture": "#1"
                },
                "west": {
                    "uv": [
                        12,
                        1.33333,
                        12.49167,
                        1.86667
                    ],
                    "rotation": 180,
                    "texture": "#1"
                },
                "up": {
                    "uv": [
                        12,
                        1.33333,
                        12.49167,
                        1.86667
                    ],
                    "rotation": 90,
                    "texture": "#1"
                },
                "down": {
                    "uv": [
                        12,
                        1.33333,
                        12.49167,
                        1.86667
                    ],
                    "rotation": 90,
                    "texture": "#1"
                }
            }
        },
        {
            "from": [
                6.60227,
                7.85727,
                17.09884
            ],
            "to": [
                7.28233,
                8.36457,
                25.04374
            ],
            "rotation": {
                "angle": 0,
                "axis": "y",
                "origin": [
                    6.9239,
                    8.13213,
                    29.89585
                ]
            },
            "faces": {
                "north": {
                    "uv": [
                        12,
                        1.33333,
                        12.49167,
                        1.86667
                    ],
                    "texture": "#1"
                },
                "east": {
                    "uv": [
                        12,
                        1.33333,
                        12.49167,
                        1.86667
                    ],
                    "texture": "#1"
                },
                "south": {
                    "uv": [
                        12,
                        1.33333,
                        12.49167,
                        1.86667
                    ],
                    "texture": "#1"
                },
                "west": {
                    "uv": [
                        12,
                        1.33333,
                        12.49167,
                        1.86667
                    ],
                    "texture": "#1"
                },
                "up": {
                    "uv": [
                        12,
                        1.33333,
                        12.49167,
                        1.86667
                    ],
                    "rotation": 270,
                    "texture": "#1"
                },
                "down": {
                    "uv": [
                        12,
                        1.33333,
                        12.49167,
                        1.86667
                    ],
                    "rotation": 90,
                    "texture": "#1"
                }
            }
        },
        {
            "from": [
                6.90257,
                8.19124,
                17.09884
            ],
            "to": [
                7.37169,
                8.90948,
                25.04374
            ],
            "rotation": {
                "angle": -45,
                "axis": "z",
                "origin": [
                    6.9239,
                    8.13213,
                    29.89585
                ]
            },
            "faces": {
                "north": {
                    "uv": [
                        12,
                        1.33333,
                        12.49167,
                        1.86667
                    ],
                    "rotation": 180,
                    "texture": "#1"
                },
                "east": {
                    "uv": [
                        12,
                        1.33333,
                        12.49167,
                        1.86667
                    ],
                    "rotation": 180,
                    "texture": "#1"
                },
                "south": {
                    "uv": [
                        12,
                        1.33333,
                        12.49167,
                        1.86667
                    ],
                    "rotation": 180,
                    "texture": "#1"
                },
                "west": {
                    "uv": [
                        12,
                        1.33333,
                        12.49167,
                        1.86667
                    ],
                    "rotation": 180,
                    "texture": "#1"
                },
                "up": {
                    "uv": [
                        12,
                        1.33333,
                        12.49167,
                        1.86667
                    ],
                    "rotation": 270,
                    "texture": "#1"
                },
                "down": {
                    "uv": [
                        12,
                        1.33333,
                        12.49167,
                        1.86667
                    ],
                    "rotation": 90,
                    "texture": "#1"
                }
            }
        },
        {
            "from": [
                6.3163,
                10.3775,
                17.09884
            ],
            "to": [
                6.93454,
                10.94662,
                25.04374
            ],
            "rotation": {
                "angle": -45,
                "axis": "z",
                "origin": [
                    6.9239,
                    9.73213,
                    29.89585
                ]
            },
            "faces": {
                "north": {
                    "uv": [
                        12,
                        1.33333,
                        12.49167,
                        1.86667
                    ],
                    "rotation": 270,
                    "texture": "#1"
                },
                "east": {
                    "uv": [
                        12,
                        1.33333,
                        12.49167,
                        1.86667
                    ],
                    "texture": "#1"
                },
                "south": {
                    "uv": [
                        12,
                        1.33333,
                        12.49167,
                        1.86667
                    ],
                    "rotation": 90,
                    "texture": "#1"
                },
                "west": {
                    "uv": [
                        12,
                        1.33333,
                        12.49167,
                        1.86667
                    ],
                    "rotation": 180,
                    "texture": "#1"
                },
                "up": {
                    "uv": [
                        12,
                        1.33333,
                        12.49167,
                        1.86667
                    ],
                    "rotation": 90,
                    "texture": "#1"
                },
                "down": {
                    "uv": [
                        12,
                        1.33333,
                        12.49167,
                        1.86667
                    ],
                    "rotation": 90,
                    "texture": "#1"
                }
            }
        },
        {
            "from": [
                6.60227,
                10.54254,
                17.09884
            ],
            "to": [
                7.28233,
                11.04984,
                25.04374
            ],
            "rotation": {
                "angle": 0,
                "axis": "y",
                "origin": [
                    6.9239,
                    9.73213,
                    29.89585
                ]
            },
            "faces": {
                "north": {
                    "uv": [
                        12,
                        1.33333,
                        12.49167,
                        1.86667
                    ],
                    "texture": "#1"
                },
                "east": {
                    "uv": [
                        12,
                        1.33333,
                        12.49167,
                        1.86667
                    ],
                    "texture": "#1"
                },
                "south": {
                    "uv": [
                        12,
                        1.33333,
                        12.49167,
                        1.86667
                    ],
                    "texture": "#1"
                },
                "west": {
                    "uv": [
                        12,
                        1.33333,
                        12.49167,
                        1.86667
                    ],
                    "texture": "#1"
                },
                "up": {
                    "uv": [
                        12,
                        1.33333,
                        12.49167,
                        1.86667
                    ],
                    "rotation": 270,
                    "texture": "#1"
                },
                "down": {
                    "uv": [
                        12,
                        1.33333,
                        12.49167,
                        1.86667
                    ],
                    "rotation": 90,
                    "texture": "#1"
                }
            }
        },
        {
            "from": [
                5.83542,
                9.7475,
                17.09884
            ],
            "to": [
                6.30454,
                10.46574,
                25.04374
            ],
            "rotation": {
                "angle": -45,
                "axis": "z",
                "origin": [
                    6.9239,
                    9.73213,
                    29.89585
                ]
            },
            "faces": {
                "north": {
                    "uv": [
                        12,
                        1.33333,
                        12.49167,
                        1.86667
                    ],
                    "rotation": 180,
                    "texture": "#1"
                },
                "east": {
                    "uv": [
                        12,
                        1.33333,
                        12.49167,
                        1.86667
                    ],
                    "rotation": 180,
                    "texture": "#1"
                },
                "south": {
                    "uv": [
                        12,
                        1.33333,
                        12.49167,
                        1.86667
                    ],
                    "rotation": 180,
                    "texture": "#1"
                },
                "west": {
                    "uv": [
                        12,
                        1.33333,
                        12.49167,
                        1.86667
                    ],
                    "rotation": 180,
                    "texture": "#1"
                },
                "up": {
                    "uv": [
                        12,
                        1.33333,
                        12.49167,
                        1.86667
                    ],
                    "rotation": 270,
                    "texture": "#1"
                },
                "down": {
                    "uv": [
                        12,
                        1.33333,
                        12.49167,
                        1.86667
                    ],
                    "rotation": 90,
                    "texture": "#1"
                }
            }
        },
        {
            "from": [
                6.16511,
                9.89444,
                17.09884
            ],
            "to": [
                6.63423,
                10.61268,
                25.04374
            ],
            "rotation": {
                "angle": 0,
                "axis": "y",
                "origin": [
                    6.9239,
                    9.73213,
                    29.89585
                ]
            },
            "faces": {
                "north": {
                    "uv": [
                        12,
                        1.33333,
                        12.49167,
                        1.86667
                    ],
                    "rotation": 180,
                    "texture": "#1"
                },
                "east": {
                    "uv": [
                        12,
                        1.33333,
                        12.49167,
                        1.86667
                    ],
                    "rotation": 180,
                    "texture": "#1"
                },
                "south": {
                    "uv": [
                        12,
                        1.33333,
                        12.49167,
                        1.86667
                    ],
                    "rotation": 180,
                    "texture": "#1"
                },
                "west": {
                    "uv": [
                        12,
                        1.33333,
                        12.49167,
                        1.86667
                    ],
                    "rotation": 180,
                    "texture": "#1"
                },
                "up": {
                    "uv": [
                        12,
                        1.33333,
                        12.49167,
                        1.86667
                    ],
                    "rotation": 270,
                    "texture": "#1"
                },
                "down": {
                    "uv": [
                        12,
                        1.33333,
                        12.49167,
                        1.86667
                    ],
                    "rotation": 90,
                    "texture": "#1"
                }
            }
        },
        {
            "from": [
                6.27259,
                9.31034,
                17.09884
            ],
            "to": [
                6.89083,
                9.87946,
                25.04374
            ],
            "rotation": {
                "angle": -45,
                "axis": "z",
                "origin": [
                    6.9239,
                    9.73213,
                    29.89585
                ]
            },
            "faces": {
                "north": {
                    "uv": [
                        12,
                        1.33333,
                        12.49167,
                        1.86667
                    ],
                    "rotation": 270,
                    "texture": "#1"
                },
                "east": {
                    "uv": [
                        12,
                        1.33333,
                        12.49167,
                        1.86667
                    ],
                    "texture": "#1"
                },
                "south": {
                    "uv": [
                        12,
                        1.33333,
                        12.49167,
                        1.86667
                    ],
                    "rotation": 90,
                    "texture": "#1"
                },
                "west": {
                    "uv": [
                        12,
                        1.33333,
                        12.49167,
                        1.86667
                    ],
                    "rotation": 180,
                    "texture": "#1"
                },
                "up": {
                    "uv": [
                        12,
                        1.33333,
                        12.49167,
                        1.86667
                    ],
                    "rotation": 90,
                    "texture": "#1"
                },
                "down": {
                    "uv": [
                        12,
                        1.33333,
                        12.49167,
                        1.86667
                    ],
                    "rotation": 90,
                    "texture": "#1"
                }
            }
        },
        {
            "from": [
                6.60227,
                9.45727,
                17.09884
            ],
            "to": [
                7.28233,
                9.96457,
                25.04374
            ],
            "rotation": {
                "angle": 0,
                "axis": "y",
                "origin": [
                    6.9239,
                    9.73213,
                    29.89585
                ]
            },
            "faces": {
                "north": {
                    "uv": [
                        12,
                        1.33333,
                        12.49167,
                        1.86667
                    ],
                    "texture": "#1"
                },
                "east": {
                    "uv": [
                        12,
                        1.33333,
                        12.49167,
                        1.86667
                    ],
                    "texture": "#1"
                },
                "south": {
                    "uv": [
                        12,
                        1.33333,
                        12.49167,
                        1.86667
                    ],
                    "texture": "#1"
                },
                "west": {
                    "uv": [
                        12,
                        1.33333,
                        12.49167,
                        1.86667
                    ],
                    "texture": "#1"
                },
                "up": {
                    "uv": [
                        12,
                        1.33333,
                        12.49167,
                        1.86667
                    ],
                    "rotation": 270,
                    "texture": "#1"
                },
                "down": {
                    "uv": [
                        12,
                        1.33333,
                        12.49167,
                        1.86667
                    ],
                    "rotation": 90,
                    "texture": "#1"
                }
            }
        },
        {
            "from": [
                6.90257,
                9.79124,
                17.09884
            ],
            "to": [
                7.37169,
                10.50948,
                25.04374
            ],
            "rotation": {
                "angle": -45,
                "axis": "z",
                "origin": [
                    6.9239,
                    9.73213,
                    29.89585
                ]
            },
            "faces": {
                "north": {
                    "uv": [
                        12,
                        1.33333,
                        12.49167,
                        1.86667
                    ],
                    "rotation": 180,
                    "texture": "#1"
                },
                "east": {
                    "uv": [
                        12,
                        1.33333,
                        12.49167,
                        1.86667
                    ],
                    "rotation": 180,
                    "texture": "#1"
                },
                "south": {
                    "uv": [
                        12,
                        1.33333,
                        12.49167,
                        1.86667
                    ],
                    "rotation": 180,
                    "texture": "#1"
                },
                "west": {
                    "uv": [
                        12,
                        1.33333,
                        12.49167,
                        1.86667
                    ],
                    "rotation": 180,
                    "texture": "#1"
                },
                "up": {
                    "uv": [
                        12,
                        1.33333,
                        12.49167,
                        1.86667
                    ],
                    "rotation": 270,
                    "texture": "#1"
                },
                "down": {
                    "uv": [
                        12,
                        1.33333,
                        12.49167,
                        1.86667
                    ],
                    "rotation": 90,
                    "texture": "#1"
                }
            }
        },
        {
            "from": [
                7.25037,
                8.29444,
                17.09884
            ],
            "to": [
                7.71949,
                9.01268,
                25.04374
            ],
            "rotation": {
                "angle": 0,
                "axis": "y",
                "origin": [
                    6.9239,
                    8.13213,
                    29.89585
                ]
            },
            "faces": {
                "north": {
                    "uv": [
                        12,
                        1.33333,
                        12.49167,
                        1.86667
                    ],
                    "rotation": 180,
                    "texture": "#1"
                },
                "east": {
                    "uv": [
                        12,
                        1.33333,
                        12.49167,
                        1.86667
                    ],
                    "rotation": 180,
                    "texture": "#1"
                },
                "south": {
                    "uv": [
                        12,
                        1.33333,
                        12.49167,
                        1.86667
                    ],
                    "rotation": 180,
                    "texture": "#1"
                },
                "west": {
                    "uv": [
                        12,
                        1.33333,
                        12.49167,
                        1.86667
                    ],
                    "rotation": 180,
                    "texture": "#1"
                },
                "up": {
                    "uv": [
                        12,
                        1.33333,
                        12.49167,
                        1.86667
                    ],
                    "rotation": 270,
                    "texture": "#1"
                },
                "down": {
                    "uv": [
                        12,
                        1.33333,
                        12.49167,
                        1.86667
                    ],
                    "rotation": 90,
                    "texture": "#1"
                }
            }
        },
        {
            "from": [
                6.3163,
                8.7775,
                17.09884
            ],
            "to": [
                6.93454,
                9.34662,
                25.04374
            ],
            "rotation": {
                "angle": -45,
                "axis": "z",
                "origin": [
                    6.9239,
                    8.13213,
                    29.89585
                ]
            },
            "faces": {
                "north": {
                    "uv": [
                        12,
                        1.33333,
                        12.49167,
                        1.86667
                    ],
                    "rotation": 270,
                    "texture": "#1"
                },
                "east": {
                    "uv": [
                        12,
                        1.33333,
                        12.49167,
                        1.86667
                    ],
                    "texture": "#1"
                },
                "south": {
                    "uv": [
                        12,
                        1.33333,
                        12.49167,
                        1.86667
                    ],
                    "rotation": 90,
                    "texture": "#1"
                },
                "west": {
                    "uv": [
                        12,
                        1.33333,
                        12.49167,
                        1.86667
                    ],
                    "rotation": 180,
                    "texture": "#1"
                },
                "up": {
                    "uv": [
                        12,
                        1.33333,
                        12.49167,
                        1.86667
                    ],
                    "rotation": 90,
                    "texture": "#1"
                },
                "down": {
                    "uv": [
                        12,
                        1.33333,
                        12.49167,
                        1.86667
                    ],
                    "rotation": 90,
                    "texture": "#1"
                }
            }
        },
        {
            "from": [
                6.60227,
                8.94254,
                17.09884
            ],
            "to": [
                7.28233,
                9.44984,
                25.04374
            ],
            "rotation": {
                "angle": 0,
                "axis": "y",
                "origin": [
                    6.9239,
                    8.13213,
                    29.89585
                ]
            },
            "faces": {
                "north": {
                    "uv": [
                        12,
                        1.33333,
                        12.49167,
                        1.86667
                    ],
                    "texture": "#1"
                },
                "east": {
                    "uv": [
                        12,
                        1.33333,
                        12.49167,
                        1.86667
                    ],
                    "texture": "#1"
                },
                "south": {
                    "uv": [
                        12,
                        1.33333,
                        12.49167,
                        1.86667
                    ],
                    "texture": "#1"
                },
                "west": {
                    "uv": [
                        12,
                        1.33333,
                        12.49167,
                        1.86667
                    ],
                    "texture": "#1"
                },
                "up": {
                    "uv": [
                        12,
                        1.33333,
                        12.49167,
                        1.86667
                    ],
                    "rotation": 270,
                    "texture": "#1"
                },
                "down": {
                    "uv": [
                        12,
                        1.33333,
                        12.49167,
                        1.86667
                    ],
                    "rotation": 90,
                    "texture": "#1"
                }
            }
        },
        {
            "from": [
                5.83542,
                8.1475,
                17.09884
            ],
            "to": [
                6.30454,
                8.86574,
                25.04374
            ],
            "rotation": {
                "angle": -45,
                "axis": "z",
                "origin": [
                    6.9239,
                    8.13213,
                    29.89585
                ]
            },
            "faces": {
                "north": {
                    "uv": [
                        12,
                        1.33333,
                        12.49167,
                        1.86667
                    ],
                    "rotation": 180,
                    "texture": "#1"
                },
                "east": {
                    "uv": [
                        12,
                        1.33333,
                        12.49167,
                        1.86667
                    ],
                    "rotation": 180,
                    "texture": "#1"
                },
                "south": {
                    "uv": [
                        12,
                        1.33333,
                        12.49167,
                        1.86667
                    ],
                    "rotation": 180,
                    "texture": "#1"
                },
                "west": {
                    "uv": [
                        12,
                        1.33333,
                        12.49167,
                        1.86667
                    ],
                    "rotation": 180,
                    "texture": "#1"
                },
                "up": {
                    "uv": [
                        12,
                        1.33333,
                        12.49167,
                        1.86667
                    ],
                    "rotation": 270,
                    "texture": "#1"
                },
                "down": {
                    "uv": [
                        12,
                        1.33333,
                        12.49167,
                        1.86667
                    ],
                    "rotation": 90,
                    "texture": "#1"
                }
            }
        },
        {
            "from": [
                6.16511,
                8.29444,
                17.09884
            ],
            "to": [
                6.63423,
                9.01268,
                25.04374
            ],
            "rotation": {
                "angle": 0,
                "axis": "y",
                "origin": [
                    6.9239,
                    8.13213,
                    29.89585
                ]
            },
            "faces": {
                "north": {
                    "uv": [
                        12,
                        1.33333,
                        12.49167,
                        1.86667
                    ],
                    "rotation": 180,
                    "texture": "#1"
                },
                "east": {
                    "uv": [
                        12,
                        1.33333,
                        12.49167,
                        1.86667
                    ],
                    "rotation": 180,
                    "texture": "#1"
                },
                "south": {
                    "uv": [
                        12,
                        1.33333,
                        12.49167,
                        1.86667
                    ],
                    "rotation": 180,
                    "texture": "#1"
                },
                "west": {
                    "uv": [
                        12,
                        1.33333,
                        12.49167,
                        1.86667
                    ],
                    "rotation": 180,
                    "texture": "#1"
                },
                "up": {
                    "uv": [
                        12,
                        1.33333,
                        12.49167,
                        1.86667
                    ],
                    "rotation": 270,
                    "texture": "#1"
                },
                "down": {
                    "uv": [
                        12,
                        1.33333,
                        12.49167,
                        1.86667
                    ],
                    "rotation": 90,
                    "texture": "#1"
                }
            }
        },
        {
            "from": [
                6.27259,
                7.71034,
                17.09884
            ],
            "to": [
                6.89083,
                8.27946,
                25.04374
            ],
            "rotation": {
                "angle": -45,
                "axis": "z",
                "origin": [
                    6.9239,
                    8.13213,
                    29.89585
                ]
            },
            "faces": {
                "north": {
                    "uv": [
                        12,
                        1.33333,
                        12.49167,
                        1.86667
                    ],
                    "rotation": 270,
                    "texture": "#1"
                },
                "east": {
                    "uv": [
                        12,
                        1.33333,
                        12.49167,
                        1.86667
                    ],
                    "texture": "#1"
                },
                "south": {
                    "uv": [
                        12,
                        1.33333,
                        12.49167,
                        1.86667
                    ],
                    "rotation": 90,
                    "texture": "#1"
                },
                "west": {
                    "uv": [
                        12,
                        1.33333,
                        12.49167,
                        1.86667
                    ],
                    "rotation": 180,
                    "texture": "#1"
                },
                "up": {
                    "uv": [
                        12,
                        1.33333,
                        12.49167,
                        1.86667
                    ],
                    "rotation": 90,
                    "texture": "#1"
                },
                "down": {
                    "uv": [
                        12,
                        1.33333,
                        12.49167,
                        1.86667
                    ],
                    "rotation": 90,
                    "texture": "#1"
                }
            }
        },
        {
            "from": [
                6.60227,
                7.85727,
                17.09884
            ],
            "to": [
                7.28233,
                8.36457,
                25.04374
            ],
            "rotation": {
                "angle": 0,
                "axis": "y",
                "origin": [
                    6.9239,
                    8.13213,
                    29.89585
                ]
            },
            "faces": {
                "north": {
                    "uv": [
                        12,
                        1.33333,
                        12.49167,
                        1.86667
                    ],
                    "texture": "#1"
                },
                "east": {
                    "uv": [
                        12,
                        1.33333,
                        12.49167,
                        1.86667
                    ],
                    "texture": "#1"
                },
                "south": {
                    "uv": [
                        12,
                        1.33333,
                        12.49167,
                        1.86667
                    ],
                    "texture": "#1"
                },
                "west": {
                    "uv": [
                        12,
                        1.33333,
                        12.49167,
                        1.86667
                    ],
                    "texture": "#1"
                },
                "up": {
                    "uv": [
                        12,
                        1.33333,
                        12.49167,
                        1.86667
                    ],
                    "rotation": 270,
                    "texture": "#1"
                },
                "down": {
                    "uv": [
                        12,
                        1.33333,
                        12.49167,
                        1.86667
                    ],
                    "rotation": 90,
                    "texture": "#1"
                }
            }
        },
        {
            "from": [
                6.90257,
                8.19124,
                17.09884
            ],
            "to": [
                7.37169,
                8.90948,
                25.04374
            ],
            "rotation": {
                "angle": -45,
                "axis": "z",
                "origin": [
                    6.9239,
                    8.13213,
                    29.89585
                ]
            },
            "faces": {
                "north": {
                    "uv": [
                        12,
                        1.33333,
                        12.49167,
                        1.86667
                    ],
                    "rotation": 180,
                    "texture": "#1"
                },
                "east": {
                    "uv": [
                        12,
                        1.33333,
                        12.49167,
                        1.86667
                    ],
                    "rotation": 180,
                    "texture": "#1"
                },
                "south": {
                    "uv": [
                        12,
                        1.33333,
                        12.49167,
                        1.86667
                    ],
                    "rotation": 180,
                    "texture": "#1"
                },
                "west": {
                    "uv": [
                        12,
                        1.33333,
                        12.49167,
                        1.86667
                    ],
                    "rotation": 180,
                    "texture": "#1"
                },
                "up": {
                    "uv": [
                        12,
                        1.33333,
                        12.49167,
                        1.86667
                    ],
                    "rotation": 270,
                    "texture": "#1"
                },
                "down": {
                    "uv": [
                        12,
                        1.33333,
                        12.49167,
                        1.86667
                    ],
                    "rotation": 90,
                    "texture": "#1"
                }
            }
        },
        {
            "from": [
                7.25037,
                9.89444,
                17.09884
            ],
            "to": [
                7.71949,
                10.61268,
                25.04374
            ],
            "rotation": {
                "angle": 0,
                "axis": "y",
                "origin": [
                    6.9239,
                    9.73213,
                    29.89585
                ]
            },
            "faces": {
                "north": {
                    "uv": [
                        12,
                        1.33333,
                        12.49167,
                        1.86667
                    ],
                    "rotation": 180,
                    "texture": "#1"
                },
                "east": {
                    "uv": [
                        12,
                        1.33333,
                        12.49167,
                        1.86667
                    ],
                    "rotation": 180,
                    "texture": "#1"
                },
                "south": {
                    "uv": [
                        12,
                        1.33333,
                        12.49167,
                        1.86667
                    ],
                    "rotation": 180,
                    "texture": "#1"
                },
                "west": {
                    "uv": [
                        12,
                        1.33333,
                        12.49167,
                        1.86667
                    ],
                    "rotation": 180,
                    "texture": "#1"
                },
                "up": {
                    "uv": [
                        12,
                        1.33333,
                        12.49167,
                        1.86667
                    ],
                    "rotation": 270,
                    "texture": "#1"
                },
                "down": {
                    "uv": [
                        12,
                        1.33333,
                        12.49167,
                        1.86667
                    ],
                    "rotation": 90,
                    "texture": "#1"
                }
            }
        },
        {
            "from": [
                6.3163,
                10.3775,
                17.09884
            ],
            "to": [
                6.93454,
                10.94662,
                25.04374
            ],
            "rotation": {
                "angle": -45,
                "axis": "z",
                "origin": [
                    6.9239,
                    9.73213,
                    29.89585
                ]
            },
            "faces": {
                "north": {
                    "uv": [
                        12,
                        1.33333,
                        12.49167,
                        1.86667
                    ],
                    "rotation": 270,
                    "texture": "#1"
                },
                "east": {
                    "uv": [
                        12,
                        1.33333,
                        12.49167,
                        1.86667
                    ],
                    "texture": "#1"
                },
                "south": {
                    "uv": [
                        12,
                        1.33333,
                        12.49167,
                        1.86667
                    ],
                    "rotation": 90,
                    "texture": "#1"
                },
                "west": {
                    "uv": [
                        12,
                        1.33333,
                        12.49167,
                        1.86667
                    ],
                    "rotation": 180,
                    "texture": "#1"
                },
                "up": {
                    "uv": [
                        12,
                        1.33333,
                        12.49167,
                        1.86667
                    ],
                    "rotation": 90,
                    "texture": "#1"
                },
                "down": {
                    "uv": [
                        12,
                        1.33333,
                        12.49167,
                        1.86667
                    ],
                    "rotation": 90,
                    "texture": "#1"
                }
            }
        },
        {
            "from": [
                6.60227,
                10.54254,
                17.09884
            ],
            "to": [
                7.28233,
                11.04984,
                25.04374
            ],
            "rotation": {
                "angle": 0,
                "axis": "y",
                "origin": [
                    6.9239,
                    9.73213,
                    29.89585
                ]
            },
            "faces": {
                "north": {
                    "uv": [
                        12,
                        1.33333,
                        12.49167,
                        1.86667
                    ],
                    "texture": "#1"
                },
                "east": {
                    "uv": [
                        12,
                        1.33333,
                        12.49167,
                        1.86667
                    ],
                    "texture": "#1"
                },
                "south": {
                    "uv": [
                        12,
                        1.33333,
                        12.49167,
                        1.86667
                    ],
                    "texture": "#1"
                },
                "west": {
                    "uv": [
                        12,
                        1.33333,
                        12.49167,
                        1.86667
                    ],
                    "texture": "#1"
                },
                "up": {
                    "uv": [
                        12,
                        1.33333,
                        12.49167,
                        1.86667
                    ],
                    "rotation": 270,
                    "texture": "#1"
                },
                "down": {
                    "uv": [
                        12,
                        1.33333,
                        12.49167,
                        1.86667
                    ],
                    "rotation": 90,
                    "texture": "#1"
                }
            }
        },
        {
            "from": [
                5.83542,
                9.7475,
                17.09884
            ],
            "to": [
                6.30454,
                10.46574,
                25.04374
            ],
            "rotation": {
                "angle": -45,
                "axis": "z",
                "origin": [
                    6.9239,
                    9.73213,
                    29.89585
                ]
            },
            "faces": {
                "north": {
                    "uv": [
                        12,
                        1.33333,
                        12.49167,
                        1.86667
                    ],
                    "rotation": 180,
                    "texture": "#1"
                },
                "east": {
                    "uv": [
                        12,
                        1.33333,
                        12.49167,
                        1.86667
                    ],
                    "rotation": 180,
                    "texture": "#1"
                },
                "south": {
                    "uv": [
                        12,
                        1.33333,
                        12.49167,
                        1.86667
                    ],
                    "rotation": 180,
                    "texture": "#1"
                },
                "west": {
                    "uv": [
                        12,
                        1.33333,
                        12.49167,
                        1.86667
                    ],
                    "rotation": 180,
                    "texture": "#1"
                },
                "up": {
                    "uv": [
                        12,
                        1.33333,
                        12.49167,
                        1.86667
                    ],
                    "rotation": 270,
                    "texture": "#1"
                },
                "down": {
                    "uv": [
                        12,
                        1.33333,
                        12.49167,
                        1.86667
                    ],
                    "rotation": 90,
                    "texture": "#1"
                }
            }
        },
        {
            "from": [
                6.16511,
                9.89444,
                17.09884
            ],
            "to": [
                6.63423,
                10.61268,
                25.04374
            ],
            "rotation": {
                "angle": 0,
                "axis": "y",
                "origin": [
                    6.9239,
                    9.73213,
                    29.89585
                ]
            },
            "faces": {
                "north": {
                    "uv": [
                        12,
                        1.33333,
                        12.49167,
                        1.86667
                    ],
                    "rotation": 180,
                    "texture": "#1"
                },
                "east": {
                    "uv": [
                        12,
                        1.33333,
                        12.49167,
                        1.86667
                    ],
                    "rotation": 180,
                    "texture": "#1"
                },
                "south": {
                    "uv": [
                        12,
                        1.33333,
                        12.49167,
                        1.86667
                    ],
                    "rotation": 180,
                    "texture": "#1"
                },
                "west": {
                    "uv": [
                        12,
                        1.33333,
                        12.49167,
                        1.86667
                    ],
                    "rotation": 180,
                    "texture": "#1"
                },
                "up": {
                    "uv": [
                        12,
                        1.33333,
                        12.49167,
                        1.86667
                    ],
                    "rotation": 270,
                    "texture": "#1"
                },
                "down": {
                    "uv": [
                        12,
                        1.33333,
                        12.49167,
                        1.86667
                    ],
                    "rotation": 90,
                    "texture": "#1"
                }
            }
        },
        {
            "from": [
                6.27259,
                9.31034,
                17.09884
            ],
            "to": [
                6.89083,
                9.87946,
                25.04374
            ],
            "rotation": {
                "angle": -45,
                "axis": "z",
                "origin": [
                    6.9239,
                    9.73213,
                    29.89585
                ]
            },
            "faces": {
                "north": {
                    "uv": [
                        12,
                        1.33333,
                        12.49167,
                        1.86667
                    ],
                    "rotation": 270,
                    "texture": "#1"
                },
                "east": {
                    "uv": [
                        12,
                        1.33333,
                        12.49167,
                        1.86667
                    ],
                    "texture": "#1"
                },
                "south": {
                    "uv": [
                        12,
                        1.33333,
                        12.49167,
                        1.86667
                    ],
                    "rotation": 90,
                    "texture": "#1"
                },
                "west": {
                    "uv": [
                        12,
                        1.33333,
                        12.49167,
                        1.86667
                    ],
                    "rotation": 180,
                    "texture": "#1"
                },
                "up": {
                    "uv": [
                        12,
                        1.33333,
                        12.49167,
                        1.86667
                    ],
                    "rotation": 90,
                    "texture": "#1"
                },
                "down": {
                    "uv": [
                        12,
                        1.33333,
                        12.49167,
                        1.86667
                    ],
                    "rotation": 90,
                    "texture": "#1"
                }
            }
        },
        {
            "from": [
                6.60227,
                9.45727,
                17.09884
            ],
            "to": [
                7.28233,
                9.96457,
                25.04374
            ],
            "rotation": {
                "angle": 0,
                "axis": "y",
                "origin": [
                    6.9239,
                    9.73213,
                    29.89585
                ]
            },
            "faces": {
                "north": {
                    "uv": [
                        12,
                        1.33333,
                        12.49167,
                        1.86667
                    ],
                    "texture": "#1"
                },
                "east": {
                    "uv": [
                        12,
                        1.33333,
                        12.49167,
                        1.86667
                    ],
                    "texture": "#1"
                },
                "south": {
                    "uv": [
                        12,
                        1.33333,
                        12.49167,
                        1.86667
                    ],
                    "texture": "#1"
                },
                "west": {
                    "uv": [
                        12,
                        1.33333,
                        12.49167,
                        1.86667
                    ],
                    "texture": "#1"
                },
                "up": {
                    "uv": [
                        12,
                        1.33333,
                        12.49167,
                        1.86667
                    ],
                    "rotation": 270,
                    "texture": "#1"
                },
                "down": {
                    "uv": [
                        12,
                        1.33333,
                        12.49167,
                        1.86667
                    ],
                    "rotation": 90,
                    "texture": "#1"
                }
            }
        },
        {
            "from": [
                6.90257,
                9.79124,
                17.09884
            ],
            "to": [
                7.37169,
                10.50948,
                25.04374
            ],
            "rotation": {
                "angle": -45,
                "axis": "z",
                "origin": [
                    6.9239,
                    9.73213,
                    29.89585
                ]
            },
            "faces": {
                "north": {
                    "uv": [
                        12,
                        1.33333,
                        12.49167,
                        1.86667
                    ],
                    "rotation": 180,
                    "texture": "#1"
                },
                "east": {
                    "uv": [
                        12,
                        1.33333,
                        12.49167,
                        1.86667
                    ],
                    "rotation": 180,
                    "texture": "#1"
                },
                "south": {
                    "uv": [
                        12,
                        1.33333,
                        12.49167,
                        1.86667
                    ],
                    "rotation": 180,
                    "texture": "#1"
                },
                "west": {
                    "uv": [
                        12,
                        1.33333,
                        12.49167,
                        1.86667
                    ],
                    "rotation": 180,
                    "texture": "#1"
                },
                "up": {
                    "uv": [
                        12,
                        1.33333,
                        12.49167,
                        1.86667
                    ],
                    "rotation": 270,
                    "texture": "#1"
                },
                "down": {
                    "uv": [
                        12,
                        1.33333,
                        12.49167,
                        1.86667
                    ],
                    "rotation": 90,
                    "texture": "#1"
                }
            }
        }
    ],
    "display": {
        "thirdperson_righthand": {
            "rotation": [
                0,
                -180,
                0
            ],
            "translation": [
                0.25,
                0,
                -0.5
            ],
            "scale": [
                0.3457,
                0.3457,
                0.3457
            ]
        },
        "thirdperson_lefthand": {
            "rotation": [
                0,
                -180,
                0
            ],
            "translation": [
                -0.75,
                0,
                0
            ],
            "scale": [
                0.3457,
                0.3457,
                0.3457
            ]
        },
        "firstperson_righthand": {
            "rotation": [
                0,
                -180,
                0
            ],
            "translation": [
                -0.5,
                3.5,
                0
            ],
            "scale": [
                0.53,
                0.57,
                0.45
            ]
        },
        "firstperson_lefthand": {
            "rotation": [
                4,
                -180,
                0
            ],
            "translation": [
                -8.1,
                3,
                -8.75
            ]
        },
        "ground": {
            "rotation": [
                0,
                0,
                90
            ],
            "scale": [
                0.3,
                0.3,
                0.3
            ]
        },
        "gui": {
            "rotation": [
                24,
                140,
                0
            ],
            "translation": [
                0,
                0.75,
                0
            ],
            "scale": [
                0.51368,
                0.51368,
                0.51368
            ]
        },
        "head": {
            "scale": [
                0,
                0,
                0
            ]
        },
        "fixed": {
            "rotation": [
                90,
                45,
                -90
            ],
            "translation": [
                0,
                0.75,
                -1
            ],
            "scale": [
                0.51563,
                0.51563,
                0.51563
            ]
        }
    }
}