{
    "textures": {
        "1": "gci:items/common/all_in_one"
    },
    "elements": [
        {
            "from": [
                7.96,
                11.44292,
                11.184
            ],
            "to": [
                8.712,
                11.89092,
                12.14
            ],
            "rotation": {
                "angle": 0,
                "axis": "y",
                "origin": [
                    8.323,
                    11.75359,
                    11.822
                ]
            },
            "faces": {
                "north": {
                    "uv": [
                        3,
                        3.125,
                        3,
                        3.125
                    ],
                    "rotation": 270,
                    "texture": "#1"
                },
                "east": {
                    "uv": [
                        3,
                        3.125,
                        3,
                        3.125
                    ],
                    "rotation": 270,
                    "texture": "#1"
                },
                "south": {
                    "uv": [
                        3,
                        3.125,
                        3,
                        3.125
                    ],
                    "rotation": 270,
                    "texture": "#1"
                },
                "west": {
                    "uv": [
                        3,
                        3.125,
                        3,
                        3.125
                    ],
                    "rotation": 270,
                    "texture": "#1"
                },
                "up": {
                    "uv": [
                        3,
                        3.125,
                        3,
                        3.125
                    ],
                    "rotation": 270,
                    "texture": "#1"
                },
                "down": {
                    "uv": [
                        3,
                        3.125,
                        3,
                        3.125
                    ],
                    "rotation": 270,
                    "texture": "#1"
                }
            }
        },
        {
            "from": [
                7.928,
                11.53892,
                11.728
            ],
            "to": [
                8.744,
                11.66292,
                11.852
            ],
            "rotation": {
                "angle": -45,
                "axis": "x",
                "origin": [
                    8.336,
                    11.60092,
                    11.79
                ]
            },
            "faces": {
                "north": {
                    "uv": [
                        1.625,
                        1.125,
                        1.75,
                        1.25
                    ],
                    "rotation": 270,
                    "texture": "#1"
                },
                "east": {
                    "uv": [
                        1.625,
                        1.125,
                        1.75,
                        1.25
                    ],
                    "rotation": 270,
                    "texture": "#1"
                },
                "south": {
                    "uv": [
                        1.625,
                        1.125,
                        1.75,
                        1.25
                    ],
                    "rotation": 270,
                    "texture": "#1"
                },
                "west": {
                    "uv": [
                        1.625,
                        1.125,
                        1.75,
                        1.25
                    ],
                    "rotation": 270,
                    "texture": "#1"
                },
                "up": {
                    "uv": [
                        1.625,
                        1.125,
                        1.75,
                        1.25
                    ],
                    "rotation": 270,
                    "texture": "#1"
                },
                "down": {
                    "uv": [
                        1.625,
                        1.125,
                        1.75,
                        1.25
                    ],
                    "rotation": 270,
                    "texture": "#1"
                }
            }
        },
        {
            "from": [
                7.928,
                11.53892,
                10.896
            ],
            "to": [
                8.744,
                11.66292,
                11.02
            ],
            "rotation": {
                "angle": -45,
                "axis": "x",
                "origin": [
                    8.336,
                    11.60092,
                    10.958
                ]
            },
            "faces": {
                "north": {
                    "uv": [
                        1.625,
                        1.125,
                        1.75,
                        1.25
                    ],
                    "rotation": 270,
                    "texture": "#1"
                },
                "east": {
                    "uv": [
                        1.625,
                        1.125,
                        1.75,
                        1.25
                    ],
                    "rotation": 270,
                    "texture": "#1"
                },
                "south": {
                    "uv": [
                        1.625,
                        1.125,
                        1.75,
                        1.25
                    ],
                    "rotation": 270,
                    "texture": "#1"
                },
                "west": {
                    "uv": [
                        1.625,
                        1.125,
                        1.75,
                        1.25
                    ],
                    "rotation": 270,
                    "texture": "#1"
                },
                "up": {
                    "uv": [
                        1.625,
                        1.125,
                        1.75,
                        1.25
                    ],
                    "rotation": 270,
                    "texture": "#1"
                },
                "down": {
                    "uv": [
                        1.625,
                        1.125,
                        1.75,
                        1.25
                    ],
                    "rotation": 270,
                    "texture": "#1"
                }
            }
        },
        {
            "from": [
                8.312,
                12.11492,
                11.664
            ],
            "to": [
                8.36,
                12.14692,
                11.664
            ],
            "rotation": {
                "angle": 0,
                "axis": "y",
                "origin": [
                    8.323,
                    11.75359,
                    11.822
                ]
            },
            "faces": {
                "north": {
                    "uv": [
                        8.75,
                        7,
                        8.75,
                        7
                    ],
                    "rotation": 270,
                    "texture": "#1"
                },
                "east": {
                    "uv": [
                        8.75,
                        7,
                        8.75,
                        7
                    ],
                    "rotation": 270,
                    "texture": "#1"
                },
                "south": {
                    "uv": [
                        8.75,
                        7,
                        8.75,
                        7
                    ],
                    "rotation": 270,
                    "texture": "#1"
                },
                "west": {
                    "uv": [
                        8.75,
                        7,
                        8.75,
                        7
                    ],
                    "rotation": 270,
                    "texture": "#1"
                },
                "up": {
                    "uv": [
                        8.75,
                        7,
                        8.75,
                        7
                    ],
                    "rotation": 270,
                    "texture": "#1"
                },
                "down": {
                    "uv": [
                        8.75,
                        7,
                        8.75,
                        7
                    ],
                    "rotation": 270,
                    "texture": "#1"
                }
            }
        },
        {
            "from": [
                7.96,
                11.34692,
                10.736
            ],
            "to": [
                8.712,
                11.63492,
                12.14
            ],
            "rotation": {
                "angle": 0,
                "axis": "y",
                "origin": [
                    8.323,
                    11.75359,
                    11.822
                ]
            },
            "faces": {
                "north": {
                    "uv": [
                        3,
                        3.125,
                        3,
                        3.125
                    ],
                    "rotation": 270,
                    "texture": "#1"
                },
                "east": {
                    "uv": [
                        3,
                        3.125,
                        3,
                        3.125
                    ],
                    "rotation": 270,
                    "texture": "#1"
                },
                "south": {
                    "uv": [
                        3,
                        3.125,
                        3,
                        3.125
                    ],
                    "rotation": 270,
                    "texture": "#1"
                },
                "west": {
                    "uv": [
                        3,
                        3.125,
                        3,
                        3.125
                    ],
                    "rotation": 270,
                    "texture": "#1"
                },
                "up": {
                    "uv": [
                        3,
                        3.125,
                        3,
                        3.125
                    ],
                    "rotation": 270,
                    "texture": "#1"
                },
                "down": {
                    "uv": [
                        3,
                        3.125,
                        3,
                        3.125
                    ],
                    "rotation": 270,
                    "texture": "#1"
                }
            }
        },
        {
            "from": [
                7.96,
                11.44205,
                10.72309
            ],
            "to": [
                8.712,
                11.63405,
                12.12709
            ],
            "rotation": {
                "angle": 0,
                "axis": "y",
                "origin": [
                    8.323,
                    11.75272,
                    11.80909
                ]
            },
            "faces": {
                "north": {
                    "uv": [
                        3,
                        3.125,
                        3,
                        3.125
                    ],
                    "rotation": 270,
                    "texture": "#1"
                },
                "east": {
                    "uv": [
                        3,
                        3.125,
                        3,
                        3.125
                    ],
                    "rotation": 270,
                    "texture": "#1"
                },
                "south": {
                    "uv": [
                        3,
                        3.125,
                        3,
                        3.125
                    ],
                    "rotation": 270,
                    "texture": "#1"
                },
                "west": {
                    "uv": [
                        3,
                        3.125,
                        3,
                        3.125
                    ],
                    "rotation": 270,
                    "texture": "#1"
                },
                "up": {
                    "uv": [
                        3,
                        3.125,
                        3,
                        3.125
                    ],
                    "rotation": 270,
                    "texture": "#1"
                },
                "down": {
                    "uv": [
                        3,
                        3.125,
                        3,
                        3.125
                    ],
                    "rotation": 270,
                    "texture": "#1"
                }
            }
        },
        {
            "from": [
                7.96,
                11.85892,
                11.344
            ],
            "to": [
                8.072,
                12.30692,
                11.916
            ],
            "rotation": {
                "angle": 0,
                "axis": "y",
                "origin": [
                    8.323,
                    12.16959,
                    11.822
                ]
            },
            "faces": {
                "north": {
                    "uv": [
                        3,
                        3.125,
                        3,
                        3.125
                    ],
                    "rotation": 270,
                    "texture": "#1"
                },
                "east": {
                    "uv": [
                        3,
                        3.125,
                        3,
                        3.125
                    ],
                    "rotation": 270,
                    "texture": "#1"
                },
                "south": {
                    "uv": [
                        3,
                        3.125,
                        3,
                        3.125
                    ],
                    "rotation": 270,
                    "texture": "#1"
                },
                "west": {
                    "uv": [
                        3,
                        3.125,
                        3,
                        3.125
                    ],
                    "rotation": 270,
                    "texture": "#1"
                },
                "up": {
                    "uv": [
                        3,
                        3.125,
                        3,
                        3.125
                    ],
                    "rotation": 270,
                    "texture": "#1"
                },
                "down": {
                    "uv": [
                        3,
                        3.125,
                        3,
                        3.125
                    ],
                    "rotation": 270,
                    "texture": "#1"
                }
            }
        },
        {
            "from": [
                7.96,
                11.85892,
                11.536
            ],
            "to": [
                8.072,
                12.37092,
                11.82
            ],
            "rotation": {
                "angle": 0,
                "axis": "y",
                "origin": [
                    8.323,
                    12.16959,
                    11.822
                ]
            },
            "faces": {
                "north": {
                    "uv": [
                        3,
                        3.125,
                        3,
                        3.125
                    ],
                    "rotation": 270,
                    "texture": "#1"
                },
                "east": {
                    "uv": [
                        3,
                        3.125,
                        3,
                        3.125
                    ],
                    "rotation": 270,
                    "texture": "#1"
                },
                "south": {
                    "uv": [
                        3,
                        3.125,
                        3,
                        3.125
                    ],
                    "rotation": 270,
                    "texture": "#1"
                },
                "west": {
                    "uv": [
                        3,
                        3.125,
                        3,
                        3.125
                    ],
                    "rotation": 270,
                    "texture": "#1"
                },
                "up": {
                    "uv": [
                        3,
                        3.125,
                        3,
                        3.125
                    ],
                    "rotation": 270,
                    "texture": "#1"
                },
                "down": {
                    "uv": [
                        3,
                        3.125,
                        3,
                        3.125
                    ],
                    "rotation": 270,
                    "texture": "#1"
                }
            }
        },
        {
            "from": [
                8.6,
                11.85892,
                11.536
            ],
            "to": [
                8.712,
                12.37092,
                11.82
            ],
            "rotation": {
                "angle": 0,
                "axis": "y",
                "origin": [
                    8.963,
                    12.16959,
                    11.822
                ]
            },
            "faces": {
                "north": {
                    "uv": [
                        3,
                        3.125,
                        3,
                        3.125
                    ],
                    "rotation": 270,
                    "texture": "#1"
                },
                "east": {
                    "uv": [
                        3,
                        3.125,
                        3,
                        3.125
                    ],
                    "rotation": 270,
                    "texture": "#1"
                },
                "south": {
                    "uv": [
                        3,
                        3.125,
                        3,
                        3.125
                    ],
                    "rotation": 270,
                    "texture": "#1"
                },
                "west": {
                    "uv": [
                        3,
                        3.125,
                        3,
                        3.125
                    ],
                    "rotation": 270,
                    "texture": "#1"
                },
                "up": {
                    "uv": [
                        3,
                        3.125,
                        3,
                        3.125
                    ],
                    "rotation": 270,
                    "texture": "#1"
                },
                "down": {
                    "uv": [
                        3,
                        3.125,
                        3,
                        3.125
                    ],
                    "rotation": 270,
                    "texture": "#1"
                }
            }
        },
        {
            "from": [
                7.96,
                12.32918,
                11.39298
            ],
            "to": [
                8.072,
                12.42518,
                11.90098
            ],
            "rotation": {
                "angle": 0,
                "axis": "y",
                "origin": [
                    8.323,
                    12.15985,
                    11.80698
                ]
            },
            "faces": {
                "north": {
                    "uv": [
                        3,
                        3.125,
                        3,
                        3.125
                    ],
                    "rotation": 270,
                    "texture": "#1"
                },
                "east": {
                    "uv": [
                        3,
                        3.125,
                        3,
                        3.125
                    ],
                    "rotation": 270,
                    "texture": "#1"
                },
                "south": {
                    "uv": [
                        3,
                        3.125,
                        3,
                        3.125
                    ],
                    "rotation": 270,
                    "texture": "#1"
                },
                "west": {
                    "uv": [
                        3,
                        3.125,
                        3,
                        3.125
                    ],
                    "rotation": 270,
                    "texture": "#1"
                },
                "up": {
                    "uv": [
                        3,
                        3.125,
                        3,
                        3.125
                    ],
                    "rotation": 270,
                    "texture": "#1"
                },
                "down": {
                    "uv": [
                        3,
                        3.125,
                        3,
                        3.125
                    ],
                    "rotation": 270,
                    "texture": "#1"
                }
            }
        },
        {
            "from": [
                8.09304,
                12.38428,
                11.39298
            ],
            "to": [
                8.58004,
                12.48028,
                11.90098
            ],
            "rotation": {
                "angle": 0,
                "axis": "y",
                "origin": [
                    8.45604,
                    12.21495,
                    11.80698
                ]
            },
            "faces": {
                "north": {
                    "uv": [
                        3,
                        3.125,
                        3,
                        3.125
                    ],
                    "rotation": 270,
                    "texture": "#1"
                },
                "east": {
                    "uv": [
                        3,
                        3.125,
                        3,
                        3.125
                    ],
                    "rotation": 270,
                    "texture": "#1"
                },
                "south": {
                    "uv": [
                        3,
                        3.125,
                        3,
                        3.125
                    ],
                    "rotation": 270,
                    "texture": "#1"
                },
                "west": {
                    "uv": [
                        3,
                        3.125,
                        3,
                        3.125
                    ],
                    "rotation": 270,
                    "texture": "#1"
                },
                "up": {
                    "uv": [
                        3,
                        3.125,
                        3,
                        3.125
                    ],
                    "rotation": 270,
                    "texture": "#1"
                },
                "down": {
                    "uv": [
                        3,
                        3.125,
                        3,
                        3.125
                    ],
                    "rotation": 270,
                    "texture": "#1"
                }
            }
        },
        {
            "from": [
                8.6,
                12.32918,
                11.39298
            ],
            "to": [
                8.712,
                12.42518,
                11.90098
            ],
            "rotation": {
                "angle": 0,
                "axis": "y",
                "origin": [
                    8.963,
                    12.15985,
                    11.80698
                ]
            },
            "faces": {
                "north": {
                    "uv": [
                        3,
                        3.125,
                        3,
                        3.125
                    ],
                    "rotation": 270,
                    "texture": "#1"
                },
                "east": {
                    "uv": [
                        3,
                        3.125,
                        3,
                        3.125
                    ],
                    "rotation": 270,
                    "texture": "#1"
                },
                "south": {
                    "uv": [
                        3,
                        3.125,
                        3,
                        3.125
                    ],
                    "rotation": 270,
                    "texture": "#1"
                },
                "west": {
                    "uv": [
                        3,
                        3.125,
                        3,
                        3.125
                    ],
                    "rotation": 270,
                    "texture": "#1"
                },
                "up": {
                    "uv": [
                        3,
                        3.125,
                        3,
                        3.125
                    ],
                    "rotation": 270,
                    "texture": "#1"
                },
                "down": {
                    "uv": [
                        3,
                        3.125,
                        3,
                        3.125
                    ],
                    "rotation": 270,
                    "texture": "#1"
                }
            }
        },
        {
            "from": [
                8.03391,
                12.48829,
                11.39298
            ],
            "to": [
                8.17791,
                12.58429,
                11.90098
            ],
            "rotation": {
                "angle": 22.5,
                "axis": "z",
                "origin": [
                    8.39691,
                    12.31896,
                    11.80698
                ]
            },
            "faces": {
                "north": {
                    "uv": [
                        3,
                        3.125,
                        3,
                        3.125
                    ],
                    "rotation": 270,
                    "texture": "#1"
                },
                "east": {
                    "uv": [
                        3,
                        3.125,
                        3,
                        3.125
                    ],
                    "rotation": 270,
                    "texture": "#1"
                },
                "south": {
                    "uv": [
                        3,
                        3.125,
                        3,
                        3.125
                    ],
                    "rotation": 270,
                    "texture": "#1"
                },
                "west": {
                    "uv": [
                        3,
                        3.125,
                        3,
                        3.125
                    ],
                    "rotation": 270,
                    "texture": "#1"
                },
                "up": {
                    "uv": [
                        3,
                        3.125,
                        3,
                        3.125
                    ],
                    "rotation": 270,
                    "texture": "#1"
                },
                "down": {
                    "uv": [
                        3,
                        3.125,
                        3,
                        3.125
                    ],
                    "rotation": 270,
                    "texture": "#1"
                }
            }
        },
        {
            "from": [
                8.55511,
                12.36038,
                11.39298
            ],
            "to": [
                8.69911,
                12.45638,
                11.90098
            ],
            "rotation": {
                "angle": -22.5,
                "axis": "z",
                "origin": [
                    8.62711,
                    12.40838,
                    11.64698
                ]
            },
            "faces": {
                "north": {
                    "uv": [
                        3,
                        3.125,
                        3,
                        3.125
                    ],
                    "rotation": 270,
                    "texture": "#1"
                },
                "east": {
                    "uv": [
                        3,
                        3.125,
                        3,
                        3.125
                    ],
                    "rotation": 270,
                    "texture": "#1"
                },
                "south": {
                    "uv": [
                        3,
                        3.125,
                        3,
                        3.125
                    ],
                    "rotation": 270,
                    "texture": "#1"
                },
                "west": {
                    "uv": [
                        3,
                        3.125,
                        3,
                        3.125
                    ],
                    "rotation": 270,
                    "texture": "#1"
                },
                "up": {
                    "uv": [
                        3,
                        3.125,
                        3,
                        3.125
                    ],
                    "rotation": 270,
                    "texture": "#1"
                },
                "down": {
                    "uv": [
                        3,
                        3.125,
                        3,
                        3.125
                    ],
                    "rotation": 270,
                    "texture": "#1"
                }
            }
        },
        {
            "from": [
                8.6,
                11.71875,
                11.66138
            ],
            "to": [
                8.712,
                12.35475,
                12.10938
            ],
            "rotation": {
                "angle": -22.5,
                "axis": "x",
                "origin": [
                    8.963,
                    11.81275,
                    11.97205
                ]
            },
            "faces": {
                "north": {
                    "uv": [
                        3,
                        3.125,
                        3,
                        3.125
                    ],
                    "rotation": 180,
                    "texture": "#1"
                },
                "east": {
                    "uv": [
                        3,
                        3.125,
                        3,
                        3.125
                    ],
                    "rotation": 180,
                    "texture": "#1"
                },
                "south": {
                    "uv": [
                        3,
                        3.125,
                        3,
                        3.125
                    ],
                    "rotation": 180,
                    "texture": "#1"
                },
                "west": {
                    "uv": [
                        3,
                        3.125,
                        3,
                        3.125
                    ],
                    "rotation": 180,
                    "texture": "#1"
                },
                "up": {
                    "uv": [
                        3,
                        3.125,
                        3,
                        3.125
                    ],
                    "rotation": 180,
                    "texture": "#1"
                },
                "down": {
                    "uv": [
                        3,
                        3.125,
                        3,
                        3.125
                    ],
                    "rotation": 180,
                    "texture": "#1"
                }
            }
        },
        {
            "from": [
                7.96,
                11.71875,
                11.66138
            ],
            "to": [
                8.072,
                12.35475,
                12.10938
            ],
            "rotation": {
                "angle": -22.5,
                "axis": "x",
                "origin": [
                    8.323,
                    11.81275,
                    11.97205
                ]
            },
            "faces": {
                "north": {
                    "uv": [
                        3,
                        3.125,
                        3,
                        3.125
                    ],
                    "rotation": 180,
                    "texture": "#1"
                },
                "east": {
                    "uv": [
                        3,
                        3.125,
                        3,
                        3.125
                    ],
                    "rotation": 180,
                    "texture": "#1"
                },
                "south": {
                    "uv": [
                        3,
                        3.125,
                        3,
                        3.125
                    ],
                    "rotation": 180,
                    "texture": "#1"
                },
                "west": {
                    "uv": [
                        3,
                        3.125,
                        3,
                        3.125
                    ],
                    "rotation": 180,
                    "texture": "#1"
                },
                "up": {
                    "uv": [
                        3,
                        3.125,
                        3,
                        3.125
                    ],
                    "rotation": 180,
                    "texture": "#1"
                },
                "down": {
                    "uv": [
                        3,
                        3.125,
                        3,
                        3.125
                    ],
                    "rotation": 180,
                    "texture": "#1"
                }
            }
        },
        {
            "from": [
                7.96,
                11.74842,
                11.13743
            ],
            "to": [
                8.072,
                12.35242,
                11.58543
            ],
            "rotation": {
                "angle": 22.5,
                "axis": "x",
                "origin": [
                    8.323,
                    11.74642,
                    11.4481
                ]
            },
            "faces": {
                "north": {
                    "uv": [
                        3,
                        3.125,
                        3,
                        3.125
                    ],
                    "rotation": 180,
                    "texture": "#1"
                },
                "east": {
                    "uv": [
                        3,
                        3.125,
                        3,
                        3.125
                    ],
                    "rotation": 180,
                    "texture": "#1"
                },
                "south": {
                    "uv": [
                        3,
                        3.125,
                        3,
                        3.125
                    ],
                    "rotation": 180,
                    "texture": "#1"
                },
                "west": {
                    "uv": [
                        3,
                        3.125,
                        3,
                        3.125
                    ],
                    "rotation": 180,
                    "texture": "#1"
                },
                "up": {
                    "uv": [
                        3,
                        3.125,
                        3,
                        3.125
                    ],
                    "rotation": 180,
                    "texture": "#1"
                },
                "down": {
                    "uv": [
                        3,
                        3.125,
                        3,
                        3.125
                    ],
                    "rotation": 180,
                    "texture": "#1"
                }
            }
        },
        {
            "from": [
                8.6,
                11.74842,
                11.13743
            ],
            "to": [
                8.712,
                12.35242,
                11.58543
            ],
            "rotation": {
                "angle": 22.5,
                "axis": "x",
                "origin": [
                    8.963,
                    11.74642,
                    11.4481
                ]
            },
            "faces": {
                "north": {
                    "uv": [
                        3,
                        3.125,
                        3,
                        3.125
                    ],
                    "rotation": 180,
                    "texture": "#1"
                },
                "east": {
                    "uv": [
                        3,
                        3.125,
                        3,
                        3.125
                    ],
                    "rotation": 180,
                    "texture": "#1"
                },
                "south": {
                    "uv": [
                        3,
                        3.125,
                        3,
                        3.125
                    ],
                    "rotation": 180,
                    "texture": "#1"
                },
                "west": {
                    "uv": [
                        3,
                        3.125,
                        3,
                        3.125
                    ],
                    "rotation": 180,
                    "texture": "#1"
                },
                "up": {
                    "uv": [
                        3,
                        3.125,
                        3,
                        3.125
                    ],
                    "rotation": 180,
                    "texture": "#1"
                },
                "down": {
                    "uv": [
                        3,
                        3.125,
                        3,
                        3.125
                    ],
                    "rotation": 180,
                    "texture": "#1"
                }
            }
        },
        {
            "from": [
                7.96,
                11.3709,
                10.94686
            ],
            "to": [
                8.712,
                11.6589,
                11.35886
            ],
            "rotation": {
                "angle": -22.5,
                "axis": "x",
                "origin": [
                    8.323,
                    11.34823,
                    10.72086
                ]
            },
            "faces": {
                "north": {
                    "uv": [
                        3,
                        3.125,
                        3,
                        3.125
                    ],
                    "rotation": 90,
                    "texture": "#1"
                },
                "east": {
                    "uv": [
                        3,
                        3.125,
                        3,
                        3.125
                    ],
                    "rotation": 90,
                    "texture": "#1"
                },
                "south": {
                    "uv": [
                        3,
                        3.125,
                        3,
                        3.125
                    ],
                    "rotation": 90,
                    "texture": "#1"
                },
                "west": {
                    "uv": [
                        3,
                        3.125,
                        3,
                        3.125
                    ],
                    "rotation": 90,
                    "texture": "#1"
                },
                "up": {
                    "uv": [
                        3,
                        3.125,
                        3,
                        3.125
                    ],
                    "rotation": 90,
                    "texture": "#1"
                },
                "down": {
                    "uv": [
                        3,
                        3.125,
                        3,
                        3.125
                    ],
                    "rotation": 90,
                    "texture": "#1"
                }
            }
        },
        {
            "from": [
                7.96,
                11.35998,
                11.0277
            ],
            "to": [
                8.072,
                11.51998,
                11.1517
            ],
            "rotation": {
                "angle": -45,
                "axis": "x",
                "origin": [
                    8.323,
                    11.20931,
                    10.7377
                ]
            },
            "faces": {
                "north": {
                    "uv": [
                        3,
                        3.125,
                        3,
                        3.125
                    ],
                    "rotation": 90,
                    "texture": "#1"
                },
                "east": {
                    "uv": [
                        3,
                        3.125,
                        3,
                        3.125
                    ],
                    "rotation": 90,
                    "texture": "#1"
                },
                "south": {
                    "uv": [
                        3,
                        3.125,
                        3,
                        3.125
                    ],
                    "rotation": 90,
                    "texture": "#1"
                },
                "west": {
                    "uv": [
                        3,
                        3.125,
                        3,
                        3.125
                    ],
                    "rotation": 90,
                    "texture": "#1"
                },
                "up": {
                    "uv": [
                        3,
                        3.125,
                        3,
                        3.125
                    ],
                    "rotation": 90,
                    "texture": "#1"
                },
                "down": {
                    "uv": [
                        3,
                        3.125,
                        3,
                        3.125
                    ],
                    "rotation": 90,
                    "texture": "#1"
                }
            }
        },
        {
            "from": [
                8.6,
                11.35998,
                11.0277
            ],
            "to": [
                8.712,
                11.51998,
                11.1517
            ],
            "rotation": {
                "angle": -45,
                "axis": "x",
                "origin": [
                    8.963,
                    11.20931,
                    10.7377
                ]
            },
            "faces": {
                "north": {
                    "uv": [
                        3,
                        3.125,
                        3,
                        3.125
                    ],
                    "rotation": 90,
                    "texture": "#1"
                },
                "east": {
                    "uv": [
                        3,
                        3.125,
                        3,
                        3.125
                    ],
                    "rotation": 90,
                    "texture": "#1"
                },
                "south": {
                    "uv": [
                        3,
                        3.125,
                        3,
                        3.125
                    ],
                    "rotation": 90,
                    "texture": "#1"
                },
                "west": {
                    "uv": [
                        3,
                        3.125,
                        3,
                        3.125
                    ],
                    "rotation": 90,
                    "texture": "#1"
                },
                "up": {
                    "uv": [
                        3,
                        3.125,
                        3,
                        3.125
                    ],
                    "rotation": 90,
                    "texture": "#1"
                },
                "down": {
                    "uv": [
                        3,
                        3.125,
                        3,
                        3.125
                    ],
                    "rotation": 90,
                    "texture": "#1"
                }
            }
        },
        {
            "from": [
                8.6,
                11.85892,
                11.344
            ],
            "to": [
                8.712,
                12.30692,
                11.916
            ],
            "rotation": {
                "angle": 0,
                "axis": "y",
                "origin": [
                    8.656,
                    12.08292,
                    11.63
                ]
            },
            "faces": {
                "north": {
                    "uv": [
                        3,
                        3.125,
                        3,
                        3.125
                    ],
                    "rotation": 270,
                    "texture": "#1"
                },
                "east": {
                    "uv": [
                        3,
                        3.125,
                        3,
                        3.125
                    ],
                    "rotation": 270,
                    "texture": "#1"
                },
                "south": {
                    "uv": [
                        3,
                        3.125,
                        3,
                        3.125
                    ],
                    "rotation": 270,
                    "texture": "#1"
                },
                "west": {
                    "uv": [
                        3,
                        3.125,
                        3,
                        3.125
                    ],
                    "rotation": 270,
                    "texture": "#1"
                },
                "up": {
                    "uv": [
                        3,
                        3.125,
                        3,
                        3.125
                    ],
                    "rotation": 270,
                    "texture": "#1"
                },
                "down": {
                    "uv": [
                        3,
                        3.125,
                        3,
                        3.125
                    ],
                    "rotation": 270,
                    "texture": "#1"
                }
            }
        },
        {
            "from": [
                7.992,
                11.50692,
                10.128
            ],
            "to": [
                8.68,
                11.82692,
                11.916
            ],
            "rotation": {
                "angle": 0,
                "axis": "y",
                "origin": [
                    8.323,
                    11.75359,
                    11.694
                ]
            },
            "faces": {
                "north": {
                    "uv": [
                        4.5,
                        4,
                        4.5,
                        4
                    ],
                    "rotation": 270,
                    "texture": "#1"
                },
                "east": {
                    "uv": [
                        4.5,
                        4,
                        4.5,
                        4
                    ],
                    "rotation": 270,
                    "texture": "#1"
                },
                "south": {
                    "uv": [
                        4.5,
                        4,
                        4.5,
                        4
                    ],
                    "rotation": 270,
                    "texture": "#1"
                },
                "west": {
                    "uv": [
                        4.5,
                        4,
                        4.5,
                        4
                    ],
                    "rotation": 270,
                    "texture": "#1"
                },
                "up": {
                    "uv": [
                        4.5,
                        4,
                        4.5,
                        4
                    ],
                    "rotation": 270,
                    "texture": "#1"
                },
                "down": {
                    "uv": [
                        4.5,
                        4,
                        4.5,
                        4
                    ],
                    "rotation": 270,
                    "texture": "#1"
                }
            }
        },
        {
            "from": [
                7.992,
                11.21892,
                10.128
            ],
            "to": [
                8.68,
                11.50692,
                12.14
            ],
            "rotation": {
                "angle": 0,
                "axis": "y",
                "origin": [
                    8.323,
                    11.75359,
                    11.694
                ]
            },
            "faces": {
                "north": {
                    "uv": [
                        3,
                        3.375,
                        3,
                        3.375
                    ],
                    "rotation": 270,
                    "texture": "#1"
                },
                "east": {
                    "uv": [
                        3,
                        3.375,
                        3,
                        3.375
                    ],
                    "rotation": 270,
                    "texture": "#1"
                },
                "south": {
                    "uv": [
                        3,
                        3.375,
                        3,
                        3.375
                    ],
                    "rotation": 270,
                    "texture": "#1"
                },
                "west": {
                    "uv": [
                        3,
                        3.375,
                        3,
                        3.375
                    ],
                    "rotation": 270,
                    "texture": "#1"
                },
                "up": {
                    "uv": [
                        3,
                        3.375,
                        3,
                        3.375
                    ],
                    "rotation": 270,
                    "texture": "#1"
                },
                "down": {
                    "uv": [
                        3,
                        3.375,
                        3,
                        3.375
                    ],
                    "rotation": 270,
                    "texture": "#1"
                }
            }
        }
    ],
    "display": {
        "thirdperson_righthand": {
            "rotation": [
                0,
                0,
                7
            ],
            "translation": [
                -0.75,
                -1.25,
                -2
            ],
            "scale": [
                1.14,
                1,
                1
            ]
        },
        "thirdperson_lefthand": {
            "rotation": [
                0,
                0,
                7
            ],
            "translation": [
                0.25,
                -1.5,
                -2.25
            ],
            "scale": [
                1.14,
                1,
                1
            ]
        },
        "firstperson_righthand": {
            "translation": [
                -5.25,
                3.5,
                2.75
            ],
            "scale": [
                1.25,
                1.19,
                1.14
            ]
        },
        "firstperson_lefthand": {
            "translation": [
                -5.25,
                3.5,
                2.75
            ],
            "scale": [
                1.25,
                1.19,
                1.14
            ]
        },
        "ground": {
            "translation": [
                0,
                0,
                3
            ]
        },
        "gui": {
            "rotation": [
                30,
                30,
                -16
            ],
            "translation": [
                1.25,
                -2.25,
                0
            ],
            "scale": [
                0.8,
                0.8,
                0.8
            ]
        },
        "head": {
            "rotation": [
                0,
                -139.5,
                90
            ],
            "translation": [
                -2.5,
                6.5,
                2.5
            ],
            "scale": [
                1.89781,
                1.89781,
                1.89781
            ]
        },
        "fixed": {
            "rotation": [
                90,
                45,
                -90
            ],
            "translation": [
                0,
                0,
                -1.25
            ],
            "scale": [
                1.22,
                1.22,
                1.22
            ]
        }
    }
}