{
    "textures": {
        "0": "gci:items/common/all_in_one",
        "2": "gci:items/common/mpz",
        "particle": "gci:items/common/all_in_one"
    },
    "elements": [
        {
            "from": [
                7,
                2.724,
                11.5
            ],
            "to": [
                8,
                4.012,
                13.524
            ],
            "rotation": {
                "angle": 0,
                "axis": "y",
                "origin": [
                    7.5,
                    2.84,
                    12.704
                ]
            },
            "faces": {
                "north": {
                    "uv": [
                        4,
                        4,
                        4,
                        4
                    ],
                    "texture": "#0"
                },
                "east": {
                    "uv": [
                        4,
                        4,
                        4,
                        4
                    ],
                    "texture": "#0"
                },
                "south": {
                    "uv": [
                        4,
                        4,
                        4,
                        4
                    ],
                    "texture": "#0"
                },
                "west": {
                    "uv": [
                        4,
                        4,
                        4,
                        4
                    ],
                    "texture": "#0"
                },
                "up": {
                    "uv": [
                        4,
                        4,
                        4,
                        4
                    ],
                    "texture": "#0"
                },
                "down": {
                    "uv": [
                        4,
                        4,
                        4,
                        4
                    ],
                    "texture": "#0"
                }
            }
        },
        {
            "from": [
                6.968,
                2.692,
                11.5
            ],
            "to": [
                8.032,
                4.748,
                12.052
            ],
            "rotation": {
                "angle": 0,
                "axis": "y",
                "origin": [
                    7.5,
                    2.84,
                    12.704
                ]
            },
            "faces": {
                "north": {
                    "uv": [
                        4,
                        4.25,
                        4,
                        4.25
                    ],
                    "texture": "#0"
                },
                "east": {
                    "uv": [
                        4,
                        4.25,
                        4,
                        4.25
                    ],
                    "texture": "#0"
                },
                "south": {
                    "uv": [
                        4,
                        4.25,
                        4,
                        4.25
                    ],
                    "texture": "#0"
                },
                "west": {
                    "uv": [
                        4,
                        4.25,
                        4,
                        4.25
                    ],
                    "texture": "#0"
                },
                "up": {
                    "uv": [
                        4,
                        4.25,
                        4,
                        4.25
                    ],
                    "texture": "#0"
                },
                "down": {
                    "uv": [
                        4,
                        4.25,
                        4,
                        4.25
                    ],
                    "texture": "#0"
                }
            }
        },
        {
            "from": [
                7,
                3.23805,
                11.24244
            ],
            "to": [
                8,
                4.39805,
                13.52244
            ],
            "rotation": {
                "angle": 22.5,
                "axis": "x",
                "origin": [
                    7.5,
                    2.52205,
                    12.44644
                ]
            },
            "faces": {
                "north": {
                    "uv": [
                        4,
                        4,
                        4,
                        4
                    ],
                    "texture": "#0"
                },
                "east": {
                    "uv": [
                        4,
                        4,
                        4,
                        4
                    ],
                    "texture": "#0"
                },
                "south": {
                    "uv": [
                        4,
                        4,
                        4,
                        4
                    ],
                    "texture": "#0"
                },
                "west": {
                    "uv": [
                        4,
                        4,
                        4,
                        4
                    ],
                    "texture": "#0"
                },
                "up": {
                    "uv": [
                        4,
                        4,
                        4,
                        4
                    ],
                    "texture": "#0"
                },
                "down": {
                    "uv": [
                        4,
                        4,
                        4,
                        4
                    ],
                    "texture": "#0"
                }
            }
        },
        {
            "from": [
                7.16,
                3.36605,
                10.95444
            ],
            "to": [
                7.84,
                4.52605,
                13.52244
            ],
            "rotation": {
                "angle": 22.5,
                "axis": "x",
                "origin": [
                    7.5,
                    2.65005,
                    12.44644
                ]
            },
            "faces": {
                "north": {
                    "uv": [
                        4,
                        3.875,
                        4,
                        3.875
                    ],
                    "texture": "#0"
                },
                "east": {
                    "uv": [
                        4,
                        3.875,
                        4,
                        3.875
                    ],
                    "texture": "#0"
                },
                "south": {
                    "uv": [
                        4,
                        3.875,
                        4,
                        3.875
                    ],
                    "texture": "#0"
                },
                "west": {
                    "uv": [
                        4,
                        3.875,
                        4,
                        3.875
                    ],
                    "texture": "#0"
                },
                "up": {
                    "uv": [
                        4,
                        3.875,
                        4,
                        3.875
                    ],
                    "texture": "#0"
                },
                "down": {
                    "uv": [
                        4,
                        3.875,
                        4,
                        3.875
                    ],
                    "texture": "#0"
                }
            }
        },
        {
            "from": [
                7.352,
                3.39805,
                10.95444
            ],
            "to": [
                7.648,
                4.55805,
                12.69044
            ],
            "rotation": {
                "angle": 22.5,
                "axis": "x",
                "origin": [
                    7.5,
                    2.68205,
                    12.44644
                ]
            },
            "faces": {
                "north": {
                    "uv": [
                        3,
                        3.375,
                        3,
                        3.375
                    ],
                    "texture": "#0"
                },
                "east": {
                    "uv": [
                        3,
                        3.375,
                        3,
                        3.375
                    ],
                    "texture": "#0"
                },
                "south": {
                    "uv": [
                        3,
                        3.375,
                        3,
                        3.375
                    ],
                    "texture": "#0"
                },
                "west": {
                    "uv": [
                        3,
                        3.375,
                        3,
                        3.375
                    ],
                    "texture": "#0"
                },
                "up": {
                    "uv": [
                        3,
                        3.375,
                        3,
                        3.375
                    ],
                    "texture": "#0"
                },
                "down": {
                    "uv": [
                        3,
                        3.375,
                        3,
                        3.375
                    ],
                    "texture": "#0"
                }
            }
        },
        {
            "from": [
                7.16,
                2.66205,
                17.03444
            ],
            "to": [
                7.84,
                3.82205,
                19.60244
            ],
            "rotation": {
                "angle": -22.5,
                "axis": "x",
                "origin": [
                    7.5,
                    1.94605,
                    18.52644
                ]
            },
            "faces": {
                "north": {
                    "uv": [
                        4,
                        3.75,
                        4,
                        3.75
                    ],
                    "texture": "#0"
                },
                "east": {
                    "uv": [
                        4,
                        3.75,
                        4,
                        3.75
                    ],
                    "texture": "#0"
                },
                "south": {
                    "uv": [
                        4,
                        3.75,
                        4,
                        3.75
                    ],
                    "texture": "#0"
                },
                "west": {
                    "uv": [
                        4,
                        3.75,
                        4,
                        3.75
                    ],
                    "texture": "#0"
                },
                "up": {
                    "uv": [
                        4,
                        3.75,
                        4,
                        3.75
                    ],
                    "texture": "#0"
                },
                "down": {
                    "uv": [
                        4,
                        3.75,
                        4,
                        3.75
                    ],
                    "texture": "#0"
                }
            }
        },
        {
            "from": [
                7,
                2.724,
                11.916
            ],
            "to": [
                8,
                4.012,
                20.948
            ],
            "rotation": {
                "angle": 22.5,
                "axis": "x",
                "origin": [
                    7.5,
                    2.84,
                    12.704
                ]
            },
            "faces": {
                "north": {
                    "uv": [
                        4,
                        4,
                        4,
                        4
                    ],
                    "texture": "#0"
                },
                "east": {
                    "uv": [
                        4,
                        4,
                        4,
                        4
                    ],
                    "texture": "#0"
                },
                "south": {
                    "uv": [
                        4,
                        4,
                        4,
                        4
                    ],
                    "texture": "#0"
                },
                "west": {
                    "uv": [
                        4,
                        4,
                        4,
                        4
                    ],
                    "texture": "#0"
                },
                "up": {
                    "uv": [
                        4,
                        4,
                        4,
                        4
                    ],
                    "texture": "#0"
                },
                "down": {
                    "uv": [
                        4,
                        4,
                        4,
                        4
                    ],
                    "texture": "#0"
                }
            }
        },
        {
            "from": [
                7.192,
                2.66,
                11.916
            ],
            "to": [
                7.808,
                3.948,
                20.948
            ],
            "rotation": {
                "angle": 22.5,
                "axis": "x",
                "origin": [
                    7.5,
                    2.776,
                    12.704
                ]
            },
            "faces": {
                "north": {
                    "uv": [
                        3,
                        3.5,
                        3,
                        3.5
                    ],
                    "texture": "#0"
                },
                "east": {
                    "uv": [
                        3,
                        3.5,
                        3,
                        3.5
                    ],
                    "texture": "#0"
                },
                "south": {
                    "uv": [
                        3,
                        3.5,
                        3,
                        3.5
                    ],
                    "texture": "#0"
                },
                "west": {
                    "uv": [
                        3,
                        3.5,
                        3,
                        3.5
                    ],
                    "texture": "#0"
                },
                "up": {
                    "uv": [
                        3,
                        3.5,
                        3,
                        3.5
                    ],
                    "texture": "#0"
                },
                "down": {
                    "uv": [
                        3,
                        3.5,
                        3,
                        3.5
                    ],
                    "texture": "#0"
                }
            }
        },
        {
            "from": [
                7,
                3.364,
                15.948
            ],
            "to": [
                8,
                4.908,
                20.564
            ],
            "rotation": {
                "angle": 22.5,
                "axis": "x",
                "origin": [
                    7.5,
                    2.84,
                    12.704
                ]
            },
            "faces": {
                "north": {
                    "uv": [
                        4,
                        4,
                        4,
                        4
                    ],
                    "texture": "#0"
                },
                "east": {
                    "uv": [
                        4,
                        4,
                        4,
                        4
                    ],
                    "texture": "#0"
                },
                "south": {
                    "uv": [
                        4,
                        4,
                        4,
                        4
                    ],
                    "texture": "#0"
                },
                "west": {
                    "uv": [
                        4,
                        4,
                        4,
                        4
                    ],
                    "texture": "#0"
                },
                "up": {
                    "uv": [
                        4,
                        4,
                        4,
                        4
                    ],
                    "texture": "#0"
                },
                "down": {
                    "uv": [
                        4,
                        4,
                        4,
                        4
                    ],
                    "texture": "#0"
                }
            }
        },
        {
            "from": [
                7,
                4.196,
                18.028
            ],
            "to": [
                8,
                5.74,
                20.564
            ],
            "rotation": {
                "angle": 22.5,
                "axis": "x",
                "origin": [
                    7.5,
                    3.672,
                    12.704
                ]
            },
            "faces": {
                "north": {
                    "uv": [
                        4,
                        4,
                        4,
                        4
                    ],
                    "texture": "#0"
                },
                "east": {
                    "uv": [
                        4,
                        4,
                        4,
                        4
                    ],
                    "texture": "#0"
                },
                "south": {
                    "uv": [
                        4,
                        4,
                        4,
                        4
                    ],
                    "texture": "#0"
                },
                "west": {
                    "uv": [
                        4,
                        4,
                        4,
                        4
                    ],
                    "texture": "#0"
                },
                "up": {
                    "uv": [
                        4,
                        4,
                        4,
                        4
                    ],
                    "texture": "#0"
                },
                "down": {
                    "uv": [
                        4,
                        4,
                        4,
                        4
                    ],
                    "texture": "#0"
                }
            }
        },
        {
            "from": [
                7,
                2.66,
                18.764
            ],
            "to": [
                8,
                4.044,
                20.98
            ],
            "rotation": {
                "angle": 0,
                "axis": "y",
                "origin": [
                    7.5,
                    2.776,
                    14.72
                ]
            },
            "faces": {
                "north": {
                    "uv": [
                        4,
                        4,
                        4,
                        4
                    ],
                    "texture": "#0"
                },
                "east": {
                    "uv": [
                        4,
                        4,
                        4,
                        4
                    ],
                    "texture": "#0"
                },
                "south": {
                    "uv": [
                        4,
                        4,
                        4,
                        4
                    ],
                    "texture": "#0"
                },
                "west": {
                    "uv": [
                        4,
                        4,
                        4,
                        4
                    ],
                    "texture": "#0"
                },
                "up": {
                    "uv": [
                        4,
                        4,
                        4,
                        4
                    ],
                    "texture": "#0"
                },
                "down": {
                    "uv": [
                        4,
                        4,
                        4,
                        4
                    ],
                    "texture": "#0"
                }
            }
        },
        {
            "from": [
                7,
                2.66,
                20.98
            ],
            "to": [
                8,
                4.044,
                21.684
            ],
            "rotation": {
                "angle": 0,
                "axis": "y",
                "origin": [
                    7.5,
                    2.776,
                    15.424
                ]
            },
            "faces": {
                "north": {
                    "uv": [
                        7.375,
                        12.375,
                        7.375,
                        12.375
                    ],
                    "texture": "#0"
                },
                "east": {
                    "uv": [
                        7.375,
                        12.375,
                        7.375,
                        12.375
                    ],
                    "texture": "#0"
                },
                "south": {
                    "uv": [
                        7.375,
                        12.375,
                        7.375,
                        12.375
                    ],
                    "texture": "#0"
                },
                "west": {
                    "uv": [
                        7.375,
                        12.375,
                        7.375,
                        12.375
                    ],
                    "texture": "#0"
                },
                "up": {
                    "uv": [
                        7.375,
                        12.375,
                        7.375,
                        12.375
                    ],
                    "texture": "#0"
                },
                "down": {
                    "uv": [
                        7.375,
                        12.375,
                        7.375,
                        12.375
                    ],
                    "texture": "#0"
                }
            }
        },
        {
            "from": [
                7,
                -0.412,
                20.3
            ],
            "to": [
                8,
                3.948,
                20.98
            ],
            "rotation": {
                "angle": 0,
                "axis": "y",
                "origin": [
                    7.5,
                    3.128,
                    15.2
                ]
            },
            "faces": {
                "north": {
                    "uv": [
                        4,
                        4,
                        4,
                        4
                    ],
                    "texture": "#0"
                },
                "east": {
                    "uv": [
                        4,
                        4,
                        4,
                        4
                    ],
                    "texture": "#0"
                },
                "south": {
                    "uv": [
                        4,
                        4,
                        4,
                        4
                    ],
                    "texture": "#0"
                },
                "west": {
                    "uv": [
                        4,
                        4,
                        4,
                        4
                    ],
                    "texture": "#0"
                },
                "up": {
                    "uv": [
                        4,
                        4,
                        4,
                        4
                    ],
                    "texture": "#0"
                },
                "down": {
                    "uv": [
                        4,
                        4,
                        4,
                        4
                    ],
                    "texture": "#0"
                }
            }
        },
        {
            "from": [
                7,
                -0.412,
                20.98
            ],
            "to": [
                8,
                3.948,
                21.684
            ],
            "rotation": {
                "angle": 0,
                "axis": "y",
                "origin": [
                    7.5,
                    3.128,
                    15.904
                ]
            },
            "faces": {
                "north": {
                    "uv": [
                        7.375,
                        12.375,
                        7.375,
                        12.375
                    ],
                    "texture": "#0"
                },
                "east": {
                    "uv": [
                        7.375,
                        12.375,
                        7.375,
                        12.375
                    ],
                    "texture": "#0"
                },
                "south": {
                    "uv": [
                        7.375,
                        12.375,
                        7.375,
                        12.375
                    ],
                    "texture": "#0"
                },
                "west": {
                    "uv": [
                        7.375,
                        12.375,
                        7.375,
                        12.375
                    ],
                    "texture": "#0"
                },
                "up": {
                    "uv": [
                        7.375,
                        12.375,
                        7.375,
                        12.375
                    ],
                    "texture": "#0"
                },
                "down": {
                    "uv": [
                        7.375,
                        12.375,
                        7.375,
                        12.375
                    ],
                    "texture": "#0"
                }
            }
        },
        {
            "from": [
                7,
                2.596,
                13.612
            ],
            "to": [
                8,
                3.916,
                19.028
            ],
            "rotation": {
                "angle": 0,
                "axis": "y",
                "origin": [
                    7.5,
                    2.712,
                    9.568
                ]
            },
            "faces": {
                "north": {
                    "uv": [
                        4,
                        4,
                        4,
                        4
                    ],
                    "texture": "#0"
                },
                "east": {
                    "uv": [
                        4,
                        4,
                        4,
                        4
                    ],
                    "texture": "#0"
                },
                "south": {
                    "uv": [
                        4,
                        4,
                        4,
                        4
                    ],
                    "texture": "#0"
                },
                "west": {
                    "uv": [
                        4,
                        4,
                        4,
                        4
                    ],
                    "texture": "#0"
                },
                "up": {
                    "uv": [
                        4,
                        4,
                        4,
                        4
                    ],
                    "texture": "#0"
                },
                "down": {
                    "uv": [
                        4,
                        4,
                        4,
                        4
                    ],
                    "texture": "#0"
                }
            }
        },
        {
            "from": [
                7.3326,
                2.73377,
                13.612
            ],
            "to": [
                7.6674,
                4.05377,
                19.028
            ],
            "rotation": {
                "angle": 0,
                "axis": "y",
                "origin": [
                    7.5446,
                    2.84977,
                    9.568
                ]
            },
            "faces": {
                "north": {
                    "uv": [
                        4,
                        3.875,
                        4,
                        3.875
                    ],
                    "texture": "#0"
                },
                "east": {
                    "uv": [
                        4,
                        3.875,
                        4,
                        3.875
                    ],
                    "texture": "#0"
                },
                "south": {
                    "uv": [
                        4,
                        3.875,
                        4,
                        3.875
                    ],
                    "texture": "#0"
                },
                "west": {
                    "uv": [
                        4,
                        3.875,
                        4,
                        3.875
                    ],
                    "texture": "#0"
                },
                "up": {
                    "uv": [
                        4,
                        3.875,
                        4,
                        3.875
                    ],
                    "texture": "#0"
                },
                "down": {
                    "uv": [
                        4,
                        3.875,
                        4,
                        3.875
                    ],
                    "texture": "#0"
                }
            }
        },
        {
            "from": [
                7.3326,
                3.91777,
                18.764
            ],
            "to": [
                7.6674,
                4.18177,
                20.98
            ],
            "rotation": {
                "angle": 0,
                "axis": "y",
                "origin": [
                    7.5446,
                    2.97777,
                    11.52
                ]
            },
            "faces": {
                "north": {
                    "uv": [
                        3.75,
                        4.25,
                        3.75,
                        4.25
                    ],
                    "texture": "#0"
                },
                "east": {
                    "uv": [
                        3.75,
                        4.25,
                        3.75,
                        4.25
                    ],
                    "texture": "#0"
                },
                "south": {
                    "uv": [
                        3.75,
                        4.25,
                        3.75,
                        4.25
                    ],
                    "texture": "#0"
                },
                "west": {
                    "uv": [
                        3.75,
                        4.25,
                        3.75,
                        4.25
                    ],
                    "texture": "#0"
                },
                "up": {
                    "uv": [
                        3.75,
                        4.25,
                        3.75,
                        4.25
                    ],
                    "texture": "#0"
                },
                "down": {
                    "uv": [
                        3.75,
                        4.25,
                        3.75,
                        4.25
                    ],
                    "texture": "#0"
                }
            }
        },
        {
            "from": [
                7.3326,
                3.91777,
                20.98
            ],
            "to": [
                7.6674,
                4.18177,
                21.684
            ],
            "rotation": {
                "angle": 0,
                "axis": "y",
                "origin": [
                    7.5446,
                    2.97777,
                    12.224
                ]
            },
            "faces": {
                "north": {
                    "uv": [
                        7.375,
                        12.375,
                        7.375,
                        12.375
                    ],
                    "texture": "#0"
                },
                "east": {
                    "uv": [
                        7.375,
                        12.375,
                        7.375,
                        12.375
                    ],
                    "texture": "#0"
                },
                "south": {
                    "uv": [
                        7.375,
                        12.375,
                        7.375,
                        12.375
                    ],
                    "texture": "#0"
                },
                "west": {
                    "uv": [
                        7.375,
                        12.375,
                        7.375,
                        12.375
                    ],
                    "texture": "#0"
                },
                "up": {
                    "uv": [
                        7.375,
                        12.375,
                        7.375,
                        12.375
                    ],
                    "texture": "#0"
                },
                "down": {
                    "uv": [
                        7.375,
                        12.375,
                        7.375,
                        12.375
                    ],
                    "texture": "#0"
                }
            }
        },
        {
            "from": [
                7.3326,
                -0.54977,
                20.268
            ],
            "to": [
                7.6674,
                -0.28577,
                20.98
            ],
            "rotation": {
                "angle": 0,
                "axis": "y",
                "origin": [
                    7.49796,
                    -0.40318,
                    19.872
                ]
            },
            "faces": {
                "north": {
                    "uv": [
                        3,
                        3.375,
                        3,
                        3.375
                    ],
                    "rotation": 180,
                    "texture": "#0"
                },
                "east": {
                    "uv": [
                        3,
                        3.375,
                        3,
                        3.375
                    ],
                    "rotation": 180,
                    "texture": "#0"
                },
                "south": {
                    "uv": [
                        3,
                        3.375,
                        3,
                        3.375
                    ],
                    "rotation": 180,
                    "texture": "#0"
                },
                "west": {
                    "uv": [
                        3,
                        3.375,
                        3,
                        3.375
                    ],
                    "rotation": 180,
                    "texture": "#0"
                },
                "up": {
                    "uv": [
                        3,
                        3.375,
                        3,
                        3.375
                    ],
                    "rotation": 180,
                    "texture": "#0"
                },
                "down": {
                    "uv": [
                        3,
                        3.375,
                        3,
                        3.375
                    ],
                    "rotation": 180,
                    "texture": "#0"
                }
            }
        },
        {
            "from": [
                7.3326,
                -0.54977,
                20.268
            ],
            "to": [
                7.6674,
                -0.28577,
                20.98
            ],
            "rotation": {
                "angle": 0,
                "axis": "y",
                "origin": [
                    7.49796,
                    -0.40318,
                    19.872
                ]
            },
            "faces": {
                "north": {
                    "uv": [
                        3,
                        3.375,
                        3,
                        3.375
                    ],
                    "rotation": 180,
                    "texture": "#0"
                },
                "east": {
                    "uv": [
                        3,
                        3.375,
                        3,
                        3.375
                    ],
                    "rotation": 180,
                    "texture": "#0"
                },
                "south": {
                    "uv": [
                        3,
                        3.375,
                        3,
                        3.375
                    ],
                    "rotation": 180,
                    "texture": "#0"
                },
                "west": {
                    "uv": [
                        3,
                        3.375,
                        3,
                        3.375
                    ],
                    "rotation": 180,
                    "texture": "#0"
                },
                "up": {
                    "uv": [
                        3,
                        3.375,
                        3,
                        3.375
                    ],
                    "rotation": 180,
                    "texture": "#0"
                },
                "down": {
                    "uv": [
                        3,
                        3.375,
                        3,
                        3.375
                    ],
                    "rotation": 180,
                    "texture": "#0"
                }
            }
        },
        {
            "from": [
                7.3326,
                -0.54977,
                20.98
            ],
            "to": [
                7.6674,
                -0.28577,
                21.684
            ],
            "rotation": {
                "angle": 0,
                "axis": "y",
                "origin": [
                    7.49796,
                    -0.40318,
                    20.576
                ]
            },
            "faces": {
                "north": {
                    "uv": [
                        7.375,
                        12.375,
                        7.375,
                        12.375
                    ],
                    "rotation": 180,
                    "texture": "#0"
                },
                "east": {
                    "uv": [
                        7.375,
                        12.375,
                        7.375,
                        12.375
                    ],
                    "rotation": 180,
                    "texture": "#0"
                },
                "south": {
                    "uv": [
                        7.375,
                        12.375,
                        7.375,
                        12.375
                    ],
                    "rotation": 180,
                    "texture": "#0"
                },
                "west": {
                    "uv": [
                        7.375,
                        12.375,
                        7.375,
                        12.375
                    ],
                    "rotation": 180,
                    "texture": "#0"
                },
                "up": {
                    "uv": [
                        7.375,
                        12.375,
                        7.375,
                        12.375
                    ],
                    "rotation": 180,
                    "texture": "#0"
                },
                "down": {
                    "uv": [
                        7.375,
                        12.375,
                        7.375,
                        12.375
                    ],
                    "rotation": 180,
                    "texture": "#0"
                }
            }
        },
        {
            "from": [
                7.44461,
                3.98478,
                13.612
            ],
            "to": [
                7.80461,
                4.08878,
                19.028
            ],
            "rotation": {
                "angle": 22.5,
                "axis": "z",
                "origin": [
                    7.65661,
                    2.88478,
                    9.568
                ]
            },
            "faces": {
                "north": {
                    "uv": [
                        3.75,
                        4.25,
                        3.75,
                        4.25
                    ],
                    "texture": "#0"
                },
                "east": {
                    "uv": [
                        3.75,
                        4.25,
                        3.75,
                        4.25
                    ],
                    "texture": "#0"
                },
                "south": {
                    "uv": [
                        3.75,
                        4.25,
                        3.75,
                        4.25
                    ],
                    "texture": "#0"
                },
                "west": {
                    "uv": [
                        3.75,
                        4.25,
                        3.75,
                        4.25
                    ],
                    "texture": "#0"
                },
                "up": {
                    "uv": [
                        3.75,
                        4.25,
                        3.75,
                        4.25
                    ],
                    "texture": "#0"
                },
                "down": {
                    "uv": [
                        3.75,
                        4.25,
                        3.75,
                        4.25
                    ],
                    "texture": "#0"
                }
            }
        },
        {
            "from": [
                7.44461,
                4.01678,
                18.764
            ],
            "to": [
                7.80461,
                4.21678,
                20.98
            ],
            "rotation": {
                "angle": 22.5,
                "axis": "z",
                "origin": [
                    7.65661,
                    3.01278,
                    11.52
                ]
            },
            "faces": {
                "north": {
                    "uv": [
                        3.75,
                        4.25,
                        3.75,
                        4.25
                    ],
                    "texture": "#0"
                },
                "east": {
                    "uv": [
                        3.75,
                        4.25,
                        3.75,
                        4.25
                    ],
                    "texture": "#0"
                },
                "south": {
                    "uv": [
                        3.75,
                        4.25,
                        3.75,
                        4.25
                    ],
                    "texture": "#0"
                },
                "west": {
                    "uv": [
                        3.75,
                        4.25,
                        3.75,
                        4.25
                    ],
                    "texture": "#0"
                },
                "up": {
                    "uv": [
                        3.75,
                        4.25,
                        3.75,
                        4.25
                    ],
                    "texture": "#0"
                },
                "down": {
                    "uv": [
                        3.75,
                        4.25,
                        3.75,
                        4.25
                    ],
                    "texture": "#0"
                }
            }
        },
        {
            "from": [
                7.44461,
                4.01678,
                20.98
            ],
            "to": [
                7.80461,
                4.21678,
                21.684
            ],
            "rotation": {
                "angle": 22.5,
                "axis": "z",
                "origin": [
                    7.65661,
                    3.01278,
                    12.224
                ]
            },
            "faces": {
                "north": {
                    "uv": [
                        7.375,
                        12.375,
                        7.375,
                        12.375
                    ],
                    "texture": "#0"
                },
                "east": {
                    "uv": [
                        7.375,
                        12.375,
                        7.375,
                        12.375
                    ],
                    "texture": "#0"
                },
                "south": {
                    "uv": [
                        7.375,
                        12.375,
                        7.375,
                        12.375
                    ],
                    "texture": "#0"
                },
                "west": {
                    "uv": [
                        7.375,
                        12.375,
                        7.375,
                        12.375
                    ],
                    "texture": "#0"
                },
                "up": {
                    "uv": [
                        7.375,
                        12.375,
                        7.375,
                        12.375
                    ],
                    "texture": "#0"
                },
                "down": {
                    "uv": [
                        7.375,
                        12.375,
                        7.375,
                        12.375
                    ],
                    "texture": "#0"
                }
            }
        },
        {
            "from": [
                7.59841,
                -0.60345,
                20.268
            ],
            "to": [
                7.95841,
                -0.40345,
                20.98
            ],
            "rotation": {
                "angle": 22.5,
                "axis": "z",
                "origin": [
                    7.49796,
                    -0.40318,
                    19.872
                ]
            },
            "faces": {
                "north": {
                    "uv": [
                        3,
                        3.375,
                        3,
                        3.375
                    ],
                    "rotation": 180,
                    "texture": "#0"
                },
                "east": {
                    "uv": [
                        3,
                        3.375,
                        3,
                        3.375
                    ],
                    "rotation": 180,
                    "texture": "#0"
                },
                "south": {
                    "uv": [
                        3,
                        3.375,
                        3,
                        3.375
                    ],
                    "rotation": 180,
                    "texture": "#0"
                },
                "west": {
                    "uv": [
                        3,
                        3.375,
                        3,
                        3.375
                    ],
                    "rotation": 180,
                    "texture": "#0"
                },
                "up": {
                    "uv": [
                        3,
                        3.375,
                        3,
                        3.375
                    ],
                    "rotation": 180,
                    "texture": "#0"
                },
                "down": {
                    "uv": [
                        3,
                        3.375,
                        3,
                        3.375
                    ],
                    "rotation": 180,
                    "texture": "#0"
                }
            }
        },
        {
            "from": [
                7.59841,
                -0.60345,
                20.268
            ],
            "to": [
                7.95841,
                -0.40345,
                20.98
            ],
            "rotation": {
                "angle": 22.5,
                "axis": "z",
                "origin": [
                    7.49796,
                    -0.40318,
                    19.872
                ]
            },
            "faces": {
                "north": {
                    "uv": [
                        3,
                        3.375,
                        3,
                        3.375
                    ],
                    "rotation": 180,
                    "texture": "#0"
                },
                "east": {
                    "uv": [
                        3,
                        3.375,
                        3,
                        3.375
                    ],
                    "rotation": 180,
                    "texture": "#0"
                },
                "south": {
                    "uv": [
                        3,
                        3.375,
                        3,
                        3.375
                    ],
                    "rotation": 180,
                    "texture": "#0"
                },
                "west": {
                    "uv": [
                        3,
                        3.375,
                        3,
                        3.375
                    ],
                    "rotation": 180,
                    "texture": "#0"
                },
                "up": {
                    "uv": [
                        3,
                        3.375,
                        3,
                        3.375
                    ],
                    "rotation": 180,
                    "texture": "#0"
                },
                "down": {
                    "uv": [
                        3,
                        3.375,
                        3,
                        3.375
                    ],
                    "rotation": 180,
                    "texture": "#0"
                }
            }
        },
        {
            "from": [
                7.59841,
                -0.60345,
                20.98
            ],
            "to": [
                7.95841,
                -0.40345,
                21.684
            ],
            "rotation": {
                "angle": 22.5,
                "axis": "z",
                "origin": [
                    7.49796,
                    -0.40318,
                    20.576
                ]
            },
            "faces": {
                "north": {
                    "uv": [
                        7.375,
                        12.375,
                        7.375,
                        12.375
                    ],
                    "rotation": 180,
                    "texture": "#0"
                },
                "east": {
                    "uv": [
                        7.375,
                        12.375,
                        7.375,
                        12.375
                    ],
                    "rotation": 180,
                    "texture": "#0"
                },
                "south": {
                    "uv": [
                        7.375,
                        12.375,
                        7.375,
                        12.375
                    ],
                    "rotation": 180,
                    "texture": "#0"
                },
                "west": {
                    "uv": [
                        7.375,
                        12.375,
                        7.375,
                        12.375
                    ],
                    "rotation": 180,
                    "texture": "#0"
                },
                "up": {
                    "uv": [
                        7.375,
                        12.375,
                        7.375,
                        12.375
                    ],
                    "rotation": 180,
                    "texture": "#0"
                },
                "down": {
                    "uv": [
                        7.375,
                        12.375,
                        7.375,
                        12.375
                    ],
                    "rotation": 180,
                    "texture": "#0"
                }
            }
        },
        {
            "from": [
                7.19539,
                3.98478,
                13.612
            ],
            "to": [
                7.55539,
                4.08878,
                19.028
            ],
            "rotation": {
                "angle": -22.5,
                "axis": "z",
                "origin": [
                    7.34339,
                    2.88478,
                    9.568
                ]
            },
            "faces": {
                "north": {
                    "uv": [
                        3.75,
                        4.25,
                        3.75,
                        4.25
                    ],
                    "texture": "#0"
                },
                "east": {
                    "uv": [
                        3.75,
                        4.25,
                        3.75,
                        4.25
                    ],
                    "texture": "#0"
                },
                "south": {
                    "uv": [
                        3.75,
                        4.25,
                        3.75,
                        4.25
                    ],
                    "texture": "#0"
                },
                "west": {
                    "uv": [
                        3.75,
                        4.25,
                        3.75,
                        4.25
                    ],
                    "texture": "#0"
                },
                "up": {
                    "uv": [
                        3.75,
                        4.25,
                        3.75,
                        4.25
                    ],
                    "texture": "#0"
                },
                "down": {
                    "uv": [
                        3.75,
                        4.25,
                        3.75,
                        4.25
                    ],
                    "texture": "#0"
                }
            }
        },
        {
            "from": [
                7.19539,
                4.04878,
                18.764
            ],
            "to": [
                7.55539,
                4.21678,
                20.98
            ],
            "rotation": {
                "angle": -22.5,
                "axis": "z",
                "origin": [
                    7.34339,
                    3.01278,
                    11.52
                ]
            },
            "faces": {
                "north": {
                    "uv": [
                        3.75,
                        4.25,
                        3.75,
                        4.25
                    ],
                    "texture": "#0"
                },
                "east": {
                    "uv": [
                        3.75,
                        4.25,
                        3.75,
                        4.25
                    ],
                    "texture": "#0"
                },
                "south": {
                    "uv": [
                        3.75,
                        4.25,
                        3.75,
                        4.25
                    ],
                    "texture": "#0"
                },
                "west": {
                    "uv": [
                        3.75,
                        4.25,
                        3.75,
                        4.25
                    ],
                    "texture": "#0"
                },
                "up": {
                    "uv": [
                        3.75,
                        4.25,
                        3.75,
                        4.25
                    ],
                    "texture": "#0"
                },
                "down": {
                    "uv": [
                        3.75,
                        4.25,
                        3.75,
                        4.25
                    ],
                    "texture": "#0"
                }
            }
        },
        {
            "from": [
                7.19539,
                4.04878,
                20.98
            ],
            "to": [
                7.55539,
                4.21678,
                21.684
            ],
            "rotation": {
                "angle": -22.5,
                "axis": "z",
                "origin": [
                    7.34339,
                    3.01278,
                    12.224
                ]
            },
            "faces": {
                "north": {
                    "uv": [
                        7.375,
                        12.375,
                        7.375,
                        12.375
                    ],
                    "texture": "#0"
                },
                "east": {
                    "uv": [
                        7.375,
                        12.375,
                        7.375,
                        12.375
                    ],
                    "texture": "#0"
                },
                "south": {
                    "uv": [
                        7.375,
                        12.375,
                        7.375,
                        12.375
                    ],
                    "texture": "#0"
                },
                "west": {
                    "uv": [
                        7.375,
                        12.375,
                        7.375,
                        12.375
                    ],
                    "texture": "#0"
                },
                "up": {
                    "uv": [
                        7.375,
                        12.375,
                        7.375,
                        12.375
                    ],
                    "texture": "#0"
                },
                "down": {
                    "uv": [
                        7.375,
                        12.375,
                        7.375,
                        12.375
                    ],
                    "texture": "#0"
                }
            }
        },
        {
            "from": [
                7.04128,
                -0.60189,
                20.268
            ],
            "to": [
                7.40128,
                -0.30589,
                20.98
            ],
            "rotation": {
                "angle": -22.5,
                "axis": "z",
                "origin": [
                    7.49796,
                    -0.40318,
                    19.872
                ]
            },
            "faces": {
                "north": {
                    "uv": [
                        3,
                        3.375,
                        3,
                        3.375
                    ],
                    "rotation": 180,
                    "texture": "#0"
                },
                "east": {
                    "uv": [
                        3,
                        3.375,
                        3,
                        3.375
                    ],
                    "rotation": 180,
                    "texture": "#0"
                },
                "south": {
                    "uv": [
                        3,
                        3.375,
                        3,
                        3.375
                    ],
                    "rotation": 180,
                    "texture": "#0"
                },
                "west": {
                    "uv": [
                        3,
                        3.375,
                        3,
                        3.375
                    ],
                    "rotation": 180,
                    "texture": "#0"
                },
                "up": {
                    "uv": [
                        3,
                        3.375,
                        3,
                        3.375
                    ],
                    "rotation": 180,
                    "texture": "#0"
                },
                "down": {
                    "uv": [
                        3,
                        3.375,
                        3,
                        3.375
                    ],
                    "rotation": 180,
                    "texture": "#0"
                }
            }
        },
        {
            "from": [
                7.04128,
                -0.60189,
                20.268
            ],
            "to": [
                7.40128,
                -0.30589,
                20.98
            ],
            "rotation": {
                "angle": -22.5,
                "axis": "z",
                "origin": [
                    7.49796,
                    -0.40318,
                    19.872
                ]
            },
            "faces": {
                "north": {
                    "uv": [
                        3,
                        3.375,
                        3,
                        3.375
                    ],
                    "rotation": 180,
                    "texture": "#0"
                },
                "east": {
                    "uv": [
                        3,
                        3.375,
                        3,
                        3.375
                    ],
                    "rotation": 180,
                    "texture": "#0"
                },
                "south": {
                    "uv": [
                        3,
                        3.375,
                        3,
                        3.375
                    ],
                    "rotation": 180,
                    "texture": "#0"
                },
                "west": {
                    "uv": [
                        3,
                        3.375,
                        3,
                        3.375
                    ],
                    "rotation": 180,
                    "texture": "#0"
                },
                "up": {
                    "uv": [
                        3,
                        3.375,
                        3,
                        3.375
                    ],
                    "rotation": 180,
                    "texture": "#0"
                },
                "down": {
                    "uv": [
                        3,
                        3.375,
                        3,
                        3.375
                    ],
                    "rotation": 180,
                    "texture": "#0"
                }
            }
        },
        {
            "from": [
                7.04128,
                -0.60189,
                20.98
            ],
            "to": [
                7.40128,
                -0.30589,
                21.684
            ],
            "rotation": {
                "angle": -22.5,
                "axis": "z",
                "origin": [
                    7.49796,
                    -0.40318,
                    20.576
                ]
            },
            "faces": {
                "north": {
                    "uv": [
                        7.375,
                        12.375,
                        7.375,
                        12.375
                    ],
                    "rotation": 180,
                    "texture": "#0"
                },
                "east": {
                    "uv": [
                        7.375,
                        12.375,
                        7.375,
                        12.375
                    ],
                    "rotation": 180,
                    "texture": "#0"
                },
                "south": {
                    "uv": [
                        7.375,
                        12.375,
                        7.375,
                        12.375
                    ],
                    "rotation": 180,
                    "texture": "#0"
                },
                "west": {
                    "uv": [
                        7.375,
                        12.375,
                        7.375,
                        12.375
                    ],
                    "rotation": 180,
                    "texture": "#0"
                },
                "up": {
                    "uv": [
                        7.375,
                        12.375,
                        7.375,
                        12.375
                    ],
                    "rotation": 180,
                    "texture": "#0"
                },
                "down": {
                    "uv": [
                        7.375,
                        12.375,
                        7.375,
                        12.375
                    ],
                    "rotation": 180,
                    "texture": "#0"
                }
            }
        }
    ],
    "display": {
        "thirdperson_righthand": {
            "translation": [
                -0.75,
                4.25,
                -0.25
            ],
            "scale": [
                0.8,
                0.8,
                0.8
            ]
        },
        "thirdperson_lefthand": {
            "translation": [
                -0.75,
                4,
                -0.25
            ],
            "scale": [
                0.8,
                0.8,
                0.8
            ]
        },
        "firstperson_righthand": {
            "translation": [
                -5.5,
                8.5,
                1.75
            ],
            "scale": [
                1,
                1,
                0.9
            ]
        },
        "firstperson_lefthand": {
            "translation": [
                -5.5,
                8.5,
                1.75
            ],
            "scale": [
                1,
                1,
                0.9
            ]
        },
        "ground": {
            "translation": [
                0,
                1.75,
                0
            ],
            "scale": [
                0.88,
                0.88,
                0.88
            ]
        },
        "gui": {
            "rotation": [
                47,
                27,
                -14
            ],
            "translation": [
                5,
                3.5,
                0
            ],
            "scale": [
                0.85,
                0.85,
                0.85
            ]
        },
        "head": {
            "rotation": [
                0,
                122,
                90
            ],
            "translation": [
                -3.25,
                7.25,
                1.75
            ]
        },
        "fixed": {
            "rotation": [
                90,
                -45,
                90
            ],
            "translation": [
                -4.25,
                3,
                -2
            ]
        }
    }
}