{
    "textures": {
        "0": "gci:items/common/all_in_one",
        "2": "gci:items/common/mpz",
        "particle": "gci:items/common/all_in_one"
    },
    "elements": [
        {
            "from": [
                7.03323,
                2.90978,
                11.42361
            ],
            "to": [
                7.96379,
                4.24034,
                12.43006
            ],
            "rotation": {
                "angle": 0,
                "axis": "y",
                "origin": [
                    7.22682,
                    3.97443,
                    -24.76335
                ]
            },
            "faces": {
                "north": {
                    "uv": [
                        1.25,
                        1.125,
                        1.375,
                        1.125
                    ],
                    "rotation": 270,
                    "texture": "#0"
                },
                "east": {
                    "uv": [
                        1.25,
                        1.125,
                        1.375,
                        1.125
                    ],
                    "rotation": 270,
                    "texture": "#0"
                },
                "south": {
                    "uv": [
                        1.25,
                        1.125,
                        1.375,
                        1.125
                    ],
                    "rotation": 270,
                    "texture": "#0"
                },
                "west": {
                    "uv": [
                        1.25,
                        1.125,
                        1.375,
                        1.125
                    ],
                    "rotation": 270,
                    "texture": "#0"
                },
                "up": {
                    "uv": [
                        1.25,
                        1.125,
                        1.375,
                        1.125
                    ],
                    "rotation": 270,
                    "texture": "#0"
                },
                "down": {
                    "uv": [
                        1.25,
                        1.125,
                        1.375,
                        1.125
                    ],
                    "rotation": 270,
                    "texture": "#0"
                }
            }
        },
        {
            "from": [
                7.18939,
                2.8381,
                12.34808
            ],
            "to": [
                7.80763,
                4.31202,
                12.95476
            ],
            "rotation": {
                "angle": 0,
                "axis": "y",
                "origin": [
                    7.19098,
                    3.97443,
                    -24.76335
                ]
            },
            "faces": {
                "north": {
                    "uv": [
                        4.375,
                        3.625,
                        4.375,
                        3.625
                    ],
                    "rotation": 270,
                    "texture": "#0"
                },
                "east": {
                    "uv": [
                        4.375,
                        3.625,
                        4.375,
                        3.625
                    ],
                    "rotation": 270,
                    "texture": "#0"
                },
                "south": {
                    "uv": [
                        4.375,
                        3.625,
                        4.375,
                        3.625
                    ],
                    "rotation": 270,
                    "texture": "#0"
                },
                "west": {
                    "uv": [
                        4.375,
                        3.625,
                        4.375,
                        3.625
                    ],
                    "rotation": 270,
                    "texture": "#0"
                },
                "up": {
                    "uv": [
                        4.375,
                        3.625,
                        4.375,
                        3.625
                    ],
                    "rotation": 270,
                    "texture": "#0"
                },
                "down": {
                    "uv": [
                        4.375,
                        3.625,
                        4.375,
                        3.625
                    ],
                    "rotation": 270,
                    "texture": "#0"
                }
            }
        },
        {
            "from": [
                7.36859,
                2.76642,
                12.34808
            ],
            "to": [
                7.62843,
                4.3837,
                12.95476
            ],
            "rotation": {
                "angle": 0,
                "axis": "y",
                "origin": [
                    7.19098,
                    3.97443,
                    -24.76335
                ]
            },
            "faces": {
                "north": {
                    "uv": [
                        4.375,
                        3.625,
                        4.375,
                        3.625
                    ],
                    "rotation": 270,
                    "texture": "#0"
                },
                "east": {
                    "uv": [
                        4.375,
                        3.625,
                        4.375,
                        3.625
                    ],
                    "rotation": 270,
                    "texture": "#0"
                },
                "south": {
                    "uv": [
                        4.375,
                        3.625,
                        4.375,
                        3.625
                    ],
                    "rotation": 270,
                    "texture": "#0"
                },
                "west": {
                    "uv": [
                        4.375,
                        3.625,
                        4.375,
                        3.625
                    ],
                    "rotation": 270,
                    "texture": "#0"
                },
                "up": {
                    "uv": [
                        4.375,
                        3.625,
                        4.375,
                        3.625
                    ],
                    "rotation": 270,
                    "texture": "#0"
                },
                "down": {
                    "uv": [
                        4.375,
                        3.625,
                        4.375,
                        3.625
                    ],
                    "rotation": 270,
                    "texture": "#0"
                }
            }
        },
        {
            "from": [
                7.39905,
                2.99601,
                19.28297
            ],
            "to": [
                7.59841,
                4.61329,
                20.06455
            ],
            "rotation": {
                "angle": 0,
                "axis": "y",
                "origin": [
                    7.22145,
                    4.20402,
                    -17.82846
                ]
            },
            "faces": {
                "north": {
                    "uv": [
                        4.25,
                        2.125,
                        4.25,
                        2.125
                    ],
                    "rotation": 270,
                    "texture": "#0"
                },
                "east": {
                    "uv": [
                        4.25,
                        2.125,
                        4.25,
                        2.125
                    ],
                    "rotation": 270,
                    "texture": "#0"
                },
                "south": {
                    "uv": [
                        4.25,
                        2.125,
                        4.25,
                        2.125
                    ],
                    "rotation": 270,
                    "texture": "#0"
                },
                "west": {
                    "uv": [
                        4.25,
                        2.125,
                        4.25,
                        2.125
                    ],
                    "rotation": 270,
                    "texture": "#0"
                },
                "up": {
                    "uv": [
                        4.25,
                        2.125,
                        4.25,
                        2.125
                    ],
                    "rotation": 270,
                    "texture": "#0"
                },
                "down": {
                    "uv": [
                        4.25,
                        2.125,
                        4.25,
                        2.125
                    ],
                    "rotation": 270,
                    "texture": "#0"
                }
            }
        },
        {
            "from": [
                7.39905,
                4.14289,
                19.58904
            ],
            "to": [
                7.59841,
                4.34225,
                20.3269
            ],
            "rotation": {
                "angle": -45,
                "axis": "z",
                "origin": [
                    7.49873,
                    4.24257,
                    19.97983
                ]
            },
            "faces": {
                "north": {
                    "uv": [
                        13.875,
                        4.75,
                        13.875,
                        5
                    ],
                    "rotation": 270,
                    "texture": "#0"
                },
                "east": {
                    "uv": [
                        13.875,
                        4.75,
                        13.875,
                        5
                    ],
                    "rotation": 270,
                    "texture": "#0"
                },
                "south": {
                    "uv": [
                        13.875,
                        4.75,
                        13.875,
                        5
                    ],
                    "rotation": 270,
                    "texture": "#0"
                },
                "west": {
                    "uv": [
                        13.875,
                        4.75,
                        13.875,
                        5
                    ],
                    "rotation": 270,
                    "texture": "#0"
                },
                "up": {
                    "uv": [
                        13.875,
                        4.75,
                        13.875,
                        5
                    ],
                    "rotation": 270,
                    "texture": "#0"
                },
                "down": {
                    "uv": [
                        13.875,
                        4.75,
                        13.875,
                        5
                    ],
                    "rotation": 270,
                    "texture": "#0"
                }
            }
        },
        {
            "from": [
                7.39905,
                1.49073,
                19.72021
            ],
            "to": [
                7.59841,
                1.69009,
                20.3269
            ],
            "rotation": {
                "angle": -45,
                "axis": "z",
                "origin": [
                    7.49873,
                    1.59041,
                    19.97983
                ]
            },
            "faces": {
                "north": {
                    "uv": [
                        13.875,
                        4.75,
                        13.875,
                        5
                    ],
                    "rotation": 270,
                    "texture": "#0"
                },
                "east": {
                    "uv": [
                        13.875,
                        4.75,
                        13.875,
                        5
                    ],
                    "rotation": 270,
                    "texture": "#0"
                },
                "south": {
                    "uv": [
                        13.875,
                        4.75,
                        13.875,
                        5
                    ],
                    "rotation": 270,
                    "texture": "#0"
                },
                "west": {
                    "uv": [
                        13.875,
                        4.75,
                        13.875,
                        5
                    ],
                    "rotation": 270,
                    "texture": "#0"
                },
                "up": {
                    "uv": [
                        13.875,
                        4.75,
                        13.875,
                        5
                    ],
                    "rotation": 270,
                    "texture": "#0"
                },
                "down": {
                    "uv": [
                        13.875,
                        4.75,
                        13.875,
                        5
                    ],
                    "rotation": 270,
                    "texture": "#0"
                }
            }
        },
        {
            "from": [
                7.30908,
                3.38754,
                12.34808
            ],
            "to": [
                7.49724,
                4.39554,
                12.95476
            ],
            "rotation": {
                "angle": -22.5,
                "axis": "z",
                "origin": [
                    7.439,
                    3.5869,
                    12.65142
                ]
            },
            "faces": {
                "north": {
                    "uv": [
                        4.375,
                        3.625,
                        4.375,
                        3.625
                    ],
                    "rotation": 270,
                    "texture": "#0"
                },
                "east": {
                    "uv": [
                        4.375,
                        3.625,
                        4.375,
                        3.625
                    ],
                    "rotation": 270,
                    "texture": "#0"
                },
                "south": {
                    "uv": [
                        4.375,
                        3.625,
                        4.375,
                        3.625
                    ],
                    "rotation": 270,
                    "texture": "#0"
                },
                "west": {
                    "uv": [
                        4.375,
                        3.625,
                        4.375,
                        3.625
                    ],
                    "rotation": 270,
                    "texture": "#0"
                },
                "up": {
                    "uv": [
                        4.375,
                        3.625,
                        4.375,
                        3.625
                    ],
                    "rotation": 270,
                    "texture": "#0"
                },
                "down": {
                    "uv": [
                        4.375,
                        3.625,
                        4.375,
                        3.625
                    ],
                    "rotation": 270,
                    "texture": "#0"
                }
            }
        },
        {
            "from": [
                7.27861,
                3.76049,
                19.28297
            ],
            "to": [
                7.46677,
                4.62513,
                20.06455
            ],
            "rotation": {
                "angle": -22.5,
                "axis": "z",
                "origin": [
                    7.40853,
                    3.81649,
                    19.58631
                ]
            },
            "faces": {
                "north": {
                    "uv": [
                        4.25,
                        2.125,
                        4.25,
                        2.125
                    ],
                    "rotation": 270,
                    "texture": "#0"
                },
                "east": {
                    "uv": [
                        4.25,
                        2.125,
                        4.25,
                        2.125
                    ],
                    "rotation": 270,
                    "texture": "#0"
                },
                "south": {
                    "uv": [
                        4.25,
                        2.125,
                        4.25,
                        2.125
                    ],
                    "rotation": 270,
                    "texture": "#0"
                },
                "west": {
                    "uv": [
                        4.25,
                        2.125,
                        4.25,
                        2.125
                    ],
                    "rotation": 270,
                    "texture": "#0"
                },
                "up": {
                    "uv": [
                        4.25,
                        2.125,
                        4.25,
                        2.125
                    ],
                    "rotation": 270,
                    "texture": "#0"
                },
                "down": {
                    "uv": [
                        4.25,
                        2.125,
                        4.25,
                        2.125
                    ],
                    "rotation": 270,
                    "texture": "#0"
                }
            }
        },
        {
            "from": [
                7.37692,
                2.75456,
                12.34808
            ],
            "to": [
                7.56508,
                3.76256,
                12.95476
            ],
            "rotation": {
                "angle": -22.5,
                "axis": "z",
                "origin": [
                    7.49314,
                    3.26773,
                    12.65142
                ]
            },
            "faces": {
                "north": {
                    "uv": [
                        4.375,
                        3.625,
                        4.375,
                        3.625
                    ],
                    "rotation": 90,
                    "texture": "#0"
                },
                "east": {
                    "uv": [
                        4.375,
                        3.625,
                        4.375,
                        3.625
                    ],
                    "rotation": 90,
                    "texture": "#0"
                },
                "south": {
                    "uv": [
                        4.375,
                        3.625,
                        4.375,
                        3.625
                    ],
                    "rotation": 90,
                    "texture": "#0"
                },
                "west": {
                    "uv": [
                        4.375,
                        3.625,
                        4.375,
                        3.625
                    ],
                    "rotation": 90,
                    "texture": "#0"
                },
                "up": {
                    "uv": [
                        4.375,
                        3.625,
                        4.375,
                        3.625
                    ],
                    "rotation": 90,
                    "texture": "#0"
                },
                "down": {
                    "uv": [
                        4.375,
                        3.625,
                        4.375,
                        3.625
                    ],
                    "rotation": 90,
                    "texture": "#0"
                }
            }
        },
        {
            "from": [
                7.49432,
                3.41497,
                12.34808
            ],
            "to": [
                7.68248,
                4.42297,
                12.95476
            ],
            "rotation": {
                "angle": 22.5,
                "axis": "z",
                "origin": [
                    7.62424,
                    3.61433,
                    12.65142
                ]
            },
            "faces": {
                "north": {
                    "uv": [
                        4.375,
                        3.625,
                        4.375,
                        3.625
                    ],
                    "rotation": 270,
                    "texture": "#0"
                },
                "east": {
                    "uv": [
                        4.375,
                        3.625,
                        4.375,
                        3.625
                    ],
                    "rotation": 270,
                    "texture": "#0"
                },
                "south": {
                    "uv": [
                        4.375,
                        3.625,
                        4.375,
                        3.625
                    ],
                    "rotation": 270,
                    "texture": "#0"
                },
                "west": {
                    "uv": [
                        4.375,
                        3.625,
                        4.375,
                        3.625
                    ],
                    "rotation": 270,
                    "texture": "#0"
                },
                "up": {
                    "uv": [
                        4.375,
                        3.625,
                        4.375,
                        3.625
                    ],
                    "rotation": 270,
                    "texture": "#0"
                },
                "down": {
                    "uv": [
                        4.375,
                        3.625,
                        4.375,
                        3.625
                    ],
                    "rotation": 270,
                    "texture": "#0"
                }
            }
        },
        {
            "from": [
                7.5248,
                3.75208,
                19.28297
            ],
            "to": [
                7.71296,
                4.65256,
                20.06455
            ],
            "rotation": {
                "angle": 22.5,
                "axis": "z",
                "origin": [
                    7.65472,
                    3.84392,
                    19.58631
                ]
            },
            "faces": {
                "north": {
                    "uv": [
                        4.25,
                        2.125,
                        4.25,
                        2.125
                    ],
                    "rotation": 270,
                    "texture": "#0"
                },
                "east": {
                    "uv": [
                        4.25,
                        2.125,
                        4.25,
                        2.125
                    ],
                    "rotation": 270,
                    "texture": "#0"
                },
                "south": {
                    "uv": [
                        4.25,
                        2.125,
                        4.25,
                        2.125
                    ],
                    "rotation": 270,
                    "texture": "#0"
                },
                "west": {
                    "uv": [
                        4.25,
                        2.125,
                        4.25,
                        2.125
                    ],
                    "rotation": 270,
                    "texture": "#0"
                },
                "up": {
                    "uv": [
                        4.25,
                        2.125,
                        4.25,
                        2.125
                    ],
                    "rotation": 270,
                    "texture": "#0"
                },
                "down": {
                    "uv": [
                        4.25,
                        2.125,
                        4.25,
                        2.125
                    ],
                    "rotation": 270,
                    "texture": "#0"
                }
            }
        },
        {
            "from": [
                7.42121,
                2.75456,
                12.34808
            ],
            "to": [
                7.60937,
                3.76256,
                12.95476
            ],
            "rotation": {
                "angle": 22.5,
                "axis": "z",
                "origin": [
                    7.49314,
                    3.26773,
                    12.65142
                ]
            },
            "faces": {
                "north": {
                    "uv": [
                        4.375,
                        3.625,
                        4.375,
                        3.625
                    ],
                    "rotation": 90,
                    "texture": "#0"
                },
                "east": {
                    "uv": [
                        4.375,
                        3.625,
                        4.375,
                        3.625
                    ],
                    "rotation": 90,
                    "texture": "#0"
                },
                "south": {
                    "uv": [
                        4.375,
                        3.625,
                        4.375,
                        3.625
                    ],
                    "rotation": 90,
                    "texture": "#0"
                },
                "west": {
                    "uv": [
                        4.375,
                        3.625,
                        4.375,
                        3.625
                    ],
                    "rotation": 90,
                    "texture": "#0"
                },
                "up": {
                    "uv": [
                        4.375,
                        3.625,
                        4.375,
                        3.625
                    ],
                    "rotation": 90,
                    "texture": "#0"
                },
                "down": {
                    "uv": [
                        4.375,
                        3.625,
                        4.375,
                        3.625
                    ],
                    "rotation": 90,
                    "texture": "#0"
                }
            }
        },
        {
            "from": [
                7.29691,
                3.9133,
                12.96022
            ],
            "to": [
                7.70011,
                4.24034,
                19.99445
            ],
            "rotation": {
                "angle": 0,
                "axis": "y",
                "origin": [
                    7.19098,
                    3.97443,
                    -23.4516
                ]
            },
            "faces": {
                "north": {
                    "uv": [
                        4.25,
                        3.5,
                        4.25,
                        3.5
                    ],
                    "rotation": 270,
                    "texture": "#0"
                },
                "east": {
                    "uv": [
                        4.25,
                        3.5,
                        4.25,
                        3.5
                    ],
                    "rotation": 270,
                    "texture": "#0"
                },
                "south": {
                    "uv": [
                        4.25,
                        3.5,
                        4.25,
                        3.5
                    ],
                    "rotation": 270,
                    "texture": "#0"
                },
                "west": {
                    "uv": [
                        4.25,
                        3.5,
                        4.25,
                        3.5
                    ],
                    "rotation": 270,
                    "texture": "#0"
                },
                "up": {
                    "uv": [
                        4.25,
                        3.5,
                        4.25,
                        3.5
                    ],
                    "rotation": 270,
                    "texture": "#0"
                },
                "down": {
                    "uv": [
                        4.25,
                        3.5,
                        4.25,
                        3.5
                    ],
                    "rotation": 270,
                    "texture": "#0"
                }
            }
        },
        {
            "from": [
                7.22523,
                1.88464,
                19.28297
            ],
            "to": [
                7.77179,
                4.54128,
                20.10827
            ],
            "rotation": {
                "angle": 0,
                "axis": "y",
                "origin": [
                    7.19098,
                    3.98865,
                    -23.46896
                ]
            },
            "faces": {
                "north": {
                    "uv": [
                        4.25,
                        2.125,
                        4.25,
                        2.125
                    ],
                    "rotation": 270,
                    "texture": "#0"
                },
                "east": {
                    "uv": [
                        4.25,
                        2.125,
                        4.25,
                        2.125
                    ],
                    "rotation": 270,
                    "texture": "#0"
                },
                "south": {
                    "uv": [
                        4.25,
                        2.125,
                        4.25,
                        2.125
                    ],
                    "rotation": 270,
                    "texture": "#0"
                },
                "west": {
                    "uv": [
                        4.25,
                        2.125,
                        4.25,
                        2.125
                    ],
                    "rotation": 270,
                    "texture": "#0"
                },
                "up": {
                    "uv": [
                        4.25,
                        2.125,
                        4.25,
                        2.125
                    ],
                    "rotation": 270,
                    "texture": "#0"
                },
                "down": {
                    "uv": [
                        4.25,
                        2.125,
                        4.25,
                        2.125
                    ],
                    "rotation": 270,
                    "texture": "#0"
                }
            }
        },
        {
            "from": [
                7.40443,
                1.8488,
                18.97689
            ],
            "to": [
                7.62843,
                4.25456,
                20.10827
            ],
            "rotation": {
                "angle": 0,
                "axis": "y",
                "origin": [
                    7.19098,
                    3.98865,
                    -23.46896
                ]
            },
            "faces": {
                "north": {
                    "uv": [
                        4.25,
                        2.125,
                        4.25,
                        2.125
                    ],
                    "rotation": 270,
                    "texture": "#0"
                },
                "east": {
                    "uv": [
                        4.25,
                        2.125,
                        4.25,
                        2.125
                    ],
                    "rotation": 270,
                    "texture": "#0"
                },
                "south": {
                    "uv": [
                        4.25,
                        2.125,
                        4.25,
                        2.125
                    ],
                    "rotation": 270,
                    "texture": "#0"
                },
                "west": {
                    "uv": [
                        4.25,
                        2.125,
                        4.25,
                        2.125
                    ],
                    "rotation": 270,
                    "texture": "#0"
                },
                "up": {
                    "uv": [
                        4.25,
                        2.125,
                        4.25,
                        2.125
                    ],
                    "rotation": 270,
                    "texture": "#0"
                },
                "down": {
                    "uv": [
                        4.25,
                        2.125,
                        4.25,
                        2.125
                    ],
                    "rotation": 270,
                    "texture": "#0"
                }
            }
        },
        {
            "from": [
                7.40443,
                4.31358,
                18.94706
            ],
            "to": [
                7.62843,
                5.24094,
                19.38978
            ],
            "rotation": {
                "angle": -45,
                "axis": "x",
                "origin": [
                    7.51643,
                    4.77726,
                    20.41458
                ]
            },
            "faces": {
                "north": {
                    "uv": [
                        4.25,
                        2.125,
                        4.25,
                        2.125
                    ],
                    "texture": "#0"
                },
                "east": {
                    "uv": [
                        4.25,
                        2.125,
                        4.25,
                        2.125
                    ],
                    "texture": "#0"
                },
                "south": {
                    "uv": [
                        4.25,
                        2.125,
                        4.25,
                        2.125
                    ],
                    "texture": "#0"
                },
                "west": {
                    "uv": [
                        4.25,
                        2.125,
                        4.25,
                        2.125
                    ],
                    "texture": "#0"
                },
                "up": {
                    "uv": [
                        4.25,
                        2.125,
                        4.25,
                        2.125
                    ],
                    "texture": "#0"
                },
                "down": {
                    "uv": [
                        4.25,
                        2.125,
                        4.25,
                        2.125
                    ],
                    "texture": "#0"
                }
            }
        },
        {
            "from": [
                7.22523,
                1.29698,
                19.65012
            ],
            "to": [
                7.77179,
                4.49122,
                20.12562
            ],
            "rotation": {
                "angle": 0,
                "axis": "y",
                "origin": [
                    7.19098,
                    3.97443,
                    -23.4516
                ]
            },
            "faces": {
                "north": {
                    "uv": [
                        4.25,
                        2.125,
                        4.25,
                        2.125
                    ],
                    "rotation": 270,
                    "texture": "#0"
                },
                "east": {
                    "uv": [
                        4.25,
                        2.125,
                        4.25,
                        2.125
                    ],
                    "rotation": 270,
                    "texture": "#0"
                },
                "south": {
                    "uv": [
                        4.25,
                        2.125,
                        4.25,
                        2.125
                    ],
                    "rotation": 270,
                    "texture": "#0"
                },
                "west": {
                    "uv": [
                        4.25,
                        2.125,
                        4.25,
                        2.125
                    ],
                    "rotation": 270,
                    "texture": "#0"
                },
                "up": {
                    "uv": [
                        4.25,
                        2.125,
                        4.25,
                        2.125
                    ],
                    "rotation": 270,
                    "texture": "#0"
                },
                "down": {
                    "uv": [
                        4.25,
                        2.125,
                        4.25,
                        2.125
                    ],
                    "rotation": 270,
                    "texture": "#0"
                }
            }
        },
        {
            "from": [
                7.18939,
                1.2253,
                19.99992
            ],
            "to": [
                7.80763,
                4.63458,
                20.30052
            ],
            "rotation": {
                "angle": 0,
                "axis": "y",
                "origin": [
                    7.19098,
                    3.97443,
                    -23.2767
                ]
            },
            "faces": {
                "north": {
                    "uv": [
                        3,
                        2.875,
                        3,
                        3.125
                    ],
                    "rotation": 270,
                    "texture": "#0"
                },
                "east": {
                    "uv": [
                        3,
                        2.875,
                        3,
                        3.125
                    ],
                    "rotation": 270,
                    "texture": "#0"
                },
                "south": {
                    "uv": [
                        3,
                        2.875,
                        3,
                        3.125
                    ],
                    "rotation": 270,
                    "texture": "#0"
                },
                "west": {
                    "uv": [
                        3,
                        2.875,
                        3,
                        3.125
                    ],
                    "rotation": 270,
                    "texture": "#0"
                },
                "up": {
                    "uv": [
                        3,
                        2.875,
                        3,
                        3.125
                    ],
                    "rotation": 270,
                    "texture": "#0"
                },
                "down": {
                    "uv": [
                        3,
                        2.875,
                        3,
                        3.125
                    ],
                    "rotation": 270,
                    "texture": "#0"
                }
            }
        },
        {
            "from": [
                7.22523,
                1.6736,
                19.34158
            ],
            "to": [
                7.77179,
                2.00064,
                19.86082
            ],
            "rotation": {
                "angle": 45,
                "axis": "x",
                "origin": [
                    7.49851,
                    1.83712,
                    19.62306
                ]
            },
            "faces": {
                "north": {
                    "uv": [
                        4.25,
                        2.125,
                        4.25,
                        2.125
                    ],
                    "rotation": 270,
                    "texture": "#0"
                },
                "east": {
                    "uv": [
                        4.25,
                        2.125,
                        4.25,
                        2.125
                    ],
                    "rotation": 270,
                    "texture": "#0"
                },
                "south": {
                    "uv": [
                        4.25,
                        2.125,
                        4.25,
                        2.125
                    ],
                    "rotation": 270,
                    "texture": "#0"
                },
                "west": {
                    "uv": [
                        4.25,
                        2.125,
                        4.25,
                        2.125
                    ],
                    "rotation": 270,
                    "texture": "#0"
                },
                "up": {
                    "uv": [
                        4.25,
                        2.125,
                        4.25,
                        2.125
                    ],
                    "rotation": 270,
                    "texture": "#0"
                },
                "down": {
                    "uv": [
                        4.25,
                        2.125,
                        4.25,
                        2.125
                    ],
                    "rotation": 270,
                    "texture": "#0"
                }
            }
        },
        {
            "from": [
                7.40443,
                1.63776,
                19.03551
            ],
            "to": [
                7.62843,
                1.9648,
                19.99199
            ],
            "rotation": {
                "angle": 45,
                "axis": "x",
                "origin": [
                    7.67771,
                    1.80128,
                    19.31699
                ]
            },
            "faces": {
                "north": {
                    "uv": [
                        4.25,
                        2.125,
                        4.25,
                        2.125
                    ],
                    "rotation": 270,
                    "texture": "#0"
                },
                "east": {
                    "uv": [
                        4.25,
                        2.125,
                        4.25,
                        2.125
                    ],
                    "rotation": 270,
                    "texture": "#0"
                },
                "south": {
                    "uv": [
                        4.25,
                        2.125,
                        4.25,
                        2.125
                    ],
                    "rotation": 270,
                    "texture": "#0"
                },
                "west": {
                    "uv": [
                        4.25,
                        2.125,
                        4.25,
                        2.125
                    ],
                    "rotation": 270,
                    "texture": "#0"
                },
                "up": {
                    "uv": [
                        4.25,
                        2.125,
                        4.25,
                        2.125
                    ],
                    "rotation": 270,
                    "texture": "#0"
                },
                "down": {
                    "uv": [
                        4.25,
                        2.125,
                        4.25,
                        2.125
                    ],
                    "rotation": 270,
                    "texture": "#0"
                }
            }
        },
        {
            "from": [
                7.29691,
                2.94783,
                12.76823
            ],
            "to": [
                7.70011,
                3.27487,
                16.1733
            ],
            "rotation": {
                "angle": 0,
                "axis": "y",
                "origin": [
                    7.19098,
                    3.00896,
                    -25.08652
                ]
            },
            "faces": {
                "north": {
                    "uv": [
                        4.25,
                        3.5,
                        4.25,
                        3.5
                    ],
                    "rotation": 270,
                    "texture": "#0"
                },
                "east": {
                    "uv": [
                        4.25,
                        3.5,
                        4.25,
                        3.5
                    ],
                    "rotation": 270,
                    "texture": "#0"
                },
                "south": {
                    "uv": [
                        4.25,
                        3.5,
                        4.25,
                        3.5
                    ],
                    "rotation": 270,
                    "texture": "#0"
                },
                "west": {
                    "uv": [
                        4.25,
                        3.5,
                        4.25,
                        3.5
                    ],
                    "rotation": 270,
                    "texture": "#0"
                },
                "up": {
                    "uv": [
                        4.25,
                        3.5,
                        4.25,
                        3.5
                    ],
                    "rotation": 270,
                    "texture": "#0"
                },
                "down": {
                    "uv": [
                        4.25,
                        3.5,
                        4.25,
                        3.5
                    ],
                    "rotation": 270,
                    "texture": "#0"
                }
            }
        },
        {
            "from": [
                7.29691,
                2.68137,
                16.06406
            ],
            "to": [
                7.70011,
                3.00841,
                20.08127
            ],
            "rotation": {
                "angle": 22.5,
                "axis": "x",
                "origin": [
                    7.48059,
                    2.91657,
                    16.93582
                ]
            },
            "faces": {
                "north": {
                    "uv": [
                        4.25,
                        3.5,
                        4.25,
                        3.5
                    ],
                    "rotation": 270,
                    "texture": "#0"
                },
                "east": {
                    "uv": [
                        4.25,
                        3.5,
                        4.25,
                        3.5
                    ],
                    "rotation": 270,
                    "texture": "#0"
                },
                "south": {
                    "uv": [
                        4.25,
                        3.5,
                        4.25,
                        3.5
                    ],
                    "rotation": 270,
                    "texture": "#0"
                },
                "west": {
                    "uv": [
                        4.25,
                        3.5,
                        4.25,
                        3.5
                    ],
                    "rotation": 270,
                    "texture": "#0"
                },
                "up": {
                    "uv": [
                        4.25,
                        3.5,
                        4.25,
                        3.5
                    ],
                    "rotation": 270,
                    "texture": "#0"
                },
                "down": {
                    "uv": [
                        4.25,
                        3.5,
                        4.25,
                        3.5
                    ],
                    "rotation": 270,
                    "texture": "#0"
                }
            }
        }
    ],
    "display": {
        "thirdperson_righthand": {
            "translation": [
                -0.75,
                4.25,
                -0.25
            ],
            "scale": [
                0.8,
                0.8,
                0.8
            ]
        },
        "thirdperson_lefthand": {
            "translation": [
                -0.75,
                4,
                -0.25
            ],
            "scale": [
                0.8,
                0.8,
                0.8
            ]
        },
        "firstperson_righthand": {
            "translation": [
                -5.5,
                8.5,
                1.75
            ],
            "scale": [
                1,
                1,
                0.9
            ]
        },
        "firstperson_lefthand": {
            "translation": [
                -5.5,
                8.5,
                1.75
            ],
            "scale": [
                1,
                1,
                0.9
            ]
        },
        "ground": {
            "translation": [
                0,
                1.75,
                0
            ],
            "scale": [
                0.88,
                0.88,
                0.88
            ]
        },
        "gui": {
            "rotation": [
                47,
                27,
                -14
            ],
            "translation": [
                5,
                3.5,
                0
            ],
            "scale": [
                0.85,
                0.85,
                0.85
            ]
        },
        "head": {
            "rotation": [
                0,
                122,
                90
            ],
            "translation": [
                -3.25,
                7.25,
                1.75
            ]
        },
        "fixed": {
            "rotation": [
                90,
                -45,
                90
            ],
            "translation": [
                -4.25,
                3,
                -2
            ]
        }
    }
}