{
	"credit": "Made with Blockbench",
	"textures": {
		"0": "gci:items/common/mpz",
		"particle": "gci:items/common/mpz"
	},
	"elements": [
		{
			"name": "hexadecagon",
			"from": [6.45625, 12.76719, 7.52168],
			"to": [7.54375, 13.83281, 8.47832],
			"rotation": {"angle": 0, "axis": "y", "origin": [7, 13.3, 8]},
			"faces": {
				"north": {"uv": [8.66667, 11.33333, 9.66667, 12.33333], "texture": "#0"},
				"east": {"uv": [8.66667, 11.33333, 9.66667, 12.33333], "texture": "#0"},
				"south": {"uv": [8.66667, 11.33333, 9.66667, 12.33333], "texture": "#0"},
				"west": {"uv": [8.66667, 11.33333, 9.66667, 12.33333], "texture": "#0"},
				"up": {"uv": [8.66667, 11.33333, 9.66667, 12.33333], "texture": "#0"},
				"down": {"uv": [8.66667, 11.33333, 9.66667, 12.33333], "texture": "#0"}
			}
		},
		{
			"name": "hexadecagon",
			"from": [6.55625, 12.66719, 7.52168],
			"to": [7.44375, 13.83281, 8.47832],
			"rotation": {"angle": 0, "axis": "y", "origin": [7, 13.3, 8]},
			"faces": {
				"north": {"uv": [8.66667, 11.33333, 9.66667, 12.33333], "texture": "#0"},
				"east": {"uv": [8.66667, 11.33333, 9.66667, 12.33333], "texture": "#0"},
				"south": {"uv": [8.66667, 11.33333, 9.66667, 12.33333], "texture": "#0"},
				"west": {"uv": [8.66667, 11.33333, 9.66667, 12.33333], "texture": "#0"},
				"up": {"uv": [8.66667, 11.33333, 9.66667, 12.33333], "texture": "#0"},
				"down": {"uv": [8.66667, 11.33333, 9.66667, 12.33333], "texture": "#0"}
			}
		},
		{
			"name": "hexadecagon",
			"from": [6.65625, 12.56719, 7.62168],
			"to": [7.34375, 13.73281, 8.37832],
			"rotation": {"angle": 0, "axis": "y", "origin": [7, 13.3, 8]},
			"faces": {
				"north": {"uv": [8.66667, 11.33333, 9.66667, 12.33333], "texture": "#0"},
				"east": {"uv": [8.66667, 11.33333, 9.66667, 12.33333], "texture": "#0"},
				"south": {"uv": [8.66667, 11.33333, 9.66667, 12.33333], "texture": "#0"},
				"west": {"uv": [8.66667, 11.33333, 9.66667, 12.33333], "texture": "#0"},
				"up": {"uv": [8.66667, 11.33333, 9.66667, 12.33333], "texture": "#0"},
				"down": {"uv": [8.66667, 11.33333, 9.66667, 12.33333], "texture": "#0"}
			}
		},
		{
			"name": "hexadecagon",
			"from": [6.35625, 12.86719, 7.62168],
			"to": [7.64375, 13.73281, 8.37832],
			"rotation": {"angle": 0, "axis": "y", "origin": [7, 13.3, 8]},
			"faces": {
				"north": {"uv": [8.66667, 11.33333, 9.66667, 12.33333], "texture": "#0"},
				"east": {"uv": [8.66667, 11.33333, 9.66667, 12.33333], "texture": "#0"},
				"south": {"uv": [8.66667, 11.33333, 9.66667, 12.33333], "texture": "#0"},
				"west": {"uv": [8.66667, 11.33333, 9.66667, 12.33333], "texture": "#0"},
				"up": {"uv": [8.66667, 11.33333, 9.66667, 12.33333], "texture": "#0"},
				"down": {"uv": [8.66667, 11.33333, 9.66667, 12.33333], "texture": "#0"}
			}
		},
		{
			"name": "hexadecagon",
			"from": [6.55625, 12.86719, 7.42168],
			"to": [7.44375, 13.73281, 8.57832],
			"rotation": {"angle": 0, "axis": "y", "origin": [7, 13.3, 8]},
			"faces": {
				"north": {"uv": [8.66667, 11.33333, 9.66667, 12.33333], "texture": "#0"},
				"east": {"uv": [8.66667, 11.33333, 9.66667, 12.33333], "texture": "#0"},
				"south": {"uv": [8.66667, 11.33333, 9.66667, 12.33333], "texture": "#0"},
				"west": {"uv": [8.66667, 11.33333, 9.66667, 12.33333], "texture": "#0"},
				"up": {"uv": [8.66667, 11.33333, 9.66667, 12.33333], "texture": "#0"},
				"down": {"uv": [8.66667, 11.33333, 9.66667, 12.33333], "texture": "#0"}
			}
		}
	],
	"display": {
		"thirdperson_righthand": {
			"rotation": [65, 0, 0],
			"translation": [1.25, -4.25, -5]
		},
		"thirdperson_lefthand": {
			"rotation": [65, 0, 0],
			"translation": [-1.25, -4.25, -5]
		},
		"firstperson_righthand": {
			"translation": [0, -2.25, 2]
		},
		"firstperson_lefthand": {
			"translation": [0, -2.25, 2]
		},
		"ground": {
			"rotation": [90, -45, 90],
			"translation": [0, 1, 0]
		},
		"gui": {
			"rotation": [90, -45, 90],
			"scale": [2, 2, 2]
		},
		"fixed": {
			"rotation": [90, -45, 90]
		}
	}
}