# Made in Blockbench 3.4.1
newmtl 2
map_Kd stock.png 
newmtl 3
map_Kd stock2.png 
newmtl 4
map_Kd stock3.png 
newmtl 5
map_Kd stock5.png 
newmtl 6
map_Kd texture1.png 
newmtl 8
map_Kd texture3.png 
newmtl 10
map_Kd texture5.png 
newmtl 11
map_Kd texture6.png 
newmtl none