{
	"credit": "Made with Blockbench",
	"textures": {
		"0": "gci:items/gun_asha/all_in_one",
		"particle": "gci:items/gun_asha/all_in_one"
	},
	"elements": [
		{
			"from": [8.07433, 8.64541, -1.272],
			"to": [8.37833, 8.74141, 0.004],
			"rotation": {"angle": 45, "axis": "z", "origin": [8.14659, 8.56696, -0.634]},
			"faces": {
				"north": {"uv": [3, 3.25, 3, 3.25], "rotation": 270, "texture": "#0"},
				"east": {"uv": [3, 3.25, 3, 3.25], "rotation": 270, "texture": "#0"},
				"south": {"uv": [3, 3.25, 3, 3.25], "rotation": 270, "texture": "#0"},
				"west": {"uv": [3, 3.25, 3, 3.25], "rotation": 270, "texture": "#0"},
				"up": {"uv": [3, 3.25, 3, 3.25], "rotation": 270, "texture": "#0"},
				"down": {"uv": [3, 3.25, 3, 3.25], "rotation": 270, "texture": "#0"}
			}
		},
		{
			"from": [8.1871, 8.75818, -1.272],
			"to": [8.4911, 8.85418, 0.004],
			"rotation": {"angle": 0, "axis": "y", "origin": [8.14659, 8.56696, -0.634]},
			"faces": {
				"north": {"uv": [3, 3.25, 3, 3.25], "rotation": 270, "texture": "#0"},
				"east": {"uv": [3, 3.25, 3, 3.25], "rotation": 270, "texture": "#0"},
				"south": {"uv": [3, 3.25, 3, 3.25], "rotation": 270, "texture": "#0"},
				"west": {"uv": [3, 3.25, 3, 3.25], "rotation": 270, "texture": "#0"},
				"up": {"uv": [3, 3.25, 3, 3.25], "rotation": 270, "texture": "#0"},
				"down": {"uv": [3, 3.25, 3, 3.25], "rotation": 270, "texture": "#0"}
			}
		},
		{
			"from": [8.41264, 8.66476, -1.272],
			"to": [8.71664, 8.76076, 0.004],
			"rotation": {"angle": -45, "axis": "z", "origin": [8.56464, 8.71276, -0.634]},
			"faces": {
				"north": {"uv": [3, 3.25, 3, 3.25], "rotation": 90, "texture": "#0"},
				"east": {"uv": [3, 3.25, 3, 3.25], "rotation": 90, "texture": "#0"},
				"south": {"uv": [3, 3.25, 3, 3.25], "rotation": 90, "texture": "#0"},
				"west": {"uv": [3, 3.25, 3, 3.25], "rotation": 90, "texture": "#0"},
				"up": {"uv": [3, 3.25, 3, 3.25], "rotation": 90, "texture": "#0"},
				"down": {"uv": [3, 3.25, 3, 3.25], "rotation": 90, "texture": "#0"}
			}
		},
		{
			"from": [8.61006, 8.33522, -1.272],
			"to": [8.70606, 8.63922, 0.004],
			"rotation": {"angle": 0, "axis": "y", "origin": [8.65806, 8.48722, -0.634]},
			"faces": {
				"north": {"uv": [3, 3.25, 3, 3.25], "rotation": 180, "texture": "#0"},
				"east": {"uv": [3, 3.25, 3, 3.25], "texture": "#0"},
				"south": {"uv": [3, 3.25, 3, 3.25], "texture": "#0"},
				"west": {"uv": [3, 3.25, 3, 3.25], "texture": "#0"},
				"up": {"uv": [3, 3.25, 3, 3.25], "texture": "#0"},
				"down": {"uv": [3, 3.25, 3, 3.25], "texture": "#0"}
			}
		},
		{
			"from": [8.51664, 8.10968, -1.272],
			"to": [8.61264, 8.41368, 0.004],
			"rotation": {"angle": -45, "axis": "z", "origin": [8.56464, 8.26168, -0.634]},
			"faces": {
				"north": {"uv": [3, 3.25, 3, 3.25], "rotation": 180, "texture": "#0"},
				"east": {"uv": [3, 3.25, 3, 3.25], "texture": "#0"},
				"south": {"uv": [3, 3.25, 3, 3.25], "texture": "#0"},
				"west": {"uv": [3, 3.25, 3, 3.25], "texture": "#0"},
				"up": {"uv": [3, 3.25, 3, 3.25], "texture": "#0"},
				"down": {"uv": [3, 3.25, 3, 3.25], "texture": "#0"}
			}
		},
		{
			"from": [8.1871, 8.12026, -1.272],
			"to": [8.4911, 8.21626, 0.004],
			"rotation": {"angle": 0, "axis": "y", "origin": [8.3391, 8.16826, -0.634]},
			"faces": {
				"north": {"uv": [3, 3.25, 3, 3.25], "rotation": 90, "texture": "#0"},
				"east": {"uv": [3, 3.25, 3, 3.25], "rotation": 90, "texture": "#0"},
				"south": {"uv": [3, 3.25, 3, 3.25], "rotation": 90, "texture": "#0"},
				"west": {"uv": [3, 3.25, 3, 3.25], "rotation": 90, "texture": "#0"},
				"up": {"uv": [3, 3.25, 3, 3.25], "rotation": 90, "texture": "#0"},
				"down": {"uv": [3, 3.25, 3, 3.25], "rotation": 90, "texture": "#0"}
			}
		},
		{
			"from": [7.85937, 8.22245, -1.272],
			"to": [7.95537, 8.52645, 0.004],
			"rotation": {"angle": 45, "axis": "z", "origin": [8.14659, 8.56696, -0.634]},
			"faces": {
				"north": {"uv": [3, 3.25, 3, 3.25], "rotation": 180, "texture": "#0"},
				"east": {"uv": [3, 3.25, 3, 3.25], "texture": "#0"},
				"south": {"uv": [3, 3.25, 3, 3.25], "texture": "#0"},
				"west": {"uv": [3, 3.25, 3, 3.25], "texture": "#0"},
				"up": {"uv": [3, 3.25, 3, 3.25], "texture": "#0"},
				"down": {"uv": [3, 3.25, 3, 3.25], "texture": "#0"}
			}
		},
		{
			"from": [7.97214, 8.33522, -1.272],
			"to": [8.06814, 8.63922, 0.004],
			"rotation": {"angle": 0, "axis": "y", "origin": [8.14659, 8.56696, -0.634]},
			"faces": {
				"north": {"uv": [3, 3.25, 3, 3.25], "texture": "#0"},
				"east": {"uv": [3, 3.25, 3, 3.25], "rotation": 180, "texture": "#0"},
				"south": {"uv": [3, 3.25, 3, 3.25], "rotation": 180, "texture": "#0"},
				"west": {"uv": [3, 3.25, 3, 3.25], "rotation": 180, "texture": "#0"},
				"up": {"uv": [3, 3.25, 3, 3.25], "rotation": 180, "texture": "#0"},
				"down": {"uv": [3, 3.25, 3, 3.25], "rotation": 180, "texture": "#0"}
			}
		},
		{
			"from": [8.1231, 8.21626, -1.24],
			"to": [8.5551, 8.76026, -1.18],
			"rotation": {"angle": 0, "axis": "y", "origin": [8.3391, 8.26426, -0.634]},
			"faces": {
				"north": {"uv": [0.875, 12.75, 0.875, 12.75], "rotation": 90, "texture": "#0"},
				"east": {"uv": [3, 3.25, 3, 3.25], "rotation": 90, "texture": "#0"},
				"south": {"uv": [3, 3.25, 3, 3.25], "rotation": 90, "texture": "#0"},
				"west": {"uv": [3, 3.25, 3, 3.25], "rotation": 90, "texture": "#0"},
				"up": {"uv": [3, 3.25, 3, 3.25], "rotation": 90, "texture": "#0"},
				"down": {"uv": [3, 3.25, 3, 3.25], "rotation": 90, "texture": "#0"}
			}
		},
		{
			"from": [8.0671, 8.27226, -1.24],
			"to": [8.6111, 8.70426, -1.18],
			"rotation": {"angle": 0, "axis": "y", "origin": [8.3391, 8.48826, -1.21]},
			"faces": {
				"north": {"uv": [0.875, 12.75, 0.875, 12.75], "rotation": 180, "texture": "#0"},
				"east": {"uv": [3, 3.25, 3, 3.25], "texture": "#0"},
				"south": {"uv": [3, 3.25, 3, 3.25], "texture": "#0"},
				"west": {"uv": [3, 3.25, 3, 3.25], "texture": "#0"},
				"up": {"uv": [3, 3.25, 3, 3.25], "texture": "#0"},
				"down": {"uv": [3, 3.25, 3, 3.25], "texture": "#0"}
			}
		},
		{
			"from": [8.1231, 8.21626, -0.088],
			"to": [8.5551, 8.76026, 0.004],
			"rotation": {"angle": 0, "axis": "y", "origin": [8.3391, 8.16826, -0.634]},
			"faces": {
				"north": {"uv": [3, 3.25, 3, 3.25], "rotation": 90, "texture": "#0"},
				"east": {"uv": [3, 3.25, 3, 3.25], "rotation": 90, "texture": "#0"},
				"south": {"uv": [3, 3.25, 3, 3.25], "rotation": 90, "texture": "#0"},
				"west": {"uv": [3, 3.25, 3, 3.25], "rotation": 90, "texture": "#0"},
				"up": {"uv": [3, 3.25, 3, 3.25], "rotation": 90, "texture": "#0"},
				"down": {"uv": [3, 3.25, 3, 3.25], "rotation": 90, "texture": "#0"}
			}
		},
		{
			"from": [8.0671, 8.27226, -0.088],
			"to": [8.6111, 8.70426, 0.004],
			"rotation": {"angle": 0, "axis": "y", "origin": [8.3391, 8.48826, -0.042]},
			"faces": {
				"north": {"uv": [3, 3.25, 3, 3.25], "texture": "#0"},
				"east": {"uv": [3, 3.25, 3, 3.25], "rotation": 180, "texture": "#0"},
				"south": {"uv": [3, 3.25, 3, 3.25], "rotation": 180, "texture": "#0"},
				"west": {"uv": [3, 3.25, 3, 3.25], "rotation": 180, "texture": "#0"},
				"up": {"uv": [3, 3.25, 3, 3.25], "rotation": 180, "texture": "#0"},
				"down": {"uv": [3, 3.25, 3, 3.25], "rotation": 180, "texture": "#0"}
			}
		},
		{
			"from": [8.70457, 5.75226, -0.32653],
			"to": [8.86057, 7.54426, 0.10547],
			"rotation": {"angle": 0, "axis": "y", "origin": [8.78257, 6.64826, -0.11053]},
			"faces": {
				"north": {"uv": [3, 3.25, 3, 3.25], "rotation": 90, "texture": "#0"},
				"east": {"uv": [3, 3.25, 3, 3.25], "rotation": 90, "texture": "#0"},
				"south": {"uv": [3, 3.25, 3, 3.25], "rotation": 90, "texture": "#0"},
				"west": {"uv": [3, 3.25, 3, 3.25], "rotation": 90, "texture": "#0"},
				"up": {"uv": [3, 3.25, 3, 3.25], "rotation": 180, "texture": "#0"},
				"down": {"uv": [3, 3.25, 3, 3.25], "texture": "#0"}
			}
		},
		{
			"from": [8.70457, 5.27226, -0.32653],
			"to": [8.86057, 5.65626, 0.10547],
			"rotation": {"angle": 0, "axis": "y", "origin": [8.78257, 4.69626, -0.11053]},
			"faces": {
				"north": {"uv": [2.875, 3.625, 2.875, 3.625], "rotation": 90, "texture": "#0"},
				"east": {"uv": [2.875, 3.625, 2.875, 3.625], "rotation": 90, "texture": "#0"},
				"south": {"uv": [2.875, 3.625, 2.875, 3.625], "rotation": 90, "texture": "#0"},
				"west": {"uv": [2.875, 3.625, 2.875, 3.625], "rotation": 90, "texture": "#0"},
				"up": {"uv": [2.875, 3.625, 2.875, 3.625], "rotation": 90, "texture": "#0"},
				"down": {"uv": [2.875, 3.625, 2.875, 3.625], "rotation": 90, "texture": "#0"}
			}
		},
		{
			"from": [8.43668, 5.75226, -0.50211],
			"to": [8.86868, 7.54426, -0.34611],
			"rotation": {"angle": -45, "axis": "y", "origin": [8.65268, 6.64826, -0.42411]},
			"faces": {
				"north": {"uv": [3, 3.25, 3, 3.25], "rotation": 90, "texture": "#0"},
				"east": {"uv": [3, 3.25, 3, 3.25], "rotation": 90, "texture": "#0"},
				"south": {"uv": [3, 3.25, 3, 3.25], "rotation": 90, "texture": "#0"},
				"west": {"uv": [3, 3.25, 3, 3.25], "rotation": 90, "texture": "#0"},
				"up": {"uv": [3, 3.25, 3, 3.25], "rotation": 90, "texture": "#0"},
				"down": {"uv": [3, 3.25, 3, 3.25], "rotation": 90, "texture": "#0"}
			}
		},
		{
			"from": [8.43668, 5.27226, -0.50211],
			"to": [8.86868, 5.65626, -0.34611],
			"rotation": {"angle": -45, "axis": "y", "origin": [8.65268, 4.69626, -0.42411]},
			"faces": {
				"north": {"uv": [2.875, 3.625, 2.875, 3.625], "rotation": 90, "texture": "#0"},
				"east": {"uv": [2.875, 3.625, 2.875, 3.625], "rotation": 90, "texture": "#0"},
				"south": {"uv": [2.875, 3.625, 2.875, 3.625], "rotation": 90, "texture": "#0"},
				"west": {"uv": [2.875, 3.625, 2.875, 3.625], "rotation": 90, "texture": "#0"},
				"up": {"uv": [2.875, 3.625, 2.875, 3.625], "rotation": 90, "texture": "#0"},
				"down": {"uv": [2.875, 3.625, 2.875, 3.625], "rotation": 90, "texture": "#0"}
			}
		},
		{
			"from": [7.87075, 5.75226, 0.35947],
			"to": [8.30275, 7.54426, 0.51547],
			"rotation": {"angle": -45, "axis": "y", "origin": [8.3391, 6.64826, 0.24635]},
			"faces": {
				"north": {"uv": [3, 3.25, 3, 3.25], "rotation": 90, "texture": "#0"},
				"east": {"uv": [3, 3.25, 3, 3.25], "rotation": 90, "texture": "#0"},
				"south": {"uv": [3, 3.25, 3, 3.25], "rotation": 90, "texture": "#0"},
				"west": {"uv": [3, 3.25, 3, 3.25], "rotation": 90, "texture": "#0"},
				"up": {"uv": [3, 3.25, 3, 3.25], "rotation": 270, "texture": "#0"},
				"down": {"uv": [3, 3.25, 3, 3.25], "rotation": 270, "texture": "#0"}
			}
		},
		{
			"from": [7.87075, 5.27226, 0.35947],
			"to": [8.30275, 5.65626, 0.51547],
			"rotation": {"angle": -45, "axis": "y", "origin": [8.3391, 4.69626, 0.24635]},
			"faces": {
				"north": {"uv": [2.875, 3.625, 2.875, 3.625], "rotation": 90, "texture": "#0"},
				"east": {"uv": [2.875, 3.625, 2.875, 3.625], "rotation": 90, "texture": "#0"},
				"south": {"uv": [2.875, 3.625, 2.875, 3.625], "rotation": 90, "texture": "#0"},
				"west": {"uv": [2.875, 3.625, 2.875, 3.625], "rotation": 90, "texture": "#0"},
				"up": {"uv": [2.875, 3.625, 2.875, 3.625], "rotation": 90, "texture": "#0"},
				"down": {"uv": [2.875, 3.625, 2.875, 3.625], "rotation": 90, "texture": "#0"}
			}
		},
		{
			"from": [8.1231, 5.75226, -0.632],
			"to": [8.5551, 7.54426, -0.476],
			"rotation": {"angle": 0, "axis": "y", "origin": [8.323, 7.74135, -2.34382]},
			"faces": {
				"north": {"uv": [3, 3.25, 3, 3.25], "rotation": 90, "texture": "#0"},
				"east": {"uv": [3, 3.25, 3, 3.25], "rotation": 90, "texture": "#0"},
				"south": {"uv": [3, 3.25, 3, 3.25], "rotation": 90, "texture": "#0"},
				"west": {"uv": [3, 3.25, 3, 3.25], "rotation": 90, "texture": "#0"},
				"up": {"uv": [3, 3.25, 3, 3.25], "rotation": 90, "texture": "#0"},
				"down": {"uv": [3, 3.25, 3, 3.25], "rotation": 90, "texture": "#0"}
			}
		},
		{
			"from": [8.1231, 5.27226, -0.632],
			"to": [8.5551, 5.65626, -0.476],
			"rotation": {"angle": 0, "axis": "y", "origin": [8.323, 5.78935, -2.34382]},
			"faces": {
				"north": {"uv": [2.875, 3.625, 2.875, 3.625], "rotation": 90, "texture": "#0"},
				"east": {"uv": [2.875, 3.625, 2.875, 3.625], "rotation": 90, "texture": "#0"},
				"south": {"uv": [2.875, 3.625, 2.875, 3.625], "rotation": 90, "texture": "#0"},
				"west": {"uv": [2.875, 3.625, 2.875, 3.625], "rotation": 90, "texture": "#0"},
				"up": {"uv": [2.875, 3.625, 2.875, 3.625], "rotation": 90, "texture": "#0"},
				"down": {"uv": [2.875, 3.625, 2.875, 3.625], "rotation": 90, "texture": "#0"}
			}
		},
		{
			"from": [8.1231, 5.75226, 0.25494],
			"to": [8.5551, 7.54426, 0.41094],
			"rotation": {"angle": 0, "axis": "y", "origin": [8.3391, 6.64826, 0.24635]},
			"faces": {
				"north": {"uv": [3, 3.25, 3, 3.25], "rotation": 90, "texture": "#0"},
				"east": {"uv": [3, 3.25, 3, 3.25], "rotation": 90, "texture": "#0"},
				"south": {"uv": [3, 3.25, 3, 3.25], "rotation": 90, "texture": "#0"},
				"west": {"uv": [3, 3.25, 3, 3.25], "rotation": 90, "texture": "#0"},
				"up": {"uv": [3, 3.25, 3, 3.25], "rotation": 270, "texture": "#0"},
				"down": {"uv": [3, 3.25, 3, 3.25], "rotation": 270, "texture": "#0"}
			}
		},
		{
			"from": [8.1231, 5.27226, 0.25494],
			"to": [8.5551, 5.65626, 0.41094],
			"rotation": {"angle": 0, "axis": "y", "origin": [8.3391, 4.69626, 0.24635]},
			"faces": {
				"north": {"uv": [2.875, 3.625, 2.875, 3.625], "rotation": 90, "texture": "#0"},
				"east": {"uv": [2.875, 3.625, 2.875, 3.625], "rotation": 90, "texture": "#0"},
				"south": {"uv": [2.875, 3.625, 2.875, 3.625], "rotation": 90, "texture": "#0"},
				"west": {"uv": [2.875, 3.625, 2.875, 3.625], "rotation": 90, "texture": "#0"},
				"up": {"uv": [2.875, 3.625, 2.875, 3.625], "rotation": 90, "texture": "#0"},
				"down": {"uv": [2.875, 3.625, 2.875, 3.625], "rotation": 90, "texture": "#0"}
			}
		},
		{
			"from": [7.81763, 5.75226, -0.32653],
			"to": [7.97363, 7.54426, 0.10547],
			"rotation": {"angle": 0, "axis": "y", "origin": [7.89563, 6.64826, -0.11053]},
			"faces": {
				"north": {"uv": [3, 3.25, 3, 3.25], "rotation": 90, "texture": "#0"},
				"east": {"uv": [3, 3.25, 3, 3.25], "rotation": 90, "texture": "#0"},
				"south": {"uv": [3, 3.25, 3, 3.25], "rotation": 90, "texture": "#0"},
				"west": {"uv": [3, 3.25, 3, 3.25], "rotation": 90, "texture": "#0"},
				"up": {"uv": [3, 3.25, 3, 3.25], "texture": "#0"},
				"down": {"uv": [3, 3.25, 3, 3.25], "rotation": 180, "texture": "#0"}
			}
		},
		{
			"from": [7.91363, 5.75226, -0.29453],
			"to": [8.06963, 7.54426, 0.07347],
			"rotation": {"angle": 0, "axis": "y", "origin": [7.99163, 6.64826, -0.14253]},
			"faces": {
				"north": {"uv": [3, 3.25, 3, 3.25], "rotation": 90, "texture": "#0"},
				"east": {"uv": [3, 3.25, 3, 3.25], "rotation": 90, "texture": "#0"},
				"south": {"uv": [3, 3.25, 3, 3.25], "rotation": 90, "texture": "#0"},
				"west": {"uv": [3, 3.25, 3, 3.25], "rotation": 90, "texture": "#0"},
				"up": {"uv": [3, 3.25, 3, 3.25], "texture": "#0"},
				"down": {"uv": [3, 3.25, 3, 3.25], "rotation": 180, "texture": "#0"}
			}
		},
		{
			"from": [8.04352, 5.36826, -0.54411],
			"to": [8.80752, 7.96026, -0.17611],
			"rotation": {"angle": -45, "axis": "y", "origin": [8.12152, 6.64826, -0.39211]},
			"faces": {
				"north": {"uv": [7.25, 12, 7.25, 12], "texture": "#0"},
				"east": {"uv": [7.25, 12, 7.25, 12], "texture": "#0"},
				"south": {"uv": [7.25, 12, 7.25, 12], "texture": "#0"},
				"west": {"uv": [7.25, 12, 7.25, 12], "texture": "#0"},
				"up": {"uv": [7.25, 12, 7.25, 12], "texture": "#0"},
				"down": {"uv": [7.25, 12, 7.25, 12], "texture": "#0"}
			}
		},
		{
			"from": [8.35695, 5.36826, 0.17769],
			"to": [8.72495, 7.96026, 0.33369],
			"rotation": {"angle": 45, "axis": "y", "origin": [8.4494, 6.64826, 0.1105]},
			"faces": {
				"north": {"uv": [7.25, 12, 7.25, 12], "rotation": 270, "texture": "#0"},
				"east": {"uv": [7.25, 12, 7.25, 12], "rotation": 270, "texture": "#0"},
				"south": {"uv": [7.25, 12, 7.25, 12], "rotation": 270, "texture": "#0"},
				"west": {"uv": [7.25, 12, 7.25, 12], "rotation": 270, "texture": "#0"},
				"up": {"uv": [7.25, 12, 7.25, 12], "rotation": 270, "texture": "#0"},
				"down": {"uv": [7.25, 12, 7.25, 12], "rotation": 270, "texture": "#0"}
			}
		},
		{
			"from": [7.94017, 5.36826, -0.54411],
			"to": [8.67217, 7.96026, -0.17611],
			"rotation": {"angle": 45, "axis": "y", "origin": [8.59417, 6.64826, -0.39211]},
			"faces": {
				"north": {"uv": [7.25, 12, 7.25, 12], "texture": "#0"},
				"east": {"uv": [7.25, 12, 7.25, 12], "texture": "#0"},
				"south": {"uv": [7.25, 12, 7.25, 12], "texture": "#0"},
				"west": {"uv": [7.25, 12, 7.25, 12], "texture": "#0"},
				"up": {"uv": [7.25, 12, 7.25, 12], "texture": "#0"},
				"down": {"uv": [7.25, 12, 7.25, 12], "texture": "#0"}
			}
		},
		{
			"from": [8.09674, 5.36826, -0.29453],
			"to": [8.25274, 7.96026, 0.07347],
			"rotation": {"angle": 45, "axis": "y", "origin": [8.4494, 6.64826, 0.1105]},
			"faces": {
				"north": {"uv": [7.25, 12, 7.25, 12], "rotation": 180, "texture": "#0"},
				"east": {"uv": [7.25, 12, 7.25, 12], "rotation": 180, "texture": "#0"},
				"south": {"uv": [7.25, 12, 7.25, 12], "rotation": 180, "texture": "#0"},
				"west": {"uv": [7.25, 12, 7.25, 12], "rotation": 180, "texture": "#0"},
				"up": {"uv": [7.25, 12, 7.25, 12], "rotation": 180, "texture": "#0"},
				"down": {"uv": [7.25, 12, 7.25, 12], "rotation": 180, "texture": "#0"}
			}
		},
		{
			"from": [7.91363, 5.36826, -0.29453],
			"to": [8.06963, 7.96026, 0.07347],
			"rotation": {"angle": 0, "axis": "y", "origin": [7.99163, 6.64826, -0.14253]},
			"faces": {
				"north": {"uv": [7.25, 12, 7.25, 12], "texture": "#0"},
				"east": {"uv": [7.25, 12, 7.25, 12], "texture": "#0"},
				"south": {"uv": [7.25, 12, 7.25, 12], "texture": "#0"},
				"west": {"uv": [7.25, 12, 7.25, 12], "texture": "#0"},
				"up": {"uv": [7.25, 12, 7.25, 12], "texture": "#0"},
				"down": {"uv": [7.25, 12, 7.25, 12], "texture": "#0"}
			}
		},
		{
			"from": [8.00606, 5.36826, -0.29453],
			"to": [8.80206, 7.96026, 0.07347],
			"rotation": {"angle": 0, "axis": "y", "origin": [8.4494, 6.64826, 0.1105]},
			"faces": {
				"north": {"uv": [7.25, 12, 7.25, 12], "rotation": 180, "texture": "#0"},
				"east": {"uv": [7.25, 12, 7.25, 12], "rotation": 180, "texture": "#0"},
				"south": {"uv": [7.25, 12, 7.25, 12], "rotation": 180, "texture": "#0"},
				"west": {"uv": [7.25, 12, 7.25, 12], "rotation": 180, "texture": "#0"},
				"up": {"uv": [7.25, 12, 7.25, 12], "rotation": 180, "texture": "#0"},
				"down": {"uv": [7.25, 12, 7.25, 12], "rotation": 180, "texture": "#0"}
			}
		},
		{
			"from": [8.17385, 5.36826, -0.55475],
			"to": [8.54185, 7.96026, 0.17725],
			"rotation": {"angle": 0, "axis": "y", "origin": [8.32585, 6.64826, -0.47675]},
			"faces": {
				"north": {"uv": [7.25, 12, 7.25, 12], "rotation": 270, "texture": "#0"},
				"east": {"uv": [7.25, 12, 7.25, 12], "rotation": 270, "texture": "#0"},
				"south": {"uv": [7.25, 12, 7.25, 12], "rotation": 270, "texture": "#0"},
				"west": {"uv": [7.25, 12, 7.25, 12], "rotation": 270, "texture": "#0"},
				"up": {"uv": [7.25, 12, 7.25, 12], "rotation": 270, "texture": "#0"},
				"down": {"uv": [7.25, 12, 7.25, 12], "rotation": 270, "texture": "#0"}
			}
		},
		{
			"from": [8.17385, 5.36826, 0.17769],
			"to": [8.54185, 7.96026, 0.33369],
			"rotation": {"angle": 0, "axis": "y", "origin": [8.4494, 6.64826, 0.1105]},
			"faces": {
				"north": {"uv": [7.25, 12, 7.25, 12], "rotation": 90, "texture": "#0"},
				"east": {"uv": [7.25, 12, 7.25, 12], "rotation": 90, "texture": "#0"},
				"south": {"uv": [7.25, 12, 7.25, 12], "rotation": 90, "texture": "#0"},
				"west": {"uv": [7.25, 12, 7.25, 12], "rotation": 90, "texture": "#0"},
				"up": {"uv": [7.25, 12, 7.25, 12], "rotation": 90, "texture": "#0"},
				"down": {"uv": [7.25, 12, 7.25, 12], "rotation": 90, "texture": "#0"}
			}
		},
		{
			"from": [7.81763, 5.27226, -0.32653],
			"to": [7.97363, 5.65626, 0.10547],
			"rotation": {"angle": 0, "axis": "y", "origin": [7.89563, 4.69626, -0.11053]},
			"faces": {
				"north": {"uv": [2.875, 3.625, 2.875, 3.625], "rotation": 90, "texture": "#0"},
				"east": {"uv": [2.875, 3.625, 2.875, 3.625], "rotation": 90, "texture": "#0"},
				"south": {"uv": [2.875, 3.625, 2.875, 3.625], "rotation": 90, "texture": "#0"},
				"west": {"uv": [2.875, 3.625, 2.875, 3.625], "rotation": 90, "texture": "#0"},
				"up": {"uv": [2.875, 3.625, 2.875, 3.625], "rotation": 90, "texture": "#0"},
				"down": {"uv": [2.875, 3.625, 2.875, 3.625], "rotation": 90, "texture": "#0"}
			}
		},
		{
			"from": [7.94752, 5.75226, -0.64011],
			"to": [8.10352, 7.54426, -0.20811],
			"rotation": {"angle": -45, "axis": "y", "origin": [8.02552, 6.64826, -0.42411]},
			"faces": {
				"north": {"uv": [3, 3.25, 3, 3.25], "rotation": 90, "texture": "#0"},
				"east": {"uv": [3, 3.25, 3, 3.25], "rotation": 90, "texture": "#0"},
				"south": {"uv": [3, 3.25, 3, 3.25], "rotation": 90, "texture": "#0"},
				"west": {"uv": [3, 3.25, 3, 3.25], "rotation": 90, "texture": "#0"},
				"up": {"uv": [3, 3.25, 3, 3.25], "texture": "#0"},
				"down": {"uv": [3, 3.25, 3, 3.25], "rotation": 180, "texture": "#0"}
			}
		},
		{
			"from": [7.94752, 5.27226, -0.64011],
			"to": [8.10352, 5.65626, -0.20811],
			"rotation": {"angle": -45, "axis": "y", "origin": [8.02552, 4.69626, -0.42411]},
			"faces": {
				"north": {"uv": [2.875, 3.625, 2.875, 3.625], "rotation": 90, "texture": "#0"},
				"east": {"uv": [2.875, 3.625, 2.875, 3.625], "rotation": 90, "texture": "#0"},
				"south": {"uv": [2.875, 3.625, 2.875, 3.625], "rotation": 90, "texture": "#0"},
				"west": {"uv": [2.875, 3.625, 2.875, 3.625], "rotation": 90, "texture": "#0"},
				"up": {"uv": [2.875, 3.625, 2.875, 3.625], "rotation": 90, "texture": "#0"},
				"down": {"uv": [2.875, 3.625, 2.875, 3.625], "rotation": 90, "texture": "#0"}
			}
		},
		{
			"from": [8.45222, 5.75226, -0.222],
			"to": [8.60822, 7.54426, 0.21],
			"rotation": {"angle": -45, "axis": "y", "origin": [8.3391, 6.64826, 0.24635]},
			"faces": {
				"north": {"uv": [3, 3.25, 3, 3.25], "rotation": 90, "texture": "#0"},
				"east": {"uv": [3, 3.25, 3, 3.25], "rotation": 90, "texture": "#0"},
				"south": {"uv": [3, 3.25, 3, 3.25], "rotation": 90, "texture": "#0"},
				"west": {"uv": [3, 3.25, 3, 3.25], "rotation": 90, "texture": "#0"},
				"up": {"uv": [3, 3.25, 3, 3.25], "rotation": 180, "texture": "#0"},
				"down": {"uv": [3, 3.25, 3, 3.25], "texture": "#0"}
			}
		},
		{
			"from": [8.45222, 5.27226, -0.222],
			"to": [8.60822, 5.65626, 0.21],
			"rotation": {"angle": -45, "axis": "y", "origin": [8.3391, 4.69626, 0.24635]},
			"faces": {
				"north": {"uv": [2.875, 3.625, 2.875, 3.625], "rotation": 90, "texture": "#0"},
				"east": {"uv": [2.875, 3.625, 2.875, 3.625], "rotation": 90, "texture": "#0"},
				"south": {"uv": [2.875, 3.625, 2.875, 3.625], "rotation": 90, "texture": "#0"},
				"west": {"uv": [2.875, 3.625, 2.875, 3.625], "rotation": 90, "texture": "#0"},
				"up": {"uv": [2.875, 3.625, 2.875, 3.625], "rotation": 90, "texture": "#0"},
				"down": {"uv": [2.875, 3.625, 2.875, 3.625], "rotation": 90, "texture": "#0"}
			}
		},
		{
			"from": [7.9631, 7.96026, -0.76],
			"to": [8.7151, 8.21626, 0.548],
			"rotation": {"angle": 0, "axis": "y", "origin": [8.323, 8.12535, -2.24782]},
			"faces": {
				"north": {"uv": [7.375, 12.375, 7.375, 12.375], "rotation": 90, "texture": "#0"},
				"east": {"uv": [7.375, 12.375, 7.375, 12.375], "rotation": 90, "texture": "#0"},
				"south": {"uv": [7.375, 12.375, 7.375, 12.375], "rotation": 90, "texture": "#0"},
				"west": {"uv": [7.375, 12.375, 7.375, 12.375], "rotation": 90, "texture": "#0"},
				"up": {"uv": [7.375, 12.375, 7.375, 12.375], "rotation": 90, "texture": "#0"},
				"down": {"uv": [7.375, 12.375, 7.375, 12.375], "rotation": 90, "texture": "#0"}
			}
		},
		{
			"from": [7.9631, 7.99226, 0.168],
			"to": [8.7151, 8.85626, 0.548],
			"rotation": {"angle": 0, "axis": "y", "origin": [8.323, 8.12535, -2.24782]},
			"faces": {
				"north": {"uv": [7.375, 12.375, 7.375, 12.375], "rotation": 90, "texture": "#0"},
				"east": {"uv": [7.375, 12.375, 7.375, 12.375], "rotation": 90, "texture": "#0"},
				"south": {"uv": [7.375, 12.375, 7.375, 12.375], "rotation": 90, "texture": "#0"},
				"west": {"uv": [7.375, 12.375, 7.375, 12.375], "rotation": 90, "texture": "#0"},
				"up": {"uv": [7.375, 12.375, 7.375, 12.375], "rotation": 90, "texture": "#0"},
				"down": {"uv": [7.375, 12.375, 7.375, 12.375], "rotation": 90, "texture": "#0"}
			}
		},
		{
			"from": [8.38757, 7.98903, -0.76],
			"to": [8.72357, 8.46903, 0.548],
			"rotation": {"angle": -22.5, "axis": "z", "origin": [8.65157, 8.00503, -0.122]},
			"faces": {
				"north": {"uv": [7.375, 12.375, 7.375, 12.375], "rotation": 90, "texture": "#0"},
				"east": {"uv": [7.375, 12.375, 7.375, 12.375], "rotation": 90, "texture": "#0"},
				"south": {"uv": [7.375, 12.375, 7.375, 12.375], "rotation": 90, "texture": "#0"},
				"west": {"uv": [7.375, 12.375, 7.375, 12.375], "rotation": 90, "texture": "#0"},
				"up": {"uv": [7.375, 12.375, 7.375, 12.375], "rotation": 90, "texture": "#0"},
				"down": {"uv": [7.375, 12.375, 7.375, 12.375], "rotation": 90, "texture": "#0"}
			}
		},
		{
			"from": [8.75166, 8.40616, -0.76],
			"to": [8.89566, 8.82216, 0.548],
			"rotation": {"angle": 0, "axis": "y", "origin": [8.82366, 8.87016, -0.122]},
			"faces": {
				"north": {"uv": [7.375, 12.375, 7.375, 12.375], "rotation": 90, "texture": "#0"},
				"east": {"uv": [7.375, 12.375, 7.375, 12.375], "rotation": 90, "texture": "#0"},
				"south": {"uv": [7.375, 12.375, 7.375, 12.375], "rotation": 90, "texture": "#0"},
				"west": {"uv": [7.375, 12.375, 7.375, 12.375], "rotation": 90, "texture": "#0"},
				"up": {"uv": [7.375, 12.375, 7.375, 12.375], "rotation": 90, "texture": "#0"},
				"down": {"uv": [7.375, 12.375, 7.375, 12.375], "rotation": 90, "texture": "#0"}
			}
		},
		{
			"from": [7.75966, 8.66216, -0.664],
			"to": [8.92766, 8.75816, 0.452],
			"rotation": {"angle": 0, "axis": "y", "origin": [8.85566, 8.87016, -0.122]},
			"faces": {
				"north": {"uv": [7.5, 10.75, 7.5, 10.75], "rotation": 90, "texture": "#0"},
				"east": {"uv": [7.5, 10.75, 7.5, 10.75], "rotation": 90, "texture": "#0"},
				"south": {"uv": [7.5, 10.75, 7.5, 10.75], "rotation": 90, "texture": "#0"},
				"west": {"uv": [7.5, 10.75, 7.5, 10.75], "rotation": 90, "texture": "#0"},
				"up": {"uv": [7.5, 10.75, 7.5, 10.75], "rotation": 90, "texture": "#0"},
				"down": {"uv": [7.5, 10.75, 7.5, 10.75], "rotation": 90, "texture": "#0"}
			}
		},
		{
			"from": [7.79166, 8.47016, -0.664],
			"to": [8.51166, 8.56616, 0.452],
			"rotation": {"angle": 22.5, "axis": "z", "origin": [8.37566, 8.42216, -0.106]},
			"faces": {
				"north": {"uv": [7.5, 10.75, 7.5, 10.75], "rotation": 90, "texture": "#0"},
				"east": {"uv": [7.5, 10.75, 7.5, 10.75], "rotation": 90, "texture": "#0"},
				"south": {"uv": [7.5, 10.75, 7.5, 10.75], "rotation": 90, "texture": "#0"},
				"west": {"uv": [7.5, 10.75, 7.5, 10.75], "rotation": 90, "texture": "#0"},
				"up": {"uv": [7.5, 10.75, 7.5, 10.75], "rotation": 90, "texture": "#0"},
				"down": {"uv": [7.5, 10.75, 7.5, 10.75], "rotation": 90, "texture": "#0"}
			}
		},
		{
			"from": [8.16071, 8.41644, -0.664],
			"to": [8.88071, 8.51244, 0.452],
			"rotation": {"angle": -22.5, "axis": "z", "origin": [8.52071, 8.36844, -0.106]},
			"faces": {
				"north": {"uv": [7.5, 10.75, 7.5, 10.75], "rotation": 90, "texture": "#0"},
				"east": {"uv": [7.5, 10.75, 7.5, 10.75], "rotation": 90, "texture": "#0"},
				"south": {"uv": [7.5, 10.75, 7.5, 10.75], "rotation": 90, "texture": "#0"},
				"west": {"uv": [7.5, 10.75, 7.5, 10.75], "rotation": 90, "texture": "#0"},
				"up": {"uv": [7.5, 10.75, 7.5, 10.75], "rotation": 90, "texture": "#0"},
				"down": {"uv": [7.5, 10.75, 7.5, 10.75], "rotation": 90, "texture": "#0"}
			}
		},
		{
			"from": [7.75966, 8.47016, -0.664],
			"to": [8.92766, 8.56616, 0.452],
			"rotation": {"angle": 0, "axis": "y", "origin": [8.85566, 8.67816, -0.122]},
			"faces": {
				"north": {"uv": [7.5, 10.75, 7.5, 10.75], "rotation": 90, "texture": "#0"},
				"east": {"uv": [7.5, 10.75, 7.5, 10.75], "rotation": 90, "texture": "#0"},
				"south": {"uv": [7.5, 10.75, 7.5, 10.75], "rotation": 90, "texture": "#0"},
				"west": {"uv": [7.5, 10.75, 7.5, 10.75], "rotation": 90, "texture": "#0"},
				"up": {"uv": [7.5, 10.75, 7.5, 10.75], "rotation": 90, "texture": "#0"},
				"down": {"uv": [7.5, 10.75, 7.5, 10.75], "rotation": 90, "texture": "#0"}
			}
		},
		{
			"from": [7.79166, 8.27816, -0.664],
			"to": [8.51166, 8.37416, 0.452],
			"rotation": {"angle": 22.5, "axis": "z", "origin": [8.37566, 8.42216, -0.106]},
			"faces": {
				"north": {"uv": [7.5, 10.75, 7.5, 10.75], "rotation": 90, "texture": "#0"},
				"east": {"uv": [7.5, 10.75, 7.5, 10.75], "rotation": 90, "texture": "#0"},
				"south": {"uv": [7.5, 10.75, 7.5, 10.75], "rotation": 90, "texture": "#0"},
				"west": {"uv": [7.5, 10.75, 7.5, 10.75], "rotation": 90, "texture": "#0"},
				"up": {"uv": [7.5, 10.75, 7.5, 10.75], "rotation": 90, "texture": "#0"},
				"down": {"uv": [7.5, 10.75, 7.5, 10.75], "rotation": 90, "texture": "#0"}
			}
		},
		{
			"from": [8.16071, 8.22444, -0.664],
			"to": [8.88071, 8.32044, 0.452],
			"rotation": {"angle": -22.5, "axis": "z", "origin": [8.52071, 8.36844, -0.106]},
			"faces": {
				"north": {"uv": [7.5, 10.75, 7.5, 10.75], "rotation": 90, "texture": "#0"},
				"east": {"uv": [7.5, 10.75, 7.5, 10.75], "rotation": 90, "texture": "#0"},
				"south": {"uv": [7.5, 10.75, 7.5, 10.75], "rotation": 90, "texture": "#0"},
				"west": {"uv": [7.5, 10.75, 7.5, 10.75], "rotation": 90, "texture": "#0"},
				"up": {"uv": [7.5, 10.75, 7.5, 10.75], "rotation": 90, "texture": "#0"},
				"down": {"uv": [7.5, 10.75, 7.5, 10.75], "rotation": 90, "texture": "#0"}
			}
		},
		{
			"from": [7.91545, 8.40339, -0.76],
			"to": [8.76345, 8.85139, 0.548],
			"rotation": {"angle": 0, "axis": "y", "origin": [8.81945, 8.86739, -0.122]},
			"faces": {
				"north": {"uv": [7.375, 12.375, 7.375, 12.375], "rotation": 90, "texture": "#0"},
				"east": {"uv": [7.375, 12.375, 7.375, 12.375], "rotation": 90, "texture": "#0"},
				"south": {"uv": [7.375, 12.375, 7.375, 12.375], "rotation": 90, "texture": "#0"},
				"west": {"uv": [7.375, 12.375, 7.375, 12.375], "rotation": 90, "texture": "#0"},
				"up": {"uv": [7.375, 12.375, 7.375, 12.375], "rotation": 90, "texture": "#0"},
				"down": {"uv": [7.375, 12.375, 7.375, 12.375], "rotation": 90, "texture": "#0"}
			}
		},
		{
			"from": [7.79166, 8.37416, -0.76],
			"to": [7.93566, 8.82216, 0.548],
			"rotation": {"angle": 0, "axis": "y", "origin": [7.86366, 8.83816, -0.122]},
			"faces": {
				"north": {"uv": [7.375, 12.375, 7.375, 12.375], "rotation": 90, "texture": "#0"},
				"east": {"uv": [7.375, 12.375, 7.375, 12.375], "rotation": 90, "texture": "#0"},
				"south": {"uv": [7.375, 12.375, 7.375, 12.375], "rotation": 90, "texture": "#0"},
				"west": {"uv": [7.375, 12.375, 7.375, 12.375], "rotation": 90, "texture": "#0"},
				"up": {"uv": [7.375, 12.375, 7.375, 12.375], "rotation": 90, "texture": "#0"},
				"down": {"uv": [7.375, 12.375, 7.375, 12.375], "rotation": 90, "texture": "#0"}
			}
		},
		{
			"from": [7.79166, 8.82216, -0.76],
			"to": [8.89566, 9.23816, 0.548],
			"rotation": {"angle": 0, "axis": "y", "origin": [7.86366, 8.83816, -0.122]},
			"faces": {
				"north": {"uv": [7.375, 12.375, 7.375, 12.375], "rotation": 90, "texture": "#0"},
				"east": {"uv": [7.375, 12.375, 7.375, 12.375], "rotation": 90, "texture": "#0"},
				"south": {"uv": [7.375, 12.375, 7.375, 12.375], "rotation": 90, "texture": "#0"},
				"west": {"uv": [7.375, 12.375, 7.375, 12.375], "rotation": 90, "texture": "#0"},
				"up": {"uv": [7.375, 12.375, 7.375, 12.375], "rotation": 90, "texture": "#0"},
				"down": {"uv": [7.375, 12.375, 7.375, 12.375], "rotation": 90, "texture": "#0"}
			}
		},
		{
			"from": [7.82366, 8.91816, -0.184],
			"to": [8.92766, 9.11016, 0.004],
			"rotation": {"angle": 45, "axis": "x", "origin": [8.34366, 8.99816, -0.106]},
			"faces": {
				"north": {"uv": [14.5, 6.875, 14.5, 6.875], "rotation": 90, "texture": "#0"},
				"east": {"uv": [14.5, 6.875, 14.5, 6.875], "rotation": 90, "texture": "#0"},
				"south": {"uv": [14.5, 6.875, 14.5, 6.875], "rotation": 90, "texture": "#0"},
				"west": {"uv": [14.5, 6.875, 14.5, 6.875], "rotation": 90, "texture": "#0"},
				"up": {"uv": [14.5, 6.875, 14.5, 6.875], "rotation": 90, "texture": "#0"},
				"down": {"uv": [14.5, 6.875, 14.5, 6.875], "rotation": 90, "texture": "#0"}
			}
		},
		{
			"from": [7.75966, 8.82216, -0.44],
			"to": [7.87166, 9.17416, 0.196],
			"rotation": {"angle": 0, "axis": "y", "origin": [7.86366, 8.83816, -0.122]},
			"faces": {
				"north": {"uv": [7.5, 10.25, 7.5, 10.25], "rotation": 90, "texture": "#0"},
				"east": {"uv": [7.5, 10.25, 7.5, 10.25], "rotation": 90, "texture": "#0"},
				"south": {"uv": [7.5, 10.25, 7.5, 10.25], "rotation": 90, "texture": "#0"},
				"west": {"uv": [7.75, 10.25, 7.75, 10.25], "rotation": 90, "texture": "#0"},
				"up": {"uv": [7.375, 10.5, 7.375, 10.5], "rotation": 90, "texture": "#0"},
				"down": {"uv": [7.5, 10.25, 7.5, 10.25], "rotation": 90, "texture": "#0"}
			}
		},
		{
			"from": [7.66366, 8.85846, -0.26413],
			"to": [7.77566, 8.95446, 0.01987],
			"rotation": {"angle": 0, "axis": "y", "origin": [7.86366, 8.81046, -0.10613]},
			"faces": {
				"north": {"uv": [6.75, 11.875, 6.75, 11.875], "rotation": 90, "texture": "#0"},
				"east": {"uv": [6.75, 11.875, 6.75, 11.875], "rotation": 90, "texture": "#0"},
				"south": {"uv": [6.75, 11.875, 6.75, 11.875], "rotation": 90, "texture": "#0"},
				"west": {"uv": [7.5, 10.5, 7.5, 10.5], "rotation": 90, "texture": "#0"},
				"up": {"uv": [6.75, 11.875, 6.75, 11.875], "rotation": 90, "texture": "#0"},
				"down": {"uv": [6.75, 11.875, 6.75, 11.875], "rotation": 90, "texture": "#0"}
			}
		},
		{
			"from": [7.66366, 9.04186, -0.26413],
			"to": [7.77566, 9.13786, 0.01987],
			"rotation": {"angle": 0, "axis": "y", "origin": [7.86366, 8.86586, -0.10613]},
			"faces": {
				"north": {"uv": [6.75, 11.875, 6.75, 11.875], "rotation": 90, "texture": "#0"},
				"east": {"uv": [6.75, 11.875, 6.75, 11.875], "rotation": 90, "texture": "#0"},
				"south": {"uv": [6.75, 11.875, 6.75, 11.875], "rotation": 90, "texture": "#0"},
				"west": {"uv": [7.5, 10.5, 7.5, 10.5], "rotation": 90, "texture": "#0"},
				"up": {"uv": [6.75, 11.875, 6.75, 11.875], "rotation": 90, "texture": "#0"},
				"down": {"uv": [6.75, 11.875, 6.75, 11.875], "rotation": 90, "texture": "#0"}
			}
		},
		{
			"from": [7.66366, 8.91816, -0.056],
			"to": [7.77566, 9.07816, 0.164],
			"rotation": {"angle": 0, "axis": "y", "origin": [7.86366, 8.83816, -0.122]},
			"faces": {
				"north": {"uv": [6.75, 11.875, 6.75, 11.875], "rotation": 90, "texture": "#0"},
				"east": {"uv": [6.75, 11.875, 6.75, 11.875], "rotation": 90, "texture": "#0"},
				"south": {"uv": [6.75, 11.875, 6.75, 11.875], "rotation": 90, "texture": "#0"},
				"west": {"uv": [7.5, 10.5, 7.5, 10.5], "rotation": 90, "texture": "#0"},
				"up": {"uv": [6.75, 11.875, 6.75, 11.875], "rotation": 90, "texture": "#0"},
				"down": {"uv": [6.75, 11.875, 6.75, 11.875], "rotation": 90, "texture": "#0"}
			}
		},
		{
			"from": [7.66366, 8.91816, -0.408],
			"to": [7.77566, 9.07816, -0.188],
			"rotation": {"angle": 0, "axis": "y", "origin": [7.86366, 8.83816, -0.122]},
			"faces": {
				"north": {"uv": [6.75, 11.875, 6.75, 11.875], "rotation": 90, "texture": "#0"},
				"east": {"uv": [6.75, 11.875, 6.75, 11.875], "rotation": 90, "texture": "#0"},
				"south": {"uv": [6.75, 11.875, 6.75, 11.875], "rotation": 90, "texture": "#0"},
				"west": {"uv": [7.5, 10.5, 7.5, 10.5], "rotation": 90, "texture": "#0"},
				"up": {"uv": [6.75, 11.875, 6.75, 11.875], "rotation": 90, "texture": "#0"},
				"down": {"uv": [6.75, 11.875, 6.75, 11.875], "rotation": 90, "texture": "#0"}
			}
		},
		{
			"from": [7.66366, 8.8148, 0.06039],
			"to": [7.77566, 8.9748, 0.21639],
			"rotation": {"angle": -22.5, "axis": "x", "origin": [7.86366, 8.7348, -0.06961]},
			"faces": {
				"north": {"uv": [6.75, 11.875, 6.75, 11.875], "rotation": 90, "texture": "#0"},
				"east": {"uv": [6.75, 11.875, 6.75, 11.875], "rotation": 90, "texture": "#0"},
				"south": {"uv": [6.75, 11.875, 6.75, 11.875], "rotation": 90, "texture": "#0"},
				"west": {"uv": [7.5, 10.5, 7.5, 10.5], "rotation": 90, "texture": "#0"},
				"up": {"uv": [6.75, 11.875, 6.75, 11.875], "rotation": 90, "texture": "#0"},
				"down": {"uv": [6.75, 11.875, 6.75, 11.875], "rotation": 90, "texture": "#0"}
			}
		},
		{
			"from": [7.66366, 9.00578, 0.03472],
			"to": [7.77566, 9.16578, 0.19072],
			"rotation": {"angle": 22.5, "axis": "x", "origin": [7.71966, 9.18914, -0.04289]},
			"faces": {
				"north": {"uv": [6.75, 11.875, 6.75, 11.875], "rotation": 90, "texture": "#0"},
				"east": {"uv": [6.75, 11.875, 6.75, 11.875], "rotation": 90, "texture": "#0"},
				"south": {"uv": [6.75, 11.875, 6.75, 11.875], "rotation": 90, "texture": "#0"},
				"west": {"uv": [7.5, 10.5, 7.5, 10.5], "rotation": 90, "texture": "#0"},
				"up": {"uv": [6.75, 11.875, 6.75, 11.875], "rotation": 90, "texture": "#0"},
				"down": {"uv": [6.75, 11.875, 6.75, 11.875], "rotation": 90, "texture": "#0"}
			}
		},
		{
			"from": [7.66366, 8.88668, -0.30626],
			"to": [7.77566, 9.04668, -0.15026],
			"rotation": {"angle": -22.5, "axis": "x", "origin": [7.86366, 8.80668, -0.43626]},
			"faces": {
				"north": {"uv": [6.75, 11.875, 6.75, 11.875], "rotation": 90, "texture": "#0"},
				"east": {"uv": [6.75, 11.875, 6.75, 11.875], "rotation": 90, "texture": "#0"},
				"south": {"uv": [6.75, 11.875, 6.75, 11.875], "rotation": 90, "texture": "#0"},
				"west": {"uv": [7.5, 10.5, 7.5, 10.5], "rotation": 90, "texture": "#0"},
				"up": {"uv": [6.75, 11.875, 6.75, 11.875], "rotation": 90, "texture": "#0"},
				"down": {"uv": [6.75, 11.875, 6.75, 11.875], "rotation": 90, "texture": "#0"}
			}
		},
		{
			"from": [7.66366, 8.83054, -0.43472],
			"to": [7.77566, 8.99054, -0.27872],
			"rotation": {"angle": 22.5, "axis": "x", "origin": [7.71966, 8.80718, -0.20111]},
			"faces": {
				"north": {"uv": [6.75, 11.875, 6.75, 11.875], "rotation": 90, "texture": "#0"},
				"east": {"uv": [6.75, 11.875, 6.75, 11.875], "rotation": 90, "texture": "#0"},
				"south": {"uv": [6.75, 11.875, 6.75, 11.875], "rotation": 90, "texture": "#0"},
				"west": {"uv": [7.5, 10.5, 7.5, 10.5], "rotation": 90, "texture": "#0"},
				"up": {"uv": [6.75, 11.875, 6.75, 11.875], "rotation": 90, "texture": "#0"},
				"down": {"uv": [6.75, 11.875, 6.75, 11.875], "rotation": 90, "texture": "#0"}
			}
		},
		{
			"from": [8.15148, 7.89903, -0.76],
			"to": [8.48748, 8.34703, 0.548],
			"rotation": {"angle": 22.5, "axis": "z", "origin": [7.90338, 7.45612, -2.24782]},
			"faces": {
				"north": {"uv": [7.375, 12.375, 7.375, 12.375], "rotation": 90, "texture": "#0"},
				"east": {"uv": [7.375, 12.375, 7.375, 12.375], "rotation": 90, "texture": "#0"},
				"south": {"uv": [7.375, 12.375, 7.375, 12.375], "rotation": 90, "texture": "#0"},
				"west": {"uv": [7.375, 12.375, 7.375, 12.375], "rotation": 90, "texture": "#0"},
				"up": {"uv": [7.375, 12.375, 7.375, 12.375], "rotation": 90, "texture": "#0"},
				"down": {"uv": [7.375, 12.375, 7.375, 12.375], "rotation": 90, "texture": "#0"}
			}
		}
	],
	"display": {
		"thirdperson_righthand": {
			"rotation": [0, 0, 7],
			"translation": [-1.5, -1.75, 2.75],
			"scale": [1.14, 1, 1]
		},
		"thirdperson_lefthand": {
			"rotation": [0, 0, 7],
			"translation": [-1.5, -1.75, 2.75],
			"scale": [1.14, 1, 1]
		},
		"firstperson_righthand": {
			"translation": [-5.25, 3.5, 2.75],
			"scale": [1.25, 1.19, 1.14]
		},
		"firstperson_lefthand": {
			"translation": [-5.25, 3.5, 2.75],
			"scale": [1.25, 1.19, 1.14]
		},
		"gui": {
			"rotation": [23, 38, -16],
			"translation": [-0.25, -1.25, 0],
			"scale": [1.64, 1.41461, 1.27094]
		},
		"head": {
			"rotation": [0, -139.5, 90],
			"translation": [-2.5, 6.5, 2.5],
			"scale": [1.89781, 1.89781, 1.89781]
		},
		"fixed": {
			"rotation": [0, 90, 0],
			"translation": [0, 0, -1.25],
			"scale": [1.22, 1.22, 1.22]
		}
	}
}