{
    "textures": {
        "1": "gci:items/gun_hsmg/barrel_uni_compensator",
        "2": "gci:items/gun_hsmg/barrel_uni_supressor",
        "3": "gci:items/gun_hsmg/underbarrel_uni_flash_on",
        "5": "gci:items/gun_hsmg/underbarrel_uni_lcu",
        "6": "gci:items/gun_hsmg/barrel_uni_silencer",
        "7": "gci:items/gun_hsmg/optic_uni_scope_assault",
        "12": "gci:items/gun_hsmg/smgstockbase",
        "13": "gci:items/gun_hsmg/medmag",
        "14": "gci:items/gun_hsmg/grip",
        "15": "gci:items/gun_hsmg/holo",
        "16": "gci:items/gun_hsmg/grip_flash",
        "17": "gci:items/gun_hsmg/grip_laser",
        "18": "gci:items/gun_hsmg/stockfold",
        "19": "gci:items/gun_hsmg/stocktelescop",
        "20": "gci:items/gun_hsmg/reflex_scope",
        "21": "gci:items/gun_hsmg/bigmag",
        "22": "gci:items/gun_hsmg/smallmag",
        "23": "gci:items/gun_hsmg/underbarrel_flame",
        "24": "gci:items/gun_hsmg/underbarrel_shot",
        "25": "gci:items/gun_hsmg/snip_scope",
        "particle": "gci:items/gun_hsmg/medmag"
    },
    "elements": [
        {
            "from": [
                8.15247,
                8.686,
                16.66162
            ],
            "to": [
                9.28647,
                9.82,
                18.28162
            ],
            "rotation": {
                "angle": 0,
                "axis": "x",
                "origin": [
                    8.71947,
                    9.253,
                    18.30187
                ]
            },
            "rotated": [
                0,
                0,
                -45
            ],
            "faces": {
                "north": {
                    "uv": [
                        1,
                        2,
                        2,
                        3
                    ],
                    "texture": "#1"
                },
                "east": {
                    "uv": [
                        0,
                        0,
                        2,
                        1
                    ],
                    "texture": "#1"
                },
                "south": {
                    "uv": [
                        2,
                        2,
                        3,
                        3
                    ],
                    "texture": "#1"
                },
                "west": {
                    "uv": [
                        0,
                        1,
                        2,
                        2
                    ],
                    "texture": "#1"
                },
                "up": {
                    "uv": [
                        1,
                        4,
                        0,
                        2
                    ],
                    "texture": "#1"
                },
                "down": {
                    "uv": [
                        3,
                        0,
                        2,
                        2
                    ],
                    "texture": "#1"
                }
            }
        },
        {
            "from": [
                8.15247,
                8.686,
                18.28162
            ],
            "to": [
                9.28647,
                8.929,
                18.76762
            ],
            "rotation": {
                "angle": 0,
                "axis": "x",
                "origin": [
                    8.71947,
                    9.253,
                    18.30187
                ]
            },
            "rotated": [
                0,
                0,
                -45
            ],
            "faces": {
                "north": {
                    "uv": [
                        3,
                        0,
                        4,
                        1
                    ],
                    "texture": "#1"
                },
                "east": {
                    "uv": [
                        1,
                        3,
                        2,
                        4
                    ],
                    "texture": "#1"
                },
                "south": {
                    "uv": [
                        3,
                        1,
                        4,
                        2
                    ],
                    "texture": "#1"
                },
                "west": {
                    "uv": [
                        2,
                        3,
                        3,
                        4
                    ],
                    "texture": "#1"
                },
                "up": {
                    "uv": [
                        4,
                        3,
                        3,
                        2
                    ],
                    "texture": "#1"
                },
                "down": {
                    "uv": [
                        4,
                        3,
                        3,
                        4
                    ],
                    "texture": "#1"
                }
            }
        },
        {
            "from": [
                8.15247,
                8.686,
                18.28162
            ],
            "to": [
                9.28647,
                8.929,
                18.76762
            ],
            "rotation": {
                "angle": 0,
                "axis": "x",
                "origin": [
                    8.71947,
                    9.253,
                    18.30187
                ]
            },
            "rotated": [
                0,
                0,
                45
            ],
            "faces": {
                "north": {
                    "uv": [
                        0,
                        4,
                        1,
                        5
                    ],
                    "texture": "#1"
                },
                "east": {
                    "uv": [
                        4,
                        0,
                        5,
                        1
                    ],
                    "texture": "#1"
                },
                "south": {
                    "uv": [
                        1,
                        4,
                        2,
                        5
                    ],
                    "texture": "#1"
                },
                "west": {
                    "uv": [
                        4,
                        1,
                        5,
                        2
                    ],
                    "texture": "#1"
                },
                "up": {
                    "uv": [
                        3,
                        5,
                        2,
                        4
                    ],
                    "texture": "#1"
                },
                "down": {
                    "uv": [
                        5,
                        2,
                        4,
                        3
                    ],
                    "texture": "#1"
                }
            }
        },
        {
            "from": [
                8.15247,
                8.686,
                18.76762
            ],
            "to": [
                9.28647,
                9.82,
                19.01062
            ],
            "rotation": {
                "angle": 0,
                "axis": "x",
                "origin": [
                    8.71947,
                    9.253,
                    18.05887
                ]
            },
            "rotated": [
                0,
                0,
                -45
            ],
            "faces": {
                "north": {
                    "uv": [
                        3,
                        4,
                        4,
                        5
                    ],
                    "texture": "#1"
                },
                "east": {
                    "uv": [
                        4,
                        3,
                        5,
                        4
                    ],
                    "texture": "#1"
                },
                "south": {
                    "uv": [
                        4,
                        4,
                        5,
                        5
                    ],
                    "texture": "#1"
                },
                "west": {
                    "uv": [
                        0,
                        5,
                        1,
                        6
                    ],
                    "texture": "#1"
                },
                "up": {
                    "uv": [
                        6,
                        1,
                        5,
                        0
                    ],
                    "texture": "#1"
                },
                "down": {
                    "uv": [
                        2,
                        5,
                        1,
                        6
                    ],
                    "texture": "#1"
                }
            }
        },
        {
            "from": [
                8.15247,
                8.686,
                19.01062
            ],
            "to": [
                9.28647,
                8.929,
                19.49662
            ],
            "rotation": {
                "angle": 0,
                "axis": "x",
                "origin": [
                    8.71947,
                    9.253,
                    19.03087
                ]
            },
            "rotated": [
                0,
                0,
                45
            ],
            "faces": {
                "north": {
                    "uv": [
                        5,
                        1,
                        6,
                        2
                    ],
                    "texture": "#1"
                },
                "east": {
                    "uv": [
                        2,
                        5,
                        3,
                        6
                    ],
                    "texture": "#1"
                },
                "south": {
                    "uv": [
                        5,
                        2,
                        6,
                        3
                    ],
                    "texture": "#1"
                },
                "west": {
                    "uv": [
                        3,
                        5,
                        4,
                        6
                    ],
                    "texture": "#1"
                },
                "up": {
                    "uv": [
                        6,
                        4,
                        5,
                        3
                    ],
                    "texture": "#1"
                },
                "down": {
                    "uv": [
                        5,
                        5,
                        4,
                        6
                    ],
                    "texture": "#1"
                }
            }
        },
        {
            "from": [
                8.15247,
                8.686,
                19.01062
            ],
            "to": [
                9.28647,
                8.929,
                19.49662
            ],
            "rotation": {
                "angle": 0,
                "axis": "x",
                "origin": [
                    8.71947,
                    9.253,
                    19.03087
                ]
            },
            "rotated": [
                0,
                0,
                -45
            ],
            "faces": {
                "north": {
                    "uv": [
                        5,
                        4,
                        6,
                        5
                    ],
                    "texture": "#1"
                },
                "east": {
                    "uv": [
                        5,
                        5,
                        6,
                        6
                    ],
                    "texture": "#1"
                },
                "south": {
                    "uv": [
                        0,
                        6,
                        1,
                        7
                    ],
                    "texture": "#1"
                },
                "west": {
                    "uv": [
                        6,
                        0,
                        7,
                        1
                    ],
                    "texture": "#1"
                },
                "up": {
                    "uv": [
                        2,
                        7,
                        1,
                        6
                    ],
                    "texture": "#1"
                },
                "down": {
                    "uv": [
                        7,
                        1,
                        6,
                        2
                    ],
                    "texture": "#1"
                }
            }
        },
        {
            "from": [
                8.15247,
                8.686,
                19.49662
            ],
            "to": [
                9.28647,
                9.82,
                19.73962
            ],
            "rotation": {
                "angle": 0,
                "axis": "x",
                "origin": [
                    8.71947,
                    9.253,
                    18.78787
                ]
            },
            "rotated": [
                0,
                0,
                -45
            ],
            "faces": {
                "north": {
                    "uv": [
                        2,
                        6,
                        3,
                        7
                    ],
                    "texture": "#1"
                },
                "east": {
                    "uv": [
                        6,
                        2,
                        7,
                        3
                    ],
                    "texture": "#1"
                },
                "south": {
                    "uv": [
                        3,
                        6,
                        4,
                        7
                    ],
                    "texture": "#1"
                },
                "west": {
                    "uv": [
                        6,
                        3,
                        7,
                        4
                    ],
                    "texture": "#1"
                },
                "up": {
                    "uv": [
                        5,
                        7,
                        4,
                        6
                    ],
                    "texture": "#1"
                },
                "down": {
                    "uv": [
                        7,
                        4,
                        6,
                        5
                    ],
                    "texture": "#1"
                }
            }
        },
        {
            "from": [
                8.15247,
                8.686,
                19.73962
            ],
            "to": [
                9.28647,
                8.929,
                20.22562
            ],
            "rotation": {
                "angle": 0,
                "axis": "x",
                "origin": [
                    8.71947,
                    9.253,
                    19.75987
                ]
            },
            "rotated": [
                0,
                0,
                45
            ],
            "faces": {
                "north": {
                    "uv": [
                        5,
                        6,
                        6,
                        7
                    ],
                    "texture": "#1"
                },
                "east": {
                    "uv": [
                        6,
                        5,
                        7,
                        6
                    ],
                    "texture": "#1"
                },
                "south": {
                    "uv": [
                        6,
                        6,
                        7,
                        7
                    ],
                    "texture": "#1"
                },
                "west": {
                    "uv": [
                        0,
                        7,
                        1,
                        8
                    ],
                    "texture": "#1"
                },
                "up": {
                    "uv": [
                        8,
                        1,
                        7,
                        0
                    ],
                    "texture": "#1"
                },
                "down": {
                    "uv": [
                        2,
                        7,
                        1,
                        8
                    ],
                    "texture": "#1"
                }
            }
        },
        {
            "from": [
                8.15247,
                8.686,
                19.73962
            ],
            "to": [
                9.28647,
                8.929,
                20.22562
            ],
            "rotation": {
                "angle": 0,
                "axis": "x",
                "origin": [
                    8.71947,
                    9.253,
                    19.75987
                ]
            },
            "rotated": [
                0,
                0,
                -45
            ],
            "faces": {
                "north": {
                    "uv": [
                        7,
                        1,
                        8,
                        2
                    ],
                    "texture": "#1"
                },
                "east": {
                    "uv": [
                        2,
                        7,
                        3,
                        8
                    ],
                    "texture": "#1"
                },
                "south": {
                    "uv": [
                        7,
                        2,
                        8,
                        3
                    ],
                    "texture": "#1"
                },
                "west": {
                    "uv": [
                        3,
                        7,
                        4,
                        8
                    ],
                    "texture": "#1"
                },
                "up": {
                    "uv": [
                        8,
                        4,
                        7,
                        3
                    ],
                    "texture": "#1"
                },
                "down": {
                    "uv": [
                        5,
                        7,
                        4,
                        8
                    ],
                    "texture": "#1"
                }
            }
        },
        {
            "from": [
                8.15247,
                8.686,
                20.22562
            ],
            "to": [
                9.28647,
                9.82,
                20.46862
            ],
            "rotation": {
                "angle": 0,
                "axis": "x",
                "origin": [
                    8.71947,
                    9.253,
                    19.51687
                ]
            },
            "rotated": [
                0,
                0,
                -45
            ],
            "faces": {
                "north": {
                    "uv": [
                        7,
                        4,
                        8,
                        5
                    ],
                    "texture": "#1"
                },
                "east": {
                    "uv": [
                        5,
                        7,
                        6,
                        8
                    ],
                    "texture": "#1"
                },
                "south": {
                    "uv": [
                        7,
                        5,
                        8,
                        6
                    ],
                    "texture": "#1"
                },
                "west": {
                    "uv": [
                        6,
                        7,
                        7,
                        8
                    ],
                    "texture": "#1"
                },
                "up": {
                    "uv": [
                        8,
                        7,
                        7,
                        6
                    ],
                    "texture": "#1"
                },
                "down": {
                    "uv": [
                        8,
                        7,
                        7,
                        8
                    ],
                    "texture": "#1"
                }
            }
        },
        {
            "from": [
                8.39547,
                8.686,
                20.48887
            ],
            "to": [
                9.20547,
                9.496,
                20.48887
            ],
            "rotation": {
                "angle": -45,
                "axis": "z",
                "origin": [
                    8.96247,
                    9.253,
                    8.33887
                ]
            },
            "faces": {
                "north": {
                    "uv": [
                        0,
                        8,
                        1,
                        9
                    ],
                    "texture": "#1"
                },
                "east": {
                    "uv": [
                        0,
                        0,
                        0,
                        1
                    ],
                    "texture": "#1"
                },
                "south": {
                    "uv": [
                        8,
                        0,
                        9,
                        1
                    ],
                    "texture": "#1"
                },
                "west": {
                    "uv": [
                        0,
                        0,
                        0,
                        1
                    ],
                    "texture": "#1"
                },
                "up": {
                    "uv": [
                        1,
                        0,
                        0,
                        0
                    ],
                    "texture": "#1"
                },
                "down": {
                    "uv": [
                        1,
                        0,
                        0,
                        0
                    ],
                    "texture": "#1"
                }
            }
        }
    ],
    "display": {
        "thirdperson_righthand": {
            "rotation": [
                0,
                180,
                0
            ],
            "translation": [
                0,
                0.5,
                -2.25
            ],
            "scale": [
                0.65,
                0.65,
                0.65
            ]
        },
        "thirdperson_lefthand": {
            "rotation": [
                0,
                180,
                0
            ],
            "translation": [
                -0.75,
                0.5,
                -2.25
            ],
            "scale": [
                0.65,
                0.65,
                0.65
            ]
        },
        "firstperson_righthand": {
            "rotation": [
                -179.11,
                0.85,
                176.24
            ],
            "translation": [
                -2.75,
                2.5,
                -0.25
            ],
            "scale": [
                1,
                1,
                0.9
            ]
        },
        "firstperson_lefthand": {
            "rotation": [
                -179.11,
                0.85,
                176.24
            ],
            "translation": [
                -4.25,
                2.5,
                -0.25
            ],
            "scale": [
                1,
                1,
                0.9
            ]
        },
        "ground": {
            "translation": [
                0,
                2.25,
                0
            ]
        },
        "gui": {
            "rotation": [
                -90,
                -55,
                -90
            ],
            "translation": [
                1.75,
                -0.75,
                0
            ]
        },
        "fixed": {
            "rotation": [
                90,
                45,
                -90
            ],
            "translation": [
                -1.25,
                0.5,
                -1.5
            ],
            "scale": [
                0.65,
                0.65,
                0.65
            ]
        }
    }
}