{
    "textures": {
        "1": "gci:items/gun_hsmg/barrel_uni_compensator",
        "2": "gci:items/gun_hsmg/barrel_uni_supressor",
        "3": "gci:items/gun_hsmg/underbarrel_uni_flash_on",
        "5": "gci:items/gun_hsmg/underbarrel_uni_lcu",
        "6": "gci:items/gun_hsmg/barrel_uni_silencer",
        "7": "gci:items/gun_hsmg/optic_uni_scope_assault",
        "12": "gci:items/gun_hsmg/smgstockbase",
        "13": "gci:items/gun_hsmg/medmag",
        "14": "gci:items/gun_hsmg/grip",
        "15": "gci:items/gun_hsmg/holo",
        "16": "gci:items/gun_hsmg/grip_flash",
        "17": "gci:items/gun_hsmg/grip_laser",
        "18": "gci:items/gun_hsmg/stockfold",
        "19": "gci:items/gun_hsmg/stocktelescop",
        "20": "gci:items/gun_hsmg/reflex_scope",
        "21": "gci:items/gun_hsmg/bigmag",
        "22": "gci:items/gun_hsmg/smallmag",
        "23": "gci:items/gun_hsmg/underbarrel_flame",
        "24": "gci:items/gun_hsmg/underbarrel_shot",
        "25": "gci:items/gun_hsmg/snip_scope",
        "particle": "gci:items/gun_hsmg/medmag"
    },
    "elements": [
        {
            "from": [
                8.15247,
                8.661,
                17.59312
            ],
            "to": [
                9.28647,
                9.795,
                19.21312
            ],
            "rotation": {
                "angle": 45,
                "axis": "z",
                "origin": [
                    8.71947,
                    9.228,
                    18.40312
                ]
            },
            "faces": {
                "north": {
                    "uv": [
                        1,
                        2,
                        2,
                        3
                    ],
                    "rotation": 180,
                    "texture": "#2"
                },
                "east": {
                    "uv": [
                        0,
                        1,
                        2,
                        2
                    ],
                    "rotation": 180,
                    "texture": "#2"
                },
                "south": {
                    "uv": [
                        2,
                        2,
                        3,
                        3
                    ],
                    "rotation": 180,
                    "texture": "#2"
                },
                "west": {
                    "uv": [
                        0,
                        0,
                        2,
                        1
                    ],
                    "rotation": 180,
                    "texture": "#2"
                },
                "up": {
                    "uv": [
                        3,
                        0,
                        2,
                        2
                    ],
                    "rotation": 180,
                    "texture": "#2"
                },
                "down": {
                    "uv": [
                        1,
                        4,
                        0,
                        2
                    ],
                    "rotation": 180,
                    "texture": "#2"
                }
            }
        },
        {
            "from": [
                8.23347,
                8.742,
                17.35012
            ],
            "to": [
                9.20547,
                9.714,
                17.59312
            ],
            "rotation": {
                "angle": -45,
                "axis": "z",
                "origin": [
                    8.71947,
                    9.228,
                    17.47162
                ]
            },
            "faces": {
                "north": {
                    "uv": [
                        3,
                        0,
                        4,
                        1
                    ],
                    "rotation": 270,
                    "texture": "#2"
                },
                "east": {
                    "uv": [
                        4,
                        3,
                        3,
                        2
                    ],
                    "rotation": 90,
                    "texture": "#2"
                },
                "south": {
                    "uv": [
                        3,
                        1,
                        4,
                        2
                    ],
                    "rotation": 90,
                    "texture": "#2"
                },
                "west": {
                    "uv": [
                        4,
                        3,
                        3,
                        4
                    ],
                    "rotation": 90,
                    "texture": "#2"
                },
                "up": {
                    "uv": [
                        2,
                        3,
                        3,
                        4
                    ],
                    "rotation": 90,
                    "texture": "#2"
                },
                "down": {
                    "uv": [
                        1,
                        3,
                        2,
                        4
                    ],
                    "rotation": 90,
                    "texture": "#2"
                }
            }
        },
        {
            "from": [
                8.23347,
                8.742,
                16.86412
            ],
            "to": [
                9.20547,
                9.714,
                17.10712
            ],
            "rotation": {
                "angle": -45,
                "axis": "z",
                "origin": [
                    8.71947,
                    9.228,
                    16.98562
                ]
            },
            "faces": {
                "north": {
                    "uv": [
                        0,
                        4,
                        1,
                        5
                    ],
                    "rotation": 270,
                    "texture": "#2"
                },
                "east": {
                    "uv": [
                        3,
                        5,
                        2,
                        4
                    ],
                    "rotation": 90,
                    "texture": "#2"
                },
                "south": {
                    "uv": [
                        1,
                        4,
                        2,
                        5
                    ],
                    "rotation": 90,
                    "texture": "#2"
                },
                "west": {
                    "uv": [
                        5,
                        2,
                        4,
                        3
                    ],
                    "rotation": 90,
                    "texture": "#2"
                },
                "up": {
                    "uv": [
                        4,
                        1,
                        5,
                        2
                    ],
                    "rotation": 90,
                    "texture": "#2"
                },
                "down": {
                    "uv": [
                        4,
                        0,
                        5,
                        1
                    ],
                    "rotation": 90,
                    "texture": "#2"
                }
            }
        },
        {
            "from": [
                8.15247,
                8.661,
                17.10712
            ],
            "to": [
                9.28647,
                9.795,
                17.35012
            ],
            "rotation": {
                "angle": -45,
                "axis": "z",
                "origin": [
                    8.71947,
                    9.228,
                    17.22862
                ]
            },
            "faces": {
                "north": {
                    "uv": [
                        3,
                        4,
                        4,
                        5
                    ],
                    "rotation": 270,
                    "texture": "#2"
                },
                "east": {
                    "uv": [
                        6,
                        1,
                        5,
                        0
                    ],
                    "rotation": 90,
                    "texture": "#2"
                },
                "south": {
                    "uv": [
                        4,
                        4,
                        5,
                        5
                    ],
                    "rotation": 90,
                    "texture": "#2"
                },
                "west": {
                    "uv": [
                        2,
                        5,
                        1,
                        6
                    ],
                    "rotation": 90,
                    "texture": "#2"
                },
                "up": {
                    "uv": [
                        0,
                        5,
                        1,
                        6
                    ],
                    "rotation": 90,
                    "texture": "#2"
                },
                "down": {
                    "uv": [
                        4,
                        3,
                        5,
                        4
                    ],
                    "rotation": 90,
                    "texture": "#2"
                }
            }
        },
        {
            "from": [
                8.15247,
                8.661,
                16.62112
            ],
            "to": [
                9.28647,
                9.795,
                16.86412
            ],
            "rotation": {
                "angle": -45,
                "axis": "z",
                "origin": [
                    8.71947,
                    9.228,
                    16.74262
                ]
            },
            "faces": {
                "north": {
                    "uv": [
                        5,
                        1,
                        6,
                        2
                    ],
                    "rotation": 270,
                    "texture": "#2"
                },
                "east": {
                    "uv": [
                        6,
                        4,
                        5,
                        3
                    ],
                    "rotation": 90,
                    "texture": "#2"
                },
                "south": {
                    "uv": [
                        5,
                        2,
                        6,
                        3
                    ],
                    "rotation": 90,
                    "texture": "#2"
                },
                "west": {
                    "uv": [
                        5,
                        5,
                        4,
                        6
                    ],
                    "rotation": 90,
                    "texture": "#2"
                },
                "up": {
                    "uv": [
                        3,
                        5,
                        4,
                        6
                    ],
                    "rotation": 90,
                    "texture": "#2"
                },
                "down": {
                    "uv": [
                        2,
                        5,
                        3,
                        6
                    ],
                    "rotation": 90,
                    "texture": "#2"
                }
            }
        },
        {
            "from": [
                8.32837,
                8.823,
                19.23337
            ],
            "to": [
                9.13837,
                9.633,
                19.23337
            ],
            "rotation": {
                "angle": -45,
                "axis": "z",
                "origin": [
                    8.73337,
                    9.228,
                    19.23337
                ]
            },
            "faces": {
                "north": {
                    "uv": [
                        5,
                        4,
                        6,
                        5
                    ],
                    "texture": "#2"
                },
                "east": {
                    "uv": [
                        0,
                        0,
                        0,
                        1
                    ],
                    "texture": "#2"
                },
                "south": {
                    "uv": [
                        5,
                        5,
                        6,
                        6
                    ],
                    "texture": "#2"
                },
                "west": {
                    "uv": [
                        0,
                        0,
                        0,
                        1
                    ],
                    "texture": "#2"
                },
                "up": {
                    "uv": [
                        1,
                        0,
                        0,
                        0
                    ],
                    "texture": "#2"
                },
                "down": {
                    "uv": [
                        1,
                        0,
                        0,
                        0
                    ],
                    "texture": "#2"
                }
            }
        }
    ],
    "display": {
        "thirdperson_righthand": {
            "rotation": [
                0,
                180,
                0
            ],
            "translation": [
                0,
                0.5,
                -2.25
            ],
            "scale": [
                0.65,
                0.65,
                0.65
            ]
        },
        "thirdperson_lefthand": {
            "rotation": [
                0,
                180,
                0
            ],
            "translation": [
                -0.75,
                0.5,
                -2.25
            ],
            "scale": [
                0.65,
                0.65,
                0.65
            ]
        },
        "firstperson_righthand": {
            "rotation": [
                -179.11,
                0.85,
                176.24
            ],
            "translation": [
                -2.75,
                2.5,
                -0.25
            ],
            "scale": [
                1,
                1,
                0.9
            ]
        },
        "firstperson_lefthand": {
            "rotation": [
                -179.11,
                0.85,
                176.24
            ],
            "translation": [
                -4.25,
                2.5,
                -0.25
            ],
            "scale": [
                1,
                1,
                0.9
            ]
        },
        "ground": {
            "translation": [
                0,
                2.25,
                0
            ]
        },
        "gui": {
            "rotation": [
                -90,
                -55,
                -90
            ],
            "translation": [
                1.75,
                -0.75,
                0
            ]
        },
        "fixed": {
            "rotation": [
                90,
                45,
                -90
            ],
            "translation": [
                -1.25,
                0.5,
                -1.5
            ],
            "scale": [
                0.65,
                0.65,
                0.65
            ]
        }
    }
}