{
    "textures": {
        "1": "gci:items/gun_hsmg/barrel_uni_compensator",
        "2": "gci:items/gun_hsmg/barrel_uni_supressor",
        "3": "gci:items/gun_hsmg/underbarrel_uni_flash_on",
        "5": "gci:items/gun_hsmg/underbarrel_uni_lcu",
        "6": "gci:items/gun_hsmg/barrel_uni_silencer",
        "7": "gci:items/gun_hsmg/optic_uni_scope_assault",
        "12": "gci:items/gun_hsmg/smgstockbase",
        "13": "gci:items/gun_hsmg/medmag",
        "14": "gci:items/gun_hsmg/grip",
        "15": "gci:items/gun_hsmg/holo",
        "16": "gci:items/gun_hsmg/grip_flash",
        "17": "gci:items/gun_hsmg/grip_laser",
        "18": "gci:items/gun_hsmg/stockfold",
        "19": "gci:items/gun_hsmg/stocktelescop",
        "20": "gci:items/gun_hsmg/reflex_scope",
        "21": "gci:items/gun_hsmg/bigmag",
        "22": "gci:items/gun_hsmg/smallmag",
        "23": "gci:items/gun_hsmg/underbarrel_flame",
        "24": "gci:items/gun_hsmg/underbarrel_shot",
        "25": "gci:items/gun_hsmg/snip_scope",
        "particle": "gci:items/gun_hsmg/medmag"
    },
    "elements": [
        {
            "from": [
                7.90947,
                6.399,
                11.13862
            ],
            "to": [
                9.52947,
                8.019,
                14.37862
            ],
            "rotation": {
                "angle": 0,
                "axis": "y",
                "origin": [
                    8.71947,
                    -5.508,
                    9.59962
                ]
            },
            "faces": {
                "north": {
                    "uv": [
                        6,
                        6,
                        8,
                        8
                    ],
                    "texture": "#3"
                },
                "east": {
                    "uv": [
                        0,
                        0,
                        4,
                        2
                    ],
                    "texture": "#3"
                },
                "south": {
                    "uv": [
                        0,
                        8,
                        2,
                        10
                    ],
                    "texture": "#3"
                },
                "west": {
                    "uv": [
                        0,
                        2,
                        4,
                        4
                    ],
                    "texture": "#3"
                },
                "up": {
                    "uv": [
                        2,
                        8,
                        0,
                        4
                    ],
                    "texture": "#3"
                },
                "down": {
                    "uv": [
                        6,
                        0,
                        4,
                        4
                    ],
                    "texture": "#3"
                }
            }
        },
        {
            "from": [
                9.12447,
                6.723,
                11.46262
            ],
            "to": [
                9.93447,
                7.695,
                12.43462
            ],
            "rotation": {
                "angle": -45,
                "axis": "x",
                "origin": [
                    9.52947,
                    7.209,
                    11.94862
                ]
            },
            "faces": {
                "north": {
                    "uv": [
                        1,
                        10,
                        2,
                        11
                    ],
                    "texture": "#3"
                },
                "east": {
                    "uv": [
                        6,
                        10,
                        7,
                        11
                    ],
                    "texture": "#3"
                },
                "south": {
                    "uv": [
                        1,
                        11,
                        2,
                        12
                    ],
                    "texture": "#3"
                },
                "west": {
                    "uv": [
                        12,
                        0,
                        13,
                        1
                    ],
                    "texture": "#3"
                },
                "up": {
                    "uv": [
                        2,
                        13,
                        1,
                        12
                    ],
                    "texture": "#3"
                },
                "down": {
                    "uv": [
                        13,
                        1,
                        12,
                        2
                    ],
                    "texture": "#3"
                }
            }
        },
        {
            "from": [
                8.25372,
                6.05475,
                11.13862
            ],
            "to": [
                9.18522,
                6.399,
                14.37862
            ],
            "rotation": {
                "angle": 0,
                "axis": "y",
                "origin": [
                    8.71947,
                    -5.508,
                    9.59962
                ]
            },
            "faces": {
                "north": {
                    "uv": [
                        2,
                        12,
                        3,
                        13
                    ],
                    "texture": "#3"
                },
                "east": {
                    "uv": [
                        8,
                        0,
                        12,
                        1
                    ],
                    "texture": "#3"
                },
                "south": {
                    "uv": [
                        3,
                        12,
                        4,
                        13
                    ],
                    "texture": "#3"
                },
                "west": {
                    "uv": [
                        8,
                        1,
                        12,
                        2
                    ],
                    "texture": "#3"
                },
                "up": {
                    "uv": [
                        3,
                        12,
                        2,
                        8
                    ],
                    "texture": "#3"
                },
                "down": {
                    "uv": [
                        9,
                        2,
                        8,
                        6
                    ],
                    "texture": "#3"
                }
            }
        },
        {
            "from": [
                8.24498,
                5.589,
                11.13862
            ],
            "to": [
                8.73098,
                6.075,
                14.37862
            ],
            "rotation": {
                "angle": -45,
                "axis": "z",
                "origin": [
                    9.05498,
                    6.399,
                    12.75862
                ]
            },
            "faces": {
                "north": {
                    "uv": [
                        4,
                        12,
                        5,
                        13
                    ],
                    "texture": "#3"
                },
                "east": {
                    "uv": [
                        3,
                        8,
                        7,
                        9
                    ],
                    "texture": "#3"
                },
                "south": {
                    "uv": [
                        5,
                        12,
                        6,
                        13
                    ],
                    "texture": "#3"
                },
                "west": {
                    "uv": [
                        8,
                        6,
                        12,
                        7
                    ],
                    "texture": "#3"
                },
                "up": {
                    "uv": [
                        8,
                        12,
                        7,
                        8
                    ],
                    "texture": "#3"
                },
                "down": {
                    "uv": [
                        9,
                        7,
                        8,
                        11
                    ],
                    "texture": "#3"
                }
            }
        },
        {
            "from": [
                9.17768,
                5.589,
                11.13862
            ],
            "to": [
                9.66368,
                6.075,
                14.37862
            ],
            "rotation": {
                "angle": -45,
                "axis": "z",
                "origin": [
                    9.98768,
                    6.399,
                    12.75862
                ]
            },
            "faces": {
                "north": {
                    "uv": [
                        12,
                        5,
                        13,
                        6
                    ],
                    "texture": "#3"
                },
                "east": {
                    "uv": [
                        9,
                        2,
                        13,
                        3
                    ],
                    "texture": "#3"
                },
                "south": {
                    "uv": [
                        6,
                        12,
                        7,
                        13
                    ],
                    "texture": "#3"
                },
                "west": {
                    "uv": [
                        3,
                        9,
                        7,
                        10
                    ],
                    "texture": "#3"
                },
                "up": {
                    "uv": [
                        10,
                        11,
                        9,
                        7
                    ],
                    "texture": "#3"
                },
                "down": {
                    "uv": [
                        1,
                        10,
                        0,
                        14
                    ],
                    "texture": "#3"
                }
            }
        },
        {
            "from": [
                8.15247,
                6.642,
                14.37862
            ],
            "to": [
                9.28647,
                7.776,
                15.18862
            ],
            "rotation": {
                "angle": -45,
                "axis": "z",
                "origin": [
                    8.71947,
                    7.209,
                    14.78362
                ]
            },
            "faces": {
                "north": {
                    "uv": [
                        12,
                        6,
                        13,
                        7
                    ],
                    "texture": "#3"
                },
                "east": {
                    "uv": [
                        7,
                        12,
                        8,
                        13
                    ],
                    "texture": "#3"
                },
                "south": {
                    "uv": [
                        12,
                        7,
                        13,
                        8
                    ],
                    "texture": "#3"
                },
                "west": {
                    "uv": [
                        8,
                        12,
                        9,
                        13
                    ],
                    "texture": "#3"
                },
                "up": {
                    "uv": [
                        13,
                        9,
                        12,
                        8
                    ],
                    "texture": "#3"
                },
                "down": {
                    "uv": [
                        10,
                        12,
                        9,
                        13
                    ],
                    "texture": "#3"
                }
            }
        },
        {
            "from": [
                8.23347,
                6.723,
                15.20887
            ],
            "to": [
                9.20547,
                7.695,
                15.20887
            ],
            "rotation": {
                "angle": -45,
                "axis": "z",
                "origin": [
                    8.71947,
                    7.209,
                    14.80387
                ]
            },
            "faces": {
                "north": {
                    "uv": [
                        14,
                        11,
                        16,
                        13
                    ],
                    "texture": "#3"
                },
                "east": {
                    "uv": [
                        0,
                        0,
                        0,
                        1
                    ],
                    "texture": "#3"
                },
                "south": {
                    "uv": [
                        12,
                        11,
                        14,
                        13
                    ],
                    "texture": "#3"
                },
                "west": {
                    "uv": [
                        0,
                        0,
                        0,
                        1
                    ],
                    "texture": "#3"
                },
                "up": {
                    "uv": [
                        1,
                        0,
                        0,
                        0
                    ],
                    "texture": "#3"
                },
                "down": {
                    "uv": [
                        1,
                        0,
                        0,
                        0
                    ],
                    "texture": "#3"
                }
            }
        },
        {
            "from": [
                7.99047,
                8.019,
                11.30062
            ],
            "to": [
                9.44847,
                8.343,
                14.13562
            ],
            "rotation": {
                "angle": 0,
                "axis": "y",
                "origin": [
                    8.71947,
                    -5.508,
                    9.59962
                ]
            },
            "faces": {
                "north": {
                    "uv": [
                        10,
                        7,
                        12,
                        8
                    ],
                    "texture": "#3"
                },
                "east": {
                    "uv": [
                        9,
                        3,
                        13,
                        4
                    ],
                    "texture": "#3"
                },
                "south": {
                    "uv": [
                        10,
                        8,
                        12,
                        9
                    ],
                    "texture": "#3"
                },
                "west": {
                    "uv": [
                        9,
                        4,
                        13,
                        5
                    ],
                    "texture": "#3"
                },
                "up": {
                    "uv": [
                        4,
                        8,
                        2,
                        4
                    ],
                    "texture": "#3"
                },
                "down": {
                    "uv": [
                        6,
                        4,
                        4,
                        8
                    ],
                    "texture": "#3"
                }
            }
        },
        {
            "from": [
                7.90947,
                8.262,
                11.46262
            ],
            "to": [
                9.52947,
                8.586,
                13.97362
            ],
            "rotation": {
                "angle": 0,
                "axis": "y",
                "origin": [
                    8.71947,
                    -5.508,
                    9.59962
                ]
            },
            "faces": {
                "north": {
                    "uv": [
                        10,
                        9,
                        12,
                        10
                    ],
                    "texture": "#3"
                },
                "east": {
                    "uv": [
                        9,
                        5,
                        12,
                        6
                    ],
                    "texture": "#3"
                },
                "south": {
                    "uv": [
                        10,
                        10,
                        12,
                        11
                    ],
                    "texture": "#3"
                },
                "west": {
                    "uv": [
                        3,
                        10,
                        6,
                        11
                    ],
                    "texture": "#3"
                },
                "up": {
                    "uv": [
                        8,
                        3,
                        6,
                        0
                    ],
                    "texture": "#3"
                },
                "down": {
                    "uv": [
                        8,
                        3,
                        6,
                        6
                    ],
                    "texture": "#3"
                }
            }
        },
        {
            "from": [
                7.82847,
                8.181,
                12.59662
            ],
            "to": [
                9.61047,
                8.505,
                12.92062
            ],
            "rotation": {
                "angle": -45,
                "axis": "x",
                "origin": [
                    8.71947,
                    8.343,
                    12.75862
                ]
            },
            "faces": {
                "north": {
                    "uv": [
                        3,
                        11,
                        5,
                        12
                    ],
                    "texture": "#3"
                },
                "east": {
                    "uv": [
                        12,
                        10,
                        13,
                        11
                    ],
                    "texture": "#3"
                },
                "south": {
                    "uv": [
                        5,
                        11,
                        7,
                        12
                    ],
                    "texture": "#3"
                },
                "west": {
                    "uv": [
                        11,
                        12,
                        12,
                        13
                    ],
                    "texture": "#3"
                },
                "up": {
                    "uv": [
                        10,
                        12,
                        8,
                        11
                    ],
                    "texture": "#3"
                },
                "down": {
                    "uv": [
                        12,
                        11,
                        10,
                        12
                    ],
                    "texture": "#3"
                }
            }
        }
    ],
    "display": {
        "thirdperson_righthand": {
            "rotation": [
                0,
                180,
                0
            ],
            "translation": [
                0,
                0.5,
                -2.25
            ],
            "scale": [
                0.65,
                0.65,
                0.65
            ]
        },
        "thirdperson_lefthand": {
            "rotation": [
                0,
                180,
                0
            ],
            "translation": [
                -0.75,
                0.5,
                -2.25
            ],
            "scale": [
                0.65,
                0.65,
                0.65
            ]
        },
        "firstperson_righthand": {
            "rotation": [
                -179.11,
                0.85,
                176.24
            ],
            "translation": [
                -2.75,
                2.5,
                -0.25
            ],
            "scale": [
                1,
                1,
                0.9
            ]
        },
        "firstperson_lefthand": {
            "rotation": [
                -179.11,
                0.85,
                176.24
            ],
            "translation": [
                -4.25,
                2.5,
                -0.25
            ],
            "scale": [
                1,
                1,
                0.9
            ]
        },
        "ground": {
            "translation": [
                0,
                2.25,
                0
            ]
        },
        "gui": {
            "rotation": [
                -90,
                -55,
                -90
            ],
            "translation": [
                1.75,
                -0.75,
                0
            ]
        },
        "fixed": {
            "rotation": [
                90,
                45,
                -90
            ],
            "translation": [
                -1.25,
                0.5,
                -1.5
            ],
            "scale": [
                0.65,
                0.65,
                0.65
            ]
        }
    }
}