{
    "textures": {
        "0": "gci:items/common/all_in_one", 
        "particle": "gci:items/common/all_in_one"
    }, 
    "elements": [
        {
            "to": [
                8.18157, 
                9.71986, 
                17.732
            ], 
            "rotation": {
                "origin": [
                    8.13157, 
                    9.61986, 
                    7.71
                ], 
                "angle": 0, 
                "axis": "y"
            }, 
            "from": [
                8.08157, 
                9.51986, 
                12.68
            ], 
            "faces": {
                "north": {
                    "uv": [
                        2, 
                        3, 
                        2.25, 
                        4
                    ], 
                    "texture": "#0"
                }, 
                "west": {
                    "uv": [
                        2, 
                        3, 
                        2.25, 
                        4
                    ], 
                    "texture": "#0"
                }, 
                "up": {
                    "uv": [
                        2, 
                        3, 
                        2.25, 
                        4
                    ], 
                    "texture": "#0"
                }, 
                "down": {
                    "uv": [
                        2, 
                        3, 
                        2.25, 
                        4
                    ], 
                    "texture": "#0"
                }, 
                "east": {
                    "uv": [
                        2, 
                        3, 
                        2.25, 
                        4
                    ], 
                    "texture": "#0"
                }, 
                "south": {
                    "uv": [
                        2, 
                        3, 
                        2.25, 
                        4
                    ], 
                    "texture": "#0"
                }
            }
        }, 
        {
            "to": [
                8.59757, 
                9.87986, 
                17.668
            ], 
            "rotation": {
                "origin": [
                    8.13157, 
                    9.61986, 
                    7.838
                ], 
                "angle": 0, 
                "axis": "y"
            }, 
            "from": [
                8.04957, 
                7.27986, 
                17.608
            ], 
            "faces": {
                "north": {
                    "uv": [
                        3.875, 
                        3, 
                        4.75, 
                        3
                    ], 
                    "texture": "#0"
                }, 
                "west": {
                    "uv": [
                        3.875, 
                        3, 
                        4.75, 
                        3
                    ], 
                    "texture": "#0"
                }, 
                "up": {
                    "uv": [
                        3.875, 
                        3, 
                        4.75, 
                        3
                    ], 
                    "texture": "#0"
                }, 
                "down": {
                    "uv": [
                        3.875, 
                        3, 
                        4.75, 
                        3
                    ], 
                    "texture": "#0"
                }, 
                "east": {
                    "uv": [
                        3.875, 
                        3, 
                        4.75, 
                        3
                    ], 
                    "texture": "#0"
                }, 
                "south": {
                    "uv": [
                        3.875, 
                        2.5, 
                        4.5, 
                        4.25
                    ], 
                    "texture": "#0"
                }
            }
        }, 
        {
            "to": [
                8.59757, 
                9.87986, 
                17.608
            ], 
            "rotation": {
                "origin": [
                    8.13157, 
                    9.61986, 
                    7.778
                ], 
                "angle": 0, 
                "axis": "y"
            }, 
            "from": [
                8.04957, 
                7.27986, 
                17.388
            ], 
            "faces": {
                "north": {
                    "uv": [
                        1.125, 
                        4.75, 
                        1.125, 
                        6.125
                    ], 
                    "texture": "#0"
                }, 
                "west": {
                    "rotation": 180, 
                    "uv": [
                        1, 
                        4.75, 
                        1.5, 
                        6.25
                    ], 
                    "texture": "#0"
                }, 
                "up": {
                    "uv": [
                        1, 
                        4.75, 
                        1.5, 
                        6.25
                    ], 
                    "texture": "#0"
                }, 
                "down": {
                    "rotation": 90, 
                    "uv": [
                        1, 
                        4.75, 
                        1.5, 
                        6.25
                    ], 
                    "texture": "#0"
                }, 
                "east": {
                    "uv": [
                        1, 
                        4.75, 
                        1.5, 
                        6.25
                    ], 
                    "texture": "#0"
                }, 
                "south": {
                    "uv": [
                        1, 
                        4.75, 
                        1.5, 
                        6.25
                    ], 
                    "texture": "#0"
                }
            }
        }, 
        {
            "to": [
                8.62957, 
                7.73586, 
                17.448
            ], 
            "rotation": {
                "origin": [
                    8.13157, 
                    9.65186, 
                    7.746
                ], 
                "angle": 0, 
                "axis": "y"
            }, 
            "from": [
                8.01757, 
                7.31186, 
                17.356
            ], 
            "faces": {
                "north": {
                    "uv": [
                        2.375, 
                        2.5, 
                        2.375, 
                        3.875
                    ], 
                    "texture": "#0"
                }, 
                "west": {
                    "uv": [
                        2.375, 
                        2.5, 
                        2.375, 
                        3.875
                    ], 
                    "texture": "#0"
                }, 
                "up": {
                    "uv": [
                        2.375, 
                        2.5, 
                        2.375, 
                        3.875
                    ], 
                    "texture": "#0"
                }, 
                "down": {
                    "uv": [
                        2.375, 
                        2.5, 
                        2.375, 
                        3.875
                    ], 
                    "texture": "#0"
                }, 
                "east": {
                    "uv": [
                        2.375, 
                        2.5, 
                        2.375, 
                        3.875
                    ], 
                    "texture": "#0"
                }, 
                "south": {
                    "uv": [
                        2.375, 
                        2.5, 
                        2.375, 
                        3.875
                    ], 
                    "texture": "#0"
                }
            }
        }, 
        {
            "to": [
                8.43757, 
                7.44786, 
                17.48
            ], 
            "rotation": {
                "origin": [
                    8.32357, 
                    7.39586, 
                    17.434
                ], 
                "angle": 22.5, 
                "axis": "x"
            }, 
            "from": [
                8.20957, 
                7.34386, 
                12.428
            ], 
            "faces": {
                "north": {
                    "uv": [
                        2.375, 
                        2.5, 
                        2.375, 
                        3.875
                    ], 
                    "texture": "#0"
                }, 
                "west": {
                    "uv": [
                        2.375, 
                        2.5, 
                        2.375, 
                        3.875
                    ], 
                    "texture": "#0"
                }, 
                "up": {
                    "uv": [
                        2.375, 
                        2.5, 
                        2.375, 
                        3.875
                    ], 
                    "texture": "#0"
                }, 
                "down": {
                    "uv": [
                        2.375, 
                        2.5, 
                        2.375, 
                        3.875
                    ], 
                    "texture": "#0"
                }, 
                "east": {
                    "uv": [
                        2.375, 
                        2.5, 
                        2.375, 
                        3.875
                    ], 
                    "texture": "#0"
                }, 
                "south": {
                    "uv": [
                        2.375, 
                        2.5, 
                        2.375, 
                        3.875
                    ], 
                    "texture": "#0"
                }
            }
        }, 
        {
            "to": [
                8.98856, 
                10.45437, 
                17.668
            ], 
            "rotation": {
                "origin": [
                    9.16256, 
                    9.15437, 
                    17.558
                ], 
                "angle": 45, 
                "axis": "z"
            }, 
            "from": [
                8.88856, 
                10.38237, 
                17.608
            ], 
            "faces": {
                "north": {
                    "uv": [
                        3.875, 
                        3, 
                        4.75, 
                        3
                    ], 
                    "texture": "#0"
                }, 
                "west": {
                    "uv": [
                        3.875, 
                        3, 
                        4.75, 
                        3
                    ], 
                    "texture": "#0"
                }, 
                "up": {
                    "uv": [
                        3.875, 
                        3, 
                        4.75, 
                        3
                    ], 
                    "texture": "#0"
                }, 
                "down": {
                    "uv": [
                        3.875, 
                        3, 
                        4.75, 
                        3
                    ], 
                    "texture": "#0"
                }, 
                "east": {
                    "uv": [
                        3.875, 
                        3, 
                        4.75, 
                        3
                    ], 
                    "texture": "#0"
                }, 
                "south": {
                    "uv": [
                        3.875, 
                        3, 
                        4.75, 
                        3
                    ], 
                    "texture": "#0"
                }
            }
        }, 
        {
            "to": [
                8.98856, 
                10.45437, 
                17.608
            ], 
            "rotation": {
                "origin": [
                    9.16256, 
                    9.15437, 
                    17.498
                ], 
                "angle": 45, 
                "axis": "z"
            }, 
            "from": [
                8.88856, 
                10.38237, 
                17.388
            ], 
            "faces": {
                "north": {
                    "uv": [
                        1, 
                        4.75, 
                        1.5, 
                        6.25
                    ], 
                    "texture": "#0"
                }, 
                "west": {
                    "uv": [
                        1, 
                        4.75, 
                        1.5, 
                        6.25
                    ], 
                    "texture": "#0"
                }, 
                "up": {
                    "rotation": 270, 
                    "uv": [
                        1, 
                        4.75, 
                        1.5, 
                        6.25
                    ], 
                    "texture": "#0"
                }, 
                "down": {
                    "uv": [
                        1, 
                        4.75, 
                        1.5, 
                        6.25
                    ], 
                    "texture": "#0"
                }, 
                "east": {
                    "uv": [
                        1, 
                        4.75, 
                        1.5, 
                        6.25
                    ], 
                    "texture": "#0"
                }, 
                "south": {
                    "uv": [
                        1, 
                        4.75, 
                        1.5, 
                        6.25
                    ], 
                    "texture": "#0"
                }
            }
        }, 
        {
            "to": [
                8.23025, 
                9.97245, 
                17.668
            ], 
            "rotation": {
                "origin": [
                    8.18025, 
                    9.93645, 
                    17.558
                ], 
                "angle": 22.5, 
                "axis": "z"
            }, 
            "from": [
                8.13025, 
                9.86845, 
                17.608
            ], 
            "faces": {
                "north": {
                    "uv": [
                        3.875, 
                        3, 
                        4.75, 
                        3
                    ], 
                    "texture": "#0"
                }, 
                "west": {
                    "uv": [
                        3.875, 
                        3, 
                        4.75, 
                        3
                    ], 
                    "texture": "#0"
                }, 
                "up": {
                    "uv": [
                        3.875, 
                        3, 
                        4.75, 
                        3
                    ], 
                    "texture": "#0"
                }, 
                "down": {
                    "uv": [
                        3.875, 
                        3, 
                        4.75, 
                        3
                    ], 
                    "texture": "#0"
                }, 
                "east": {
                    "uv": [
                        3.875, 
                        3, 
                        4.75, 
                        3
                    ], 
                    "texture": "#0"
                }, 
                "south": {
                    "uv": [
                        3.875, 
                        3, 
                        4.75, 
                        3
                    ], 
                    "texture": "#0"
                }
            }
        }, 
        {
            "to": [
                8.23025, 
                9.97245, 
                17.608
            ], 
            "rotation": {
                "origin": [
                    8.18025, 
                    9.93645, 
                    17.498
                ], 
                "angle": 22.5, 
                "axis": "z"
            }, 
            "from": [
                8.13025, 
                9.86845, 
                17.388
            ], 
            "faces": {
                "north": {
                    "uv": [
                        1, 
                        4.75, 
                        1.5, 
                        6.25
                    ], 
                    "texture": "#0"
                }, 
                "west": {
                    "uv": [
                        1, 
                        4.75, 
                        1.5, 
                        6.25
                    ], 
                    "texture": "#0"
                }, 
                "up": {
                    "rotation": 270, 
                    "uv": [
                        1, 
                        4.75, 
                        1.5, 
                        6.25
                    ], 
                    "texture": "#0"
                }, 
                "down": {
                    "uv": [
                        1, 
                        4.75, 
                        1.5, 
                        6.25
                    ], 
                    "texture": "#0"
                }, 
                "east": {
                    "uv": [
                        1, 
                        4.75, 
                        1.5, 
                        6.25
                    ], 
                    "texture": "#0"
                }, 
                "south": {
                    "uv": [
                        1, 
                        4.75, 
                        1.5, 
                        6.25
                    ], 
                    "texture": "#0"
                }
            }
        }, 
        {
            "to": [
                8.44067, 
                9.98884, 
                17.668
            ], 
            "rotation": {
                "origin": [
                    8.39067, 
                    9.95284, 
                    17.558
                ], 
                "angle": 0, 
                "axis": "y"
            }, 
            "from": [
                8.21267, 
                9.85284, 
                17.608
            ], 
            "faces": {
                "north": {
                    "uv": [
                        3.875, 
                        3, 
                        4.75, 
                        3
                    ], 
                    "texture": "#0"
                }, 
                "west": {
                    "uv": [
                        3.875, 
                        3, 
                        4.75, 
                        3
                    ], 
                    "texture": "#0"
                }, 
                "up": {
                    "uv": [
                        3.875, 
                        3, 
                        4.75, 
                        3
                    ], 
                    "texture": "#0"
                }, 
                "down": {
                    "uv": [
                        3.875, 
                        3, 
                        4.75, 
                        3
                    ], 
                    "texture": "#0"
                }, 
                "east": {
                    "uv": [
                        3.875, 
                        3, 
                        4.75, 
                        3
                    ], 
                    "texture": "#0"
                }, 
                "south": {
                    "uv": [
                        3.875, 
                        3, 
                        4.75, 
                        3
                    ], 
                    "texture": "#0"
                }
            }
        }, 
        {
            "to": [
                8.44067, 
                9.98884, 
                17.608
            ], 
            "rotation": {
                "origin": [
                    8.39067, 
                    9.95284, 
                    17.498
                ], 
                "angle": 0, 
                "axis": "y"
            }, 
            "from": [
                8.21267, 
                9.85284, 
                17.388
            ], 
            "faces": {
                "north": {
                    "uv": [
                        1, 
                        4.75, 
                        1.5, 
                        6.25
                    ], 
                    "texture": "#0"
                }, 
                "west": {
                    "uv": [
                        1, 
                        4.75, 
                        1.5, 
                        6.25
                    ], 
                    "texture": "#0"
                }, 
                "up": {
                    "rotation": 270, 
                    "uv": [
                        1, 
                        4.75, 
                        1.5, 
                        6.25
                    ], 
                    "texture": "#0"
                }, 
                "down": {
                    "uv": [
                        1, 
                        4.75, 
                        1.5, 
                        6.25
                    ], 
                    "texture": "#0"
                }, 
                "east": {
                    "uv": [
                        1, 
                        4.75, 
                        1.5, 
                        6.25
                    ], 
                    "texture": "#0"
                }, 
                "south": {
                    "uv": [
                        1, 
                        4.75, 
                        1.5, 
                        6.25
                    ], 
                    "texture": "#0"
                }
            }
        }, 
        {
            "to": [
                8.51689, 
                9.97245, 
                17.668
            ], 
            "rotation": {
                "origin": [
                    8.46689, 
                    9.93645, 
                    17.558
                ], 
                "angle": -22.5, 
                "axis": "z"
            }, 
            "from": [
                8.41689, 
                9.86845, 
                17.608
            ], 
            "faces": {
                "north": {
                    "uv": [
                        3.875, 
                        3, 
                        4.75, 
                        3
                    ], 
                    "texture": "#0"
                }, 
                "west": {
                    "uv": [
                        3.875, 
                        3, 
                        4.75, 
                        3
                    ], 
                    "texture": "#0"
                }, 
                "up": {
                    "uv": [
                        3.875, 
                        3, 
                        4.75, 
                        3
                    ], 
                    "texture": "#0"
                }, 
                "down": {
                    "uv": [
                        3.875, 
                        3, 
                        4.75, 
                        3
                    ], 
                    "texture": "#0"
                }, 
                "east": {
                    "uv": [
                        3.875, 
                        3, 
                        4.75, 
                        3
                    ], 
                    "texture": "#0"
                }, 
                "south": {
                    "uv": [
                        3.875, 
                        3, 
                        4.75, 
                        3
                    ], 
                    "texture": "#0"
                }
            }
        }, 
        {
            "to": [
                8.51689, 
                9.97245, 
                17.608
            ], 
            "rotation": {
                "origin": [
                    8.46689, 
                    9.93645, 
                    17.498
                ], 
                "angle": -22.5, 
                "axis": "z"
            }, 
            "from": [
                8.41689, 
                9.86845, 
                17.388
            ], 
            "faces": {
                "north": {
                    "uv": [
                        1, 
                        4.75, 
                        1.5, 
                        6.25
                    ], 
                    "texture": "#0"
                }, 
                "west": {
                    "uv": [
                        1, 
                        4.75, 
                        1.5, 
                        6.25
                    ], 
                    "texture": "#0"
                }, 
                "up": {
                    "rotation": 270, 
                    "uv": [
                        1, 
                        4.75, 
                        1.5, 
                        6.25
                    ], 
                    "texture": "#0"
                }, 
                "down": {
                    "uv": [
                        1, 
                        4.75, 
                        1.5, 
                        6.25
                    ], 
                    "texture": "#0"
                }, 
                "east": {
                    "uv": [
                        1, 
                        4.75, 
                        1.5, 
                        6.25
                    ], 
                    "texture": "#0"
                }, 
                "south": {
                    "uv": [
                        1, 
                        4.75, 
                        1.5, 
                        6.25
                    ], 
                    "texture": "#0"
                }
            }
        }, 
        {
            "to": [
                8.58676, 
                9.92576, 
                17.668
            ], 
            "rotation": {
                "origin": [
                    8.53676, 
                    9.88976, 
                    17.558
                ], 
                "angle": -45, 
                "axis": "z"
            }, 
            "from": [
                8.48676, 
                9.82176, 
                17.608
            ], 
            "faces": {
                "north": {
                    "uv": [
                        3.875, 
                        3, 
                        4.75, 
                        3
                    ], 
                    "texture": "#0"
                }, 
                "west": {
                    "uv": [
                        3.875, 
                        3, 
                        4.75, 
                        3
                    ], 
                    "texture": "#0"
                }, 
                "up": {
                    "uv": [
                        3.875, 
                        3, 
                        4.75, 
                        3
                    ], 
                    "texture": "#0"
                }, 
                "down": {
                    "uv": [
                        3.875, 
                        3, 
                        4.75, 
                        3
                    ], 
                    "texture": "#0"
                }, 
                "east": {
                    "uv": [
                        3.875, 
                        3, 
                        4.75, 
                        3
                    ], 
                    "texture": "#0"
                }, 
                "south": {
                    "uv": [
                        3.875, 
                        3, 
                        4.75, 
                        3
                    ], 
                    "texture": "#0"
                }
            }
        }, 
        {
            "to": [
                8.58676, 
                9.92576, 
                17.608
            ], 
            "rotation": {
                "origin": [
                    8.53676, 
                    9.88976, 
                    17.498
                ], 
                "angle": -45, 
                "axis": "z"
            }, 
            "from": [
                8.48676, 
                9.82176, 
                17.388
            ], 
            "faces": {
                "north": {
                    "uv": [
                        1, 
                        4.75, 
                        1.5, 
                        6.25
                    ], 
                    "texture": "#0"
                }, 
                "west": {
                    "uv": [
                        1, 
                        4.75, 
                        1.5, 
                        6.25
                    ], 
                    "texture": "#0"
                }, 
                "up": {
                    "rotation": 270, 
                    "uv": [
                        1, 
                        4.75, 
                        1.5, 
                        6.25
                    ], 
                    "texture": "#0"
                }, 
                "down": {
                    "uv": [
                        1, 
                        4.75, 
                        1.5, 
                        6.25
                    ], 
                    "texture": "#0"
                }, 
                "east": {
                    "uv": [
                        1, 
                        4.75, 
                        1.5, 
                        6.25
                    ], 
                    "texture": "#0"
                }, 
                "south": {
                    "uv": [
                        1, 
                        4.75, 
                        1.5, 
                        6.25
                    ], 
                    "texture": "#0"
                }
            }
        }, 
        {
            "to": [
                8.59757, 
                9.87986, 
                12.996
            ], 
            "rotation": {
                "origin": [
                    8.13157, 
                    9.61986, 
                    7.71
                ], 
                "angle": 0, 
                "axis": "y"
            }, 
            "from": [
                8.04957, 
                9.26386, 
                11.784
            ], 
            "faces": {
                "north": {
                    "uv": [
                        14.375, 
                        6.25, 
                        14.375, 
                        6.625
                    ], 
                    "texture": "#0"
                }, 
                "west": {
                    "uv": [
                        14.375, 
                        6.25, 
                        14.375, 
                        6.625
                    ], 
                    "texture": "#0"
                }, 
                "up": {
                    "uv": [
                        14.375, 
                        6.25, 
                        14.375, 
                        6.625
                    ], 
                    "texture": "#0"
                }, 
                "down": {
                    "uv": [
                        14.375, 
                        6.25, 
                        14.375, 
                        6.625
                    ], 
                    "texture": "#0"
                }, 
                "east": {
                    "uv": [
                        14.375, 
                        6.25, 
                        14.375, 
                        6.625
                    ], 
                    "texture": "#0"
                }, 
                "south": {
                    "uv": [
                        14.375, 
                        6.25, 
                        14.375, 
                        6.625
                    ], 
                    "texture": "#0"
                }
            }
        }, 
        {
            "to": [
                8.62957, 
                9.55986, 
                12.816
            ], 
            "rotation": {
                "origin": [
                    8.32357, 
                    9.49186, 
                    12.748
                ], 
                "angle": 45, 
                "axis": "x"
            }, 
            "from": [
                8.01757, 
                9.42386, 
                12.68
            ], 
            "faces": {
                "north": {
                    "uv": [
                        2.375, 
                        2.875, 
                        2.375, 
                        3.25
                    ], 
                    "texture": "#0"
                }, 
                "west": {
                    "uv": [
                        2.375, 
                        2.875, 
                        2.375, 
                        3.25
                    ], 
                    "texture": "#0"
                }, 
                "up": {
                    "uv": [
                        2.375, 
                        2.875, 
                        2.375, 
                        3.25
                    ], 
                    "texture": "#0"
                }, 
                "down": {
                    "uv": [
                        2.375, 
                        2.875, 
                        2.375, 
                        3.25
                    ], 
                    "texture": "#0"
                }, 
                "east": {
                    "uv": [
                        2.375, 
                        2.875, 
                        2.375, 
                        3.25
                    ], 
                    "texture": "#0"
                }, 
                "south": {
                    "uv": [
                        2.375, 
                        2.875, 
                        2.375, 
                        3.25
                    ], 
                    "texture": "#0"
                }
            }
        }, 
        {
            "to": [
                8.39157, 
                7.67186, 
                17.694
            ], 
            "rotation": {
                "origin": [
                    8.32357, 
                    7.60386, 
                    17.516
                ], 
                "angle": -45, 
                "axis": "z"
            }, 
            "from": [
                8.25557, 
                7.53586, 
                17.338
            ], 
            "faces": {
                "north": {
                    "uv": [
                        6.625, 
                        2.25, 
                        6.625, 
                        2.625
                    ], 
                    "texture": "#0"
                }, 
                "west": {
                    "uv": [
                        6.625, 
                        2.25, 
                        6.625, 
                        2.625
                    ], 
                    "texture": "#0"
                }, 
                "up": {
                    "uv": [
                        6.625, 
                        2.25, 
                        6.625, 
                        2.625
                    ], 
                    "texture": "#0"
                }, 
                "down": {
                    "uv": [
                        6.625, 
                        2.25, 
                        6.625, 
                        2.625
                    ], 
                    "texture": "#0"
                }, 
                "east": {
                    "uv": [
                        6.625, 
                        2.25, 
                        6.625, 
                        2.625
                    ], 
                    "texture": "#0"
                }, 
                "south": {
                    "uv": [
                        6.625, 
                        2.25, 
                        6.625, 
                        2.625
                    ], 
                    "texture": "#0"
                }
            }
        }, 
        {
            "to": [
                8.56442, 
                9.71986, 
                17.732
            ], 
            "rotation": {
                "origin": [
                    8.51442, 
                    9.61986, 
                    7.71
                ], 
                "angle": 0, 
                "axis": "y"
            }, 
            "from": [
                8.46442, 
                9.51986, 
                12.68
            ], 
            "faces": {
                "north": {
                    "uv": [
                        2, 
                        3, 
                        2.25, 
                        4
                    ], 
                    "texture": "#0"
                }, 
                "west": {
                    "uv": [
                        2, 
                        3, 
                        2.25, 
                        4
                    ], 
                    "texture": "#0"
                }, 
                "up": {
                    "uv": [
                        2, 
                        3, 
                        2.25, 
                        4
                    ], 
                    "texture": "#0"
                }, 
                "down": {
                    "uv": [
                        2, 
                        3, 
                        2.25, 
                        4
                    ], 
                    "texture": "#0"
                }, 
                "east": {
                    "uv": [
                        2, 
                        3, 
                        2.25, 
                        4
                    ], 
                    "texture": "#0"
                }, 
                "south": {
                    "uv": [
                        2, 
                        3, 
                        2.25, 
                        4
                    ], 
                    "texture": "#0"
                }
            }
        }, 
        {
            "to": [
                8.56442, 
                9.71986, 
                17.732
            ], 
            "rotation": {
                "origin": [
                    8.323, 
                    9.61986, 
                    8.71
                ], 
                "angle": 45, 
                "axis": "z"
            }, 
            "from": [
                8.14442, 
                9.51986, 
                12.68
            ], 
            "faces": {
                "north": {
                    "rotation": 180, 
                    "uv": [
                        2, 
                        3, 
                        2.25, 
                        4
                    ], 
                    "texture": "#0"
                }, 
                "west": {
                    "rotation": 180, 
                    "uv": [
                        2, 
                        3, 
                        2.25, 
                        4
                    ], 
                    "texture": "#0"
                }, 
                "up": {
                    "rotation": 180, 
                    "uv": [
                        2, 
                        3, 
                        2.25, 
                        4
                    ], 
                    "texture": "#0"
                }, 
                "down": {
                    "rotation": 180, 
                    "uv": [
                        2, 
                        3, 
                        2.25, 
                        4
                    ], 
                    "texture": "#0"
                }, 
                "east": {
                    "rotation": 180, 
                    "uv": [
                        2, 
                        3, 
                        2.25, 
                        4
                    ], 
                    "texture": "#0"
                }, 
                "south": {
                    "rotation": 180, 
                    "uv": [
                        2, 
                        3, 
                        2.25, 
                        4
                    ], 
                    "texture": "#0"
                }
            }
        }, 
        {
            "to": [
                8.423, 
                9.86129, 
                17.732
            ], 
            "rotation": {
                "origin": [
                    8.323, 
                    9.61986, 
                    8.71
                ], 
                "angle": 45, 
                "axis": "z"
            }, 
            "from": [
                8.223, 
                9.76129, 
                12.68
            ], 
            "faces": {
                "north": {
                    "rotation": 90, 
                    "uv": [
                        2, 
                        3, 
                        2.25, 
                        4
                    ], 
                    "texture": "#0"
                }, 
                "west": {
                    "rotation": 90, 
                    "uv": [
                        2, 
                        3, 
                        2.25, 
                        4
                    ], 
                    "texture": "#0"
                }, 
                "up": {
                    "rotation": 90, 
                    "uv": [
                        2, 
                        3, 
                        2.25, 
                        4
                    ], 
                    "texture": "#0"
                }, 
                "down": {
                    "rotation": 90, 
                    "uv": [
                        2, 
                        3, 
                        2.25, 
                        4
                    ], 
                    "texture": "#0"
                }, 
                "east": {
                    "rotation": 90, 
                    "uv": [
                        2, 
                        3, 
                        2.25, 
                        4
                    ], 
                    "texture": "#0"
                }, 
                "south": {
                    "rotation": 90, 
                    "uv": [
                        2, 
                        3, 
                        2.25, 
                        4
                    ], 
                    "texture": "#0"
                }
            }
        }, 
        {
            "to": [
                8.423, 
                9.86129, 
                17.732
            ], 
            "rotation": {
                "origin": [
                    8.06442, 
                    9.71986, 
                    -5.04
                ], 
                "angle": 0, 
                "axis": "y"
            }, 
            "from": [
                8.223, 
                9.76129, 
                12.68
            ], 
            "faces": {
                "north": {
                    "rotation": 270, 
                    "uv": [
                        2, 
                        3, 
                        2.25, 
                        4
                    ], 
                    "texture": "#0"
                }, 
                "west": {
                    "rotation": 270, 
                    "uv": [
                        2, 
                        3, 
                        2.25, 
                        4
                    ], 
                    "texture": "#0"
                }, 
                "up": {
                    "rotation": 270, 
                    "uv": [
                        2, 
                        3, 
                        2.25, 
                        4
                    ], 
                    "texture": "#0"
                }, 
                "down": {
                    "rotation": 270, 
                    "uv": [
                        2, 
                        3, 
                        2.25, 
                        4
                    ], 
                    "texture": "#0"
                }, 
                "east": {
                    "rotation": 270, 
                    "uv": [
                        2, 
                        3, 
                        2.25, 
                        4
                    ], 
                    "texture": "#0"
                }, 
                "south": {
                    "rotation": 270, 
                    "uv": [
                        2, 
                        3, 
                        2.25, 
                        4
                    ], 
                    "texture": "#0"
                }
            }
        }, 
        {
            "to": [
                8.423, 
                9.79844, 
                17.732
            ], 
            "rotation": {
                "origin": [
                    8.323, 
                    9.61986, 
                    8.71
                ], 
                "angle": 45, 
                "axis": "z"
            }, 
            "from": [
                8.223, 
                9.37844, 
                12.68
            ], 
            "faces": {
                "north": {
                    "rotation": 90, 
                    "uv": [
                        2, 
                        3, 
                        2.25, 
                        4
                    ], 
                    "texture": "#0"
                }, 
                "west": {
                    "rotation": 90, 
                    "uv": [
                        2, 
                        3, 
                        2.25, 
                        4
                    ], 
                    "texture": "#0"
                }, 
                "up": {
                    "rotation": 90, 
                    "uv": [
                        2, 
                        3, 
                        2.25, 
                        4
                    ], 
                    "texture": "#0"
                }, 
                "down": {
                    "rotation": 90, 
                    "uv": [
                        2, 
                        3, 
                        2.25, 
                        4
                    ], 
                    "texture": "#0"
                }, 
                "east": {
                    "rotation": 90, 
                    "uv": [
                        2, 
                        3, 
                        2.25, 
                        4
                    ], 
                    "texture": "#0"
                }, 
                "south": {
                    "rotation": 90, 
                    "uv": [
                        2, 
                        3, 
                        2.25, 
                        4
                    ], 
                    "texture": "#0"
                }
            }
        }, 
        {
            "to": [
                8.423, 
                9.47844, 
                17.732
            ], 
            "rotation": {
                "origin": [
                    8.06442, 
                    9.33702, 
                    -5.04
                ], 
                "angle": 0, 
                "axis": "y"
            }, 
            "from": [
                8.223, 
                9.37844, 
                12.68
            ], 
            "faces": {
                "north": {
                    "rotation": 270, 
                    "uv": [
                        2, 
                        3, 
                        2.25, 
                        4
                    ], 
                    "texture": "#0"
                }, 
                "west": {
                    "rotation": 270, 
                    "uv": [
                        2, 
                        3, 
                        2.25, 
                        4
                    ], 
                    "texture": "#0"
                }, 
                "up": {
                    "rotation": 270, 
                    "uv": [
                        2, 
                        3, 
                        2.25, 
                        4
                    ], 
                    "texture": "#0"
                }, 
                "down": {
                    "rotation": 270, 
                    "uv": [
                        2, 
                        3, 
                        2.25, 
                        4
                    ], 
                    "texture": "#0"
                }, 
                "east": {
                    "rotation": 270, 
                    "uv": [
                        2, 
                        3, 
                        2.25, 
                        4
                    ], 
                    "texture": "#0"
                }, 
                "south": {
                    "rotation": 270, 
                    "uv": [
                        2, 
                        3, 
                        2.25, 
                        4
                    ], 
                    "texture": "#0"
                }
            }
        }, 
        {
            "to": [
                8.18157, 
                9.71986, 
                17.732
            ], 
            "rotation": {
                "origin": [
                    8.323, 
                    9.61986, 
                    8.71
                ], 
                "angle": 45, 
                "axis": "z"
            }, 
            "from": [
                8.08157, 
                9.51986, 
                12.68
            ], 
            "faces": {
                "north": {
                    "rotation": 180, 
                    "uv": [
                        2, 
                        3, 
                        2.25, 
                        4
                    ], 
                    "texture": "#0"
                }, 
                "west": {
                    "rotation": 180, 
                    "uv": [
                        2, 
                        3, 
                        2.25, 
                        4
                    ], 
                    "texture": "#0"
                }, 
                "up": {
                    "rotation": 180, 
                    "uv": [
                        2, 
                        3, 
                        2.25, 
                        4
                    ], 
                    "texture": "#0"
                }, 
                "down": {
                    "rotation": 180, 
                    "uv": [
                        2, 
                        3, 
                        2.25, 
                        4
                    ], 
                    "texture": "#0"
                }, 
                "east": {
                    "rotation": 180, 
                    "uv": [
                        2, 
                        3, 
                        2.25, 
                        4
                    ], 
                    "texture": "#0"
                }, 
                "south": {
                    "rotation": 180, 
                    "uv": [
                        2, 
                        3, 
                        2.25, 
                        4
                    ], 
                    "texture": "#0"
                }
            }
        }
    ], 
    "display": {
        "thirdperson_righthand": {
            "translation": [
                -1.25, 
                -1.25, 
                -5.5
            ], 
            "scale": [
                1.7, 
                1.7, 
                1.7
            ]
        }, 
        "head": {
            "rotation": [
                0, 
                -139, 
                90
            ], 
            "scale": [
                1.36, 
                1.36, 
                1.36
            ], 
            "translation": [
                0.75, 
                6.5, 
                0.5
            ]
        }, 
        "thirdperson_lefthand": {
            "translation": [
                0, 
                -1.25, 
                -3.75
            ], 
            "scale": [
                1.7, 
                1.7, 
                1.7
            ]
        }, 
        "gui": {
            "rotation": [
                11, 
                16, 
                -16
            ], 
            "scale": [
                2.2, 
                2.24, 
                2.83
            ], 
            "translation": [
                -2, 
                0, 
                0
            ]
        }, 
        "firstperson_righthand": {
            "rotation": [
                1, 
                1, 
                0
            ], 
            "scale": [
                1.19, 
                1.14, 
                0.87
            ], 
            "translation": [
                -5.25, 
                5, 
                4
            ]
        }, 
        "firstperson_lefthand": {
            "rotation": [
                1, 
                1, 
                0
            ], 
            "scale": [
                1.19, 
                1.14, 
                0.87
            ], 
            "translation": [
                -5.25, 
                5, 
                4
            ]
        }, 
        "fixed": {
            "rotation": [
                90, 
                45, 
                -90
            ], 
            "scale": [
                1.7, 
                1.7, 
                1.7
            ], 
            "translation": [
                -4.75, 
                2.75, 
                -1.75
            ]
        }, 
        "ground": {
            "translation": [
                0, 
                0, 
                -2.75
            ], 
            "scale": [
                1.7, 
                1.7, 
                1.7
            ]
        }
    }
}