{
    "textures": {
        "0": "gci:items/common/mpz",
        "particle": "MPZ"
    },
    "elements": [
        {
            "from": [
                7.14741,
                4.765,
                16.28967
            ],
            "to": [
                8.27141,
                5.13793,
                19.49967
            ],
            "rotation": {
                "angle": -22.5,
                "axis": "x",
                "origin": [
                    6.79741,
                    10.70147,
                    22.14467
                ]
            },
            "faces": {
                "north": {
                    "uv": [
                        0.46667,
                        3.26667,
                        2.16667,
                        5
                    ],
                    "rotation": 270,
                    "texture": "#0"
                },
                "east": {
                    "uv": [
                        0.46667,
                        3.26667,
                        2.16667,
                        5
                    ],
                    "rotation": 90,
                    "texture": "#0"
                },
                "south": {
                    "uv": [
                        0.46667,
                        3.26667,
                        2.16667,
                        5
                    ],
                    "rotation": 90,
                    "texture": "#0"
                },
                "west": {
                    "uv": [
                        0.46667,
                        3.26667,
                        2.16667,
                        5
                    ],
                    "rotation": 90,
                    "texture": "#0"
                },
                "up": {
                    "uv": [
                        0.46667,
                        3.26667,
                        2.16667,
                        5
                    ],
                    "rotation": 90,
                    "texture": "#0"
                },
                "down": {
                    "uv": [
                        0.46667,
                        3.26667,
                        2.16667,
                        5
                    ],
                    "rotation": 90,
                    "texture": "#0"
                }
            }
        }
    ],
    "display": {
        "thirdperson_righthand": {
            "translation": [
                0,
                -0.75,
                -1.75
            ],
            "scale": [
                0.47,
                0.46,
                0.37
            ]
        },
        "thirdperson_lefthand": {
            "translation": [
                -0.25,
                -1,
                -2.25
            ],
            "scale": [
                0.47,
                0.46,
                0.37
            ]
        },
        "firstperson_righthand": {
            "translation": [
                -0.75,
                2.75,
                0
            ],
            "scale": [
                0.47,
                0.46,
                0.37
            ]
        },
        "firstperson_lefthand": {
            "translation": [
                -1,
                2.75,
                0
            ],
            "scale": [
                0.47,
                0.46,
                0.37
            ]
        },
        "ground": {
            "scale": [
                0.6,
                0.6,
                0.6
            ]
        },
        "gui": {
            "rotation": [
                90,
                45,
                -89
            ],
            "scale": [
                0.61,
                0.58,
                0.57
            ]
        },
        "head": {
            "translation": [
                0,
                -27.5,
                -9.75
            ]
        },
        "fixed": {
            "rotation": [
                90,
                45,
                -90
            ],
            "scale": [
                0.74,
                0.71,
                0.71
            ]
        }
    }
}