{
    "textures": {
        "0": "gci:items/common/all_in_one",
        "1": "gci:items/common/mpz",
        "particle": "gci:items/common/all_in_one"
    },
    "elements": [
        {
            "from": [
                7.65559,
                9.87295,
                10.7003
            ],
            "to": [
                8.33559,
                10.00895,
                11.1083
            ],
            "rotation": {
                "angle": 0,
                "axis": "y",
                "origin": [
                    7.99491,
                    10.57344,
                    12.16012
                ]
            },
            "faces": {
                "north": {
                    "uv": [
                        9,
                        0.33333,
                        10.33333,
                        2.33333
                    ],
                    "texture": "#1"
                },
                "east": {
                    "uv": [
                        9,
                        0.33333,
                        10.33333,
                        2.33333
                    ],
                    "texture": "#1"
                },
                "south": {
                    "uv": [
                        9,
                        0.33333,
                        10.33333,
                        2.33333
                    ],
                    "texture": "#1"
                },
                "west": {
                    "uv": [
                        9,
                        0.33333,
                        10.33333,
                        2.33333
                    ],
                    "texture": "#1"
                },
                "up": {
                    "uv": [
                        9,
                        0.33333,
                        10.33333,
                        2.33333
                    ],
                    "texture": "#1"
                },
                "down": {
                    "uv": [
                        9,
                        0.33333,
                        10.33333,
                        2.33333
                    ],
                    "texture": "#1"
                }
            }
        },
        {
            "from": [
                8.5388,
                9.98243,
                10.6323
            ],
            "to": [
                8.6068,
                10.05043,
                10.7683
            ],
            "rotation": {
                "angle": -45,
                "axis": "z",
                "origin": [
                    7.99491,
                    10.57344,
                    12.16012
                ]
            },
            "faces": {
                "north": {
                    "uv": [
                        9,
                        0.33333,
                        10.33333,
                        2.33333
                    ],
                    "rotation": 90,
                    "texture": "#1"
                },
                "east": {
                    "uv": [
                        9,
                        0.33333,
                        10.33333,
                        2.33333
                    ],
                    "rotation": 90,
                    "texture": "#1"
                },
                "south": {
                    "uv": [
                        9,
                        0.33333,
                        10.33333,
                        2.33333
                    ],
                    "rotation": 90,
                    "texture": "#1"
                },
                "west": {
                    "uv": [
                        9,
                        0.33333,
                        10.33333,
                        2.33333
                    ],
                    "rotation": 90,
                    "texture": "#1"
                },
                "up": {
                    "uv": [
                        9,
                        0.33333,
                        10.33333,
                        2.33333
                    ],
                    "rotation": 90,
                    "texture": "#1"
                },
                "down": {
                    "uv": [
                        9,
                        0.33333,
                        10.33333,
                        2.33333
                    ],
                    "rotation": 90,
                    "texture": "#1"
                }
            }
        },
        {
            "from": [
                8.19959,
                9.94095,
                10.7683
            ],
            "to": [
                8.26759,
                10.21295,
                10.9723
            ],
            "rotation": {
                "angle": 0,
                "axis": "y",
                "origin": [
                    7.99491,
                    10.57344,
                    12.16012
                ]
            },
            "faces": {
                "north": {
                    "uv": [
                        9,
                        0.33333,
                        10.33333,
                        2.33333
                    ],
                    "texture": "#1"
                },
                "east": {
                    "uv": [
                        9,
                        0.33333,
                        10.33333,
                        2.33333
                    ],
                    "texture": "#1"
                },
                "south": {
                    "uv": [
                        9,
                        0.33333,
                        10.33333,
                        2.33333
                    ],
                    "texture": "#1"
                },
                "west": {
                    "uv": [
                        9,
                        0.33333,
                        10.33333,
                        2.33333
                    ],
                    "texture": "#1"
                },
                "up": {
                    "uv": [
                        9,
                        0.33333,
                        10.33333,
                        2.33333
                    ],
                    "texture": "#1"
                },
                "down": {
                    "uv": [
                        9,
                        0.33333,
                        10.33333,
                        2.33333
                    ],
                    "texture": "#1"
                }
            }
        },
        {
            "from": [
                7.72359,
                9.94095,
                10.7683
            ],
            "to": [
                7.79159,
                10.21295,
                10.9723
            ],
            "rotation": {
                "angle": 0,
                "axis": "y",
                "origin": [
                    7.99491,
                    10.57344,
                    12.16012
                ]
            },
            "faces": {
                "north": {
                    "uv": [
                        9,
                        0.33333,
                        10.33333,
                        2.33333
                    ],
                    "texture": "#1"
                },
                "east": {
                    "uv": [
                        9,
                        0.33333,
                        10.33333,
                        2.33333
                    ],
                    "texture": "#1"
                },
                "south": {
                    "uv": [
                        9,
                        0.33333,
                        10.33333,
                        2.33333
                    ],
                    "texture": "#1"
                },
                "west": {
                    "uv": [
                        9,
                        0.33333,
                        10.33333,
                        2.33333
                    ],
                    "texture": "#1"
                },
                "up": {
                    "uv": [
                        9,
                        0.33333,
                        10.33333,
                        2.33333
                    ],
                    "texture": "#1"
                },
                "down": {
                    "uv": [
                        9,
                        0.33333,
                        10.33333,
                        2.33333
                    ],
                    "texture": "#1"
                }
            }
        },
        {
            "from": [
                7.58759,
                9.46495,
                11.2443
            ],
            "to": [
                7.65559,
                9.87295,
                11.4483
            ],
            "rotation": {
                "angle": 0,
                "axis": "y",
                "origin": [
                    7.99491,
                    10.57344,
                    12.16012
                ]
            },
            "faces": {
                "north": {
                    "uv": [
                        9,
                        0.33333,
                        10.33333,
                        2.33333
                    ],
                    "texture": "#1"
                },
                "east": {
                    "uv": [
                        9,
                        0.33333,
                        10.33333,
                        2.33333
                    ],
                    "texture": "#1"
                },
                "south": {
                    "uv": [
                        9,
                        0.33333,
                        10.33333,
                        2.33333
                    ],
                    "texture": "#1"
                },
                "west": {
                    "uv": [
                        9,
                        0.33333,
                        10.33333,
                        2.33333
                    ],
                    "texture": "#1"
                },
                "up": {
                    "uv": [
                        9,
                        0.33333,
                        10.33333,
                        2.33333
                    ],
                    "texture": "#1"
                },
                "down": {
                    "uv": [
                        9,
                        0.33333,
                        10.33333,
                        2.33333
                    ],
                    "texture": "#1"
                }
            }
        },
        {
            "from": [
                7.58759,
                9.46495,
                10.7275
            ],
            "to": [
                7.65559,
                9.87295,
                10.9315
            ],
            "rotation": {
                "angle": 0,
                "axis": "y",
                "origin": [
                    7.99491,
                    10.57344,
                    12.16012
                ]
            },
            "faces": {
                "north": {
                    "uv": [
                        9,
                        0.33333,
                        10.33333,
                        2.33333
                    ],
                    "texture": "#1"
                },
                "east": {
                    "uv": [
                        9,
                        0.33333,
                        10.33333,
                        2.33333
                    ],
                    "texture": "#1"
                },
                "south": {
                    "uv": [
                        9,
                        0.33333,
                        10.33333,
                        2.33333
                    ],
                    "texture": "#1"
                },
                "west": {
                    "uv": [
                        9,
                        0.33333,
                        10.33333,
                        2.33333
                    ],
                    "texture": "#1"
                },
                "up": {
                    "uv": [
                        9,
                        0.33333,
                        10.33333,
                        2.33333
                    ],
                    "texture": "#1"
                },
                "down": {
                    "uv": [
                        9,
                        0.33333,
                        10.33333,
                        2.33333
                    ],
                    "texture": "#1"
                }
            }
        },
        {
            "from": [
                8.33559,
                9.46495,
                10.7275
            ],
            "to": [
                8.40359,
                9.87295,
                10.9315
            ],
            "rotation": {
                "angle": 0,
                "axis": "y",
                "origin": [
                    7.99491,
                    10.57344,
                    12.16012
                ]
            },
            "faces": {
                "north": {
                    "uv": [
                        9,
                        0.33333,
                        10.33333,
                        2.33333
                    ],
                    "texture": "#1"
                },
                "east": {
                    "uv": [
                        9,
                        0.33333,
                        10.33333,
                        2.33333
                    ],
                    "texture": "#1"
                },
                "south": {
                    "uv": [
                        9,
                        0.33333,
                        10.33333,
                        2.33333
                    ],
                    "texture": "#1"
                },
                "west": {
                    "uv": [
                        9,
                        0.33333,
                        10.33333,
                        2.33333
                    ],
                    "texture": "#1"
                },
                "up": {
                    "uv": [
                        9,
                        0.33333,
                        10.33333,
                        2.33333
                    ],
                    "texture": "#1"
                },
                "down": {
                    "uv": [
                        9,
                        0.33333,
                        10.33333,
                        2.33333
                    ],
                    "texture": "#1"
                }
            }
        },
        {
            "from": [
                8.33559,
                9.46495,
                11.2443
            ],
            "to": [
                8.40359,
                9.87295,
                11.4483
            ],
            "rotation": {
                "angle": 0,
                "axis": "y",
                "origin": [
                    7.99491,
                    10.57344,
                    12.16012
                ]
            },
            "faces": {
                "north": {
                    "uv": [
                        9,
                        0.33333,
                        10.33333,
                        2.33333
                    ],
                    "texture": "#1"
                },
                "east": {
                    "uv": [
                        9,
                        0.33333,
                        10.33333,
                        2.33333
                    ],
                    "texture": "#1"
                },
                "south": {
                    "uv": [
                        9,
                        0.33333,
                        10.33333,
                        2.33333
                    ],
                    "texture": "#1"
                },
                "west": {
                    "uv": [
                        9,
                        0.33333,
                        10.33333,
                        2.33333
                    ],
                    "texture": "#1"
                },
                "up": {
                    "uv": [
                        9,
                        0.33333,
                        10.33333,
                        2.33333
                    ],
                    "texture": "#1"
                },
                "down": {
                    "uv": [
                        9,
                        0.33333,
                        10.33333,
                        2.33333
                    ],
                    "texture": "#1"
                }
            }
        },
        {
            "from": [
                8.05796,
                10.12668,
                10.7683
            ],
            "to": [
                8.12596,
                10.33068,
                10.9723
            ],
            "rotation": {
                "angle": -45,
                "axis": "z",
                "origin": [
                    7.99491,
                    10.57344,
                    12.16012
                ]
            },
            "faces": {
                "north": {
                    "uv": [
                        9,
                        0.33333,
                        10.33333,
                        2.33333
                    ],
                    "texture": "#1"
                },
                "east": {
                    "uv": [
                        9,
                        0.33333,
                        10.33333,
                        2.33333
                    ],
                    "texture": "#1"
                },
                "south": {
                    "uv": [
                        9,
                        0.33333,
                        10.33333,
                        2.33333
                    ],
                    "texture": "#1"
                },
                "west": {
                    "uv": [
                        9,
                        0.33333,
                        10.33333,
                        2.33333
                    ],
                    "texture": "#1"
                },
                "up": {
                    "uv": [
                        9,
                        0.33333,
                        10.33333,
                        2.33333
                    ],
                    "texture": "#1"
                },
                "down": {
                    "uv": [
                        9,
                        0.33333,
                        10.33333,
                        2.33333
                    ],
                    "texture": "#1"
                }
            }
        },
        {
            "from": [
                7.86481,
                10.12573,
                10.7683
            ],
            "to": [
                7.93281,
                10.32973,
                10.9723
            ],
            "rotation": {
                "angle": 45,
                "axis": "z",
                "origin": [
                    7.99491,
                    10.57344,
                    12.16012
                ]
            },
            "faces": {
                "north": {
                    "uv": [
                        9,
                        0.33333,
                        10.33333,
                        2.33333
                    ],
                    "texture": "#1"
                },
                "east": {
                    "uv": [
                        9,
                        0.33333,
                        10.33333,
                        2.33333
                    ],
                    "texture": "#1"
                },
                "south": {
                    "uv": [
                        9,
                        0.33333,
                        10.33333,
                        2.33333
                    ],
                    "texture": "#1"
                },
                "west": {
                    "uv": [
                        9,
                        0.33333,
                        10.33333,
                        2.33333
                    ],
                    "texture": "#1"
                },
                "up": {
                    "uv": [
                        9,
                        0.33333,
                        10.33333,
                        2.33333
                    ],
                    "texture": "#1"
                },
                "down": {
                    "uv": [
                        9,
                        0.33333,
                        10.33333,
                        2.33333
                    ],
                    "texture": "#1"
                }
            }
        },
        {
            "from": [
                7.86494,
                10.2892,
                10.7683
            ],
            "to": [
                8.12334,
                10.3572,
                10.9723
            ],
            "rotation": {
                "angle": 0,
                "axis": "y",
                "origin": [
                    7.99491,
                    10.57344,
                    12.16012
                ]
            },
            "faces": {
                "north": {
                    "uv": [
                        9,
                        0.33333,
                        10.33333,
                        2.33333
                    ],
                    "rotation": 270,
                    "texture": "#1"
                },
                "east": {
                    "uv": [
                        9,
                        0.33333,
                        10.33333,
                        2.33333
                    ],
                    "rotation": 270,
                    "texture": "#1"
                },
                "south": {
                    "uv": [
                        9,
                        0.33333,
                        10.33333,
                        2.33333
                    ],
                    "rotation": 270,
                    "texture": "#1"
                },
                "west": {
                    "uv": [
                        9,
                        0.33333,
                        10.33333,
                        2.33333
                    ],
                    "rotation": 270,
                    "texture": "#1"
                },
                "up": {
                    "uv": [
                        9,
                        0.33333,
                        10.33333,
                        2.33333
                    ],
                    "rotation": 270,
                    "texture": "#1"
                },
                "down": {
                    "uv": [
                        9,
                        0.33333,
                        10.33333,
                        2.33333
                    ],
                    "rotation": 270,
                    "texture": "#1"
                }
            }
        },
        {
            "from": [
                7.65559,
                9.66895,
                10.7003
            ],
            "to": [
                8.33559,
                9.87295,
                11.9923
            ],
            "rotation": {
                "angle": 0,
                "axis": "y",
                "origin": [
                    7.99491,
                    10.57344,
                    12.16012
                ]
            },
            "faces": {
                "north": {
                    "uv": [
                        9,
                        0.33333,
                        10.33333,
                        2.33333
                    ],
                    "texture": "#1"
                },
                "east": {
                    "uv": [
                        9,
                        0.33333,
                        10.33333,
                        2.33333
                    ],
                    "texture": "#1"
                },
                "south": {
                    "uv": [
                        9,
                        0.33333,
                        10.33333,
                        2.33333
                    ],
                    "texture": "#1"
                },
                "west": {
                    "uv": [
                        9,
                        0.33333,
                        10.33333,
                        2.33333
                    ],
                    "texture": "#1"
                },
                "up": {
                    "uv": [
                        9,
                        0.33333,
                        10.33333,
                        2.33333
                    ],
                    "texture": "#1"
                },
                "down": {
                    "uv": [
                        9,
                        0.33333,
                        10.33333,
                        2.33333
                    ],
                    "texture": "#1"
                }
            }
        },
        {
            "from": [
                7.65559,
                9.87295,
                10.7003
            ],
            "to": [
                8.33559,
                10.00895,
                11.1083
            ],
            "rotation": {
                "angle": 0,
                "axis": "y",
                "origin": [
                    7.99491,
                    10.57344,
                    12.16012
                ]
            },
            "faces": {
                "north": {
                    "uv": [
                        9,
                        0.33333,
                        10.33333,
                        2.33333
                    ],
                    "texture": "#1"
                },
                "east": {
                    "uv": [
                        9,
                        0.33333,
                        10.33333,
                        2.33333
                    ],
                    "texture": "#1"
                },
                "south": {
                    "uv": [
                        9,
                        0.33333,
                        10.33333,
                        2.33333
                    ],
                    "texture": "#1"
                },
                "west": {
                    "uv": [
                        9,
                        0.33333,
                        10.33333,
                        2.33333
                    ],
                    "texture": "#1"
                },
                "up": {
                    "uv": [
                        9,
                        0.33333,
                        10.33333,
                        2.33333
                    ],
                    "texture": "#1"
                },
                "down": {
                    "uv": [
                        9,
                        0.33333,
                        10.33333,
                        2.33333
                    ],
                    "texture": "#1"
                }
            }
        },
        {
            "from": [
                8.5388,
                9.98243,
                10.6323
            ],
            "to": [
                8.6068,
                10.05043,
                10.7683
            ],
            "rotation": {
                "angle": -45,
                "axis": "z",
                "origin": [
                    7.99491,
                    10.57344,
                    12.16012
                ]
            },
            "faces": {
                "north": {
                    "uv": [
                        9,
                        0.33333,
                        10.33333,
                        2.33333
                    ],
                    "rotation": 90,
                    "texture": "#1"
                },
                "east": {
                    "uv": [
                        9,
                        0.33333,
                        10.33333,
                        2.33333
                    ],
                    "rotation": 90,
                    "texture": "#1"
                },
                "south": {
                    "uv": [
                        9,
                        0.33333,
                        10.33333,
                        2.33333
                    ],
                    "rotation": 90,
                    "texture": "#1"
                },
                "west": {
                    "uv": [
                        9,
                        0.33333,
                        10.33333,
                        2.33333
                    ],
                    "rotation": 90,
                    "texture": "#1"
                },
                "up": {
                    "uv": [
                        9,
                        0.33333,
                        10.33333,
                        2.33333
                    ],
                    "rotation": 90,
                    "texture": "#1"
                },
                "down": {
                    "uv": [
                        9,
                        0.33333,
                        10.33333,
                        2.33333
                    ],
                    "rotation": 90,
                    "texture": "#1"
                }
            }
        },
        {
            "from": [
                8.19959,
                9.94095,
                10.7683
            ],
            "to": [
                8.26759,
                10.21295,
                10.9723
            ],
            "rotation": {
                "angle": 0,
                "axis": "y",
                "origin": [
                    7.99491,
                    10.57344,
                    12.16012
                ]
            },
            "faces": {
                "north": {
                    "uv": [
                        9,
                        0.33333,
                        10.33333,
                        2.33333
                    ],
                    "texture": "#1"
                },
                "east": {
                    "uv": [
                        9,
                        0.33333,
                        10.33333,
                        2.33333
                    ],
                    "texture": "#1"
                },
                "south": {
                    "uv": [
                        9,
                        0.33333,
                        10.33333,
                        2.33333
                    ],
                    "texture": "#1"
                },
                "west": {
                    "uv": [
                        9,
                        0.33333,
                        10.33333,
                        2.33333
                    ],
                    "texture": "#1"
                },
                "up": {
                    "uv": [
                        9,
                        0.33333,
                        10.33333,
                        2.33333
                    ],
                    "texture": "#1"
                },
                "down": {
                    "uv": [
                        9,
                        0.33333,
                        10.33333,
                        2.33333
                    ],
                    "texture": "#1"
                }
            }
        },
        {
            "from": [
                7.72359,
                9.94095,
                10.7683
            ],
            "to": [
                7.79159,
                10.21295,
                10.9723
            ],
            "rotation": {
                "angle": 0,
                "axis": "y",
                "origin": [
                    7.99491,
                    10.57344,
                    12.16012
                ]
            },
            "faces": {
                "north": {
                    "uv": [
                        9,
                        0.33333,
                        10.33333,
                        2.33333
                    ],
                    "texture": "#1"
                },
                "east": {
                    "uv": [
                        9,
                        0.33333,
                        10.33333,
                        2.33333
                    ],
                    "texture": "#1"
                },
                "south": {
                    "uv": [
                        9,
                        0.33333,
                        10.33333,
                        2.33333
                    ],
                    "texture": "#1"
                },
                "west": {
                    "uv": [
                        9,
                        0.33333,
                        10.33333,
                        2.33333
                    ],
                    "texture": "#1"
                },
                "up": {
                    "uv": [
                        9,
                        0.33333,
                        10.33333,
                        2.33333
                    ],
                    "texture": "#1"
                },
                "down": {
                    "uv": [
                        9,
                        0.33333,
                        10.33333,
                        2.33333
                    ],
                    "texture": "#1"
                }
            }
        },
        {
            "from": [
                7.58759,
                9.46495,
                11.2443
            ],
            "to": [
                7.65559,
                9.87295,
                11.4483
            ],
            "rotation": {
                "angle": 0,
                "axis": "y",
                "origin": [
                    7.99491,
                    10.57344,
                    12.16012
                ]
            },
            "faces": {
                "north": {
                    "uv": [
                        9,
                        0.33333,
                        10.33333,
                        2.33333
                    ],
                    "texture": "#1"
                },
                "east": {
                    "uv": [
                        9,
                        0.33333,
                        10.33333,
                        2.33333
                    ],
                    "texture": "#1"
                },
                "south": {
                    "uv": [
                        9,
                        0.33333,
                        10.33333,
                        2.33333
                    ],
                    "texture": "#1"
                },
                "west": {
                    "uv": [
                        9,
                        0.33333,
                        10.33333,
                        2.33333
                    ],
                    "texture": "#1"
                },
                "up": {
                    "uv": [
                        9,
                        0.33333,
                        10.33333,
                        2.33333
                    ],
                    "texture": "#1"
                },
                "down": {
                    "uv": [
                        9,
                        0.33333,
                        10.33333,
                        2.33333
                    ],
                    "texture": "#1"
                }
            }
        },
        {
            "from": [
                7.58759,
                9.46495,
                10.7275
            ],
            "to": [
                7.65559,
                9.87295,
                10.9315
            ],
            "rotation": {
                "angle": 0,
                "axis": "y",
                "origin": [
                    7.99491,
                    10.57344,
                    12.16012
                ]
            },
            "faces": {
                "north": {
                    "uv": [
                        9,
                        0.33333,
                        10.33333,
                        2.33333
                    ],
                    "texture": "#1"
                },
                "east": {
                    "uv": [
                        9,
                        0.33333,
                        10.33333,
                        2.33333
                    ],
                    "texture": "#1"
                },
                "south": {
                    "uv": [
                        9,
                        0.33333,
                        10.33333,
                        2.33333
                    ],
                    "texture": "#1"
                },
                "west": {
                    "uv": [
                        9,
                        0.33333,
                        10.33333,
                        2.33333
                    ],
                    "texture": "#1"
                },
                "up": {
                    "uv": [
                        9,
                        0.33333,
                        10.33333,
                        2.33333
                    ],
                    "texture": "#1"
                },
                "down": {
                    "uv": [
                        9,
                        0.33333,
                        10.33333,
                        2.33333
                    ],
                    "texture": "#1"
                }
            }
        },
        {
            "from": [
                8.33559,
                9.46495,
                10.7275
            ],
            "to": [
                8.40359,
                9.87295,
                10.9315
            ],
            "rotation": {
                "angle": 0,
                "axis": "y",
                "origin": [
                    7.99491,
                    10.57344,
                    12.16012
                ]
            },
            "faces": {
                "north": {
                    "uv": [
                        9,
                        0.33333,
                        10.33333,
                        2.33333
                    ],
                    "texture": "#1"
                },
                "east": {
                    "uv": [
                        9,
                        0.33333,
                        10.33333,
                        2.33333
                    ],
                    "texture": "#1"
                },
                "south": {
                    "uv": [
                        9,
                        0.33333,
                        10.33333,
                        2.33333
                    ],
                    "texture": "#1"
                },
                "west": {
                    "uv": [
                        9,
                        0.33333,
                        10.33333,
                        2.33333
                    ],
                    "texture": "#1"
                },
                "up": {
                    "uv": [
                        9,
                        0.33333,
                        10.33333,
                        2.33333
                    ],
                    "texture": "#1"
                },
                "down": {
                    "uv": [
                        9,
                        0.33333,
                        10.33333,
                        2.33333
                    ],
                    "texture": "#1"
                }
            }
        },
        {
            "from": [
                8.33559,
                9.46495,
                11.2443
            ],
            "to": [
                8.40359,
                9.87295,
                11.4483
            ],
            "rotation": {
                "angle": 0,
                "axis": "y",
                "origin": [
                    7.99491,
                    10.57344,
                    12.16012
                ]
            },
            "faces": {
                "north": {
                    "uv": [
                        9,
                        0.33333,
                        10.33333,
                        2.33333
                    ],
                    "texture": "#1"
                },
                "east": {
                    "uv": [
                        9,
                        0.33333,
                        10.33333,
                        2.33333
                    ],
                    "texture": "#1"
                },
                "south": {
                    "uv": [
                        9,
                        0.33333,
                        10.33333,
                        2.33333
                    ],
                    "texture": "#1"
                },
                "west": {
                    "uv": [
                        9,
                        0.33333,
                        10.33333,
                        2.33333
                    ],
                    "texture": "#1"
                },
                "up": {
                    "uv": [
                        9,
                        0.33333,
                        10.33333,
                        2.33333
                    ],
                    "texture": "#1"
                },
                "down": {
                    "uv": [
                        9,
                        0.33333,
                        10.33333,
                        2.33333
                    ],
                    "texture": "#1"
                }
            }
        },
        {
            "from": [
                8.05796,
                10.12668,
                10.7683
            ],
            "to": [
                8.12596,
                10.33068,
                10.9723
            ],
            "rotation": {
                "angle": -45,
                "axis": "z",
                "origin": [
                    7.99491,
                    10.57344,
                    12.16012
                ]
            },
            "faces": {
                "north": {
                    "uv": [
                        9,
                        0.33333,
                        10.33333,
                        2.33333
                    ],
                    "texture": "#1"
                },
                "east": {
                    "uv": [
                        9,
                        0.33333,
                        10.33333,
                        2.33333
                    ],
                    "texture": "#1"
                },
                "south": {
                    "uv": [
                        9,
                        0.33333,
                        10.33333,
                        2.33333
                    ],
                    "texture": "#1"
                },
                "west": {
                    "uv": [
                        9,
                        0.33333,
                        10.33333,
                        2.33333
                    ],
                    "texture": "#1"
                },
                "up": {
                    "uv": [
                        9,
                        0.33333,
                        10.33333,
                        2.33333
                    ],
                    "texture": "#1"
                },
                "down": {
                    "uv": [
                        9,
                        0.33333,
                        10.33333,
                        2.33333
                    ],
                    "texture": "#1"
                }
            }
        },
        {
            "from": [
                7.86481,
                10.12573,
                10.7683
            ],
            "to": [
                7.93281,
                10.32973,
                10.9723
            ],
            "rotation": {
                "angle": 45,
                "axis": "z",
                "origin": [
                    7.99491,
                    10.57344,
                    12.16012
                ]
            },
            "faces": {
                "north": {
                    "uv": [
                        9,
                        0.33333,
                        10.33333,
                        2.33333
                    ],
                    "texture": "#1"
                },
                "east": {
                    "uv": [
                        9,
                        0.33333,
                        10.33333,
                        2.33333
                    ],
                    "texture": "#1"
                },
                "south": {
                    "uv": [
                        9,
                        0.33333,
                        10.33333,
                        2.33333
                    ],
                    "texture": "#1"
                },
                "west": {
                    "uv": [
                        9,
                        0.33333,
                        10.33333,
                        2.33333
                    ],
                    "texture": "#1"
                },
                "up": {
                    "uv": [
                        9,
                        0.33333,
                        10.33333,
                        2.33333
                    ],
                    "texture": "#1"
                },
                "down": {
                    "uv": [
                        9,
                        0.33333,
                        10.33333,
                        2.33333
                    ],
                    "texture": "#1"
                }
            }
        },
        {
            "from": [
                7.86494,
                10.2892,
                10.7683
            ],
            "to": [
                8.12334,
                10.3572,
                10.9723
            ],
            "rotation": {
                "angle": 0,
                "axis": "y",
                "origin": [
                    7.99491,
                    10.57344,
                    12.16012
                ]
            },
            "faces": {
                "north": {
                    "uv": [
                        9,
                        0.33333,
                        10.33333,
                        2.33333
                    ],
                    "rotation": 270,
                    "texture": "#1"
                },
                "east": {
                    "uv": [
                        9,
                        0.33333,
                        10.33333,
                        2.33333
                    ],
                    "rotation": 270,
                    "texture": "#1"
                },
                "south": {
                    "uv": [
                        9,
                        0.33333,
                        10.33333,
                        2.33333
                    ],
                    "rotation": 270,
                    "texture": "#1"
                },
                "west": {
                    "uv": [
                        9,
                        0.33333,
                        10.33333,
                        2.33333
                    ],
                    "rotation": 270,
                    "texture": "#1"
                },
                "up": {
                    "uv": [
                        9,
                        0.33333,
                        10.33333,
                        2.33333
                    ],
                    "rotation": 270,
                    "texture": "#1"
                },
                "down": {
                    "uv": [
                        9,
                        0.33333,
                        10.33333,
                        2.33333
                    ],
                    "rotation": 270,
                    "texture": "#1"
                }
            }
        }
    ],
    "display": {
        "thirdperson_righthand": {
            "translation": [
                -1,
                1.75,
                -4.5
            ],
            "scale": [
                1.2,
                1.2,
                1
            ]
        },
        "thirdperson_lefthand": {
            "translation": [
                -0.25,
                1.75,
                -4.5
            ],
            "scale": [
                1.2,
                1.2,
                1
            ]
        },
        "firstperson_righthand": {
            "rotation": [
                0,
                10,
                0
            ],
            "translation": [
                -3.75,
                4.25,
                -6.25
            ],
            "scale": [
                1.2,
                1.2,
                1.2
            ]
        },
        "firstperson_lefthand": {
            "rotation": [
                0,
                10,
                0
            ],
            "translation": [
                -4.25,
                4.25,
                -6.25
            ],
            "scale": [
                1.2,
                1.2,
                1.2
            ]
        },
        "ground": {
            "rotation": [
                0,
                0,
                -90
            ],
            "translation": [
                0,
                1,
                0
            ]
        },
        "gui": {
            "rotation": [
                -24,
                149.5,
                0
            ],
            "translation": [
                -0.75,
                1.75,
                0
            ]
        },
        "head": {
            "translation": [
                0,
                11.25,
                0
            ]
        },
        "fixed": {
            "rotation": [
                90,
                45,
                -90
            ],
            "translation": [
                0,
                1.75,
                -1.75
            ],
            "scale": [
                1.4,
                1.4,
                1.4
            ]
        }
    }
}