{
    "textures": {
        "0": "gci:items/common/mpz",
        "particle": "MPZ"
    },
    "elements": [
        {
            "from": [
                1.7703,
                3.97703,
                0.462
            ],
            "to": [
                2.0756,
                4.59703,
                1.642
            ],
            "rotation": {
                "angle": 0,
                "axis": "y",
                "origin": [
                    1.90434,
                    5.40102,
                    -0.838
                ]
            },
            "faces": {
                "north": {
                    "uv": [
                        6,
                        3.66666,
                        6.66667,
                        4
                    ],
                    "rotation": 270,
                    "texture": "#0"
                },
                "east": {
                    "uv": [
                        6,
                        3.66666,
                        6.66667,
                        4
                    ],
                    "rotation": 270,
                    "texture": "#0"
                },
                "south": {
                    "uv": [
                        6,
                        3.66666,
                        6.66667,
                        4
                    ],
                    "rotation": 270,
                    "texture": "#0"
                },
                "west": {
                    "uv": [
                        6,
                        3.66666,
                        6.66667,
                        4
                    ],
                    "rotation": 270,
                    "texture": "#0"
                },
                "up": {
                    "uv": [
                        6,
                        3.66666,
                        6.66667,
                        4
                    ],
                    "rotation": 270,
                    "texture": "#0"
                },
                "down": {
                    "uv": [
                        6,
                        3.66666,
                        6.66667,
                        4
                    ],
                    "rotation": 270,
                    "texture": "#0"
                }
            }
        },
        {
            "from": [
                1.7503,
                3.97703,
                0.512
            ],
            "to": [
                2.0956,
                4.59703,
                1.592
            ],
            "rotation": {
                "angle": 0,
                "axis": "y",
                "origin": [
                    1.90434,
                    5.40102,
                    -0.838
                ]
            },
            "faces": {
                "north": {
                    "uv": [
                        6,
                        3.66666,
                        6.66667,
                        4
                    ],
                    "rotation": 270,
                    "texture": "#0"
                },
                "east": {
                    "uv": [
                        6,
                        3.66666,
                        6.66667,
                        4
                    ],
                    "rotation": 270,
                    "texture": "#0"
                },
                "south": {
                    "uv": [
                        6,
                        3.66666,
                        6.66667,
                        4
                    ],
                    "rotation": 270,
                    "texture": "#0"
                },
                "west": {
                    "uv": [
                        6,
                        3.66666,
                        6.66667,
                        4
                    ],
                    "rotation": 270,
                    "texture": "#0"
                },
                "up": {
                    "uv": [
                        6,
                        3.66666,
                        6.66667,
                        4
                    ],
                    "rotation": 270,
                    "texture": "#0"
                },
                "down": {
                    "uv": [
                        6,
                        3.66666,
                        6.66667,
                        4
                    ],
                    "rotation": 270,
                    "texture": "#0"
                }
            }
        },
        {
            "from": [
                1.7403,
                3.97703,
                0.712
            ],
            "to": [
                2.1056,
                4.59703,
                1.492
            ],
            "rotation": {
                "angle": 0,
                "axis": "y",
                "origin": [
                    1.90434,
                    5.40102,
                    -0.838
                ]
            },
            "faces": {
                "north": {
                    "uv": [
                        6,
                        3.66666,
                        6.66667,
                        4
                    ],
                    "rotation": 270,
                    "texture": "#0"
                },
                "east": {
                    "uv": [
                        6,
                        3.66666,
                        6.66667,
                        4
                    ],
                    "rotation": 270,
                    "texture": "#0"
                },
                "south": {
                    "uv": [
                        6,
                        3.66666,
                        6.66667,
                        4
                    ],
                    "rotation": 270,
                    "texture": "#0"
                },
                "west": {
                    "uv": [
                        6,
                        3.66666,
                        6.66667,
                        4
                    ],
                    "rotation": 270,
                    "texture": "#0"
                },
                "up": {
                    "uv": [
                        6,
                        3.66666,
                        6.66667,
                        4
                    ],
                    "rotation": 270,
                    "texture": "#0"
                },
                "down": {
                    "uv": [
                        6,
                        3.66666,
                        6.66667,
                        4
                    ],
                    "rotation": 270,
                    "texture": "#0"
                }
            }
        },
        {
            "from": [
                1.7303,
                3.97703,
                0.762
            ],
            "to": [
                2.1156,
                4.59703,
                1.442
            ],
            "rotation": {
                "angle": 0,
                "axis": "y",
                "origin": [
                    1.90434,
                    5.40102,
                    -0.838
                ]
            },
            "faces": {
                "north": {
                    "uv": [
                        6,
                        3.66666,
                        6.66667,
                        4
                    ],
                    "rotation": 270,
                    "texture": "#0"
                },
                "east": {
                    "uv": [
                        6,
                        3.66666,
                        6.66667,
                        4
                    ],
                    "rotation": 270,
                    "texture": "#0"
                },
                "south": {
                    "uv": [
                        6,
                        3.66666,
                        6.66667,
                        4
                    ],
                    "rotation": 270,
                    "texture": "#0"
                },
                "west": {
                    "uv": [
                        6,
                        3.66666,
                        6.66667,
                        4
                    ],
                    "rotation": 270,
                    "texture": "#0"
                },
                "up": {
                    "uv": [
                        6,
                        3.66666,
                        6.66667,
                        4
                    ],
                    "rotation": 270,
                    "texture": "#0"
                },
                "down": {
                    "uv": [
                        6,
                        3.66666,
                        6.66667,
                        4
                    ],
                    "rotation": 270,
                    "texture": "#0"
                }
            }
        },
        {
            "from": [
                1.7703,
                3.97703,
                0.462
            ],
            "to": [
                2.0756,
                4.59703,
                1.642
            ],
            "rotation": {
                "angle": 0,
                "axis": "y",
                "origin": [
                    1.90434,
                    5.40102,
                    -0.838
                ]
            },
            "faces": {
                "north": {
                    "uv": [
                        6,
                        3.66666,
                        6.66667,
                        4
                    ],
                    "rotation": 270,
                    "texture": "#0"
                },
                "east": {
                    "uv": [
                        6,
                        3.66666,
                        6.66667,
                        4
                    ],
                    "rotation": 270,
                    "texture": "#0"
                },
                "south": {
                    "uv": [
                        6,
                        3.66666,
                        6.66667,
                        4
                    ],
                    "rotation": 270,
                    "texture": "#0"
                },
                "west": {
                    "uv": [
                        6,
                        3.66666,
                        6.66667,
                        4
                    ],
                    "rotation": 270,
                    "texture": "#0"
                },
                "up": {
                    "uv": [
                        6,
                        3.66666,
                        6.66667,
                        4
                    ],
                    "rotation": 270,
                    "texture": "#0"
                },
                "down": {
                    "uv": [
                        6,
                        3.66666,
                        6.66667,
                        4
                    ],
                    "rotation": 270,
                    "texture": "#0"
                }
            }
        },
        {
            "from": [
                1.7503,
                3.97703,
                0.512
            ],
            "to": [
                2.0956,
                4.59703,
                1.592
            ],
            "rotation": {
                "angle": 0,
                "axis": "y",
                "origin": [
                    1.90434,
                    5.40102,
                    -0.838
                ]
            },
            "faces": {
                "north": {
                    "uv": [
                        6,
                        3.66666,
                        6.66667,
                        4
                    ],
                    "rotation": 270,
                    "texture": "#0"
                },
                "east": {
                    "uv": [
                        6,
                        3.66666,
                        6.66667,
                        4
                    ],
                    "rotation": 270,
                    "texture": "#0"
                },
                "south": {
                    "uv": [
                        6,
                        3.66666,
                        6.66667,
                        4
                    ],
                    "rotation": 270,
                    "texture": "#0"
                },
                "west": {
                    "uv": [
                        6,
                        3.66666,
                        6.66667,
                        4
                    ],
                    "rotation": 270,
                    "texture": "#0"
                },
                "up": {
                    "uv": [
                        6,
                        3.66666,
                        6.66667,
                        4
                    ],
                    "rotation": 270,
                    "texture": "#0"
                },
                "down": {
                    "uv": [
                        6,
                        3.66666,
                        6.66667,
                        4
                    ],
                    "rotation": 270,
                    "texture": "#0"
                }
            }
        },
        {
            "from": [
                1.7403,
                3.97703,
                0.712
            ],
            "to": [
                2.1056,
                4.59703,
                1.492
            ],
            "rotation": {
                "angle": 0,
                "axis": "y",
                "origin": [
                    1.90434,
                    5.40102,
                    -0.838
                ]
            },
            "faces": {
                "north": {
                    "uv": [
                        6,
                        3.66666,
                        6.66667,
                        4
                    ],
                    "rotation": 270,
                    "texture": "#0"
                },
                "east": {
                    "uv": [
                        6,
                        3.66666,
                        6.66667,
                        4
                    ],
                    "rotation": 270,
                    "texture": "#0"
                },
                "south": {
                    "uv": [
                        6,
                        3.66666,
                        6.66667,
                        4
                    ],
                    "rotation": 270,
                    "texture": "#0"
                },
                "west": {
                    "uv": [
                        6,
                        3.66666,
                        6.66667,
                        4
                    ],
                    "rotation": 270,
                    "texture": "#0"
                },
                "up": {
                    "uv": [
                        6,
                        3.66666,
                        6.66667,
                        4
                    ],
                    "rotation": 270,
                    "texture": "#0"
                },
                "down": {
                    "uv": [
                        6,
                        3.66666,
                        6.66667,
                        4
                    ],
                    "rotation": 270,
                    "texture": "#0"
                }
            }
        },
        {
            "from": [
                1.7303,
                3.97703,
                0.762
            ],
            "to": [
                2.1156,
                4.59703,
                1.442
            ],
            "rotation": {
                "angle": 0,
                "axis": "y",
                "origin": [
                    1.90434,
                    5.40102,
                    -0.838
                ]
            },
            "faces": {
                "north": {
                    "uv": [
                        6,
                        3.66666,
                        6.66667,
                        4
                    ],
                    "rotation": 270,
                    "texture": "#0"
                },
                "east": {
                    "uv": [
                        6,
                        3.66666,
                        6.66667,
                        4
                    ],
                    "rotation": 270,
                    "texture": "#0"
                },
                "south": {
                    "uv": [
                        6,
                        3.66666,
                        6.66667,
                        4
                    ],
                    "rotation": 270,
                    "texture": "#0"
                },
                "west": {
                    "uv": [
                        6,
                        3.66666,
                        6.66667,
                        4
                    ],
                    "rotation": 270,
                    "texture": "#0"
                },
                "up": {
                    "uv": [
                        6,
                        3.66666,
                        6.66667,
                        4
                    ],
                    "rotation": 270,
                    "texture": "#0"
                },
                "down": {
                    "uv": [
                        6,
                        3.66666,
                        6.66667,
                        4
                    ],
                    "rotation": 270,
                    "texture": "#0"
                }
            }
        },
        {
            "from": [
                1.76419,
                3.9566,
                0.4264
            ],
            "to": [
                2.08171,
                3.9774,
                1.6736
            ],
            "rotation": {
                "angle": 0,
                "axis": "y",
                "origin": [
                    1.9036,
                    5.47438,
                    -0.9376
                ]
            },
            "faces": {
                "north": {
                    "uv": [
                        6,
                        3.66666,
                        6.66667,
                        4
                    ],
                    "rotation": 270,
                    "texture": "#0"
                },
                "east": {
                    "uv": [
                        6,
                        3.66666,
                        6.66667,
                        4
                    ],
                    "rotation": 270,
                    "texture": "#0"
                },
                "south": {
                    "uv": [
                        6,
                        3.66666,
                        6.66667,
                        4
                    ],
                    "rotation": 270,
                    "texture": "#0"
                },
                "west": {
                    "uv": [
                        6,
                        3.66666,
                        6.66667,
                        4
                    ],
                    "rotation": 270,
                    "texture": "#0"
                },
                "up": {
                    "uv": [
                        6,
                        3.66666,
                        6.66667,
                        4
                    ],
                    "rotation": 270,
                    "texture": "#0"
                },
                "down": {
                    "uv": [
                        6,
                        3.66666,
                        6.66667,
                        4
                    ],
                    "rotation": 270,
                    "texture": "#0"
                }
            }
        },
        {
            "from": [
                1.73299,
                3.9566,
                0.6944
            ],
            "to": [
                2.11291,
                3.9774,
                1.5136
            ],
            "rotation": {
                "angle": 0,
                "axis": "y",
                "origin": [
                    1.9036,
                    5.47438,
                    -0.9376
                ]
            },
            "faces": {
                "north": {
                    "uv": [
                        6,
                        3.66666,
                        6.66667,
                        4
                    ],
                    "rotation": 270,
                    "texture": "#0"
                },
                "east": {
                    "uv": [
                        6,
                        3.66666,
                        6.66667,
                        4
                    ],
                    "rotation": 270,
                    "texture": "#0"
                },
                "south": {
                    "uv": [
                        6,
                        3.66666,
                        6.66667,
                        4
                    ],
                    "rotation": 270,
                    "texture": "#0"
                },
                "west": {
                    "uv": [
                        6,
                        3.66666,
                        6.66667,
                        4
                    ],
                    "rotation": 270,
                    "texture": "#0"
                },
                "up": {
                    "uv": [
                        6,
                        3.66666,
                        6.66667,
                        4
                    ],
                    "rotation": 270,
                    "texture": "#0"
                },
                "down": {
                    "uv": [
                        6,
                        3.66666,
                        6.66667,
                        4
                    ],
                    "rotation": 270,
                    "texture": "#0"
                }
            }
        },
        {
            "from": [
                1.72259,
                3.9566,
                0.7464
            ],
            "to": [
                2.12331,
                3.9774,
                1.4616
            ],
            "rotation": {
                "angle": 0,
                "axis": "y",
                "origin": [
                    1.9036,
                    5.47438,
                    -0.9376
                ]
            },
            "faces": {
                "north": {
                    "uv": [
                        6,
                        3.66666,
                        6.66667,
                        4
                    ],
                    "rotation": 270,
                    "texture": "#0"
                },
                "east": {
                    "uv": [
                        6,
                        3.66666,
                        6.66667,
                        4
                    ],
                    "rotation": 270,
                    "texture": "#0"
                },
                "south": {
                    "uv": [
                        6,
                        3.66666,
                        6.66667,
                        4
                    ],
                    "rotation": 270,
                    "texture": "#0"
                },
                "west": {
                    "uv": [
                        6,
                        3.66666,
                        6.66667,
                        4
                    ],
                    "rotation": 270,
                    "texture": "#0"
                },
                "up": {
                    "uv": [
                        6,
                        3.66666,
                        6.66667,
                        4
                    ],
                    "rotation": 270,
                    "texture": "#0"
                },
                "down": {
                    "uv": [
                        6,
                        3.66666,
                        6.66667,
                        4
                    ],
                    "rotation": 270,
                    "texture": "#0"
                }
            }
        },
        {
            "from": [
                1.7703,
                3.97703,
                0.462
            ],
            "to": [
                2.0756,
                4.59703,
                1.642
            ],
            "rotation": {
                "angle": 0,
                "axis": "y",
                "origin": [
                    1.90434,
                    5.40102,
                    -0.838
                ]
            },
            "faces": {
                "north": {
                    "uv": [
                        6,
                        3.66666,
                        6.66667,
                        4
                    ],
                    "rotation": 270,
                    "texture": "#0"
                },
                "east": {
                    "uv": [
                        6,
                        3.66666,
                        6.66667,
                        4
                    ],
                    "rotation": 270,
                    "texture": "#0"
                },
                "south": {
                    "uv": [
                        6,
                        3.66666,
                        6.66667,
                        4
                    ],
                    "rotation": 270,
                    "texture": "#0"
                },
                "west": {
                    "uv": [
                        6,
                        3.66666,
                        6.66667,
                        4
                    ],
                    "rotation": 270,
                    "texture": "#0"
                },
                "up": {
                    "uv": [
                        6,
                        3.66666,
                        6.66667,
                        4
                    ],
                    "rotation": 270,
                    "texture": "#0"
                },
                "down": {
                    "uv": [
                        6,
                        3.66666,
                        6.66667,
                        4
                    ],
                    "rotation": 270,
                    "texture": "#0"
                }
            }
        },
        {
            "from": [
                1.7503,
                3.97703,
                0.512
            ],
            "to": [
                2.0956,
                4.59703,
                1.592
            ],
            "rotation": {
                "angle": 0,
                "axis": "y",
                "origin": [
                    1.90434,
                    5.40102,
                    -0.838
                ]
            },
            "faces": {
                "north": {
                    "uv": [
                        6,
                        3.66666,
                        6.66667,
                        4
                    ],
                    "rotation": 270,
                    "texture": "#0"
                },
                "east": {
                    "uv": [
                        6,
                        3.66666,
                        6.66667,
                        4
                    ],
                    "rotation": 270,
                    "texture": "#0"
                },
                "south": {
                    "uv": [
                        6,
                        3.66666,
                        6.66667,
                        4
                    ],
                    "rotation": 270,
                    "texture": "#0"
                },
                "west": {
                    "uv": [
                        6,
                        3.66666,
                        6.66667,
                        4
                    ],
                    "rotation": 270,
                    "texture": "#0"
                },
                "up": {
                    "uv": [
                        6,
                        3.66666,
                        6.66667,
                        4
                    ],
                    "rotation": 270,
                    "texture": "#0"
                },
                "down": {
                    "uv": [
                        6,
                        3.66666,
                        6.66667,
                        4
                    ],
                    "rotation": 270,
                    "texture": "#0"
                }
            }
        },
        {
            "from": [
                1.7403,
                3.97703,
                0.712
            ],
            "to": [
                2.1056,
                4.59703,
                1.492
            ],
            "rotation": {
                "angle": 0,
                "axis": "y",
                "origin": [
                    1.90434,
                    5.40102,
                    -0.838
                ]
            },
            "faces": {
                "north": {
                    "uv": [
                        6,
                        3.66666,
                        6.66667,
                        4
                    ],
                    "rotation": 270,
                    "texture": "#0"
                },
                "east": {
                    "uv": [
                        6,
                        3.66666,
                        6.66667,
                        4
                    ],
                    "rotation": 270,
                    "texture": "#0"
                },
                "south": {
                    "uv": [
                        6,
                        3.66666,
                        6.66667,
                        4
                    ],
                    "rotation": 270,
                    "texture": "#0"
                },
                "west": {
                    "uv": [
                        6,
                        3.66666,
                        6.66667,
                        4
                    ],
                    "rotation": 270,
                    "texture": "#0"
                },
                "up": {
                    "uv": [
                        6,
                        3.66666,
                        6.66667,
                        4
                    ],
                    "rotation": 270,
                    "texture": "#0"
                },
                "down": {
                    "uv": [
                        6,
                        3.66666,
                        6.66667,
                        4
                    ],
                    "rotation": 270,
                    "texture": "#0"
                }
            }
        },
        {
            "from": [
                1.7303,
                3.97703,
                0.762
            ],
            "to": [
                2.1156,
                4.59703,
                1.442
            ],
            "rotation": {
                "angle": 0,
                "axis": "y",
                "origin": [
                    1.90434,
                    5.40102,
                    -0.838
                ]
            },
            "faces": {
                "north": {
                    "uv": [
                        6,
                        3.66666,
                        6.66667,
                        4
                    ],
                    "rotation": 270,
                    "texture": "#0"
                },
                "east": {
                    "uv": [
                        6,
                        3.66666,
                        6.66667,
                        4
                    ],
                    "rotation": 270,
                    "texture": "#0"
                },
                "south": {
                    "uv": [
                        6,
                        3.66666,
                        6.66667,
                        4
                    ],
                    "rotation": 270,
                    "texture": "#0"
                },
                "west": {
                    "uv": [
                        6,
                        3.66666,
                        6.66667,
                        4
                    ],
                    "rotation": 270,
                    "texture": "#0"
                },
                "up": {
                    "uv": [
                        6,
                        3.66666,
                        6.66667,
                        4
                    ],
                    "rotation": 270,
                    "texture": "#0"
                },
                "down": {
                    "uv": [
                        6,
                        3.66666,
                        6.66667,
                        4
                    ],
                    "rotation": 270,
                    "texture": "#0"
                }
            }
        },
        {
            "from": [
                1.74339,
                3.9566,
                0.4784
            ],
            "to": [
                2.10251,
                3.9774,
                1.6216
            ],
            "rotation": {
                "angle": 0,
                "axis": "y",
                "origin": [
                    1.9036,
                    5.47438,
                    -0.9376
                ]
            },
            "faces": {
                "north": {
                    "uv": [
                        6,
                        3.66666,
                        6.66667,
                        4
                    ],
                    "rotation": 270,
                    "texture": "#0"
                },
                "east": {
                    "uv": [
                        6,
                        3.66666,
                        6.66667,
                        4
                    ],
                    "rotation": 270,
                    "texture": "#0"
                },
                "south": {
                    "uv": [
                        6,
                        3.66666,
                        6.66667,
                        4
                    ],
                    "rotation": 270,
                    "texture": "#0"
                },
                "west": {
                    "uv": [
                        6,
                        3.66666,
                        6.66667,
                        4
                    ],
                    "rotation": 270,
                    "texture": "#0"
                },
                "up": {
                    "uv": [
                        6,
                        3.66666,
                        6.66667,
                        4
                    ],
                    "rotation": 270,
                    "texture": "#0"
                },
                "down": {
                    "uv": [
                        6,
                        3.66666,
                        6.66667,
                        4
                    ],
                    "rotation": 270,
                    "texture": "#0"
                }
            }
        },
        {
            "from": [
                1.76419,
                3.9566,
                0.4264
            ],
            "to": [
                2.08171,
                3.9774,
                1.6736
            ],
            "rotation": {
                "angle": 0,
                "axis": "y",
                "origin": [
                    1.9036,
                    5.47438,
                    -0.9376
                ]
            },
            "faces": {
                "north": {
                    "uv": [
                        6,
                        3.66666,
                        6.66667,
                        4
                    ],
                    "rotation": 270,
                    "texture": "#0"
                },
                "east": {
                    "uv": [
                        6,
                        3.66666,
                        6.66667,
                        4
                    ],
                    "rotation": 270,
                    "texture": "#0"
                },
                "south": {
                    "uv": [
                        6,
                        3.66666,
                        6.66667,
                        4
                    ],
                    "rotation": 270,
                    "texture": "#0"
                },
                "west": {
                    "uv": [
                        6,
                        3.66666,
                        6.66667,
                        4
                    ],
                    "rotation": 270,
                    "texture": "#0"
                },
                "up": {
                    "uv": [
                        6,
                        3.66666,
                        6.66667,
                        4
                    ],
                    "rotation": 270,
                    "texture": "#0"
                },
                "down": {
                    "uv": [
                        6,
                        3.66666,
                        6.66667,
                        4
                    ],
                    "rotation": 270,
                    "texture": "#0"
                }
            }
        },
        {
            "from": [
                1.73299,
                3.9566,
                0.6944
            ],
            "to": [
                2.11291,
                3.9774,
                1.5136
            ],
            "rotation": {
                "angle": 0,
                "axis": "y",
                "origin": [
                    1.9036,
                    5.47438,
                    -0.9376
                ]
            },
            "faces": {
                "north": {
                    "uv": [
                        6,
                        3.66666,
                        6.66667,
                        4
                    ],
                    "rotation": 270,
                    "texture": "#0"
                },
                "east": {
                    "uv": [
                        6,
                        3.66666,
                        6.66667,
                        4
                    ],
                    "rotation": 270,
                    "texture": "#0"
                },
                "south": {
                    "uv": [
                        6,
                        3.66666,
                        6.66667,
                        4
                    ],
                    "rotation": 270,
                    "texture": "#0"
                },
                "west": {
                    "uv": [
                        6,
                        3.66666,
                        6.66667,
                        4
                    ],
                    "rotation": 270,
                    "texture": "#0"
                },
                "up": {
                    "uv": [
                        6,
                        3.66666,
                        6.66667,
                        4
                    ],
                    "rotation": 270,
                    "texture": "#0"
                },
                "down": {
                    "uv": [
                        6,
                        3.66666,
                        6.66667,
                        4
                    ],
                    "rotation": 270,
                    "texture": "#0"
                }
            }
        },
        {
            "from": [
                1.72259,
                3.9566,
                0.7464
            ],
            "to": [
                2.12331,
                3.9774,
                1.4616
            ],
            "rotation": {
                "angle": 0,
                "axis": "y",
                "origin": [
                    1.9036,
                    5.47438,
                    -0.9376
                ]
            },
            "faces": {
                "north": {
                    "uv": [
                        6,
                        3.66666,
                        6.66667,
                        4
                    ],
                    "rotation": 270,
                    "texture": "#0"
                },
                "east": {
                    "uv": [
                        6,
                        3.66666,
                        6.66667,
                        4
                    ],
                    "rotation": 270,
                    "texture": "#0"
                },
                "south": {
                    "uv": [
                        6,
                        3.66666,
                        6.66667,
                        4
                    ],
                    "rotation": 270,
                    "texture": "#0"
                },
                "west": {
                    "uv": [
                        6,
                        3.66666,
                        6.66667,
                        4
                    ],
                    "rotation": 270,
                    "texture": "#0"
                },
                "up": {
                    "uv": [
                        6,
                        3.66666,
                        6.66667,
                        4
                    ],
                    "rotation": 270,
                    "texture": "#0"
                },
                "down": {
                    "uv": [
                        6,
                        3.66666,
                        6.66667,
                        4
                    ],
                    "rotation": 270,
                    "texture": "#0"
                }
            }
        }
    ],
    "display": {
        "thirdperson_righthand": {
            "translation": [
                7.75,
                3.5,
                5.75
            ],
            "scale": [
                1.25,
                1,
                1
            ]
        },
        "thirdperson_lefthand": {
            "translation": [
                -7.5,
                3.5,
                5.75
            ],
            "scale": [
                1.25,
                1,
                1
            ]
        },
        "firstperson_righthand": {
            "translation": [
                3,
                7.5,
                10.25
            ],
            "scale": [
                1.25,
                1,
                1
            ]
        },
        "firstperson_lefthand": {
            "translation": [
                -12,
                7.25,
                10.25
            ],
            "scale": [
                1.25,
                1,
                1
            ]
        },
        "ground": {
            "translation": [
                7,
                4.75,
                9.5
            ],
            "scale": [
                1.25,
                1.12,
                1.12
            ]
        },
        "gui": {
            "rotation": [
                90,
                45,
                -90
            ],
            "translation": [
                7,
                -2.25,
                0
            ],
            "scale": [
                0.9,
                0.9,
                0.9
            ]
        },
        "head": {
            "translation": [
                6,
                11.25,
                6.25
            ]
        },
        "fixed": {
            "rotation": [
                90,
                45,
                -90
            ],
            "translation": [
                8.75,
                -3,
                -7.5
            ],
            "scale": [
                1.15,
                1.15,
                1.15
            ]
        }
    }
}