{
	"credit": "Made with Blockbench",
	"textures": {
		"0": "gci:items/common/all_in_one",
		"particle": "gci:items/common/all_in_one"
	},
	"elements": [
		{
			"from": [7.5, 5.9, 5],
			"to": [8.5, 9.9, 5.5],
			"rotation": {"angle": 0, "axis": "y", "origin": [20.5, 5.9, 12]},
			"faces": {
				"north": {"uv": [2.875, 3.375, 3, 3.5], "texture": "#0"},
				"east": {"uv": [2.875, 3.375, 3, 3.5], "texture": "#0"},
				"south": {"uv": [2.875, 3.375, 3, 3.5], "texture": "#0"},
				"west": {"uv": [2.875, 3.375, 3, 3.5], "texture": "#0"},
				"up": {"uv": [2.875, 3.375, 3, 3.5], "texture": "#0"},
				"down": {"uv": [2.875, 3.375, 3, 3.5], "texture": "#0"}
			}
		},
		{
			"from": [6, 4.4, 4],
			"to": [9.8, 11.4, 5],
			"rotation": {"angle": 0, "axis": "y", "origin": [20.5, 5.9, 11]},
			"faces": {
				"north": {"uv": [2, 3.75, 2.125, 3.875], "texture": "#0"},
				"east": {"uv": [2, 3.75, 2.125, 3.875], "texture": "#0"},
				"south": {"uv": [2, 3.75, 2.125, 3.875], "texture": "#0"},
				"west": {"uv": [2, 3.75, 2.125, 3.875], "texture": "#0"},
				"up": {"uv": [2, 3.75, 2.125, 3.875], "texture": "#0"},
				"down": {"uv": [2, 3.75, 2.125, 3.875], "texture": "#0"}
			}
		},
		{
			"from": [7.5, 9.9, 5],
			"to": [8.5, 10.6, 10.2],
			"rotation": {"angle": 0, "axis": "y", "origin": [8, 10.15, 7]},
			"faces": {
				"north": {"uv": [2.875, 3.375, 3, 3.5], "texture": "#0"},
				"east": {"uv": [2.875, 3.375, 3, 3.5], "texture": "#0"},
				"south": {"uv": [2.875, 3.375, 3, 3.5], "texture": "#0"},
				"west": {"uv": [2.875, 3.375, 3, 3.5], "rotation": 270, "texture": "#0"},
				"up": {"uv": [2.875, 3.375, 3, 3.5], "texture": "#0"},
				"down": {"uv": [2.875, 3.375, 3, 3.5], "texture": "#0"}
			}
		},
		{
			"from": [7.5, 5.2, 5],
			"to": [8.5, 5.9, 10.2],
			"rotation": {"angle": 0, "axis": "y", "origin": [8, 6.775, 7.875]},
			"faces": {
				"north": {"uv": [2.875, 3.375, 3, 3.5], "texture": "#0"},
				"east": {"uv": [2.875, 3.375, 3, 3.5], "texture": "#0"},
				"south": {"uv": [2.875, 3.375, 3, 3.5], "texture": "#0"},
				"west": {"uv": [2.875, 3.375, 3, 3.5], "rotation": 90, "texture": "#0"},
				"up": {"uv": [2.875, 3.375, 3, 3.5], "texture": "#0"},
				"down": {"uv": [2.875, 3.375, 3, 3.5], "texture": "#0"}
			}
		},
		{
			"from": [7.5, 5.9, 9.5],
			"to": [8.5, 9.9, 10.2],
			"rotation": {"angle": 0, "axis": "y", "origin": [8, 6.775, 8.875]},
			"faces": {
				"north": {"uv": [2.875, 3.375, 3, 3.5], "texture": "#0"},
				"east": {"uv": [2.875, 3.375, 3, 3.5], "texture": "#0"},
				"south": {"uv": [2.875, 3.375, 3, 3.5], "texture": "#0"},
				"west": {"uv": [2.875, 3.375, 3, 3.5], "rotation": 180, "texture": "#0"},
				"up": {"uv": [2.875, 3.375, 3, 3.5], "texture": "#0"},
				"down": {"uv": [2.875, 3.375, 3, 3.5], "texture": "#0"}
			}
		},
		{
			"from": [8, 3.5, 3],
			"to": [12, 12.5, 4],
			"rotation": {"angle": -22.5, "axis": "y", "origin": [7.5, 8, 3.5]},
			"faces": {
				"north": {"uv": [5.625, 11.5, 5.75, 11.625], "texture": "#0"},
				"east": {"uv": [5.625, 11.5, 5.75, 11.625], "texture": "#0"},
				"south": {"uv": [5.625, 11.5, 5.75, 11.625], "texture": "#0"},
				"west": {"uv": [5.625, 11.5, 5.75, 11.625], "texture": "#0"},
				"up": {"uv": [5.625, 11.5, 5.75, 11.625], "texture": "#0"},
				"down": {"uv": [5.625, 11.5, 5.75, 11.625], "texture": "#0"}
			}
		},
		{
			"from": [12, 3.5, 3],
			"to": [14, 10.5, 4],
			"rotation": {"angle": -22.5, "axis": "y", "origin": [7.5, 8, 3.5]},
			"faces": {
				"north": {"uv": [5.625, 11.5, 5.75, 11.625], "texture": "#0"},
				"east": {"uv": [5.625, 11.5, 5.75, 11.625], "texture": "#0"},
				"south": {"uv": [5.625, 11.5, 5.75, 11.625], "texture": "#0"},
				"west": {"uv": [5.625, 11.5, 5.75, 11.625], "texture": "#0"},
				"up": {"uv": [5.625, 11.5, 5.75, 11.625], "texture": "#0"},
				"down": {"uv": [5.625, 11.5, 5.75, 11.625], "texture": "#0"}
			}
		},
		{
			"from": [14, 3.5, 3],
			"to": [15, 9.5, 4],
			"rotation": {"angle": -22.5, "axis": "y", "origin": [7.5, 8, 3.5]},
			"faces": {
				"north": {"uv": [5.625, 11.5, 5.75, 11.625], "texture": "#0"},
				"east": {"uv": [5.625, 11.5, 5.75, 11.625], "texture": "#0"},
				"south": {"uv": [5.625, 11.5, 5.75, 11.625], "texture": "#0"},
				"west": {"uv": [5.625, 11.5, 5.75, 11.625], "texture": "#0"},
				"up": {"uv": [5.625, 11.5, 5.75, 11.625], "texture": "#0"},
				"down": {"uv": [5.625, 11.5, 5.75, 11.625], "texture": "#0"}
			}
		},
		{
			"from": [7.84672, 3.5, 3.2294],
			"to": [8.15672, 12.5, 4.2294],
			"rotation": {"angle": 0, "axis": "y", "origin": [14.84672, 19.5, 11.2294]},
			"faces": {
				"north": {"uv": [5.625, 11.5, 5.75, 11.625], "texture": "#0"},
				"east": {"uv": [5.625, 11.5, 5.75, 11.625], "texture": "#0"},
				"south": {"uv": [5.625, 11.5, 5.75, 11.625], "texture": "#0"},
				"west": {"uv": [5.625, 11.5, 5.75, 11.625], "texture": "#0"},
				"up": {"uv": [5.625, 11.5, 5.75, 11.625], "texture": "#0"},
				"down": {"uv": [5.625, 11.5, 5.75, 11.625], "texture": "#0"}
			}
		},
		{
			"from": [4, 3.5, 3],
			"to": [8, 12.5, 4],
			"rotation": {"angle": 22.5, "axis": "y", "origin": [8.5, 8, 3.5]},
			"faces": {
				"north": {"uv": [5.625, 11.5, 5.75, 11.625], "texture": "#0"},
				"east": {"uv": [5.625, 11.5, 5.75, 11.625], "texture": "#0"},
				"south": {"uv": [5.625, 11.5, 5.75, 11.625], "texture": "#0"},
				"west": {"uv": [5.625, 11.5, 5.75, 11.625], "texture": "#0"},
				"up": {"uv": [5.625, 11.5, 5.75, 11.625], "texture": "#0"},
				"down": {"uv": [5.625, 11.5, 5.75, 11.625], "texture": "#0"}
			}
		},
		{
			"from": [2, 3.5, 3],
			"to": [4, 10.5, 4],
			"rotation": {"angle": 22.5, "axis": "y", "origin": [8.5, 8, 3.5]},
			"faces": {
				"north": {"uv": [5.625, 11.5, 5.75, 11.625], "texture": "#0"},
				"east": {"uv": [5.625, 11.5, 5.75, 11.625], "texture": "#0"},
				"south": {"uv": [5.625, 11.5, 5.75, 11.625], "texture": "#0"},
				"west": {"uv": [5.625, 11.5, 5.75, 11.625], "texture": "#0"},
				"up": {"uv": [5.625, 11.5, 5.75, 11.625], "texture": "#0"},
				"down": {"uv": [5.625, 11.5, 5.75, 11.625], "texture": "#0"}
			}
		},
		{
			"from": [1, 3.5, 3],
			"to": [2, 9.5, 4],
			"rotation": {"angle": 22.5, "axis": "y", "origin": [8.5, 8, 3.5]},
			"faces": {
				"north": {"uv": [5.625, 11.5, 5.75, 11.625], "texture": "#0"},
				"east": {"uv": [5.625, 11.5, 5.75, 11.625], "texture": "#0"},
				"south": {"uv": [5.625, 11.5, 5.75, 11.625], "texture": "#0"},
				"west": {"uv": [5.625, 11.5, 5.75, 11.625], "texture": "#0"},
				"up": {"uv": [5.625, 11.5, 5.75, 11.625], "texture": "#0"},
				"down": {"uv": [5.625, 11.5, 5.75, 11.625], "texture": "#0"}
			}
		},
		{
			"from": [8.5, 7.5, 3.1],
			"to": [12.5, 9.5, 3.6],
			"rotation": {"angle": -22.5, "axis": "y", "origin": [9, 9.5, 3.35]},
			"faces": {
				"north": {"uv": [7, 11.625, 7.5, 12.125], "texture": "#0"},
				"east": {"uv": [7, 11.625, 7.5, 12.125], "texture": "#0"},
				"south": {"uv": [7, 11.625, 7.5, 12.125], "texture": "#0"},
				"west": {"uv": [7, 11.625, 7.5, 12.125], "texture": "#0"},
				"up": {"uv": [7, 11.625, 7.5, 12.125], "texture": "#0"},
				"down": {"uv": [7, 11.625, 7.5, 12.125], "texture": "#0"}
			}
		},
		{
			"from": [10.9, 7.9, 2.9],
			"to": [12.1, 9.1, 3.1],
			"rotation": {"angle": -22.5, "axis": "y", "origin": [9, 9.5, 3.35]},
			"faces": {
				"north": {"uv": [0.625, 9.5, 1.125, 10], "texture": "#0"},
				"east": {"uv": [0.875, 9.625, 1, 9.75], "texture": "#0"},
				"south": {"uv": [0.875, 9.625, 1, 9.75], "texture": "#0"},
				"west": {"uv": [0.875, 9.625, 1, 9.75], "texture": "#0"},
				"up": {"uv": [0.875, 9.625, 1, 9.75], "texture": "#0"},
				"down": {"uv": [0.875, 9.625, 1, 9.75], "texture": "#0"}
			}
		},
		{
			"from": [8.9, 7.9, 2.9],
			"to": [10.1, 9.1, 3.1],
			"rotation": {"angle": -22.5, "axis": "y", "origin": [9, 9.5, 3.35]},
			"faces": {
				"north": {"uv": [0.625, 9.5, 1.125, 10], "texture": "#0"},
				"east": {"uv": [0.875, 9.625, 1, 9.75], "texture": "#0"},
				"south": {"uv": [0.875, 9.625, 1, 9.75], "texture": "#0"},
				"west": {"uv": [0.875, 9.625, 1, 9.75], "texture": "#0"},
				"up": {"uv": [0.875, 9.625, 1, 9.75], "texture": "#0"},
				"down": {"uv": [0.875, 9.625, 1, 9.75], "texture": "#0"}
			}
		},
		{
			"from": [3.9, 7.9, 2.9],
			"to": [5.1, 9.1, 3.1],
			"rotation": {"angle": 22.5, "axis": "y", "origin": [7, 9.5, 3.35]},
			"faces": {
				"north": {"uv": [0.625, 9.5, 1.125, 10], "texture": "#0"},
				"east": {"uv": [0.875, 9.625, 1, 9.75], "texture": "#0"},
				"south": {"uv": [0.875, 9.625, 1, 9.75], "texture": "#0"},
				"west": {"uv": [0.875, 9.625, 1, 9.75], "texture": "#0"},
				"up": {"uv": [0.875, 9.625, 1, 9.75], "texture": "#0"},
				"down": {"uv": [0.875, 9.625, 1, 9.75], "texture": "#0"}
			}
		},
		{
			"from": [5.9, 7.9, 2.9],
			"to": [7.1, 9.1, 3.1],
			"rotation": {"angle": 22.5, "axis": "y", "origin": [7, 9.5, 3.35]},
			"faces": {
				"north": {"uv": [0.625, 9.5, 1.125, 10], "texture": "#0"},
				"east": {"uv": [0.875, 9.625, 1, 9.75], "texture": "#0"},
				"south": {"uv": [0.875, 9.625, 1, 9.75], "texture": "#0"},
				"west": {"uv": [0.875, 9.625, 1, 9.75], "texture": "#0"},
				"up": {"uv": [0.875, 9.625, 1, 9.75], "texture": "#0"},
				"down": {"uv": [0.875, 9.625, 1, 9.75], "texture": "#0"}
			}
		},
		{
			"from": [3.5, 7.5, 3.1],
			"to": [7.5, 9.5, 3.6],
			"rotation": {"angle": 22.5, "axis": "y", "origin": [7, 9.5, 3.35]},
			"faces": {
				"north": {"uv": [7.5, 11.625, 7, 12.125], "texture": "#0"},
				"east": {"uv": [7.5, 11.625, 7, 12.125], "texture": "#0"},
				"south": {"uv": [7.5, 11.625, 7, 12.125], "texture": "#0"},
				"west": {"uv": [7.5, 11.625, 7, 12.125], "texture": "#0"},
				"up": {"uv": [7.5, 11.625, 7, 12.125], "texture": "#0"},
				"down": {"uv": [7.5, 11.625, 7, 12.125], "texture": "#0"}
			}
		},
		{
			"from": [7.5, 10.6, 6],
			"to": [8.5, 10.8, 8.2],
			"rotation": {"angle": 0, "axis": "y", "origin": [8, 10.35, 6]},
			"faces": {
				"north": {"uv": [2.875, 3.375, 3, 3.5], "texture": "#0"},
				"east": {"uv": [2.875, 3.375, 3, 3.5], "texture": "#0"},
				"south": {"uv": [2.875, 3.375, 3, 3.5], "texture": "#0"},
				"west": {"uv": [2.875, 3.375, 3, 3.5], "rotation": 270, "texture": "#0"},
				"up": {"uv": [2.875, 3.375, 3, 3.5], "texture": "#0"},
				"down": {"uv": [2.875, 3.375, 3, 3.5], "texture": "#0"}
			}
		},
		{
			"from": [7.8, 10.8, 6.9],
			"to": [8.2, 11.1, 7.3],
			"rotation": {"angle": -45, "axis": "y", "origin": [8, 10.95, 7.1]},
			"faces": {
				"north": {"uv": [14, 9.625, 14.125, 9.75], "texture": "#0"},
				"east": {"uv": [14, 9.625, 14.125, 9.75], "texture": "#0"},
				"south": {"uv": [14, 9.625, 14.125, 9.75], "texture": "#0"},
				"west": {"uv": [14, 9.625, 14.125, 9.75], "texture": "#0"},
				"up": {"uv": [14, 9.625, 14.125, 9.75], "texture": "#0"},
				"down": {"uv": [14, 9.625, 14.125, 9.75], "texture": "#0"}
			}
		},
		{
			"from": [11.64999, 9.47736, 4.5],
			"to": [11.94999, 10.87736, 4.8],
			"rotation": {"angle": -22.5, "axis": "y", "origin": [11.80588, 12.74755, 5.26667]},
			"faces": {
				"north": {"uv": [6.375, 3.375, 6.5, 3.5], "texture": "#0"},
				"east": {"uv": [6.375, 3.375, 6.5, 3.5], "texture": "#0"},
				"south": {"uv": [6.375, 3.375, 6.5, 3.5], "texture": "#0"},
				"west": {"uv": [6.375, 3.375, 6.5, 3.5], "texture": "#0"},
				"up": {"uv": [6.375, 3.375, 6.5, 3.5], "texture": "#0"},
				"down": {"uv": [6.375, 3.375, 6.5, 3.5], "texture": "#0"}
			}
		},
		{
			"from": [11.54999, 10.06314, 4.4],
			"to": [12.04999, 10.36314, 4.8],
			"rotation": {"angle": -22.5, "axis": "y", "origin": [11.80588, 12.74755, 5.26667]},
			"faces": {
				"north": {"uv": [7.25, 12.375, 7.375, 12.5], "texture": "#0"},
				"east": {"uv": [7.25, 12.375, 7.375, 12.5], "rotation": 270, "texture": "#0"},
				"south": {"uv": [7.25, 12.375, 7.375, 12.5], "rotation": 270, "texture": "#0"},
				"west": {"uv": [7.25, 12.375, 7.375, 12.5], "rotation": 270, "texture": "#0"},
				"up": {"uv": [7.25, 12.375, 7.375, 12.5], "rotation": 270, "texture": "#0"},
				"down": {"uv": [7.25, 12.375, 7.375, 12.5], "rotation": 270, "texture": "#0"}
			}
		},
		{
			"from": [11.64999, 10.47736, 4.8],
			"to": [11.94999, 10.87736, 5.8],
			"rotation": {"angle": -22.5, "axis": "y", "origin": [11.80588, 12.74755, 5.26667]},
			"faces": {
				"north": {"uv": [6.375, 3.375, 6.5, 3.5], "texture": "#0"},
				"east": {"uv": [6.375, 3.375, 6.5, 3.5], "texture": "#0"},
				"south": {"uv": [6.375, 3.375, 6.5, 3.5], "texture": "#0"},
				"west": {"uv": [6.375, 3.375, 6.5, 3.5], "texture": "#0"},
				"up": {"uv": [6.375, 3.375, 6.5, 3.5], "texture": "#0"},
				"down": {"uv": [6.375, 3.375, 6.5, 3.5], "texture": "#0"}
			}
		},
		{
			"from": [11.64999, 10.47736, 5.1],
			"to": [12.04999, 10.97736, 5.4],
			"rotation": {"angle": -22.5, "axis": "y", "origin": [11.80588, 12.74755, 5.26667]},
			"faces": {
				"north": {"uv": [8, 11.875, 8.125, 12], "texture": "#0"},
				"east": {"uv": [8, 11.875, 8.125, 12], "texture": "#0"},
				"south": {"uv": [8, 11.875, 8.125, 12], "texture": "#0"},
				"west": {"uv": [8, 11.875, 8.125, 12], "texture": "#0"},
				"up": {"uv": [8, 11.875, 8.125, 12], "texture": "#0"},
				"down": {"uv": [8, 11.875, 8.125, 12], "texture": "#0"}
			}
		},
		{
			"from": [11.64999, 9.77736, 5.8],
			"to": [11.94999, 10.87736, 6.1],
			"rotation": {"angle": -22.5, "axis": "y", "origin": [11.80588, 12.04755, 5.26667]},
			"faces": {
				"north": {"uv": [6.375, 3.375, 6.5, 3.5], "texture": "#0"},
				"east": {"uv": [6.375, 3.375, 6.5, 3.5], "texture": "#0"},
				"south": {"uv": [6.375, 3.375, 6.5, 3.5], "texture": "#0"},
				"west": {"uv": [6.375, 3.375, 6.5, 3.5], "texture": "#0"},
				"up": {"uv": [6.375, 3.375, 6.5, 3.5], "texture": "#0"},
				"down": {"uv": [6.375, 3.375, 6.5, 3.5], "texture": "#0"}
			}
		},
		{
			"from": [11.54999, 9.97736, 5.8],
			"to": [12.04999, 10.27736, 6.2],
			"rotation": {"angle": -22.5, "axis": "y", "origin": [11.80588, 12.74755, 5.26667]},
			"faces": {
				"north": {"uv": [7.25, 12.375, 7.375, 12.5], "texture": "#0"},
				"east": {"uv": [7.25, 12.375, 7.375, 12.5], "rotation": 270, "texture": "#0"},
				"south": {"uv": [7.25, 12.375, 7.375, 12.5], "rotation": 270, "texture": "#0"},
				"west": {"uv": [7.25, 12.375, 7.375, 12.5], "rotation": 270, "texture": "#0"},
				"up": {"uv": [7.25, 12.375, 7.375, 12.5], "rotation": 270, "texture": "#0"},
				"down": {"uv": [7.25, 12.375, 7.375, 12.5], "rotation": 270, "texture": "#0"}
			}
		},
		{
			"from": [11.2, 7.8, 5.675],
			"to": [13.2, 9.8, 6.175],
			"rotation": {"angle": -22.5, "axis": "y", "origin": [11.34184, 7.80184, 5.895]},
			"faces": {
				"north": {"uv": [7, 11.75, 7.25, 12.125], "texture": "#0"},
				"east": {"uv": [7, 11.75, 7.25, 12.125], "texture": "#0"},
				"south": {"uv": [7, 11.75, 7.25, 12.125], "texture": "#0"},
				"west": {"uv": [7, 11.75, 7.25, 12.125], "texture": "#0"},
				"up": {"uv": [7, 11.75, 7.25, 12.125], "texture": "#0"},
				"down": {"uv": [7, 11.75, 7.25, 12.125], "texture": "#0"}
			}
		},
		{
			"from": [11.175, 4.8, 5.675],
			"to": [12.175, 7.8, 6.175],
			"rotation": {"angle": -22.5, "axis": "y", "origin": [11.34184, 7.80184, 5.895]},
			"faces": {
				"north": {"uv": [13.875, 3.125, 14, 3.25], "texture": "#0"},
				"east": {"uv": [13.875, 3.125, 14, 3.25], "texture": "#0"},
				"south": {"uv": [13.875, 3.125, 14, 3.25], "texture": "#0"},
				"west": {"uv": [13.875, 3.125, 14, 3.25], "texture": "#0"},
				"up": {"uv": [13.875, 3.125, 14, 3.25], "texture": "#0"},
				"down": {"uv": [13.875, 3.125, 14, 3.25], "texture": "#0"}
			}
		},
		{
			"from": [12.225, 4.8, 5.675],
			"to": [13.225, 7.8, 6.175],
			"rotation": {"angle": -22.5, "axis": "y", "origin": [11.34184, 7.80184, 5.895]},
			"faces": {
				"north": {"uv": [13.875, 3.125, 14, 3.25], "texture": "#0"},
				"east": {"uv": [13.875, 3.125, 14, 3.25], "texture": "#0"},
				"south": {"uv": [13.875, 3.125, 14, 3.25], "texture": "#0"},
				"west": {"uv": [13.875, 3.125, 14, 3.25], "texture": "#0"},
				"up": {"uv": [13.875, 3.125, 14, 3.25], "texture": "#0"},
				"down": {"uv": [13.875, 3.125, 14, 3.25], "texture": "#0"}
			}
		},
		{
			"from": [9.75459, 9.25459, 5.675],
			"to": [10.05459, 9.75459, 6.075],
			"rotation": {"angle": -22.5, "axis": "y", "origin": [11.34184, 8.50184, 5.895]},
			"faces": {
				"north": {"uv": [7.25, 12.375, 7.375, 12.5], "rotation": 270, "texture": "#0"},
				"east": {"uv": [7.25, 12.375, 7.375, 12.5], "rotation": 270, "texture": "#0"},
				"south": {"uv": [7.25, 12.375, 7.375, 12.5], "rotation": 270, "texture": "#0"},
				"west": {"uv": [7.25, 12.375, 7.375, 12.5], "rotation": 270, "texture": "#0"},
				"up": {"uv": [7.25, 12.375, 7.375, 12.5], "rotation": 270, "texture": "#0"},
				"down": {"uv": [7.25, 12.375, 7.375, 12.5], "rotation": 270, "texture": "#0"}
			}
		},
		{
			"from": [8.35459, 9.35459, 5.675],
			"to": [12.05459, 9.65459, 5.975],
			"rotation": {"angle": -22.5, "axis": "y", "origin": [11.34184, 8.50184, 5.895]},
			"faces": {
				"north": {"uv": [6.375, 3.375, 6.5, 3.5], "rotation": 270, "texture": "#0"},
				"east": {"uv": [6.375, 3.375, 6.5, 3.5], "rotation": 90, "texture": "#0"},
				"south": {"uv": [6.375, 3.375, 6.5, 3.5], "rotation": 90, "texture": "#0"},
				"west": {"uv": [6.375, 3.375, 6.5, 3.5], "rotation": 90, "texture": "#0"},
				"up": {"uv": [6.375, 3.375, 6.5, 3.5], "rotation": 90, "texture": "#0"},
				"down": {"uv": [6.375, 3.375, 6.5, 3.5], "rotation": 90, "texture": "#0"}
			}
		},
		{
			"from": [8.46795, 9.35459, 4.99512],
			"to": [9.66795, 9.65459, 5.29512],
			"rotation": {"angle": 0, "axis": "y", "origin": [10.31795, 9.50459, 5.14512]},
			"faces": {
				"north": {"uv": [6.375, 3.375, 6.5, 3.5], "rotation": 270, "texture": "#0"},
				"east": {"uv": [6.375, 3.375, 6.5, 3.5], "rotation": 90, "texture": "#0"},
				"south": {"uv": [6.375, 3.375, 6.5, 3.5], "rotation": 90, "texture": "#0"},
				"west": {"uv": [6.375, 3.375, 6.5, 3.5], "rotation": 90, "texture": "#0"},
				"up": {"uv": [6.375, 3.375, 6.5, 3.5], "rotation": 90, "texture": "#0"},
				"down": {"uv": [6.375, 3.375, 6.5, 3.5], "rotation": 90, "texture": "#0"}
			}
		},
		{
			"from": [8.49295, 9.65459, 4.99512],
			"to": [8.79295, 10.85459, 5.29512],
			"rotation": {"angle": 0, "axis": "y", "origin": [8.64295, 10.25459, 5.14512]},
			"faces": {
				"north": {"uv": [6.375, 3.375, 6.5, 3.5], "rotation": 180, "texture": "#0"},
				"east": {"uv": [6.375, 3.375, 6.5, 3.5], "rotation": 180, "texture": "#0"},
				"south": {"uv": [6.375, 3.375, 6.5, 3.5], "rotation": 180, "texture": "#0"},
				"west": {"uv": [6.375, 3.375, 6.5, 3.5], "rotation": 180, "texture": "#0"},
				"up": {"uv": [6.375, 3.375, 6.5, 3.5], "rotation": 180, "texture": "#0"},
				"down": {"uv": [6.375, 3.375, 6.5, 3.5], "rotation": 180, "texture": "#0"}
			}
		},
		{
			"from": [7.69295, 10.60459, 4.99512],
			"to": [8.79295, 10.90459, 5.29512],
			"rotation": {"angle": 0, "axis": "y", "origin": [7.96795, 10.75459, 5.14512]},
			"faces": {
				"north": {"uv": [6.375, 3.375, 6.5, 3.5], "rotation": 270, "texture": "#0"},
				"east": {"uv": [6.375, 3.375, 6.5, 3.5], "rotation": 90, "texture": "#0"},
				"south": {"uv": [6.375, 3.375, 6.5, 3.5], "rotation": 90, "texture": "#0"},
				"west": {"uv": [6.375, 3.375, 6.5, 3.5], "rotation": 90, "texture": "#0"},
				"up": {"uv": [6.375, 3.375, 6.5, 3.5], "rotation": 90, "texture": "#0"},
				"down": {"uv": [6.375, 3.375, 6.5, 3.5], "rotation": 90, "texture": "#0"}
			}
		},
		{
			"from": [7.41722, 10.40554, 4.99512],
			"to": [7.79222, 10.70554, 5.29512],
			"rotation": {"angle": 22.5, "axis": "z", "origin": [7.24222, 10.55554, 5.14512]},
			"faces": {
				"north": {"uv": [6.375, 3.375, 6.5, 3.5], "rotation": 270, "texture": "#0"},
				"east": {"uv": [6.375, 3.375, 6.5, 3.5], "rotation": 90, "texture": "#0"},
				"south": {"uv": [6.375, 3.375, 6.5, 3.5], "rotation": 90, "texture": "#0"},
				"west": {"uv": [6.375, 3.375, 6.5, 3.5], "rotation": 90, "texture": "#0"},
				"up": {"uv": [6.375, 3.375, 6.5, 3.5], "rotation": 90, "texture": "#0"},
				"down": {"uv": [6.375, 3.375, 6.5, 3.5], "rotation": 90, "texture": "#0"}
			}
		},
		{
			"from": [6.33205, 10.47959, 4.99512],
			"to": [7.53205, 10.77959, 5.29512],
			"rotation": {"angle": 0, "axis": "y", "origin": [5.68205, 9.82959, 5.14512]},
			"faces": {
				"north": {"uv": [6.375, 3.5, 6.5, 3.375], "rotation": 270, "texture": "#0"},
				"east": {"uv": [6.375, 3.5, 6.5, 3.375], "rotation": 90, "texture": "#0"},
				"south": {"uv": [6.375, 3.5, 6.5, 3.375], "rotation": 90, "texture": "#0"},
				"west": {"uv": [6.375, 3.5, 6.5, 3.375], "rotation": 90, "texture": "#0"},
				"up": {"uv": [6.375, 3.5, 6.5, 3.375], "rotation": 90, "texture": "#0"},
				"down": {"uv": [6.375, 3.5, 6.5, 3.375], "rotation": 90, "texture": "#0"}
			}
		},
		{
			"from": [4.34541, 10.47959, 5.675],
			"to": [7.64541, 10.77959, 5.975],
			"rotation": {"angle": 22.5, "axis": "y", "origin": [4.65816, 9.62684, 5.895]},
			"faces": {
				"north": {"uv": [6.375, 3.5, 6.5, 3.375], "rotation": 270, "texture": "#0"},
				"east": {"uv": [6.375, 3.5, 6.5, 3.375], "rotation": 90, "texture": "#0"},
				"south": {"uv": [6.375, 3.5, 6.5, 3.375], "rotation": 90, "texture": "#0"},
				"west": {"uv": [6.375, 3.5, 6.5, 3.375], "rotation": 90, "texture": "#0"},
				"up": {"uv": [6.375, 3.5, 6.5, 3.375], "rotation": 90, "texture": "#0"},
				"down": {"uv": [6.375, 3.5, 6.5, 3.375], "rotation": 90, "texture": "#0"}
			}
		},
		{
			"from": [5.94541, 10.37959, 5.675],
			"to": [6.24541, 10.87959, 6.075],
			"rotation": {"angle": 22.5, "axis": "y", "origin": [4.65816, 8.82684, 5.895]},
			"faces": {
				"north": {"uv": [7.25, 12.5, 7.375, 12.375], "rotation": 270, "texture": "#0"},
				"east": {"uv": [7.25, 12.5, 7.375, 12.375], "rotation": 270, "texture": "#0"},
				"south": {"uv": [7.25, 12.5, 7.375, 12.375], "rotation": 270, "texture": "#0"},
				"west": {"uv": [7.25, 12.5, 7.375, 12.375], "rotation": 270, "texture": "#0"},
				"up": {"uv": [7.25, 12.5, 7.375, 12.375], "rotation": 270, "texture": "#0"},
				"down": {"uv": [7.25, 12.5, 7.375, 12.375], "rotation": 270, "texture": "#0"}
			}
		},
		{
			"from": [3.95001, 10.47736, 5.1],
			"to": [4.35001, 10.97736, 5.4],
			"rotation": {"angle": 22.5, "axis": "y", "origin": [4.19412, 12.74755, 5.26667]},
			"faces": {
				"north": {"uv": [8, 11.875, 8.125, 12], "texture": "#0"},
				"east": {"uv": [8, 11.875, 8.125, 12], "texture": "#0"},
				"south": {"uv": [8, 11.875, 8.125, 12], "texture": "#0"},
				"west": {"uv": [8, 11.875, 8.125, 12], "texture": "#0"},
				"up": {"uv": [8, 11.875, 8.125, 12], "texture": "#0"},
				"down": {"uv": [8, 11.875, 8.125, 12], "texture": "#0"}
			}
		},
		{
			"from": [4.05001, 10.47736, 4.8],
			"to": [4.35001, 10.77736, 6.1],
			"rotation": {"angle": 22.5, "axis": "y", "origin": [4.19412, 12.74755, 5.26667]},
			"faces": {
				"north": {"uv": [6.5, 3.375, 6.375, 3.5], "texture": "#0"},
				"east": {"uv": [6.5, 3.375, 6.375, 3.5], "texture": "#0"},
				"south": {"uv": [6.5, 3.375, 6.375, 3.5], "texture": "#0"},
				"west": {"uv": [6.5, 3.375, 6.375, 3.5], "texture": "#0"},
				"up": {"uv": [6.5, 3.375, 6.375, 3.5], "texture": "#0"},
				"down": {"uv": [6.5, 3.375, 6.375, 3.5], "texture": "#0"}
			}
		},
		{
			"from": [4.05001, 9.47736, 4.5],
			"to": [4.35001, 10.77736, 4.8],
			"rotation": {"angle": 22.5, "axis": "y", "origin": [4.19412, 12.74755, 5.26667]},
			"faces": {
				"north": {"uv": [6.5, 3.375, 6.375, 3.5], "texture": "#0"},
				"east": {"uv": [6.5, 3.375, 6.375, 3.5], "texture": "#0"},
				"south": {"uv": [6.5, 3.375, 6.375, 3.5], "texture": "#0"},
				"west": {"uv": [6.5, 3.375, 6.375, 3.5], "texture": "#0"},
				"up": {"uv": [6.5, 3.375, 6.375, 3.5], "texture": "#0"},
				"down": {"uv": [6.5, 3.375, 6.375, 3.5], "texture": "#0"}
			}
		},
		{
			"from": [3.95001, 10.06314, 4.4],
			"to": [4.45001, 10.36314, 4.8],
			"rotation": {"angle": 22.5, "axis": "y", "origin": [4.19412, 12.74755, 5.26667]},
			"faces": {
				"north": {"uv": [7.375, 12.375, 7.25, 12.5], "texture": "#0"},
				"east": {"uv": [7.25, 12.5, 7.375, 12.375], "rotation": 270, "texture": "#0"},
				"south": {"uv": [7.25, 12.5, 7.375, 12.375], "rotation": 270, "texture": "#0"},
				"west": {"uv": [7.25, 12.5, 7.375, 12.375], "rotation": 270, "texture": "#0"},
				"up": {"uv": [7.25, 12.5, 7.375, 12.375], "rotation": 270, "texture": "#0"},
				"down": {"uv": [7.25, 12.5, 7.375, 12.375], "rotation": 270, "texture": "#0"}
			}
		},
		{
			"from": [8.57165, 10.35459, 4.92651],
			"to": [8.87165, 10.95459, 5.32651],
			"rotation": {"angle": -45, "axis": "z", "origin": [8.72165, 10.80459, 5.12651]},
			"faces": {
				"north": {"uv": [7.25, 12.375, 7.375, 12.5], "rotation": 270, "texture": "#0"},
				"east": {"uv": [7.25, 12.375, 7.375, 12.5], "rotation": 270, "texture": "#0"},
				"south": {"uv": [7.25, 12.375, 7.375, 12.5], "rotation": 270, "texture": "#0"},
				"west": {"uv": [7.25, 12.375, 7.375, 12.5], "rotation": 270, "texture": "#0"},
				"up": {"uv": [7.25, 12.375, 7.375, 12.5], "rotation": 270, "texture": "#0"},
				"down": {"uv": [7.25, 12.375, 7.375, 12.5], "rotation": 270, "texture": "#0"}
			}
		},
		{
			"from": [7.30335, 10.42959, 4.92651],
			"to": [7.60335, 10.92959, 5.32651],
			"rotation": {"angle": 22.5, "axis": "z", "origin": [7.45335, 10.77959, 5.12651]},
			"faces": {
				"north": {"uv": [7.25, 12.5, 7.375, 12.375], "rotation": 270, "texture": "#0"},
				"east": {"uv": [7.25, 12.5, 7.375, 12.375], "rotation": 270, "texture": "#0"},
				"south": {"uv": [7.25, 12.5, 7.375, 12.375], "rotation": 270, "texture": "#0"},
				"west": {"uv": [7.25, 12.5, 7.375, 12.375], "rotation": 270, "texture": "#0"},
				"up": {"uv": [7.25, 12.5, 7.375, 12.375], "rotation": 270, "texture": "#0"},
				"down": {"uv": [7.25, 12.5, 7.375, 12.375], "rotation": 270, "texture": "#0"}
			}
		}
	],
	"display": {
		"thirdperson_righthand": {
			"rotation": [0, -77, 0],
			"translation": [-0.5, -2, 3]
		},
		"thirdperson_lefthand": {
			"rotation": [0, -77, 0],
			"translation": [-0.5, -2, 3]
		},
		"firstperson_righthand": {
			"rotation": [28, -54, 46],
			"translation": [1.25, 0, 2]
		},
		"firstperson_lefthand": {
			"rotation": [28, -54, 46],
			"translation": [1.25, 0, 2]
		},
		"ground": {
			"rotation": [-90, 0, 0],
			"translation": [0, 1.75, 0]
		},
		"gui": {
			"rotation": [-8, 136, 44],
			"translation": [1.75, 0.5, 0]
		},
		"head": {
			"translation": [0, 1.5, -4.5]
		},
		"fixed": {
			"translation": [0, 1, 0]
		}
	},
	"groups": [0, 1, 2, 3, 4, 5, 6, 7, 8, 9, 10, 11,
		{
			"name": "group",
			"origin": [10.20459, 13.50459, 4.15],
			"children": [12, 13, 14, 15, 16, 17, 18, 19, 20, 21, 22, 23, 24, 25, 26, 27, 28, 29, 30]
		}, 31, 32, 33, 34, 35, 36, 37, 38, 39, 40, 41, 42, 43]
}