{
	"credit": "Made with Blockbench",
	"textures": {
		"0": "gci:items/common/mpz",
		"particle": "gci:items/common/mpz"
	},
	"elements": [
		{
			"from": [8, 0, -9],
			"to": [9, 1, 4],
			"rotation": {"angle": 0, "axis": "y", "origin": [0, 0.01, -8.75]},
			"faces": {
				"north": {"uv": [0.33333, 13.66667, 2.33333, 15.66667], "texture": "#0"},
				"east": {"uv": [0.33333, 13.66667, 2.33333, 15.66667], "texture": "#0"},
				"south": {"uv": [0.33333, 13.66667, 2.33333, 15.66667], "texture": "#0"},
				"west": {"uv": [0.33333, 13.66667, 2.33333, 15.66667], "texture": "#0"},
				"up": {"uv": [0.33333, 13.66667, 2.33333, 15.66667], "texture": "#0"},
				"down": {"uv": [0.33333, 13.66667, 2.33333, 15.66667], "texture": "#0"}
			}
		},
		{
			"from": [2.59189, 0.25, -7.34381],
			"to": [3.29189, 0.75, -6.64381],
			"rotation": {"angle": -22.5, "axis": "y", "origin": [3.51231, 0.5, -6.42338]},
			"faces": {
				"north": {"uv": [0.33333, 3, 2.33333, 5], "texture": "#0"},
				"east": {"uv": [0.33333, 3, 2.33333, 5], "texture": "#0"},
				"south": {"uv": [0.33333, 3, 2.33333, 5], "texture": "#0"},
				"west": {"uv": [0.33333, 3, 2.33333, 5], "texture": "#0"},
				"up": {"uv": [0.33333, 3, 2.33333, 5], "texture": "#0"},
				"down": {"uv": [0.33333, 3, 2.33333, 5], "texture": "#0"}
			}
		},
		{
			"from": [4.4, 0.25, -8.2],
			"to": [10.4, 0.75, -7.2],
			"rotation": {"angle": 0, "axis": "y", "origin": [0, 0, -9]},
			"faces": {
				"north": {"uv": [0.33333, 3, 2.33333, 5], "texture": "#0"},
				"east": {"uv": [0.33333, 3, 2.33333, 5], "texture": "#0"},
				"south": {"uv": [0.33333, 3, 2.33333, 5], "texture": "#0"},
				"west": {"uv": [0.33333, 3, 2.33333, 5], "texture": "#0"},
				"up": {"uv": [0.33333, 3, 2.33333, 5], "texture": "#0"},
				"down": {"uv": [0.33333, 3, 2.33333, 5], "texture": "#0"}
			}
		},
		{
			"from": [6.61952, 0.001, -4.47649],
			"to": [8.11952, 1.003, -2.52649],
			"rotation": {"angle": 22.5, "axis": "y", "origin": [7.36952, 0.485, -4.97649]},
			"faces": {
				"north": {"uv": [0.33333, 13.66667, 2.33333, 15.66667], "texture": "#0"},
				"east": {"uv": [0.33333, 13.66667, 2.33333, 15.66667], "texture": "#0"},
				"south": {"uv": [0.33333, 13.66667, 2.33333, 15.66667], "texture": "#0"},
				"west": {"uv": [0.33333, 13.66667, 2.33333, 15.66667], "texture": "#0"},
				"up": {"uv": [0.33333, 13.66667, 2.33333, 15.66667], "texture": "#0"},
				"down": {"uv": [0.33333, 13.66667, 2.33333, 15.66667], "texture": "#0"}
			}
		},
		{
			"from": [6.60038, 0.001, -2.52269],
			"to": [7.10038, 1.003, -1.52269],
			"rotation": {"angle": 22.5, "axis": "y", "origin": [7.35038, 0.5, -5.02269]},
			"faces": {
				"north": {"uv": [0.33333, 13.66667, 2.33333, 15.66667], "texture": "#0"},
				"east": {"uv": [0.33333, 13.66667, 2.33333, 15.66667], "texture": "#0"},
				"south": {"uv": [0.33333, 13.66667, 2.33333, 15.66667], "texture": "#0"},
				"west": {"uv": [0.33333, 13.66667, 2.33333, 15.66667], "texture": "#0"},
				"up": {"uv": [0.33333, 13.66667, 2.33333, 15.66667], "texture": "#0"},
				"down": {"uv": [0.33333, 13.66667, 2.33333, 15.66667], "texture": "#0"}
			}
		},
		{
			"from": [7.36693, 0.001, -8.79642],
			"to": [8.86693, 1.003, -7.79642],
			"rotation": {"angle": -22.5, "axis": "y", "origin": [8.11693, 0.495, -9.29642]},
			"faces": {
				"north": {"uv": [0.33333, 13.66667, 2.33333, 15.66667], "texture": "#0"},
				"east": {"uv": [0.33333, 13.66667, 2.33333, 15.66667], "texture": "#0"},
				"south": {"uv": [0.33333, 13.66667, 2.33333, 15.66667], "texture": "#0"},
				"west": {"uv": [0.33333, 13.66667, 2.33333, 15.66667], "texture": "#0"},
				"up": {"uv": [0.33333, 13.66667, 2.33333, 15.66667], "texture": "#0"},
				"down": {"uv": [0.33333, 13.66667, 2.33333, 15.66667], "texture": "#0"}
			}
		},
		{
			"from": [7.26301, 0.0001, -9.54827],
			"to": [8.26301, 1.0003, -8.04827],
			"rotation": {"angle": 45, "axis": "y", "origin": [7.76301, 0.5455, -9.29827]},
			"faces": {
				"north": {"uv": [0.33333, 13.66667, 2.33333, 15.66667], "texture": "#0"},
				"east": {"uv": [0.33333, 13.66667, 2.33333, 15.66667], "texture": "#0"},
				"south": {"uv": [0.33333, 13.66667, 2.33333, 15.66667], "texture": "#0"},
				"west": {"uv": [0.33333, 13.66667, 2.33333, 15.66667], "texture": "#0"},
				"up": {"uv": [0.33333, 13.66667, 2.33333, 15.66667], "texture": "#0"},
				"down": {"uv": [0.33333, 13.66667, 2.33333, 15.66667], "texture": "#0"}
			}
		},
		{
			"from": [3.58446, 0.7, -6.20611],
			"to": [4.28446, 1.2, -5.50611],
			"rotation": {"angle": -22.5, "axis": "y", "origin": [3.64924, 0.5, -6.14132]},
			"faces": {
				"north": {"uv": [0.33333, 3, 2.33333, 5], "texture": "#0"},
				"east": {"uv": [0.33333, 3, 2.33333, 5], "texture": "#0"},
				"south": {"uv": [0.33333, 3, 2.33333, 5], "texture": "#0"},
				"west": {"uv": [0.33333, 3, 2.33333, 5], "texture": "#0"},
				"up": {"uv": [0.33333, 3, 2.33333, 5], "texture": "#0"},
				"down": {"uv": [0.33333, 3, 2.33333, 5], "texture": "#0"}
			}
		},
		{
			"from": [5, 0.7, -6.8],
			"to": [10, 1.2, -5.8],
			"rotation": {"angle": 0, "axis": "y", "origin": [0, 0, -9]},
			"faces": {
				"north": {"uv": [0.33333, 3, 2.33333, 5], "texture": "#0"},
				"east": {"uv": [0.33333, 3, 2.33333, 5], "texture": "#0"},
				"south": {"uv": [0.33333, 3, 2.33333, 5], "texture": "#0"},
				"west": {"uv": [0.33333, 3, 2.33333, 5], "texture": "#0"},
				"up": {"uv": [0.33333, 3, 2.33333, 5], "texture": "#0"},
				"down": {"uv": [0.33333, 3, 2.33333, 5], "texture": "#0"}
			}
		},
		{
			"from": [6.85, -0.25, -8.19761],
			"to": [8.85, 1.25, -4.19761],
			"rotation": {"angle": 0, "axis": "y", "origin": [7.21613, 0.5, -6.69761]},
			"faces": {
				"north": {"uv": [0.33333, 13.66667, 2.33333, 15.66667], "texture": "#0"},
				"east": {"uv": [0.33333, 13.66667, 2.33333, 15.66667], "texture": "#0"},
				"south": {"uv": [0.33333, 13.66667, 2.33333, 15.66667], "texture": "#0"},
				"west": {"uv": [0.33333, 13.66667, 2.33333, 15.66667], "texture": "#0"},
				"up": {"uv": [0.33333, 13.66667, 2.33333, 15.66667], "texture": "#0"},
				"down": {"uv": [0.33333, 13.66667, 2.33333, 15.66667], "texture": "#0"}
			}
		},
		{
			"from": [3.58446, -0.2, -5.60611],
			"to": [4.28446, 0.3, -4.90611],
			"rotation": {"angle": -22.5, "axis": "y", "origin": [3.64924, 0.5, -5.54132]},
			"faces": {
				"north": {"uv": [0.33333, 3, 2.33333, 5], "texture": "#0"},
				"east": {"uv": [0.33333, 3, 2.33333, 5], "texture": "#0"},
				"south": {"uv": [0.33333, 3, 2.33333, 5], "texture": "#0"},
				"west": {"uv": [0.33333, 3, 2.33333, 5], "texture": "#0"},
				"up": {"uv": [0.33333, 3, 2.33333, 5], "texture": "#0"},
				"down": {"uv": [0.33333, 3, 2.33333, 5], "texture": "#0"}
			}
		},
		{
			"from": [5, -0.2, -6.2],
			"to": [10, 0.3, -5.2],
			"rotation": {"angle": 0, "axis": "y", "origin": [0, -1, -9]},
			"faces": {
				"north": {"uv": [0.33333, 3, 2.33333, 5], "texture": "#0"},
				"east": {"uv": [0.33333, 3, 2.33333, 5], "texture": "#0"},
				"south": {"uv": [0.33333, 3, 2.33333, 5], "texture": "#0"},
				"west": {"uv": [0.33333, 3, 2.33333, 5], "texture": "#0"},
				"up": {"uv": [0.33333, 3, 2.33333, 5], "texture": "#0"},
				"down": {"uv": [0.33333, 3, 2.33333, 5], "texture": "#0"}
			}
		},
		{
			"from": [3.7294, 0.7, -6.64672],
			"to": [5.2294, 1.2, -5.64672],
			"rotation": {"angle": 22.5, "axis": "y", "origin": [4.7294, 0.825, -6.14672]},
			"faces": {
				"north": {"uv": [0.33333, 3, 2.33333, 5], "texture": "#0"},
				"east": {"uv": [0.33333, 3, 2.33333, 5], "texture": "#0"},
				"south": {"uv": [0.33333, 3, 2.33333, 5], "texture": "#0"},
				"west": {"uv": [0.33333, 3, 2.33333, 5], "texture": "#0"},
				"up": {"uv": [0.33333, 3, 2.33333, 5], "texture": "#0"},
				"down": {"uv": [0.33333, 3, 2.33333, 5], "texture": "#0"}
			}
		},
		{
			"from": [3.14843, 0.25, -7.95105],
			"to": [4.64843, 0.75, -6.95105],
			"rotation": {"angle": 22.5, "axis": "y", "origin": [3.89843, 0.5, -7.45105]},
			"faces": {
				"north": {"uv": [0.33333, 3, 2.33333, 5], "texture": "#0"},
				"east": {"uv": [0.33333, 3, 2.33333, 5], "texture": "#0"},
				"south": {"uv": [0.33333, 3, 2.33333, 5], "texture": "#0"},
				"west": {"uv": [0.33333, 3, 2.33333, 5], "texture": "#0"},
				"up": {"uv": [0.33333, 3, 2.33333, 5], "texture": "#0"},
				"down": {"uv": [0.33333, 3, 2.33333, 5], "texture": "#0"}
			}
		},
		{
			"from": [3.74843, -0.2, -5.95105],
			"to": [5.24843, 0.3, -4.95105],
			"rotation": {"angle": 22.5, "axis": "y", "origin": [4.49843, 0.175, -5.45105]},
			"faces": {
				"north": {"uv": [0.33333, 3, 2.33333, 5], "texture": "#0"},
				"east": {"uv": [0.33333, 3, 2.33333, 5], "texture": "#0"},
				"south": {"uv": [0.33333, 3, 2.33333, 5], "texture": "#0"},
				"west": {"uv": [0.33333, 3, 2.33333, 5], "texture": "#0"},
				"up": {"uv": [0.33333, 3, 2.33333, 5], "texture": "#0"},
				"down": {"uv": [0.33333, 3, 2.33333, 5], "texture": "#0"}
			}
		},
		{
			"from": [7.93979, 0.001, -9.8286],
			"to": [8.98979, 1.003, -8.3286],
			"rotation": {"angle": 0, "axis": "y", "origin": [8.43979, 0.5105, -9.5786]},
			"faces": {
				"north": {"uv": [0.33333, 13.66667, 2.33333, 15.66667], "texture": "#0"},
				"east": {"uv": [0.33333, 13.66667, 2.33333, 15.66667], "texture": "#0"},
				"south": {"uv": [0.33333, 13.66667, 2.33333, 15.66667], "texture": "#0"},
				"west": {"uv": [0.33333, 13.66667, 2.33333, 15.66667], "texture": "#0"},
				"up": {"uv": [0.33333, 13.66667, 2.33333, 15.66667], "texture": "#0"},
				"down": {"uv": [0.33333, 13.66667, 2.33333, 15.66667], "texture": "#0"}
			}
		},
		{
			"from": [8.85, -0.01, -8.05],
			"to": [10.15, 1.01, -5.05],
			"rotation": {"angle": 0, "axis": "y", "origin": [7.21613, 0.5, -6.69761]},
			"faces": {
				"north": {"uv": [10.66667, 0, 13, 2.33333], "texture": "#0"},
				"east": {"uv": [10.66667, 0, 13, 2.33333], "texture": "#0"},
				"south": {"uv": [10.66667, 0, 13, 2.33333], "texture": "#0"},
				"west": {"uv": [10.66667, 0, 13, 2.33333], "texture": "#0"},
				"up": {"uv": [10.66667, 0, 13, 2.33333], "texture": "#0"},
				"down": {"uv": [10.66667, 0, 13, 2.33333], "texture": "#0"}
			}
		},
		{
			"from": [9.85, -0.25, -8.25],
			"to": [10.85, 1.25, -4.9],
			"rotation": {"angle": 0, "axis": "y", "origin": [7.21613, 0.5, -6.69761]},
			"faces": {
				"north": {"uv": [10.66667, 0, 13, 2.33333], "texture": "#0"},
				"east": {"uv": [10.66667, 0, 13, 2.33333], "texture": "#0"},
				"south": {"uv": [10.66667, 0, 13, 2.33333], "texture": "#0"},
				"west": {"uv": [10.66667, 0, 13, 2.33333], "texture": "#0"},
				"up": {"uv": [10.66667, 0, 13, 2.33333], "texture": "#0"},
				"down": {"uv": [10.66667, 0, 13, 2.33333], "texture": "#0"}
			}
		},
		{
			"from": [7.75, -0.25, 16],
			"to": [9.25, 1.25, 17],
			"rotation": {"angle": 0, "axis": "y", "origin": [0, 0.01, -8.75]},
			"faces": {
				"north": {"uv": [8.33333, 3, 10.33333, 5], "texture": "#0"},
				"east": {"uv": [8.33333, 3, 10.33333, 5], "texture": "#0"},
				"south": {"uv": [8.33333, 3, 10.33333, 5], "texture": "#0"},
				"west": {"uv": [8.33333, 3, 10.33333, 5], "texture": "#0"},
				"up": {"uv": [8.33333, 3, 10.33333, 5], "texture": "#0"},
				"down": {"uv": [8.33333, 3, 10.33333, 5], "texture": "#0"}
			}
		},
		{
			"from": [7.87, -0.12, 3],
			"to": [9.11, 1.12, 4],
			"rotation": {"angle": 0, "axis": "y", "origin": [0, 0.01, -8.75]},
			"faces": {
				"north": {"uv": [8.33333, 3, 10.33333, 5], "texture": "#0"},
				"east": {"uv": [8.33333, 3, 10.33333, 5], "texture": "#0"},
				"south": {"uv": [8.33333, 3, 10.33333, 5], "texture": "#0"},
				"west": {"uv": [8.33333, 3, 10.33333, 5], "texture": "#0"},
				"up": {"uv": [8.33333, 3, 10.33333, 5], "texture": "#0"},
				"down": {"uv": [8.33333, 3, 10.33333, 5], "texture": "#0"}
			}
		},
		{
			"from": [7.87, -0.12, 12],
			"to": [9.11, 1.12, 13],
			"rotation": {"angle": 0, "axis": "y", "origin": [0, 0.01, -8.75]},
			"faces": {
				"north": {"uv": [8.33333, 3, 10.33333, 5], "texture": "#0"},
				"east": {"uv": [8.33333, 3, 10.33333, 5], "texture": "#0"},
				"south": {"uv": [8.33333, 3, 10.33333, 5], "texture": "#0"},
				"west": {"uv": [8.33333, 3, 10.33333, 5], "texture": "#0"},
				"up": {"uv": [8.33333, 3, 10.33333, 5], "texture": "#0"},
				"down": {"uv": [8.33333, 3, 10.33333, 5], "texture": "#0"}
			}
		},
		{
			"from": [10.675, -0.25, -5.32249],
			"to": [11.025, 0.05, -4.97249],
			"rotation": {"angle": 45, "axis": "y", "origin": [10.85, -0.1, -5.14749]},
			"faces": {
				"north": {"uv": [10.66667, 0, 13, 2.33333], "texture": "#0"},
				"east": {"uv": [10.66667, 0, 13, 2.33333], "texture": "#0"},
				"south": {"uv": [10.66667, 0, 13, 2.33333], "texture": "#0"},
				"west": {"uv": [10.66667, 0, 13, 2.33333], "texture": "#0"},
				"up": {"uv": [10.66667, 0, 13, 2.33333], "rotation": 90, "texture": "#0"},
				"down": {"uv": [10.66667, 0, 13, 2.33333], "rotation": 270, "texture": "#0"}
			}
		},
		{
			"from": [10.67322, 0, -6.8],
			"to": [11.02322, 0.3, -6.45],
			"rotation": {"angle": 45, "axis": "y", "origin": [10.84822, 0.15, -6.625]},
			"faces": {
				"north": {"uv": [10.66667, 0, 13, 2.33333], "texture": "#0"},
				"east": {"uv": [10.66667, 0, 13, 2.33333], "texture": "#0"},
				"south": {"uv": [10.66667, 0, 13, 2.33333], "texture": "#0"},
				"west": {"uv": [10.66667, 0, 13, 2.33333], "texture": "#0"},
				"up": {"uv": [10.66667, 0, 13, 2.33333], "rotation": 90, "texture": "#0"},
				"down": {"uv": [10.66667, 0, 13, 2.33333], "rotation": 270, "texture": "#0"}
			}
		},
		{
			"from": [10.675, 0.95, -5.32249],
			"to": [11.025, 1.25, -4.97249],
			"rotation": {"angle": 45, "axis": "y", "origin": [10.85, -0.1, -5.14749]},
			"faces": {
				"north": {"uv": [10.66667, 0, 13, 2.33333], "texture": "#0"},
				"east": {"uv": [10.66667, 0, 13, 2.33333], "texture": "#0"},
				"south": {"uv": [10.66667, 0, 13, 2.33333], "texture": "#0"},
				"west": {"uv": [10.66667, 0, 13, 2.33333], "texture": "#0"},
				"up": {"uv": [10.66667, 0, 13, 2.33333], "rotation": 90, "texture": "#0"},
				"down": {"uv": [10.66667, 0, 13, 2.33333], "rotation": 270, "texture": "#0"}
			}
		},
		{
			"from": [9.96789, 0.95, -7.88462],
			"to": [10.31789, 1.25, -7.53462],
			"rotation": {"angle": 45, "axis": "y", "origin": [10.14289, -0.1, -8.70962]},
			"faces": {
				"north": {"uv": [10.66667, 0, 13, 2.33333], "texture": "#0"},
				"east": {"uv": [10.66667, 0, 13, 2.33333], "texture": "#0"},
				"south": {"uv": [10.66667, 0, 13, 2.33333], "texture": "#0"},
				"west": {"uv": [10.66667, 0, 13, 2.33333], "texture": "#0"},
				"up": {"uv": [10.66667, 0, 13, 2.33333], "rotation": 90, "texture": "#0"},
				"down": {"uv": [10.66667, 0, 13, 2.33333], "rotation": 270, "texture": "#0"}
			}
		},
		{
			"from": [9.96789, -0.25, -7.88462],
			"to": [10.31789, 0.05, -7.53462],
			"rotation": {"angle": 45, "axis": "y", "origin": [10.14289, -0.1, -8.70962]},
			"faces": {
				"north": {"uv": [10.66667, 0, 13, 2.33333], "texture": "#0"},
				"east": {"uv": [10.66667, 0, 13, 2.33333], "texture": "#0"},
				"south": {"uv": [10.66667, 0, 13, 2.33333], "texture": "#0"},
				"west": {"uv": [10.66667, 0, 13, 2.33333], "texture": "#0"},
				"up": {"uv": [10.66667, 0, 13, 2.33333], "rotation": 90, "texture": "#0"},
				"down": {"uv": [10.66667, 0, 13, 2.33333], "rotation": 270, "texture": "#0"}
			}
		},
		{
			"from": [11.35, 0.75, -6],
			"to": [11.7, 1.05, -5.65],
			"rotation": {"angle": 45, "axis": "y", "origin": [10.85, -0.1, -5.14749]},
			"faces": {
				"north": {"uv": [10.66667, 0, 13, 2.33333], "texture": "#0"},
				"east": {"uv": [10.66667, 0, 13, 2.33333], "texture": "#0"},
				"south": {"uv": [10.66667, 0, 13, 2.33333], "texture": "#0"},
				"west": {"uv": [10.66667, 0, 13, 2.33333], "texture": "#0"},
				"up": {"uv": [10.66667, 0, 13, 2.33333], "rotation": 90, "texture": "#0"},
				"down": {"uv": [10.66667, 0, 13, 2.33333], "rotation": 270, "texture": "#0"}
			}
		},
		{
			"from": [10.67322, 0.75, -7.4],
			"to": [11.02322, 1.05, -7.05],
			"rotation": {"angle": 45, "axis": "y", "origin": [10.84822, 0.9, -7.225]},
			"faces": {
				"north": {"uv": [10.66667, 0, 13, 2.33333], "texture": "#0"},
				"east": {"uv": [10.66667, 0, 13, 2.33333], "texture": "#0"},
				"south": {"uv": [10.66667, 0, 13, 2.33333], "texture": "#0"},
				"west": {"uv": [10.66667, 0, 13, 2.33333], "texture": "#0"},
				"up": {"uv": [10.66667, 0, 13, 2.33333], "rotation": 90, "texture": "#0"},
				"down": {"uv": [10.66667, 0, 13, 2.33333], "rotation": 270, "texture": "#0"}
			}
		},
		{
			"from": [10.675, 0.35, -8],
			"to": [11.025, 0.65, -7.65],
			"rotation": {"angle": 45, "axis": "y", "origin": [10.85, 0.5, -7.825]},
			"faces": {
				"north": {"uv": [10.66667, 0, 13, 2.33333], "texture": "#0"},
				"east": {"uv": [10.66667, 0, 13, 2.33333], "texture": "#0"},
				"south": {"uv": [10.66667, 0, 13, 2.33333], "texture": "#0"},
				"west": {"uv": [10.66667, 0, 13, 2.33333], "texture": "#0"},
				"up": {"uv": [10.66667, 0, 13, 2.33333], "texture": "#0"},
				"down": {"uv": [10.66667, 0, 13, 2.33333], "texture": "#0"}
			}
		},
		{
			"from": [10.675, 0.35, -5.5],
			"to": [11.025, 0.65, -5.15],
			"rotation": {"angle": 45, "axis": "y", "origin": [10.85, 0.5, -5.325]},
			"faces": {
				"north": {"uv": [10.66667, 0, 13, 2.33333], "texture": "#0"},
				"east": {"uv": [10.66667, 0, 13, 2.33333], "texture": "#0"},
				"south": {"uv": [10.66667, 0, 13, 2.33333], "texture": "#0"},
				"west": {"uv": [10.66667, 0, 13, 2.33333], "texture": "#0"},
				"up": {"uv": [10.66667, 0, 13, 2.33333], "texture": "#0"},
				"down": {"uv": [10.66667, 0, 13, 2.33333], "texture": "#0"}
			}
		},
		{
			"from": [8, 0, 12],
			"to": [9, 1, 16],
			"rotation": {"angle": 0, "axis": "y", "origin": [0, 0.01, -8.75]},
			"faces": {
				"north": {"uv": [0.33333, 13.66667, 2.33333, 15.66667], "texture": "#0"},
				"east": {"uv": [0.33333, 13.66667, 2.33333, 15.66667], "texture": "#0"},
				"south": {"uv": [0.33333, 13.66667, 2.33333, 15.66667], "texture": "#0"},
				"west": {"uv": [0.33333, 13.66667, 2.33333, 15.66667], "texture": "#0"},
				"up": {"uv": [0.33333, 13.66667, 2.33333, 15.66667], "texture": "#0"},
				"down": {"uv": [0.33333, 13.66667, 2.33333, 15.66667], "texture": "#0"}
			}
		},
		{
			"from": [8, 0, 4],
			"to": [9, 1, 12],
			"rotation": {"angle": 0, "axis": "y", "origin": [0, 0.01, -8.75]},
			"faces": {
				"north": {"uv": [0.33333, 5.66667, 2.33333, 7.66667], "texture": "#0"},
				"east": {"uv": [0.33333, 5.66667, 2.33333, 7.66667], "texture": "#0"},
				"south": {"uv": [0.33333, 5.66667, 2.33333, 7.66667], "texture": "#0"},
				"west": {"uv": [0.33333, 5.66667, 2.33333, 7.66667], "texture": "#0"},
				"up": {"uv": [0.33333, 5.66667, 2.33333, 7.66667], "texture": "#0"},
				"down": {"uv": [0.33333, 5.66667, 2.33333, 7.66667], "texture": "#0"}
			}
		}
	],
	"display": {
		"thirdperson_righthand": {
			"rotation": [91.2, 2.12, 88.49],
			"translation": [-6.5, -4.25, 0.75]
		},
		"thirdperson_lefthand": {
			"rotation": [124, -82.68, -77.85],
			"translation": [-6.5, -8.5, -1.75]
		},
		"firstperson_righthand": {
			"rotation": [41.18, -26.14, 95.12],
			"translation": [-4.25, -0.75, 0.75]
		},
		"firstperson_lefthand": {
			"rotation": [114, -75, -69],
			"translation": [-9, -7.25, 0]
		},
		"ground": {
			"translation": [0, 4.5, 3.25]
		},
		"gui": {
			"rotation": [50, 44, -1],
			"translation": [3, 1.5, 0]
		},
		"fixed": {
			"rotation": [90, 45, 0],
			"translation": [3.25, -2.75, 6]
		}
	}
}