{
	"credit": "Made with Blockbench",
	"texture_size": [64, 64],
	"textures": {
		"0": "gci:items/common/mpz",
		"particle": "gci:items/common/mpz"
	},
	"elements": [
		{
			"from": [7.9107, 3.96, 6.6444],
			"to": [8.0107, 4.36, 7.1384],
			"rotation": {"angle": 45, "axis": "y", "origin": [7.9607, 4.25, 6.8914]},
			"faces": {
				"north": {"uv": [0.33325, 0.33325, 2.358, 2.4565], "texture": "#0"},
				"east": {"uv": [0.33325, 0.33325, 2.358, 2.4565], "texture": "#0"},
				"south": {"uv": [0.33325, 0.33325, 2.358, 2.4565], "texture": "#0"},
				"west": {"uv": [0.33325, 0.33325, 2.358, 2.4565], "texture": "#0"},
				"up": {"uv": [0.33325, 0.33325, 2.358, 2.4565], "texture": "#0"},
				"down": {"uv": [0.33325, 0.33325, 2.358, 2.4565], "texture": "#0"}
			}
		},
		{
			"from": [7.3274, 3.96, 6.68139],
			"to": [7.8214, 4.36, 6.78139],
			"rotation": {"angle": 0, "axis": "y", "origin": [7.58139, 5, 6.18139]},
			"faces": {
				"north": {"uv": [0.33325, 0.33325, 2.358, 2.4565], "rotation": 90, "texture": "#0"},
				"east": {"uv": [0.33325, 0.33325, 2.358, 2.4565], "rotation": 90, "texture": "#0"},
				"south": {"uv": [0.33325, 0.33325, 2.358, 2.4565], "rotation": 90, "texture": "#0"},
				"west": {"uv": [0.33325, 0.33325, 2.358, 2.4565], "rotation": 90, "texture": "#0"},
				"up": {"uv": [0.33325, 0.33325, 2.358, 2.4565], "rotation": 90, "texture": "#0"},
				"down": {"uv": [0.33325, 0.33325, 2.358, 2.4565], "rotation": 90, "texture": "#0"}
			}
		},
		{
			"from": [6.55014, 3.96, 6.99755],
			"to": [7.04414, 4.36, 7.09755],
			"rotation": {"angle": 45, "axis": "y", "origin": [6.80413, 5, 6.49755]},
			"faces": {
				"north": {"uv": [0.33325, 0.33325, 2.358, 2.4565], "rotation": 90, "texture": "#0"},
				"east": {"uv": [0.33325, 0.33325, 2.358, 2.4565], "rotation": 90, "texture": "#0"},
				"south": {"uv": [0.33325, 0.33325, 2.358, 2.4565], "rotation": 90, "texture": "#0"},
				"west": {"uv": [0.33325, 0.33325, 2.358, 2.4565], "rotation": 90, "texture": "#0"},
				"up": {"uv": [0.33325, 0.33325, 2.358, 2.4565], "rotation": 90, "texture": "#0"},
				"down": {"uv": [0.33325, 0.33325, 2.358, 2.4565], "rotation": 90, "texture": "#0"}
			}
		},
		{
			"from": [7.1381, 3.96, 7.417],
			"to": [7.2381, 4.36, 7.911],
			"rotation": {"angle": 45, "axis": "y", "origin": [7.1881, 4.25, 7.664]},
			"faces": {
				"north": {"uv": [0.33325, 0.33325, 2.358, 2.4565], "texture": "#0"},
				"east": {"uv": [0.33325, 0.33325, 2.358, 2.4565], "texture": "#0"},
				"south": {"uv": [0.33325, 0.33325, 2.358, 2.4565], "texture": "#0"},
				"west": {"uv": [0.33325, 0.33325, 2.358, 2.4565], "texture": "#0"},
				"up": {"uv": [0.33325, 0.33325, 2.358, 2.4565], "texture": "#0"},
				"down": {"uv": [0.33325, 0.33325, 2.358, 2.4565], "texture": "#0"}
			}
		},
		{
			"from": [6.97809, 3.96, 7.0307],
			"to": [7.07809, 4.36, 7.5247],
			"rotation": {"angle": 0, "axis": "y", "origin": [6.47809, 5, 7.27071]},
			"faces": {
				"north": {"uv": [0.33325, 0.33325, 2.358, 2.4565], "texture": "#0"},
				"east": {"uv": [0.33325, 0.33325, 2.358, 2.4565], "texture": "#0"},
				"south": {"uv": [0.33325, 0.33325, 2.358, 2.4565], "texture": "#0"},
				"west": {"uv": [0.33325, 0.33325, 2.358, 2.4565], "texture": "#0"},
				"up": {"uv": [0.33325, 0.33325, 2.358, 2.4565], "texture": "#0"},
				"down": {"uv": [0.33325, 0.33325, 2.358, 2.4565], "texture": "#0"}
			}
		},
		{
			"from": [7.3274, 3.96, 7.77401],
			"to": [7.8214, 4.36, 7.87401],
			"rotation": {"angle": 0, "axis": "y", "origin": [7.58139, 5, 7.27401]},
			"faces": {
				"north": {"uv": [0.33325, 0.33325, 2.358, 2.4565], "rotation": 90, "texture": "#0"},
				"east": {"uv": [0.33325, 0.33325, 2.358, 2.4565], "rotation": 90, "texture": "#0"},
				"south": {"uv": [0.33325, 0.33325, 2.358, 2.4565], "rotation": 90, "texture": "#0"},
				"west": {"uv": [0.33325, 0.33325, 2.358, 2.4565], "rotation": 90, "texture": "#0"},
				"up": {"uv": [0.33325, 0.33325, 2.358, 2.4565], "rotation": 90, "texture": "#0"},
				"down": {"uv": [0.33325, 0.33325, 2.358, 2.4565], "rotation": 90, "texture": "#0"}
			}
		},
		{
			"from": [7.32274, 3.96, 7.77015],
			"to": [7.81674, 4.36, 7.87015],
			"rotation": {"angle": 45, "axis": "y", "origin": [7.57673, 5, 7.27015]},
			"faces": {
				"north": {"uv": [0.33325, 0.33325, 2.358, 2.4565], "rotation": 90, "texture": "#0"},
				"east": {"uv": [0.33325, 0.33325, 2.358, 2.4565], "rotation": 90, "texture": "#0"},
				"south": {"uv": [0.33325, 0.33325, 2.358, 2.4565], "rotation": 90, "texture": "#0"},
				"west": {"uv": [0.33325, 0.33325, 2.358, 2.4565], "rotation": 90, "texture": "#0"},
				"up": {"uv": [0.33325, 0.33325, 2.358, 2.4565], "rotation": 90, "texture": "#0"},
				"down": {"uv": [0.33325, 0.33325, 2.358, 2.4565], "rotation": 90, "texture": "#0"}
			}
		},
		{
			"from": [8.07071, 3.96, 7.0307],
			"to": [8.17071, 4.36, 7.5247],
			"rotation": {"angle": 0, "axis": "y", "origin": [7.57071, 5, 7.27071]},
			"faces": {
				"north": {"uv": [0.33325, 0.33325, 2.358, 2.4565], "texture": "#0"},
				"east": {"uv": [0.33325, 0.33325, 2.358, 2.4565], "texture": "#0"},
				"south": {"uv": [0.33325, 0.33325, 2.358, 2.4565], "texture": "#0"},
				"west": {"uv": [0.33325, 0.33325, 2.358, 2.4565], "texture": "#0"},
				"up": {"uv": [0.33325, 0.33325, 2.358, 2.4565], "texture": "#0"},
				"down": {"uv": [0.33325, 0.33325, 2.358, 2.4565], "texture": "#0"}
			}
		},
		{
			"from": [7.9107, 5.62, 6.6444],
			"to": [8.0107, 6.02, 7.1384],
			"rotation": {"angle": 45, "axis": "y", "origin": [7.9607, 6.05, 6.8914]},
			"faces": {
				"north": {"uv": [0.33325, 0.33325, 2.358, 2.4565], "texture": "#0"},
				"east": {"uv": [0.33325, 0.33325, 2.358, 2.4565], "texture": "#0"},
				"south": {"uv": [0.33325, 0.33325, 2.358, 2.4565], "texture": "#0"},
				"west": {"uv": [0.33325, 0.33325, 2.358, 2.4565], "texture": "#0"},
				"up": {"uv": [0.33325, 0.33325, 2.358, 2.4565], "texture": "#0"},
				"down": {"uv": [0.33325, 0.33325, 2.358, 2.4565], "texture": "#0"}
			}
		},
		{
			"from": [7.3274, 5.62, 6.68139],
			"to": [7.8214, 6.02, 6.78139],
			"rotation": {"angle": 0, "axis": "y", "origin": [7.58139, 6.8, 6.18139]},
			"faces": {
				"north": {"uv": [0.33325, 0.33325, 2.358, 2.4565], "rotation": 90, "texture": "#0"},
				"east": {"uv": [0.33325, 0.33325, 2.358, 2.4565], "rotation": 90, "texture": "#0"},
				"south": {"uv": [0.33325, 0.33325, 2.358, 2.4565], "rotation": 90, "texture": "#0"},
				"west": {"uv": [0.33325, 0.33325, 2.358, 2.4565], "rotation": 90, "texture": "#0"},
				"up": {"uv": [0.33325, 0.33325, 2.358, 2.4565], "rotation": 90, "texture": "#0"},
				"down": {"uv": [0.33325, 0.33325, 2.358, 2.4565], "rotation": 90, "texture": "#0"}
			}
		},
		{
			"from": [6.55014, 5.62, 6.99755],
			"to": [7.04414, 6.02, 7.09755],
			"rotation": {"angle": 45, "axis": "y", "origin": [6.80413, 6.8, 6.49755]},
			"faces": {
				"north": {"uv": [0.33325, 0.33325, 2.358, 2.4565], "rotation": 90, "texture": "#0"},
				"east": {"uv": [0.33325, 0.33325, 2.358, 2.4565], "rotation": 90, "texture": "#0"},
				"south": {"uv": [0.33325, 0.33325, 2.358, 2.4565], "rotation": 90, "texture": "#0"},
				"west": {"uv": [0.33325, 0.33325, 2.358, 2.4565], "rotation": 90, "texture": "#0"},
				"up": {"uv": [0.33325, 0.33325, 2.358, 2.4565], "rotation": 90, "texture": "#0"},
				"down": {"uv": [0.33325, 0.33325, 2.358, 2.4565], "rotation": 90, "texture": "#0"}
			}
		},
		{
			"from": [7.1381, 5.62, 7.417],
			"to": [7.2381, 6.02, 7.911],
			"rotation": {"angle": 45, "axis": "y", "origin": [7.1881, 6.05, 7.664]},
			"faces": {
				"north": {"uv": [0.33325, 0.33325, 2.358, 2.4565], "texture": "#0"},
				"east": {"uv": [0.33325, 0.33325, 2.358, 2.4565], "texture": "#0"},
				"south": {"uv": [0.33325, 0.33325, 2.358, 2.4565], "texture": "#0"},
				"west": {"uv": [0.33325, 0.33325, 2.358, 2.4565], "texture": "#0"},
				"up": {"uv": [0.33325, 0.33325, 2.358, 2.4565], "texture": "#0"},
				"down": {"uv": [0.33325, 0.33325, 2.358, 2.4565], "texture": "#0"}
			}
		},
		{
			"from": [6.97809, 5.62, 7.0307],
			"to": [7.07809, 6.02, 7.5247],
			"rotation": {"angle": 0, "axis": "y", "origin": [6.47809, 6.8, 7.27071]},
			"faces": {
				"north": {"uv": [0.33325, 0.33325, 2.358, 2.4565], "texture": "#0"},
				"east": {"uv": [0.33325, 0.33325, 2.358, 2.4565], "texture": "#0"},
				"south": {"uv": [0.33325, 0.33325, 2.358, 2.4565], "texture": "#0"},
				"west": {"uv": [0.33325, 0.33325, 2.358, 2.4565], "texture": "#0"},
				"up": {"uv": [0.33325, 0.33325, 2.358, 2.4565], "texture": "#0"},
				"down": {"uv": [0.33325, 0.33325, 2.358, 2.4565], "texture": "#0"}
			}
		},
		{
			"from": [7.3274, 5.62, 7.77401],
			"to": [7.8214, 6.02, 7.87401],
			"rotation": {"angle": 0, "axis": "y", "origin": [7.58139, 6.8, 7.27401]},
			"faces": {
				"north": {"uv": [0.33325, 0.33325, 2.358, 2.4565], "rotation": 90, "texture": "#0"},
				"east": {"uv": [0.33325, 0.33325, 2.358, 2.4565], "rotation": 90, "texture": "#0"},
				"south": {"uv": [0.33325, 0.33325, 2.358, 2.4565], "rotation": 90, "texture": "#0"},
				"west": {"uv": [0.33325, 0.33325, 2.358, 2.4565], "rotation": 90, "texture": "#0"},
				"up": {"uv": [0.33325, 0.33325, 2.358, 2.4565], "rotation": 90, "texture": "#0"},
				"down": {"uv": [0.33325, 0.33325, 2.358, 2.4565], "rotation": 90, "texture": "#0"}
			}
		},
		{
			"from": [7.32274, 5.62, 7.77015],
			"to": [7.81674, 6.02, 7.87015],
			"rotation": {"angle": 45, "axis": "y", "origin": [7.57673, 6.8, 7.27015]},
			"faces": {
				"north": {"uv": [0.33325, 0.33325, 2.358, 2.4565], "rotation": 90, "texture": "#0"},
				"east": {"uv": [0.33325, 0.33325, 2.358, 2.4565], "rotation": 90, "texture": "#0"},
				"south": {"uv": [0.33325, 0.33325, 2.358, 2.4565], "rotation": 90, "texture": "#0"},
				"west": {"uv": [0.33325, 0.33325, 2.358, 2.4565], "rotation": 90, "texture": "#0"},
				"up": {"uv": [0.33325, 0.33325, 2.358, 2.4565], "rotation": 90, "texture": "#0"},
				"down": {"uv": [0.33325, 0.33325, 2.358, 2.4565], "rotation": 90, "texture": "#0"}
			}
		},
		{
			"from": [8.07071, 5.62, 7.0307],
			"to": [8.17071, 6.02, 7.5247],
			"rotation": {"angle": 0, "axis": "y", "origin": [7.57071, 6.8, 7.27071]},
			"faces": {
				"north": {"uv": [0.33325, 0.33325, 2.358, 2.4565], "texture": "#0"},
				"east": {"uv": [0.33325, 0.33325, 2.358, 2.4565], "texture": "#0"},
				"south": {"uv": [0.33325, 0.33325, 2.358, 2.4565], "texture": "#0"},
				"west": {"uv": [0.33325, 0.33325, 2.358, 2.4565], "texture": "#0"},
				"up": {"uv": [0.33325, 0.33325, 2.358, 2.4565], "texture": "#0"},
				"down": {"uv": [0.33325, 0.33325, 2.358, 2.4565], "texture": "#0"}
			}
		},
		{
			"from": [7.36371, 4, 6.77771],
			"to": [7.77771, 4.5, 7.77771],
			"rotation": {"angle": 0, "axis": "y", "origin": [7.57071, 5, 7.27771]},
			"faces": {
				"north": {"uv": [0.33325, 0.33325, 2.358, 2.4565], "rotation": 90, "texture": "#0"},
				"east": {"uv": [0.33325, 0.33325, 2.358, 2.4565], "rotation": 90, "texture": "#0"},
				"south": {"uv": [0.33325, 0.33325, 2.358, 2.4565], "rotation": 90, "texture": "#0"},
				"west": {"uv": [0.33325, 0.33325, 2.358, 2.4565], "rotation": 90, "texture": "#0"},
				"up": {"uv": [0.33325, 0.33325, 2.358, 2.4565], "rotation": 90, "texture": "#0"},
				"down": {"uv": [0.33325, 0.33325, 2.358, 2.4565], "rotation": 90, "texture": "#0"}
			}
		},
		{
			"from": [7.07071, 4, 7.07071],
			"to": [8.07071, 4.5, 7.48471],
			"rotation": {"angle": 0, "axis": "y", "origin": [7.47071, 5, 7.27071]},
			"faces": {
				"north": {"uv": [0.33325, 0.33325, 2.358, 2.4565], "texture": "#0"},
				"east": {"uv": [0.33325, 0.33325, 2.358, 2.4565], "texture": "#0"},
				"south": {"uv": [0.33325, 0.33325, 2.358, 2.4565], "texture": "#0"},
				"west": {"uv": [0.33325, 0.33325, 2.358, 2.4565], "texture": "#0"},
				"up": {"uv": [0.33325, 0.33325, 2.358, 2.4565], "texture": "#0"},
				"down": {"uv": [0.33325, 0.33325, 2.358, 2.4565], "texture": "#0"}
			}
		},
		{
			"from": [7.09513, 4, 7.14365],
			"to": [8.09513, 4.5, 7.55765],
			"rotation": {"angle": 45, "axis": "y", "origin": [7.49513, 5, 7.34365]},
			"faces": {
				"north": {"uv": [0.33325, 0.33325, 2.358, 2.4565], "texture": "#0"},
				"east": {"uv": [0.33325, 0.33325, 2.358, 2.4565], "texture": "#0"},
				"south": {"uv": [0.33325, 0.33325, 2.358, 2.4565], "texture": "#0"},
				"west": {"uv": [0.33325, 0.33325, 2.358, 2.4565], "texture": "#0"},
				"up": {"uv": [0.33325, 0.33325, 2.358, 2.4565], "texture": "#0"},
				"down": {"uv": [0.33325, 0.33325, 2.358, 2.4565], "texture": "#0"}
			}
		},
		{
			"from": [7.07071, 4, 7.07071],
			"to": [8.07071, 4.5, 7.48471],
			"rotation": {"angle": -45, "axis": "y", "origin": [7.57071, 5, 7.27771]},
			"faces": {
				"north": {"uv": [0.33325, 0.33325, 2.358, 2.4565], "texture": "#0"},
				"east": {"uv": [0.33325, 0.33325, 2.358, 2.4565], "texture": "#0"},
				"south": {"uv": [0.33325, 0.33325, 2.358, 2.4565], "texture": "#0"},
				"west": {"uv": [0.33325, 0.33325, 2.358, 2.4565], "texture": "#0"},
				"up": {"uv": [0.33325, 0.33325, 2.358, 2.4565], "texture": "#0"},
				"down": {"uv": [0.33325, 0.33325, 2.358, 2.4565], "texture": "#0"}
			}
		},
		{
			"from": [7.07071, 5.5, 7.07071],
			"to": [8.07071, 6, 7.48471],
			"rotation": {"angle": 0, "axis": "y", "origin": [7.47071, 6.5, 7.27071]},
			"faces": {
				"north": {"uv": [0.33325, 0.33325, 2.358, 2.4565], "texture": "#0"},
				"east": {"uv": [0.33325, 0.33325, 2.358, 2.4565], "texture": "#0"},
				"south": {"uv": [0.33325, 0.33325, 2.358, 2.4565], "texture": "#0"},
				"west": {"uv": [0.33325, 0.33325, 2.358, 2.4565], "texture": "#0"},
				"up": {"uv": [0.33325, 0.33325, 2.358, 2.4565], "texture": "#0"},
				"down": {"uv": [0.33325, 0.33325, 2.358, 2.4565], "texture": "#0"}
			}
		},
		{
			"from": [7.36371, 5.5, 6.77771],
			"to": [7.77771, 6, 7.77771],
			"rotation": {"angle": 0, "axis": "y", "origin": [7.57071, 6.5, 7.27771]},
			"faces": {
				"north": {"uv": [0.33325, 0.33325, 2.358, 2.4565], "rotation": 90, "texture": "#0"},
				"east": {"uv": [0.33325, 0.33325, 2.358, 2.4565], "rotation": 90, "texture": "#0"},
				"south": {"uv": [0.33325, 0.33325, 2.358, 2.4565], "rotation": 90, "texture": "#0"},
				"west": {"uv": [0.33325, 0.33325, 2.358, 2.4565], "rotation": 90, "texture": "#0"},
				"up": {"uv": [0.33325, 0.33325, 2.358, 2.4565], "rotation": 90, "texture": "#0"},
				"down": {"uv": [0.33325, 0.33325, 2.358, 2.4565], "rotation": 90, "texture": "#0"}
			}
		},
		{
			"from": [7.07071, 5.5, 7.07071],
			"to": [8.07071, 6, 7.48471],
			"rotation": {"angle": -45, "axis": "y", "origin": [7.57071, 6.5, 7.27771]},
			"faces": {
				"north": {"uv": [0.33325, 0.33325, 2.358, 2.4565], "texture": "#0"},
				"east": {"uv": [0.33325, 0.33325, 2.358, 2.4565], "texture": "#0"},
				"south": {"uv": [0.33325, 0.33325, 2.358, 2.4565], "texture": "#0"},
				"west": {"uv": [0.33325, 0.33325, 2.358, 2.4565], "texture": "#0"},
				"up": {"uv": [0.33325, 0.33325, 2.358, 2.4565], "texture": "#0"},
				"down": {"uv": [0.33325, 0.33325, 2.358, 2.4565], "texture": "#0"}
			}
		},
		{
			"from": [7.09513, 5.5, 7.14365],
			"to": [8.09513, 6, 7.55765],
			"rotation": {"angle": 45, "axis": "y", "origin": [7.49513, 6.5, 7.34365]},
			"faces": {
				"north": {"uv": [0.33325, 0.33325, 2.358, 2.4565], "texture": "#0"},
				"east": {"uv": [0.33325, 0.33325, 2.358, 2.4565], "texture": "#0"},
				"south": {"uv": [0.33325, 0.33325, 2.358, 2.4565], "texture": "#0"},
				"west": {"uv": [0.33325, 0.33325, 2.358, 2.4565], "texture": "#0"},
				"up": {"uv": [0.33325, 0.33325, 2.358, 2.4565], "texture": "#0"},
				"down": {"uv": [0.33325, 0.33325, 2.358, 2.4565], "texture": "#0"}
			}
		},
		{
			"from": [7.36371, 4.5, 6.77771],
			"to": [7.77771, 5.5, 7.77771],
			"rotation": {"angle": 0, "axis": "y", "origin": [7.57071, 6, 7.27771]},
			"color": 6,
			"faces": {
				"north": {"uv": [13.5, 9, 14.75, 10.75], "texture": "#missing"},
				"east": {"uv": [13.5, 9, 14.75, 10.75], "texture": "#missing"},
				"south": {"uv": [13.5, 9, 14.75, 10.75], "texture": "#missing"},
				"west": {"uv": [13.5, 9, 14.75, 10.75], "texture": "#missing"},
				"up": {"uv": [13.5, 9, 14.75, 10.75], "texture": "#missing"},
				"down": {"uv": [13.5, 9, 14.75, 10.75], "texture": "#missing"}
			}
		},
		{
			"from": [7.07071, 4.5, 7.07071],
			"to": [8.07071, 5.5, 7.48471],
			"rotation": {"angle": -45, "axis": "y", "origin": [7.57071, 6, 7.27771]},
			"color": 6,
			"faces": {
				"north": {"uv": [13.5, 9, 14.75, 10.75], "texture": "#missing"},
				"east": {"uv": [13.5, 9, 14.75, 10.75], "texture": "#missing"},
				"south": {"uv": [13.5, 9, 14.75, 10.75], "texture": "#missing"},
				"west": {"uv": [13.5, 9, 14.75, 10.75], "texture": "#missing"},
				"up": {"uv": [13.5, 9, 14.75, 10.75], "texture": "#missing"},
				"down": {"uv": [13.5, 9, 14.75, 10.75], "texture": "#missing"}
			}
		},
		{
			"from": [7.09513, 4.5, 7.14365],
			"to": [8.09513, 5.5, 7.55765],
			"rotation": {"angle": 45, "axis": "y", "origin": [7.49513, 6, 7.34365]},
			"color": 6,
			"faces": {
				"north": {"uv": [13.5, 9, 14.75, 10.75], "texture": "#missing"},
				"east": {"uv": [13.5, 9, 14.75, 10.75], "texture": "#missing"},
				"south": {"uv": [13.5, 9, 14.75, 10.75], "texture": "#missing"},
				"west": {"uv": [13.5, 9, 14.75, 10.75], "texture": "#missing"},
				"up": {"uv": [13.5, 9, 14.75, 10.75], "texture": "#missing"},
				"down": {"uv": [13.5, 9, 14.75, 10.75], "texture": "#missing"}
			}
		},
		{
			"from": [7.07071, 4.5, 7.07071],
			"to": [8.07071, 5.5, 7.48471],
			"rotation": {"angle": 0, "axis": "y", "origin": [7.47071, 6, 7.27071]},
			"color": 6,
			"faces": {
				"north": {"uv": [13.5, 9, 14.75, 10.75], "texture": "#missing"},
				"east": {"uv": [13.5, 9, 14.75, 10.75], "texture": "#missing"},
				"south": {"uv": [13.5, 9, 14.75, 10.75], "texture": "#missing"},
				"west": {"uv": [13.5, 9, 14.75, 10.75], "texture": "#missing"},
				"up": {"uv": [13.5, 9, 14.75, 10.75], "texture": "#missing"},
				"down": {"uv": [13.5, 9, 14.75, 10.75], "texture": "#missing"}
			}
		},
		{
			"from": [7.55, 4.8, 6.77671],
			"to": [7.6, 5.3, 6.77771],
			"rotation": {"angle": 0, "axis": "y", "origin": [7.33471, 6, 7.27671]},
			"faces": {
				"north": {"uv": [0.666, 0.332, 1.916, 2.082], "rotation": 90, "texture": "#0"},
				"east": {"uv": [0.666, 0.332, 1.916, 2.082], "rotation": 90, "texture": "#0"},
				"south": {"uv": [0.666, 0.332, 1.916, 2.082], "rotation": 90, "texture": "#0"},
				"west": {"uv": [0.666, 0.332, 1.916, 2.082], "rotation": 90, "texture": "#0"},
				"up": {"uv": [0.666, 0.332, 1.916, 2.082], "rotation": 90, "texture": "#0"},
				"down": {"uv": [0.666, 0.332, 1.916, 2.082], "rotation": 90, "texture": "#0"}
			}
		},
		{
			"from": [7.47, 5.025, 6.77671],
			"to": [7.67, 5.075, 6.77771],
			"rotation": {"angle": 0, "axis": "y", "origin": [7.675, 5.05, 6.77721]},
			"faces": {
				"north": {"uv": [0.666, 0.332, 1.916, 2.082], "rotation": 180, "texture": "#0"},
				"east": {"uv": [0.666, 0.332, 1.916, 2.082], "rotation": 180, "texture": "#0"},
				"south": {"uv": [0.666, 0.332, 1.916, 2.082], "rotation": 180, "texture": "#0"},
				"west": {"uv": [0.666, 0.332, 1.916, 2.082], "rotation": 180, "texture": "#0"},
				"up": {"uv": [0.666, 0.332, 1.916, 2.082], "rotation": 180, "texture": "#0"},
				"down": {"uv": [0.666, 0.332, 1.916, 2.082], "rotation": 180, "texture": "#0"}
			}
		},
		{
			"from": [7.47, 5.21642, 6.77671],
			"to": [7.67, 5.26642, 6.77771],
			"rotation": {"angle": 0, "axis": "y", "origin": [7.675, 5.24142, 6.77721]},
			"faces": {
				"north": {"uv": [0.666, 0.332, 1.916, 2.082], "rotation": 180, "texture": "#0"},
				"east": {"uv": [0.666, 0.332, 1.916, 2.082], "rotation": 180, "texture": "#0"},
				"south": {"uv": [0.666, 0.332, 1.916, 2.082], "rotation": 180, "texture": "#0"},
				"west": {"uv": [0.666, 0.332, 1.916, 2.082], "rotation": 180, "texture": "#0"},
				"up": {"uv": [0.666, 0.332, 1.916, 2.082], "rotation": 180, "texture": "#0"},
				"down": {"uv": [0.666, 0.332, 1.916, 2.082], "rotation": 180, "texture": "#0"}
			}
		},
		{
			"from": [7.62303, 5.08839, 6.77671],
			"to": [7.72303, 5.13839, 6.77771],
			"rotation": {"angle": 45, "axis": "z", "origin": [7.72303, 5.11339, 6.77721]},
			"faces": {
				"north": {"uv": [0.666, 0.332, 1.916, 2.082], "rotation": 180, "texture": "#0"},
				"east": {"uv": [0.666, 0.332, 1.916, 2.082], "rotation": 180, "texture": "#0"},
				"south": {"uv": [0.666, 0.332, 1.916, 2.082], "rotation": 180, "texture": "#0"},
				"west": {"uv": [0.666, 0.332, 1.916, 2.082], "rotation": 180, "texture": "#0"},
				"up": {"uv": [0.666, 0.332, 1.916, 2.082], "rotation": 180, "texture": "#0"},
				"down": {"uv": [0.666, 0.332, 1.916, 2.082], "rotation": 180, "texture": "#0"}
			}
		},
		{
			"from": [7.38768, 5.22374, 6.77671],
			"to": [7.48768, 5.27374, 6.77771],
			"rotation": {"angle": 45, "axis": "z", "origin": [7.48768, 5.24874, 6.77721]},
			"faces": {
				"north": {"uv": [0.666, 0.332, 1.916, 2.082], "rotation": 180, "texture": "#0"},
				"east": {"uv": [0.666, 0.332, 1.916, 2.082], "rotation": 180, "texture": "#0"},
				"south": {"uv": [0.666, 0.332, 1.916, 2.082], "rotation": 180, "texture": "#0"},
				"west": {"uv": [0.666, 0.332, 1.916, 2.082], "rotation": 180, "texture": "#0"},
				"up": {"uv": [0.666, 0.332, 1.916, 2.082], "rotation": 180, "texture": "#0"},
				"down": {"uv": [0.666, 0.332, 1.916, 2.082], "rotation": 180, "texture": "#0"}
			}
		},
		{
			"from": [7.40232, 5.05303, 6.77671],
			"to": [7.50232, 5.10303, 6.77771],
			"rotation": {"angle": -45, "axis": "z", "origin": [7.45232, 5.07803, 6.77721]},
			"faces": {
				"north": {"uv": [0.666, 0.332, 1.916, 2.082], "rotation": 180, "texture": "#0"},
				"east": {"uv": [0.666, 0.332, 1.916, 2.082], "rotation": 180, "texture": "#0"},
				"south": {"uv": [0.666, 0.332, 1.916, 2.082], "rotation": 180, "texture": "#0"},
				"west": {"uv": [0.666, 0.332, 1.916, 2.082], "rotation": 180, "texture": "#0"},
				"up": {"uv": [0.666, 0.332, 1.916, 2.082], "rotation": 180, "texture": "#0"},
				"down": {"uv": [0.666, 0.332, 1.916, 2.082], "rotation": 180, "texture": "#0"}
			}
		},
		{
			"from": [7.63768, 5.18839, 6.77671],
			"to": [7.73768, 5.23839, 6.77771],
			"rotation": {"angle": -45, "axis": "z", "origin": [7.68768, 5.21339, 6.77721]},
			"faces": {
				"north": {"uv": [0.666, 0.332, 1.916, 2.082], "rotation": 180, "texture": "#0"},
				"east": {"uv": [0.666, 0.332, 1.916, 2.082], "rotation": 180, "texture": "#0"},
				"south": {"uv": [0.666, 0.332, 1.916, 2.082], "rotation": 180, "texture": "#0"},
				"west": {"uv": [0.666, 0.332, 1.916, 2.082], "rotation": 180, "texture": "#0"},
				"up": {"uv": [0.666, 0.332, 1.916, 2.082], "rotation": 180, "texture": "#0"},
				"down": {"uv": [0.666, 0.332, 1.916, 2.082], "rotation": 180, "texture": "#0"}
			}
		},
		{
			"from": [7.39929, 5.09571, 6.77671],
			"to": [7.44929, 5.19571, 6.77771],
			"rotation": {"angle": 0, "axis": "y", "origin": [7.42429, 5.14571, 6.77721]},
			"faces": {
				"north": {"uv": [0.666, 0.332, 1.916, 2.082], "rotation": 90, "texture": "#0"},
				"east": {"uv": [0.666, 0.332, 1.916, 2.082], "rotation": 90, "texture": "#0"},
				"south": {"uv": [0.666, 0.332, 1.916, 2.082], "rotation": 90, "texture": "#0"},
				"west": {"uv": [0.666, 0.332, 1.916, 2.082], "rotation": 90, "texture": "#0"},
				"up": {"uv": [0.666, 0.332, 1.916, 2.082], "rotation": 90, "texture": "#0"},
				"down": {"uv": [0.666, 0.332, 1.916, 2.082], "rotation": 90, "texture": "#0"}
			}
		},
		{
			"from": [7.69071, 5.09571, 6.77671],
			"to": [7.74071, 5.19571, 6.77771],
			"rotation": {"angle": 0, "axis": "y", "origin": [7.71571, 5.14571, 6.77721]},
			"faces": {
				"north": {"uv": [0.666, 0.332, 1.916, 2.082], "rotation": 90, "texture": "#0"},
				"east": {"uv": [0.666, 0.332, 1.916, 2.082], "rotation": 90, "texture": "#0"},
				"south": {"uv": [0.666, 0.332, 1.916, 2.082], "rotation": 90, "texture": "#0"},
				"west": {"uv": [0.666, 0.332, 1.916, 2.082], "rotation": 90, "texture": "#0"},
				"up": {"uv": [0.666, 0.332, 1.916, 2.082], "rotation": 90, "texture": "#0"},
				"down": {"uv": [0.666, 0.332, 1.916, 2.082], "rotation": 90, "texture": "#0"}
			}
		},
		{
			"from": [7.07071, 4.5, 7.07071],
			"to": [8.07071, 5.5, 7.48471],
			"rotation": {"angle": 0, "axis": "y", "origin": [7.47071, 6, 7.27071]},
			"faces": {
				"north": {"uv": [0.666, 6, 1.916, 7.75], "texture": "#0"},
				"east": {"uv": [0.666, 6, 1.916, 7.75], "texture": "#0"},
				"south": {"uv": [0.666, 6, 1.916, 7.75], "texture": "#0"},
				"west": {"uv": [0.666, 6, 1.916, 7.75], "texture": "#0"},
				"up": {"uv": [0.666, 6, 1.916, 7.75], "texture": "#0"},
				"down": {"uv": [0.666, 6, 1.916, 7.75], "texture": "#0"}
			}
		},
		{
			"from": [7.36371, 4.5, 6.77771],
			"to": [7.77771, 5.5, 7.77771],
			"rotation": {"angle": 0, "axis": "y", "origin": [7.57071, 6, 7.27771]},
			"faces": {
				"north": {"uv": [0.666, 6, 1.916, 7.75], "texture": "#0"},
				"east": {"uv": [0.666, 6, 1.916, 7.75], "texture": "#0"},
				"south": {"uv": [0.666, 6, 1.916, 7.75], "texture": "#0"},
				"west": {"uv": [0.666, 6, 1.916, 7.75], "texture": "#0"},
				"up": {"uv": [0.666, 6, 1.916, 7.75], "texture": "#0"},
				"down": {"uv": [0.666, 6, 1.916, 7.75], "texture": "#0"}
			}
		},
		{
			"from": [7.07071, 4.5, 7.07071],
			"to": [8.07071, 5.5, 7.48471],
			"rotation": {"angle": -45, "axis": "y", "origin": [7.57071, 6, 7.27771]},
			"faces": {
				"north": {"uv": [0.666, 6, 1.916, 7.75], "texture": "#0"},
				"east": {"uv": [0.666, 6, 1.916, 7.75], "texture": "#0"},
				"south": {"uv": [0.666, 6, 1.916, 7.75], "texture": "#0"},
				"west": {"uv": [0.666, 6, 1.916, 7.75], "texture": "#0"},
				"up": {"uv": [0.666, 6, 1.916, 7.75], "texture": "#0"},
				"down": {"uv": [0.666, 6, 1.916, 7.75], "texture": "#0"}
			}
		},
		{
			"from": [7.09513, 4.5, 7.14365],
			"to": [8.09513, 5.5, 7.55765],
			"rotation": {"angle": 45, "axis": "y", "origin": [7.49513, 6, 7.34365]},
			"faces": {
				"north": {"uv": [0.666, 6, 1.916, 7.75], "texture": "#0"},
				"east": {"uv": [0.666, 6, 1.916, 7.75], "texture": "#0"},
				"south": {"uv": [0.666, 6, 1.916, 7.75], "texture": "#0"},
				"west": {"uv": [0.666, 6, 1.916, 7.75], "texture": "#0"},
				"up": {"uv": [0.666, 6, 1.916, 7.75], "texture": "#0"},
				"down": {"uv": [0.666, 6, 1.916, 7.75], "texture": "#0"}
			}
		},
		{
			"from": [7.28552, 6.35716, 7.1257],
			"to": [7.73552, 6.47716, 7.1457],
			"rotation": {"angle": 0, "axis": "y", "origin": [7.48552, 7.35716, 7.27071]},
			"faces": {
				"north": {"uv": [5.6665, 0, 7.66625, 2.1665], "texture": "#0"},
				"east": {"uv": [5.6665, 0, 7.66625, 2.1665], "texture": "#0"},
				"south": {"uv": [5.6665, 0, 7.66625, 2.1665], "texture": "#0"},
				"west": {"uv": [5.6665, 0, 7.66625, 2.1665], "texture": "#0"},
				"up": {"uv": [5.6665, 0, 7.66625, 2.1665], "texture": "#0"},
				"down": {"uv": [5.6665, 0, 7.66625, 2.1665], "texture": "#0"}
			}
		},
		{
			"from": [7.28552, 6.47716, 7.1257],
			"to": [7.76552, 6.49716, 7.4137],
			"rotation": {"angle": 0, "axis": "y", "origin": [7.48552, 7.37716, 7.27071]},
			"faces": {
				"north": {"uv": [5.6665, 0, 7.66625, 2.1665], "texture": "#0"},
				"east": {"uv": [5.6665, 0, 7.66625, 2.1665], "texture": "#0"},
				"south": {"uv": [5.6665, 0, 7.66625, 2.1665], "texture": "#0"},
				"west": {"uv": [5.6665, 0, 7.66625, 2.1665], "texture": "#0"},
				"up": {"uv": [5.6665, 0, 7.66625, 2.1665], "texture": "#0"},
				"down": {"uv": [5.6665, 0, 7.66625, 2.1665], "texture": "#0"}
			}
		},
		{
			"from": [7.19291, 6.03161, 7.1257],
			"to": [7.21291, 6.51161, 7.4137],
			"rotation": {"angle": -22.5, "axis": "z", "origin": [7.20291, 6.27161, 7.2697]},
			"faces": {
				"north": {"uv": [5.6665, 0, 7.66625, 2.1665], "rotation": 270, "texture": "#0"},
				"east": {"uv": [5.6665, 0, 7.66625, 2.1665], "rotation": 270, "texture": "#0"},
				"south": {"uv": [5.6665, 0, 7.66625, 2.1665], "rotation": 270, "texture": "#0"},
				"west": {"uv": [5.6665, 0, 7.66625, 2.1665], "rotation": 270, "texture": "#0"},
				"up": {"uv": [5.6665, 0, 7.66625, 2.1665], "rotation": 270, "texture": "#0"},
				"down": {"uv": [5.6665, 0, 7.66625, 2.1665], "rotation": 270, "texture": "#0"}
			}
		},
		{
			"from": [6.94031, 6.04605, 7.1257],
			"to": [7.12031, 6.06605, 7.4137],
			"rotation": {"angle": 0, "axis": "y", "origin": [6.84031, 6.94605, 7.27071]},
			"faces": {
				"north": {"uv": [5.6665, 0, 7.66625, 2.1665], "texture": "#0"},
				"east": {"uv": [5.6665, 0, 7.66625, 2.1665], "texture": "#0"},
				"south": {"uv": [5.6665, 0, 7.66625, 2.1665], "texture": "#0"},
				"west": {"uv": [5.6665, 0, 7.66625, 2.1665], "texture": "#0"},
				"up": {"uv": [5.6665, 0, 7.66625, 2.1665], "texture": "#0"},
				"down": {"uv": [5.6665, 0, 7.66625, 2.1665], "texture": "#0"}
			}
		},
		{
			"from": [6.94031, 4.58605, 7.1257],
			"to": [6.96031, 6.06605, 7.4137],
			"rotation": {"angle": 0, "axis": "y", "origin": [6.95031, 5.82605, 7.2697]},
			"faces": {
				"north": {"uv": [5.6665, 0, 7.66625, 2.1665], "rotation": 270, "texture": "#0"},
				"east": {"uv": [5.6665, 0, 7.66625, 2.1665], "rotation": 270, "texture": "#0"},
				"south": {"uv": [5.6665, 0, 7.66625, 2.1665], "rotation": 270, "texture": "#0"},
				"west": {"uv": [5.6665, 0, 7.66625, 2.1665], "rotation": 270, "texture": "#0"},
				"up": {"uv": [5.6665, 0, 7.66625, 2.1665], "rotation": 270, "texture": "#0"},
				"down": {"uv": [5.6665, 0, 7.66625, 2.1665], "rotation": 270, "texture": "#0"}
			}
		},
		{
			"from": [7.28552, 6.35716, 7.3937],
			"to": [7.73552, 6.47716, 7.4137],
			"rotation": {"angle": 0, "axis": "y", "origin": [7.48552, 7.35716, 7.53871]},
			"faces": {
				"north": {"uv": [5.6665, 0, 7.66625, 2.1665], "texture": "#0"},
				"east": {"uv": [5.6665, 0, 7.66625, 2.1665], "texture": "#0"},
				"south": {"uv": [5.6665, 0, 7.66625, 2.1665], "texture": "#0"},
				"west": {"uv": [5.6665, 0, 7.66625, 2.1665], "texture": "#0"},
				"up": {"uv": [5.6665, 0, 7.66625, 2.1665], "texture": "#0"},
				"down": {"uv": [5.6665, 0, 7.66625, 2.1665], "texture": "#0"}
			}
		},
		{
			"from": [7.65416, 6.45222, 7.125],
			"to": [7.76416, 6.49222, 7.135],
			"rotation": {"angle": 0, "axis": "y", "origin": [7.75916, 6.47172, 7.114]},
			"faces": {
				"north": {"uv": [5.6665, 0, 7.66625, 2.1665], "rotation": 90, "texture": "#0"},
				"east": {"uv": [5.6665, 0, 7.66625, 2.1665], "rotation": 90, "texture": "#0"},
				"south": {"uv": [5.6665, 0, 7.66625, 2.1665], "rotation": 90, "texture": "#0"},
				"west": {"uv": [5.6665, 0, 7.66625, 2.1665], "rotation": 90, "texture": "#0"},
				"up": {"uv": [5.6665, 0, 7.66625, 2.1665], "rotation": 90, "texture": "#0"},
				"down": {"uv": [5.6665, 0, 7.66625, 2.1665], "rotation": 90, "texture": "#0"}
			}
		},
		{
			"from": [7.75376, 6.44017, 7.125],
			"to": [7.80376, 6.45017, 7.135],
			"rotation": {"angle": -22.5, "axis": "z", "origin": [7.78426, 6.44517, 7.114]},
			"faces": {
				"north": {"uv": [5.6665, 0, 7.66625, 2.1665], "texture": "#0"},
				"east": {"uv": [5.6665, 0, 7.66625, 2.1665], "texture": "#0"},
				"south": {"uv": [5.6665, 0, 7.66625, 2.1665], "texture": "#0"},
				"west": {"uv": [5.6665, 0, 7.66625, 2.1665], "texture": "#0"},
				"up": {"uv": [5.6665, 0, 7.66625, 2.1665], "texture": "#0"},
				"down": {"uv": [5.6665, 0, 7.66625, 2.1665], "texture": "#0"}
			}
		},
		{
			"from": [7.79172, 6.41222, 7.125],
			"to": [7.84172, 6.42222, 7.135],
			"rotation": {"angle": -45, "axis": "z", "origin": [7.82222, 6.41722, 7.114]},
			"faces": {
				"north": {"uv": [5.6665, 0, 7.66625, 2.1665], "texture": "#0"},
				"east": {"uv": [5.6665, 0, 7.66625, 2.1665], "texture": "#0"},
				"south": {"uv": [5.6665, 0, 7.66625, 2.1665], "texture": "#0"},
				"west": {"uv": [5.6665, 0, 7.66625, 2.1665], "texture": "#0"},
				"up": {"uv": [5.6665, 0, 7.66625, 2.1665], "texture": "#0"},
				"down": {"uv": [5.6665, 0, 7.66625, 2.1665], "texture": "#0"}
			}
		},
		{
			"from": [7.82, 6.42, 7.125],
			"to": [7.87, 6.43, 7.135],
			"rotation": {"angle": 45, "axis": "z", "origin": [7.8505, 6.425, 7.114]},
			"faces": {
				"north": {"uv": [5.6665, 0, 7.66625, 2.1665], "texture": "#0"},
				"east": {"uv": [5.6665, 0, 7.66625, 2.1665], "texture": "#0"},
				"south": {"uv": [5.6665, 0, 7.66625, 2.1665], "texture": "#0"},
				"west": {"uv": [5.6665, 0, 7.66625, 2.1665], "texture": "#0"},
				"up": {"uv": [5.6665, 0, 7.66625, 2.1665], "texture": "#0"},
				"down": {"uv": [5.6665, 0, 7.66625, 2.1665], "texture": "#0"}
			}
		},
		{
			"from": [7.65416, 6.45222, 7.4],
			"to": [7.76416, 6.49222, 7.41],
			"rotation": {"angle": 0, "axis": "y", "origin": [7.75916, 6.47172, 7.424]},
			"faces": {
				"north": {"uv": [5.6665, 0, 7.66625, 2.1665], "rotation": 90, "texture": "#0"},
				"east": {"uv": [5.6665, 0, 7.66625, 2.1665], "rotation": 90, "texture": "#0"},
				"south": {"uv": [5.6665, 0, 7.66625, 2.1665], "rotation": 90, "texture": "#0"},
				"west": {"uv": [5.6665, 0, 7.66625, 2.1665], "rotation": 90, "texture": "#0"},
				"up": {"uv": [5.6665, 0, 7.66625, 2.1665], "rotation": 90, "texture": "#0"},
				"down": {"uv": [5.6665, 0, 7.66625, 2.1665], "rotation": 90, "texture": "#0"}
			}
		},
		{
			"from": [7.75459, 6.44438, 7.4],
			"to": [7.80459, 6.45438, 7.41],
			"rotation": {"angle": -22.5, "axis": "z", "origin": [7.77409, 6.44938, 7.414]},
			"faces": {
				"north": {"uv": [5.6665, 0, 7.66625, 2.1665], "rotation": 180, "texture": "#0"},
				"east": {"uv": [5.6665, 0, 7.66625, 2.1665], "rotation": 180, "texture": "#0"},
				"south": {"uv": [5.6665, 0, 7.66625, 2.1665], "rotation": 180, "texture": "#0"},
				"west": {"uv": [5.6665, 0, 7.66625, 2.1665], "rotation": 180, "texture": "#0"},
				"up": {"uv": [5.6665, 0, 7.66625, 2.1665], "rotation": 180, "texture": "#0"},
				"down": {"uv": [5.6665, 0, 7.66625, 2.1665], "rotation": 180, "texture": "#0"}
			}
		},
		{
			"from": [7.80944, 6.3945, 7.4],
			"to": [7.81944, 6.4445, 7.41],
			"rotation": {"angle": 45, "axis": "z", "origin": [7.81444, 6.425, 7.414]},
			"faces": {
				"north": {"uv": [5.6665, 0, 7.66625, 2.1665], "rotation": 270, "texture": "#0"},
				"east": {"uv": [5.6665, 0, 7.66625, 2.1665], "rotation": 270, "texture": "#0"},
				"south": {"uv": [5.6665, 0, 7.66625, 2.1665], "rotation": 270, "texture": "#0"},
				"west": {"uv": [5.6665, 0, 7.66625, 2.1665], "rotation": 270, "texture": "#0"},
				"up": {"uv": [5.6665, 0, 7.66625, 2.1665], "rotation": 270, "texture": "#0"},
				"down": {"uv": [5.6665, 0, 7.66625, 2.1665], "rotation": 270, "texture": "#0"}
			}
		},
		{
			"from": [7.82, 6.42, 7.4],
			"to": [7.87, 6.43, 7.41],
			"rotation": {"angle": 45, "axis": "z", "origin": [7.8505, 6.425, 7.414]},
			"faces": {
				"north": {"uv": [5.6665, 0, 7.66625, 2.1665], "texture": "#0"},
				"east": {"uv": [5.6665, 0, 7.66625, 2.1665], "texture": "#0"},
				"south": {"uv": [5.6665, 0, 7.66625, 2.1665], "texture": "#0"},
				"west": {"uv": [5.6665, 0, 7.66625, 2.1665], "texture": "#0"},
				"up": {"uv": [5.6665, 0, 7.66625, 2.1665], "texture": "#0"},
				"down": {"uv": [5.6665, 0, 7.66625, 2.1665], "texture": "#0"}
			}
		},
		{
			"from": [7.8155, 6.4172, 7.07],
			"to": [7.8455, 6.4472, 7.47],
			"rotation": {"angle": 45, "axis": "z", "origin": [7.8305, 6.4322, 7.27]},
			"faces": {
				"north": {"uv": [3, 3, 4.99825, 5.166], "texture": "#0"},
				"east": {"uv": [3, 3, 4.99825, 5.166], "texture": "#0"},
				"south": {"uv": [3, 3, 4.99825, 5.166], "texture": "#0"},
				"west": {"uv": [3, 3, 4.99825, 5.166], "texture": "#0"},
				"up": {"uv": [3, 3, 4.99825, 5.166], "texture": "#0"},
				"down": {"uv": [3, 3, 4.99825, 5.166], "texture": "#0"}
			}
		},
		{
			"from": [7.4205, 6.3701, 7.05],
			"to": [7.4405, 6.4701, 7.07],
			"rotation": {"angle": 0, "axis": "y", "origin": [7.4305, 6.51513, 7.06]},
			"faces": {
				"north": {"uv": [3, 3, 4.507, 4.6], "rotation": 90, "texture": "#0"},
				"east": {"uv": [3, 3, 4.507, 4.6], "rotation": 90, "texture": "#0"},
				"south": {"uv": [3, 3, 4.507, 4.6], "rotation": 90, "texture": "#0"},
				"west": {"uv": [3, 3, 4.507, 4.6], "rotation": 90, "texture": "#0"},
				"up": {"uv": [3, 3, 4.507, 4.6], "rotation": 90, "texture": "#0"},
				"down": {"uv": [3, 3, 4.507, 4.6], "rotation": 90, "texture": "#0"}
			}
		},
		{
			"from": [7.4205, 6.42055, 6.95038],
			"to": [7.4405, 6.52055, 6.97038],
			"rotation": {"angle": -45, "axis": "x", "origin": [7.4305, 6.56558, 6.96038]},
			"faces": {
				"north": {"uv": [3, 3, 4.507, 4.6], "rotation": 90, "texture": "#0"},
				"east": {"uv": [3, 3, 4.507, 4.6], "rotation": 90, "texture": "#0"},
				"south": {"uv": [3, 3, 4.507, 4.6], "rotation": 90, "texture": "#0"},
				"west": {"uv": [3, 3, 4.507, 4.6], "rotation": 90, "texture": "#0"},
				"up": {"uv": [3, 3, 4.507, 4.6], "rotation": 90, "texture": "#0"},
				"down": {"uv": [3, 3, 4.507, 4.6], "rotation": 90, "texture": "#0"}
			}
		},
		{
			"from": [7.4205, 6.52081, 6.89929],
			"to": [7.4405, 6.54081, 6.99929],
			"rotation": {"angle": 0, "axis": "y", "origin": [7.4305, 6.53081, 6.85426]},
			"faces": {
				"north": {"uv": [3, 3, 4.507, 4.6], "rotation": 90, "texture": "#0"},
				"east": {"uv": [3, 3, 4.507, 4.6], "rotation": 90, "texture": "#0"},
				"south": {"uv": [3, 3, 4.507, 4.6], "rotation": 90, "texture": "#0"},
				"west": {"uv": [3, 3, 4.507, 4.6], "rotation": 90, "texture": "#0"},
				"up": {"uv": [3, 3, 4.507, 4.6], "rotation": 90, "texture": "#0"},
				"down": {"uv": [3, 3, 4.507, 4.6], "rotation": 90, "texture": "#0"}
			}
		},
		{
			"from": [7.4205, 6.42119, 6.84884],
			"to": [7.4405, 6.44119, 6.94884],
			"rotation": {"angle": -45, "axis": "x", "origin": [7.4305, 6.43119, 6.80381]},
			"faces": {
				"north": {"uv": [3, 3, 4.507, 4.6], "rotation": 90, "texture": "#0"},
				"east": {"uv": [3, 3, 4.507, 4.6], "rotation": 90, "texture": "#0"},
				"south": {"uv": [3, 3, 4.507, 4.6], "rotation": 90, "texture": "#0"},
				"west": {"uv": [3, 3, 4.507, 4.6], "rotation": 90, "texture": "#0"},
				"up": {"uv": [3, 3, 4.507, 4.6], "rotation": 90, "texture": "#0"},
				"down": {"uv": [3, 3, 4.507, 4.6], "rotation": 90, "texture": "#0"}
			}
		},
		{
			"from": [7.4205, 6.3701, 6.82858],
			"to": [7.4405, 6.4701, 6.84858],
			"rotation": {"angle": 0, "axis": "y", "origin": [7.4305, 6.51513, 6.83858]},
			"faces": {
				"north": {"uv": [3, 3, 4.507, 4.6], "rotation": 90, "texture": "#0"},
				"east": {"uv": [3, 3, 4.507, 4.6], "rotation": 90, "texture": "#0"},
				"south": {"uv": [3, 3, 4.507, 4.6], "rotation": 90, "texture": "#0"},
				"west": {"uv": [3, 3, 4.507, 4.6], "rotation": 90, "texture": "#0"},
				"up": {"uv": [3, 3, 4.507, 4.6], "rotation": 90, "texture": "#0"},
				"down": {"uv": [3, 3, 4.507, 4.6], "rotation": 90, "texture": "#0"}
			}
		},
		{
			"from": [7.4205, 6.26398, 6.79381],
			"to": [7.4405, 6.36398, 6.81381],
			"rotation": {"angle": -45, "axis": "x", "origin": [7.4305, 6.40901, 6.80381]},
			"faces": {
				"north": {"uv": [3, 3, 4.507, 4.6], "rotation": 90, "texture": "#0"},
				"east": {"uv": [3, 3, 4.507, 4.6], "rotation": 90, "texture": "#0"},
				"south": {"uv": [3, 3, 4.507, 4.6], "rotation": 90, "texture": "#0"},
				"west": {"uv": [3, 3, 4.507, 4.6], "rotation": 90, "texture": "#0"},
				"up": {"uv": [3, 3, 4.507, 4.6], "rotation": 90, "texture": "#0"},
				"down": {"uv": [3, 3, 4.507, 4.6], "rotation": 90, "texture": "#0"}
			}
		},
		{
			"from": [7.4205, 6.29939, 6.89929],
			"to": [7.4405, 6.31939, 6.99929],
			"rotation": {"angle": 0, "axis": "y", "origin": [7.4305, 6.30939, 6.85426]},
			"faces": {
				"north": {"uv": [3, 3, 4.507, 4.6], "rotation": 90, "texture": "#0"},
				"east": {"uv": [3, 3, 4.507, 4.6], "rotation": 90, "texture": "#0"},
				"south": {"uv": [3, 3, 4.507, 4.6], "rotation": 90, "texture": "#0"},
				"west": {"uv": [3, 3, 4.507, 4.6], "rotation": 90, "texture": "#0"},
				"up": {"uv": [3, 3, 4.507, 4.6], "rotation": 90, "texture": "#0"},
				"down": {"uv": [3, 3, 4.507, 4.6], "rotation": 90, "texture": "#0"}
			}
		},
		{
			"from": [7.4205, 6.26462, 7.00541],
			"to": [7.4405, 6.28462, 7.10541],
			"rotation": {"angle": -45, "axis": "x", "origin": [7.4305, 6.27462, 6.96038]},
			"faces": {
				"north": {"uv": [3, 3, 4.507, 4.6], "rotation": 90, "texture": "#0"},
				"east": {"uv": [3, 3, 4.507, 4.6], "rotation": 90, "texture": "#0"},
				"south": {"uv": [3, 3, 4.507, 4.6], "rotation": 90, "texture": "#0"},
				"west": {"uv": [3, 3, 4.507, 4.6], "rotation": 90, "texture": "#0"},
				"up": {"uv": [3, 3, 4.507, 4.6], "rotation": 90, "texture": "#0"},
				"down": {"uv": [3, 3, 4.507, 4.6], "rotation": 90, "texture": "#0"}
			}
		},
		{
			"from": [7.4205, 6.41513, 7.07],
			"to": [7.4405, 6.43513, 7.47],
			"rotation": {"angle": 0, "axis": "y", "origin": [7.4305, 6.42513, 7.27]},
			"faces": {
				"north": {"uv": [3, 3, 4.507, 4.6], "rotation": 90, "texture": "#0"},
				"east": {"uv": [3, 3, 4.507, 4.6], "rotation": 90, "texture": "#0"},
				"south": {"uv": [3, 3, 4.507, 4.6], "rotation": 90, "texture": "#0"},
				"west": {"uv": [3, 3, 4.507, 4.6], "rotation": 90, "texture": "#0"},
				"up": {"uv": [3, 3, 4.507, 4.6], "rotation": 90, "texture": "#0"},
				"down": {"uv": [3, 3, 4.507, 4.6], "rotation": 90, "texture": "#0"}
			}
		},
		{
			"from": [7.4205, 6.43513, 7.37],
			"to": [7.4405, 6.45513, 7.47],
			"rotation": {"angle": -22.5, "axis": "x", "origin": [7.4305, 6.44513, 7.42]},
			"faces": {
				"north": {"uv": [3, 3, 4.507, 4.6], "rotation": 90, "texture": "#0"},
				"east": {"uv": [3, 3, 4.507, 4.6], "rotation": 90, "texture": "#0"},
				"south": {"uv": [3, 3, 4.507, 4.6], "rotation": 90, "texture": "#0"},
				"west": {"uv": [3, 3, 4.507, 4.6], "rotation": 90, "texture": "#0"},
				"up": {"uv": [3, 3, 4.507, 4.6], "rotation": 90, "texture": "#0"},
				"down": {"uv": [3, 3, 4.507, 4.6], "rotation": 90, "texture": "#0"}
			}
		},
		{
			"from": [7.27071, 6, 7.1457],
			"to": [7.87071, 6.1, 7.3937],
			"rotation": {"angle": 0, "axis": "y", "origin": [7.47071, 7, 7.27071]},
			"faces": {
				"north": {"uv": [0.6665, 0.33325, 1.728, 1.858], "texture": "#0"},
				"east": {"uv": [0.6665, 0.33325, 1.728, 1.858], "texture": "#0"},
				"south": {"uv": [0.6665, 0.33325, 1.728, 1.858], "texture": "#0"},
				"west": {"uv": [0.6665, 0.33325, 1.728, 1.858], "texture": "#0"},
				"up": {"uv": [0.6665, 0.33325, 1.728, 1.858], "texture": "#0"},
				"down": {"uv": [0.6665, 0.33325, 1.728, 1.858], "texture": "#0"}
			}
		},
		{
			"from": [7.49071, 6.1, 7.1457],
			"to": [7.77071, 6.4, 7.3937],
			"rotation": {"angle": 0, "axis": "y", "origin": [7.59071, 7.1, 7.27071]},
			"faces": {
				"north": {"uv": [0.6665, 0.33325, 1.728, 1.858], "texture": "#0"},
				"east": {"uv": [0.6665, 0.33325, 1.728, 1.858], "texture": "#0"},
				"south": {"uv": [0.6665, 0.33325, 1.728, 1.858], "texture": "#0"},
				"west": {"uv": [0.6665, 0.33325, 1.728, 1.858], "texture": "#0"},
				"up": {"uv": [0.6665, 0.33325, 1.728, 1.858], "texture": "#0"},
				"down": {"uv": [0.6665, 0.33325, 1.728, 1.858], "texture": "#0"}
			}
		},
		{
			"from": [7.78552, 6.37716, 7.1457],
			"to": [7.88552, 6.47716, 7.3937],
			"rotation": {"angle": 0, "axis": "y", "origin": [7.58552, 7.17716, 7.27071]},
			"faces": {
				"north": {"uv": [0.6665, 0.33325, 1.728, 1.858], "texture": "#0"},
				"east": {"uv": [0.6665, 0.33325, 1.728, 1.858], "texture": "#0"},
				"south": {"uv": [0.6665, 0.33325, 1.728, 1.858], "texture": "#0"},
				"west": {"uv": [0.6665, 0.33325, 1.728, 1.858], "texture": "#0"},
				"up": {"uv": [0.6665, 0.33325, 1.728, 1.858], "texture": "#0"},
				"down": {"uv": [0.6665, 0.33325, 1.728, 1.858], "texture": "#0"}
			}
		},
		{
			"from": [7.28552, 6.07716, 7.1457],
			"to": [7.78552, 6.47716, 7.3937],
			"rotation": {"angle": 0, "axis": "y", "origin": [7.48552, 7.17716, 7.27071]},
			"faces": {
				"north": {"uv": [0.6665, 0.33325, 1.728, 1.858], "texture": "#0"},
				"east": {"uv": [0.6665, 0.33325, 1.728, 1.858], "texture": "#0"},
				"south": {"uv": [0.6665, 0.33325, 1.728, 1.858], "texture": "#0"},
				"west": {"uv": [0.6665, 0.33325, 1.728, 1.858], "texture": "#0"},
				"up": {"uv": [0.6665, 0.33325, 1.728, 1.858], "texture": "#0"},
				"down": {"uv": [0.6665, 0.33325, 1.728, 1.858], "texture": "#0"}
			}
		},
		{
			"from": [7.73192, 6.10772, 7.1457],
			"to": [7.83192, 6.40772, 7.3937],
			"rotation": {"angle": -22.5, "axis": "z", "origin": [7.78192, 6.25772, 7.2697]},
			"faces": {
				"north": {"uv": [0.6665, 0.33325, 1.728, 1.858], "texture": "#0"},
				"east": {"uv": [0.6665, 0.33325, 1.728, 1.858], "texture": "#0"},
				"south": {"uv": [0.6665, 0.33325, 1.728, 1.858], "texture": "#0"},
				"west": {"uv": [0.6665, 0.33325, 1.728, 1.858], "texture": "#0"},
				"up": {"uv": [0.6665, 0.33325, 1.728, 1.858], "texture": "#0"},
				"down": {"uv": [0.6665, 0.33325, 1.728, 1.858], "texture": "#0"}
			}
		},
		{
			"from": [7.3205, 6.05031, 7.1457],
			"to": [7.5205, 6.35031, 7.3937],
			"rotation": {"angle": -22.5, "axis": "z", "origin": [7.4205, 6.20031, 7.2697]},
			"faces": {
				"north": {"uv": [0.6665, 0.33325, 1.728, 1.858], "texture": "#0"},
				"east": {"uv": [0.6665, 0.33325, 1.728, 1.858], "texture": "#0"},
				"south": {"uv": [0.6665, 0.33325, 1.728, 1.858], "texture": "#0"},
				"west": {"uv": [0.6665, 0.33325, 1.728, 1.858], "texture": "#0"},
				"up": {"uv": [0.6665, 0.33325, 1.728, 1.858], "texture": "#0"},
				"down": {"uv": [0.6665, 0.33325, 1.728, 1.858], "texture": "#0"}
			}
		},
		{
			"from": [7.62092, 6.05031, 7.1457],
			"to": [7.82092, 6.35031, 7.3937],
			"rotation": {"angle": 22.5, "axis": "z", "origin": [7.72092, 6.20031, 7.2697]},
			"faces": {
				"north": {"uv": [0.6665, 0.33325, 1.728, 1.858], "texture": "#0"},
				"east": {"uv": [0.6665, 0.33325, 1.728, 1.858], "texture": "#0"},
				"south": {"uv": [0.6665, 0.33325, 1.728, 1.858], "texture": "#0"},
				"west": {"uv": [0.6665, 0.33325, 1.728, 1.858], "texture": "#0"},
				"up": {"uv": [0.6665, 0.33325, 1.728, 1.858], "texture": "#0"},
				"down": {"uv": [0.6665, 0.33325, 1.728, 1.858], "texture": "#0"}
			}
		},
		{
			"from": [7.27071, 6, 7.1457],
			"to": [7.87071, 6.1, 7.3937],
			"rotation": {"angle": 45, "axis": "y", "origin": [7.57071, 6.25, 7.2697]},
			"faces": {
				"north": {"uv": [0.6665, 0.33325, 1.728, 1.858], "texture": "#0"},
				"east": {"uv": [0.6665, 0.33325, 1.728, 1.858], "texture": "#0"},
				"south": {"uv": [0.6665, 0.33325, 1.728, 1.858], "texture": "#0"},
				"west": {"uv": [0.6665, 0.33325, 1.728, 1.858], "texture": "#0"},
				"up": {"uv": [0.6665, 0.33325, 1.728, 1.858], "texture": "#0"},
				"down": {"uv": [0.6665, 0.33325, 1.728, 1.858], "texture": "#0"}
			}
		},
		{
			"from": [7.44671, 6, 6.9697],
			"to": [7.69471, 6.1, 7.5697],
			"rotation": {"angle": 0, "axis": "y", "origin": [7.57071, 6.25, 7.2697]},
			"faces": {
				"north": {"uv": [0.6665, 0.33325, 1.728, 1.858], "texture": "#0"},
				"east": {"uv": [0.6665, 0.33325, 1.728, 1.858], "texture": "#0"},
				"south": {"uv": [0.6665, 0.33325, 1.728, 1.858], "texture": "#0"},
				"west": {"uv": [0.6665, 0.33325, 1.728, 1.858], "texture": "#0"},
				"up": {"uv": [0.6665, 0.33325, 1.728, 1.858], "texture": "#0"},
				"down": {"uv": [0.6665, 0.33325, 1.728, 1.858], "texture": "#0"}
			}
		},
		{
			"from": [7.28292, 6, 7.15023],
			"to": [7.88292, 6.1, 7.39823],
			"rotation": {"angle": -45, "axis": "y", "origin": [7.58292, 6.25, 7.25723]},
			"faces": {
				"north": {"uv": [0.6665, 0.33325, 1.728, 1.858], "texture": "#0"},
				"east": {"uv": [0.6665, 0.33325, 1.728, 1.858], "texture": "#0"},
				"south": {"uv": [0.6665, 0.33325, 1.728, 1.858], "texture": "#0"},
				"west": {"uv": [0.6665, 0.33325, 1.728, 1.858], "texture": "#0"},
				"up": {"uv": [0.6665, 0.33325, 1.728, 1.858], "texture": "#0"},
				"down": {"uv": [0.6665, 0.33325, 1.728, 1.858], "texture": "#0"}
			}
		}
	],
	"display": {
		"thirdperson_righthand": {
			"rotation": [0, 90, 0],
			"translation": [1, 5.25, 0.5],
			"scale": [2, 2, 2]
		},
		"thirdperson_lefthand": {
			"rotation": [0, 90, 0],
			"translation": [1.5, 5.25, 2.5],
			"scale": [2, 2, 2]
		},
		"firstperson_righthand": {
			"rotation": [0, 90, 0],
			"translation": [0, 7.5, 0],
			"scale": [2, 2, 2]
		},
		"firstperson_lefthand": {
			"rotation": [0, 90, 0],
			"translation": [1, 7, 0],
			"scale": [2, 2, 2]
		},
		"ground": {
			"translation": [0, 5, 0],
			"scale": [2, 2, 2]
		},
		"gui": {
			"rotation": [0, -150, 0],
			"translation": [-3, 12, 0],
			"scale": [4, 4, 4]
		},
		"fixed": {
			"rotation": [0, 0, 45],
			"translation": [-4, 5, -1],
			"scale": [2, 2, 2]
		}
	},
	"groups": [
		{
			"name": "Base",
			"origin": [8, 8, 8],
			"children": [
				{
					"name": "L_Ring",
					"origin": [7.57071, 5, 7.27071],
					"children": [0, 1, 2, 3, 4, 5, 6, 7]
				},
				{
					"name": "U_Ring",
					"origin": [7.57071, 5, 7.27071],
					"children": [8, 9, 10, 11, 12, 13, 14, 15]
				},
				{
					"name": "L_Chas",
					"origin": [7.57071, 5, 7.27771],
					"children": [16, 17, 18, 19]
				},
				{
					"name": "U_Chas",
					"origin": [7.49513, 6.5, 7.34365],
					"children": [20, 21, 22, 23]
				}
			]
		},
		{
			"name": "Mark",
			"origin": [8, 8, 8],
			"children": [24, 25, 26, 27,
				{
					"name": "HE",
					"origin": [8, 8, 8],
					"children": [28, 29, 30, 31, 32, 33, 34, 35, 36, 37, 38, 39, 40]
				}
			]
		},
		{
			"name": "Fuse",
			"origin": [7.47071, 6.5, 7.27071],
			"children": [
				{
					"name": "Pin",
					"origin": [7.48552, 7.35716, 7.53871],
					"children": [41, 42, 43, 44, 45, 46, 47, 48, 49, 50, 51, 52, 53, 54, 55]
				},
				{
					"name": "Ring",
					"origin": [7.4305, 6.44513, 7.42],
					"children": [56, 57, 58, 59, 60, 61, 62, 63, 64, 65]
				}, 66, 67, 68, 69, 70, 71, 72, 73, 74, 75]
		}
	]
}