{
	"credit": "Made with Blockbench",
	"textures": {
		"0": "gci:items/common/mpz",
		"particle": "gci:items/common/mpz"
	},
	"elements": [
		{
			"from": [7.25, 3.25, 8.5],
			"to": [8.75, 4, 11],
			"faces": {
				"north": {"uv": [0, 2.83333, 1.5, 3.58333], "texture": "#0"},
				"east": {"uv": [0, 2.83333, 2.5, 3.58333], "texture": "#0"},
				"south": {"uv": [0, 2.83333, 1.5, 3.58333], "texture": "#0"},
				"west": {"uv": [0, 2.83333, 2.5, 3.58333], "texture": "#0"},
				"up": {"uv": [0, 2.83333, 1.5, 5.33333], "texture": "#0"},
				"down": {"uv": [0, 2.83333, 1.5, 5.33333], "texture": "#0"}
			}
		},
		{
			"from": [7.9, 2.75, 11.4],
			"to": [8.15, 3.25, 11.5],
			"faces": {
				"north": {"uv": [0.66667, 3.33333, 0.91667, 3.83333], "texture": "#0"},
				"east": {"uv": [0.66667, 3.33333, 0.76667, 3.83333], "texture": "#0"},
				"south": {"uv": [0.66667, 3.33333, 0.91667, 3.83333], "texture": "#0"},
				"west": {"uv": [0.66667, 3.33333, 0.76667, 3.83333], "texture": "#0"},
				"up": {"uv": [0.66667, 3.33333, 0.91667, 3.43333], "texture": "#0"},
				"down": {"uv": [0.66667, 3.33333, 0.91667, 3.43333], "texture": "#0"}
			}
		},
		{
			"from": [7.9, 2.75, 12.15],
			"to": [8.15, 3.25, 12.25],
			"faces": {
				"north": {"uv": [0.66667, 3.33333, 0.91667, 3.83333], "texture": "#0"},
				"east": {"uv": [0.66667, 3.33333, 0.76667, 3.83333], "texture": "#0"},
				"south": {"uv": [0.66667, 3.33333, 0.91667, 3.83333], "texture": "#0"},
				"west": {"uv": [0.66667, 3.33333, 0.76667, 3.83333], "texture": "#0"},
				"up": {"uv": [0.66667, 3.33333, 0.91667, 3.43333], "texture": "#0"},
				"down": {"uv": [0.66667, 3.33333, 0.91667, 3.43333], "texture": "#0"}
			}
		},
		{
			"from": [7.9, 2.53816, 12.05814],
			"to": [8.15, 2.78816, 12.15814],
			"rotation": {"angle": 22.5, "axis": "x", "origin": [8.025, 2.53816, 12.10814]},
			"faces": {
				"north": {"uv": [0.66667, 3.33333, 0.91667, 3.58333], "texture": "#0"},
				"east": {"uv": [0.66667, 3.33333, 0.76667, 3.58333], "texture": "#0"},
				"south": {"uv": [0.66667, 3.33333, 0.91667, 3.58333], "texture": "#0"},
				"west": {"uv": [0.66667, 3.33333, 0.76667, 3.58333], "texture": "#0"},
				"up": {"uv": [0.66667, 3.33333, 0.91667, 3.43333], "texture": "#0"},
				"down": {"uv": [0.66667, 3.33333, 0.91667, 3.43333], "texture": "#0"}
			}
		},
		{
			"from": [7.9, 2.95, 12.25],
			"to": [8.15, 3.45, 12.35],
			"rotation": {"angle": 22.5, "axis": "x", "origin": [8.025, 3.2, 12.3]},
			"faces": {
				"north": {"uv": [0.66667, 3.33333, 0.91667, 3.83333], "texture": "#0"},
				"east": {"uv": [0.66667, 3.33333, 0.76667, 3.83333], "texture": "#0"},
				"south": {"uv": [0.66667, 3.33333, 0.91667, 3.83333], "texture": "#0"},
				"west": {"uv": [0.66667, 3.33333, 0.76667, 3.83333], "texture": "#0"},
				"up": {"uv": [0.66667, 3.33333, 0.91667, 3.43333], "texture": "#0"},
				"down": {"uv": [0.66667, 3.33333, 0.91667, 3.43333], "texture": "#0"}
			}
		},
		{
			"from": [7.9, 2.95, 12.05],
			"to": [8.15, 3.45, 12.15],
			"rotation": {"angle": -22.5, "axis": "x", "origin": [8.025, 3.2, 12.1]},
			"faces": {
				"north": {"uv": [0.66667, 3.33333, 0.91667, 3.83333], "texture": "#0"},
				"east": {"uv": [0.66667, 3.33333, 0.76667, 3.83333], "texture": "#0"},
				"south": {"uv": [0.66667, 3.33333, 0.91667, 3.83333], "texture": "#0"},
				"west": {"uv": [0.66667, 3.33333, 0.76667, 3.83333], "texture": "#0"},
				"up": {"uv": [0.66667, 3.33333, 0.91667, 3.43333], "texture": "#0"},
				"down": {"uv": [0.66667, 3.33333, 0.91667, 3.43333], "texture": "#0"}
			}
		},
		{
			"from": [7.9, 2.35858, 11.56213],
			"to": [8.15, 2.85858, 11.66213],
			"rotation": {"angle": -45, "axis": "x", "origin": [8.025, 2.60858, 11.61213]},
			"faces": {
				"north": {"uv": [0.66667, 3.33333, 0.91667, 3.83333], "texture": "#0"},
				"east": {"uv": [0.66667, 3.33333, 0.76667, 3.83333], "texture": "#0"},
				"south": {"uv": [0.66667, 3.33333, 0.91667, 3.83333], "texture": "#0"},
				"west": {"uv": [0.66667, 3.33333, 0.76667, 3.83333], "texture": "#0"},
				"up": {"uv": [0.66667, 3.33333, 0.91667, 3.43333], "texture": "#0"},
				"down": {"uv": [0.66667, 3.33333, 0.91667, 3.43333], "texture": "#0"}
			}
		},
		{
			"from": [7.9, 2.29697, 11.75366],
			"to": [8.15, 2.39697, 12.00366],
			"rotation": {"angle": 22.5, "axis": "x", "origin": [8.025, 2.34697, 12.00366]},
			"faces": {
				"north": {"uv": [0.66667, 3.33333, 0.91667, 3.43333], "rotation": 180, "texture": "#0"},
				"east": {"uv": [0.66667, 3.33333, 0.76667, 3.58333], "rotation": 90, "texture": "#0"},
				"south": {"uv": [0.66667, 3.33333, 0.91667, 3.43333], "texture": "#0"},
				"west": {"uv": [0.66667, 3.33333, 0.76667, 3.58333], "rotation": 270, "texture": "#0"},
				"up": {"uv": [0.66667, 3.33333, 0.91667, 3.58333], "texture": "#0"},
				"down": {"uv": [0.66667, 3.33333, 0.91667, 3.58333], "rotation": 180, "texture": "#0"}
			}
		},
		{
			"from": [7.9, 2.30078, 11.98452],
			"to": [8.15, 2.40078, 12.23452],
			"rotation": {"angle": 0, "axis": "y", "origin": [8.025, 2.35078, 12.23452]},
			"faces": {
				"north": {"uv": [0.66667, 3.33333, 0.91667, 3.43333], "rotation": 180, "texture": "#0"},
				"east": {"uv": [0.66667, 3.33333, 0.76667, 3.58333], "rotation": 90, "texture": "#0"},
				"south": {"uv": [0.66667, 3.33333, 0.91667, 3.43333], "texture": "#0"},
				"west": {"uv": [0.66667, 3.33333, 0.76667, 3.58333], "rotation": 270, "texture": "#0"},
				"up": {"uv": [0.66667, 3.33333, 0.91667, 3.58333], "texture": "#0"},
				"down": {"uv": [0.66667, 3.33333, 0.91667, 3.58333], "rotation": 180, "texture": "#0"}
			}
		},
		{
			"from": [7.9, 2.39264, 12.19636],
			"to": [8.15, 2.49264, 12.94636],
			"rotation": {"angle": -22.5, "axis": "x", "origin": [8.025, 2.44264, 12.44636]},
			"faces": {
				"north": {"uv": [0.66667, 3.33333, 0.91667, 3.43333], "rotation": 180, "texture": "#0"},
				"east": {"uv": [0.66667, 3.33333, 0.76667, 4.08333], "rotation": 90, "texture": "#0"},
				"south": {"uv": [0.66667, 3.33333, 0.91667, 3.43333], "texture": "#0"},
				"west": {"uv": [0.66667, 3.33333, 0.76667, 4.08333], "rotation": 270, "texture": "#0"},
				"up": {"uv": [0.66667, 3.33333, 0.91667, 4.08333], "texture": "#0"},
				"down": {"uv": [0.66667, 3.33333, 0.91667, 4.08333], "rotation": 180, "texture": "#0"}
			}
		},
		{
			"from": [8.26627, 3.25, 10.92367],
			"to": [8.56627, 4, 11.92367],
			"rotation": {"angle": -22.5, "axis": "y", "origin": [8.46627, 3.625, 11.42367]},
			"faces": {
				"north": {"uv": [0, 13.5, 0.3, 14.25], "texture": "#0"},
				"east": {"uv": [0, 13.5, 1, 14.25], "texture": "#0"},
				"south": {"uv": [0, 13.5, 0.3, 14.25], "texture": "#0"},
				"west": {"uv": [0, 13.5, 1, 14.25], "texture": "#0"},
				"up": {"uv": [0, 13.5, 0.3, 14.5], "texture": "#0"},
				"down": {"uv": [0, 13.5, 0.3, 14.5], "texture": "#0"}
			}
		},
		{
			"from": [7.43373, 3.25, 10.92367],
			"to": [7.73373, 4, 11.92367],
			"rotation": {"angle": 22.5, "axis": "y", "origin": [7.53373, 3.625, 11.42367]},
			"faces": {
				"north": {"uv": [0, 13.5, 0.3, 14.25], "texture": "#0"},
				"east": {"uv": [0, 13.5, 1, 14.25], "texture": "#0"},
				"south": {"uv": [0, 13.5, 0.3, 14.25], "texture": "#0"},
				"west": {"uv": [0, 13.5, 1, 14.25], "texture": "#0"},
				"up": {"uv": [0, 13.5, 0.3, 14.5], "texture": "#0"},
				"down": {"uv": [0, 13.5, 0.3, 14.5], "texture": "#0"}
			}
		},
		{
			"from": [7.5, 3.25, 11],
			"to": [8.5, 4, 12],
			"faces": {
				"north": {"uv": [0, 13.5, 1, 14.25], "texture": "#0"},
				"east": {"uv": [0, 13.5, 1, 14.25], "texture": "#0"},
				"south": {"uv": [0, 13.5, 1, 14.25], "texture": "#0"},
				"west": {"uv": [0, 13.5, 1, 14.25], "texture": "#0"},
				"up": {"uv": [0, 13.5, 1, 14.5], "texture": "#0"},
				"down": {"uv": [0, 13.5, 1, 14.5], "texture": "#0"}
			}
		},
		{
			"from": [7.5, 3.13504, 11.82795],
			"to": [8.5, 3.88504, 12.57795],
			"rotation": {"angle": 22.5, "axis": "x", "origin": [8, 3.51004, 12.20295]},
			"faces": {
				"north": {"uv": [0, 13.5, 1, 14.25], "texture": "#0"},
				"east": {"uv": [0, 13.5, 0.75, 14.25], "texture": "#0"},
				"south": {"uv": [0, 13.5, 1, 14.25], "texture": "#0"},
				"west": {"uv": [0, 13.5, 0.75, 14.25], "texture": "#0"},
				"up": {"uv": [0, 13.5, 1, 14.25], "texture": "#0"},
				"down": {"uv": [0, 13.5, 1, 14.25], "texture": "#0"}
			}
		},
		{
			"from": [7.5, 2.59427, 12.4063],
			"to": [8.5, 3.59427, 13.1563],
			"rotation": {"angle": -45, "axis": "x", "origin": [8, 3.09427, 12.7813]},
			"faces": {
				"north": {"uv": [0, 13.5, 1, 14.5], "rotation": 180, "texture": "#0"},
				"east": {"uv": [0, 13.5, 1, 14.25], "rotation": 270, "texture": "#0"},
				"south": {"uv": [0, 13.5, 1, 14.5], "texture": "#0"},
				"west": {"uv": [0, 13.5, 1, 14.25], "rotation": 90, "texture": "#0"},
				"up": {"uv": [0, 13.5, 1, 14.25], "rotation": 180, "texture": "#0"},
				"down": {"uv": [0, 13.5, 1, 14.25], "texture": "#0"}
			}
		}
	],
	"display": {
		"thirdperson_righthand": {
			"translation": [0, 5, -3.25]
		},
		"thirdperson_lefthand": {
			"translation": [0, 5, -2.75]
		},
		"firstperson_righthand": {
			"translation": [-3.5, 7, 2.25]
		},
		"firstperson_lefthand": {
			"translation": [-3.5, 7, 2.25]
		},
		"ground": {
			"rotation": [45, 90, 0],
			"translation": [0, 1.5, 3.25]
		},
		"gui": {
			"rotation": [90, -45, 90],
			"translation": [-4.25, 1.5, 0]
		},
		"fixed": {
			"rotation": [90, 45, -90],
			"translation": [1, 6, -1.25]
		}
	},
	"groups": [
		{
			"name": "Gun",
			"origin": [8, 8, 8],
			"color": 0,
			"children": [
				{
					"name": "Main",
					"origin": [8, 8, 8],
					"color": 0,
					"children": [0, 1, 2, 3, 4, 5, 6, 7, 8, 9, 10, 11, 12, 13, 14]
				}
			]
		}
	]
}