{
    "textures": {
        "1": "gci:items/gun_hsmg/barrel_uni_compensator",
        "2": "gci:items/gun_hsmg/arrel_uni_supressor",
        "3": "gci:items/gun_hsmg/underbarrel_uni_flash_on",
        "5": "gci:items/gun_hsmg/underbarrel_uni_lcu",
        "6": "gci:items/gun_hsmg/barrel_uni_silencer",
        "7": "gci:items/gun_hsmg/optic_uni_scope_assault",
        "11": "gci:items/gun_hsmg/texture",
        "12": "gci:items/gun_hsmg/smgstockbase",
        "13": "gci:items/gun_hsmg/medmag",
        "14": "gci:items/gun_hsmg/grip",
        "15": "gci:items/gun_hsmg/holo",
        "16": "gci:items/gun_hsmg/grip_flash",
        "17": "gci:items/gun_hsmg/grip_laser",
        "18": "gci:items/gun_hsmg/stockfold",
        "19": "gci:items/gun_hsmg/stocktelescop",
        "20": "gci:items/gun_hsmg/reflex_scope",
        "21": "gci:items/gun_hsmg/bigmag",
        "22": "gci:items/gun_hsmg/mallmag",
        "23": "gci:items/gun_hsmg/underbarrel_flame",
        "24": "gci:items/gun_hsmg/underbarrel_shot",
        "25": "gci:items/gun_hsmg/snip_scope",
        "particle": "gci:items/gun_hsmg/medmag"
    },
    "elements": [
        {
            "from": [
                8.29422,
                8.586,
                29.92362
            ],
            "to": [
                9.10422,
                9.396,
                29.92362
            ],
            "rotation": {
                "angle": -45,
                "axis": "z",
                "origin": [
                    8.86122,
                    9.153,
                    19.23162
                ]
            },
            "faces": {
                "north": {
                    "uv": [
                        6,
                        4,
                        7,
                        5
                    ],
                    "texture": "#6"
                },
                "east": {
                    "uv": [
                        0,
                        0,
                        0,
                        1
                    ],
                    "texture": "#6"
                },
                "south": {
                    "uv": [
                        6,
                        5,
                        7,
                        6
                    ],
                    "texture": "#6"
                },
                "west": {
                    "uv": [
                        0,
                        0,
                        0,
                        1
                    ],
                    "texture": "#6"
                },
                "up": {
                    "uv": [
                        1,
                        0,
                        0,
                        0
                    ],
                    "texture": "#6"
                },
                "down": {
                    "uv": [
                        1,
                        0,
                        0,
                        0
                    ],
                    "texture": "#6"
                }
            }
        },
        {
            "from": [
                7.72722,
                8.505,
                21.01362
            ],
            "to": [
                9.34722,
                10.125,
                29.92362
            ],
            "rotation": {
                "angle": -45,
                "axis": "z",
                "origin": [
                    8.29422,
                    9.072,
                    18.58362
                ]
            },
            "faces": {
                "north": {
                    "uv": [
                        4,
                        4,
                        6,
                        6
                    ],
                    "texture": "#6"
                },
                "east": {
                    "uv": [
                        0,
                        0,
                        11,
                        2
                    ],
                    "texture": "#6"
                },
                "south": {
                    "uv": [
                        4,
                        6,
                        6,
                        8
                    ],
                    "texture": "#6"
                },
                "west": {
                    "uv": [
                        0,
                        2,
                        11,
                        4
                    ],
                    "texture": "#6"
                },
                "up": {
                    "uv": [
                        2,
                        15,
                        0,
                        4
                    ],
                    "texture": "#6"
                },
                "down": {
                    "uv": [
                        4,
                        4,
                        2,
                        15
                    ],
                    "texture": "#6"
                }
            }
        }
    ],
    "display": {
        "thirdperson_righthand": {
            "rotation": [
                0,
                -180,
                0
            ],
            "translation": [
                0,
                -0.5,
                -2.25
            ],
            "scale": [
                0.65,
                0.65,
                0.65
            ]
        },
        "thirdperson_lefthand": {
            "rotation": [
                0,
                180,
                0
            ],
            "translation": [
                -0.75,
                0.5,
                -2.25
            ],
            "scale": [
                0.65,
                0.65,
                0.65
            ]
        },
        "firstperson_righthand": {
            "rotation": [
                -179.11,
                0.85,
                176.24
            ],
            "translation": [
                -2.75,
                2.5,
                -0.25
            ],
            "scale": [
                1,
                1,
                0.9
            ]
        },
        "firstperson_lefthand": {
            "rotation": [
                -179.11,
                0.85,
                176.24
            ],
            "translation": [
                -4.25,
                2.5,
                -0.25
            ],
            "scale": [
                1,
                1,
                0.9
            ]
        },
        "ground": {
            "translation": [
                0,
                2.25,
                0
            ]
        },
        "gui": {
            "rotation": [
                -90,
                -55,
                -90
            ],
            "translation": [
                1.75,
                -0.75,
                0
            ]
        },
        "fixed": {
            "rotation": [
                90,
                45,
                -90
            ],
            "translation": [
                -0.75,
                0.5,
                -1.5
            ],
            "scale": [
                0.65,
                0.65,
                0.65
            ]
        }
    }
}