{
    "textures": {
        "1": "gci:items/gun_hsmg/barrel_uni_compensator",
        "2": "gci:items/gun_hsmg/arrel_uni_supressor",
        "3": "gci:items/gun_hsmg/underbarrel_uni_flash_on",
        "5": "gci:items/gun_hsmg/underbarrel_uni_lcu",
        "6": "gci:items/gun_hsmg/barrel_uni_silencer",
        "7": "gci:items/gun_hsmg/optic_uni_scope_assault",
        "11": "gci:items/gun_hsmg/texture",
        "12": "gci:items/gun_hsmg/smgstockbase",
        "13": "gci:items/gun_hsmg/medmag",
        "14": "gci:items/gun_hsmg/grip",
        "15": "gci:items/gun_hsmg/holo",
        "16": "gci:items/gun_hsmg/grip_flash",
        "17": "gci:items/gun_hsmg/grip_laser",
        "18": "gci:items/gun_hsmg/stockfold",
        "19": "gci:items/gun_hsmg/stocktelescop",
        "20": "gci:items/gun_hsmg/reflex_scope",
        "21": "gci:items/gun_hsmg/bigmag",
        "22": "gci:items/gun_hsmg/mallmag",
        "23": "gci:items/gun_hsmg/underbarrel_flame",
        "24": "gci:items/gun_hsmg/underbarrel_shot",
        "25": "gci:items/gun_hsmg/snip_scope",
        "particle": "gci:items/gun_hsmg/medmag"
    },
    "elements": [
        {
            "from": [
                7.05864,
                10.31085,
                -1.10942
            ],
            "to": [
                8.12784,
                11.20185,
                0.40528
            ],
            "rotation": {
                "angle": -22.5,
                "axis": "z",
                "origin": [
                    7.05864,
                    8.52885,
                    -15.36542
                ]
            },
            "faces": {
                "north": {
                    "uv": [
                        13,
                        1,
                        13.5,
                        1.5
                    ],
                    "texture": "#12"
                },
                "east": {
                    "uv": [
                        12,
                        12,
                        13,
                        12.5
                    ],
                    "texture": "#12"
                },
                "south": {
                    "uv": [
                        1.5,
                        13,
                        2,
                        13.5
                    ],
                    "texture": "#12"
                },
                "west": {
                    "uv": [
                        2,
                        12.5,
                        3,
                        13
                    ],
                    "texture": "#12"
                },
                "up": {
                    "uv": [
                        7,
                        6,
                        6.5,
                        5
                    ],
                    "texture": "#12"
                },
                "down": {
                    "uv": [
                        3.5,
                        12.5,
                        3,
                        13.5
                    ],
                    "texture": "#12"
                }
            }
        },
        {
            "from": [
                7.74058,
                7.05671,
                -1.10942
            ],
            "to": [
                9.70078,
                10.17521,
                0.40528
            ],
            "rotation": {
                "angle": 0,
                "axis": "y",
                "origin": [
                    8.54248,
                    5.27471,
                    -9.12842
                ]
            },
            "faces": {
                "north": {
                    "uv": [
                        9,
                        5,
                        10,
                        7
                    ],
                    "texture": "#12"
                },
                "east": {
                    "uv": [
                        6,
                        9,
                        7,
                        11
                    ],
                    "texture": "#12"
                },
                "south": {
                    "uv": [
                        9,
                        7,
                        10,
                        9
                    ],
                    "texture": "#12"
                },
                "west": {
                    "uv": [
                        9,
                        9,
                        10,
                        11
                    ],
                    "texture": "#12"
                },
                "up": {
                    "uv": [
                        12,
                        8,
                        11,
                        7
                    ],
                    "texture": "#12"
                },
                "down": {
                    "uv": [
                        9,
                        11,
                        8,
                        12
                    ],
                    "texture": "#12"
                }
            }
        },
        {
            "from": [
                7.17358,
                8.35271,
                -2.81042
            ],
            "to": [
                8.79358,
                9.81071,
                0.32428
            ],
            "rotation": {
                "angle": -45,
                "axis": "z",
                "origin": [
                    7.98358,
                    9.00071,
                    -0.43307
                ]
            },
            "faces": {
                "north": {
                    "uv": [
                        11,
                        8,
                        12,
                        9
                    ],
                    "texture": "#12"
                },
                "east": {
                    "uv": [
                        7,
                        2,
                        9,
                        3
                    ],
                    "texture": "#12"
                },
                "south": {
                    "uv": [
                        9,
                        11,
                        10,
                        12
                    ],
                    "texture": "#12"
                },
                "west": {
                    "uv": [
                        9,
                        2,
                        11,
                        3
                    ],
                    "texture": "#12"
                },
                "up": {
                    "uv": [
                        11,
                        2,
                        10,
                        0
                    ],
                    "texture": "#12"
                },
                "down": {
                    "uv": [
                        11,
                        3,
                        10,
                        5
                    ],
                    "texture": "#12"
                }
            }
        },
        {
            "from": [
                8.64536,
                8.35271,
                -2.81042
            ],
            "to": [
                10.26536,
                9.81071,
                0.32428
            ],
            "rotation": {
                "angle": 45,
                "axis": "z",
                "origin": [
                    9.45536,
                    9.00071,
                    -0.43307
                ]
            },
            "faces": {
                "north": {
                    "uv": [
                        11,
                        9,
                        12,
                        10
                    ],
                    "texture": "#12"
                },
                "east": {
                    "uv": [
                        10,
                        5,
                        12,
                        6
                    ],
                    "texture": "#12"
                },
                "south": {
                    "uv": [
                        10,
                        11,
                        11,
                        12
                    ],
                    "texture": "#12"
                },
                "west": {
                    "uv": [
                        10,
                        6,
                        12,
                        7
                    ],
                    "texture": "#12"
                },
                "up": {
                    "uv": [
                        11,
                        9,
                        10,
                        7
                    ],
                    "texture": "#12"
                },
                "down": {
                    "uv": [
                        11,
                        9,
                        10,
                        11
                    ],
                    "texture": "#12"
                }
            }
        },
        {
            "from": [
                8.83125,
                10.79223,
                -1.10942
            ],
            "to": [
                9.73512,
                11.6961,
                0.40528
            ],
            "rotation": {
                "angle": -45,
                "axis": "z",
                "origin": [
                    8.70525,
                    11.80028,
                    -11.04407
                ]
            },
            "faces": {
                "north": {
                    "uv": [
                        13,
                        1.5,
                        13.5,
                        2
                    ],
                    "texture": "#12"
                },
                "east": {
                    "uv": [
                        12.5,
                        3,
                        13.5,
                        3.5
                    ],
                    "texture": "#12"
                },
                "south": {
                    "uv": [
                        2,
                        13,
                        2.5,
                        13.5
                    ],
                    "texture": "#12"
                },
                "west": {
                    "uv": [
                        3.5,
                        12.5,
                        4.5,
                        13
                    ],
                    "texture": "#12"
                },
                "up": {
                    "uv": [
                        13,
                        4.5,
                        12.5,
                        3.5
                    ],
                    "texture": "#12"
                },
                "down": {
                    "uv": [
                        5,
                        12.5,
                        4.5,
                        13.5
                    ],
                    "texture": "#12"
                }
            }
        },
        {
            "from": [
                7.82968,
                9.64787,
                -1.77227
            ],
            "to": [
                9.61168,
                11.16257,
                -0.25757
            ],
            "rotation": {
                "angle": 45,
                "axis": "x",
                "origin": [
                    8.72068,
                    10.53887,
                    -1.01492
                ]
            },
            "faces": {
                "north": {
                    "uv": [
                        11,
                        10,
                        12,
                        11
                    ],
                    "texture": "#12"
                },
                "east": {
                    "uv": [
                        11,
                        11,
                        12,
                        12
                    ],
                    "texture": "#12"
                },
                "south": {
                    "uv": [
                        4,
                        11.5,
                        5,
                        12.5
                    ],
                    "texture": "#12"
                },
                "west": {
                    "uv": [
                        5,
                        11.5,
                        6,
                        12.5
                    ],
                    "texture": "#12"
                },
                "up": {
                    "uv": [
                        13,
                        1,
                        12,
                        0
                    ],
                    "texture": "#12"
                },
                "down": {
                    "uv": [
                        13,
                        1,
                        12,
                        2
                    ],
                    "texture": "#12"
                }
            }
        },
        {
            "from": [
                7.91878,
                7.33127,
                -1.77227
            ],
            "to": [
                9.52258,
                8.84597,
                -0.25757
            ],
            "rotation": {
                "angle": 45,
                "axis": "x",
                "origin": [
                    8.72068,
                    8.22227,
                    -1.01492
                ]
            },
            "faces": {
                "north": {
                    "uv": [
                        12,
                        2,
                        13,
                        3
                    ],
                    "texture": "#12"
                },
                "east": {
                    "uv": [
                        12,
                        5,
                        13,
                        6
                    ],
                    "texture": "#12"
                },
                "south": {
                    "uv": [
                        12,
                        6,
                        13,
                        7
                    ],
                    "texture": "#12"
                },
                "west": {
                    "uv": [
                        12,
                        7,
                        13,
                        8
                    ],
                    "texture": "#12"
                },
                "up": {
                    "uv": [
                        9,
                        13,
                        8,
                        12
                    ],
                    "texture": "#12"
                },
                "down": {
                    "uv": [
                        13,
                        8,
                        12,
                        9
                    ],
                    "texture": "#12"
                }
            }
        },
        {
            "from": [
                7.74058,
                8.12776,
                -12.71048
            ],
            "to": [
                9.70078,
                10.44436,
                -1.11128
            ],
            "rotation": {
                "angle": 0,
                "axis": "y",
                "origin": [
                    8.72068,
                    9.82066,
                    -1.42313
                ]
            },
            "faces": {
                "north": {
                    "uv": [
                        11,
                        0,
                        12,
                        1.5
                    ],
                    "texture": "#12"
                },
                "east": {
                    "uv": [
                        0,
                        0,
                        7,
                        1.5
                    ],
                    "texture": "#12"
                },
                "south": {
                    "uv": [
                        11,
                        1.5,
                        12,
                        3
                    ],
                    "texture": "#12"
                },
                "west": {
                    "uv": [
                        0,
                        1.5,
                        7,
                        3
                    ],
                    "texture": "#12"
                },
                "up": {
                    "uv": [
                        1,
                        13,
                        0,
                        6
                    ],
                    "texture": "#12"
                },
                "down": {
                    "uv": [
                        2,
                        6,
                        1,
                        13
                    ],
                    "texture": "#12"
                }
            }
        },
        {
            "from": [
                7.57858,
                9.18076,
                -8.66048
            ],
            "to": [
                9.86278,
                10.63876,
                -3.54128
            ],
            "rotation": {
                "angle": 0,
                "axis": "y",
                "origin": [
                    8.72068,
                    10.06366,
                    -3.85313
                ]
            },
            "faces": {
                "north": {
                    "uv": [
                        11,
                        3,
                        12.5,
                        4
                    ],
                    "texture": "#12"
                },
                "east": {
                    "uv": [
                        7,
                        0,
                        10,
                        1
                    ],
                    "texture": "#12"
                },
                "south": {
                    "uv": [
                        11,
                        4,
                        12.5,
                        5
                    ],
                    "texture": "#12"
                },
                "west": {
                    "uv": [
                        7,
                        1,
                        10,
                        2
                    ],
                    "texture": "#12"
                },
                "up": {
                    "uv": [
                        5.5,
                        9,
                        4,
                        6
                    ],
                    "texture": "#12"
                },
                "down": {
                    "uv": [
                        7,
                        6,
                        5.5,
                        9
                    ],
                    "texture": "#12"
                }
            }
        },
        {
            "from": [
                7.74058,
                3.70516,
                -12.71048
            ],
            "to": [
                9.70078,
                8.12776,
                -10.83128
            ],
            "rotation": {
                "angle": 0,
                "axis": "y",
                "origin": [
                    8.72068,
                    7.53182,
                    -0.61313
                ]
            },
            "faces": {
                "north": {
                    "uv": [
                        7,
                        8.5,
                        8,
                        11
                    ],
                    "texture": "#12"
                },
                "east": {
                    "uv": [
                        8,
                        8.5,
                        9,
                        11
                    ],
                    "texture": "#12"
                },
                "south": {
                    "uv": [
                        4,
                        9,
                        5,
                        11.5
                    ],
                    "texture": "#12"
                },
                "west": {
                    "uv": [
                        5,
                        9,
                        6,
                        11.5
                    ],
                    "texture": "#12"
                },
                "up": {
                    "uv": [
                        10,
                        13,
                        9,
                        12
                    ],
                    "texture": "#12"
                },
                "down": {
                    "uv": [
                        13,
                        9,
                        12,
                        10
                    ],
                    "texture": "#12"
                }
            }
        },
        {
            "from": [
                7.98358,
                6.156,
                -12.46748
            ],
            "to": [
                9.45778,
                8.1486,
                -6.53828
            ],
            "rotation": {
                "angle": 0,
                "axis": "y",
                "origin": [
                    8.72068,
                    7.55266,
                    -0.37013
                ]
            },
            "faces": {
                "north": {
                    "uv": [
                        10,
                        12,
                        11,
                        13
                    ],
                    "texture": "#12"
                },
                "east": {
                    "uv": [
                        6.5,
                        3,
                        10,
                        4
                    ],
                    "texture": "#12"
                },
                "south": {
                    "uv": [
                        12,
                        10,
                        13,
                        11
                    ],
                    "texture": "#12"
                },
                "west": {
                    "uv": [
                        6.5,
                        4,
                        10,
                        5
                    ],
                    "texture": "#12"
                },
                "up": {
                    "uv": [
                        8,
                        8.5,
                        7,
                        5
                    ],
                    "texture": "#12"
                },
                "down": {
                    "uv": [
                        9,
                        5,
                        8,
                        8.5
                    ],
                    "texture": "#12"
                }
            }
        },
        {
            "from": [
                7.98358,
                4.941,
                -12.46748
            ],
            "to": [
                9.45778,
                6.156,
                -10.58828
            ],
            "rotation": {
                "angle": 0,
                "axis": "y",
                "origin": [
                    8.72068,
                    5.52766,
                    -0.37013
                ]
            },
            "faces": {
                "north": {
                    "uv": [
                        12.5,
                        4.5,
                        13.5,
                        5
                    ],
                    "texture": "#12"
                },
                "east": {
                    "uv": [
                        5,
                        12.5,
                        6,
                        13
                    ],
                    "texture": "#12"
                },
                "south": {
                    "uv": [
                        6,
                        12.5,
                        7,
                        13
                    ],
                    "texture": "#12"
                },
                "west": {
                    "uv": [
                        7,
                        12.5,
                        8,
                        13
                    ],
                    "texture": "#12"
                },
                "up": {
                    "uv": [
                        12,
                        13,
                        11,
                        12
                    ],
                    "texture": "#12"
                },
                "down": {
                    "uv": [
                        13,
                        11,
                        12,
                        12
                    ],
                    "texture": "#12"
                }
            }
        },
        {
            "from": [
                7.90258,
                5.24582,
                -11.90048
            ],
            "to": [
                9.53878,
                7.3386,
                -1.46199
            ],
            "rotation": {
                "angle": -22.5,
                "axis": "x",
                "origin": [
                    8.72068,
                    5.5323,
                    -8.12588
                ]
            },
            "faces": {
                "north": {
                    "uv": [
                        6,
                        11,
                        7,
                        12.5
                    ],
                    "texture": "#12"
                },
                "east": {
                    "uv": [
                        0,
                        3,
                        6.5,
                        4.5
                    ],
                    "texture": "#12"
                },
                "south": {
                    "uv": [
                        7,
                        11,
                        8,
                        12.5
                    ],
                    "texture": "#12"
                },
                "west": {
                    "uv": [
                        0,
                        4.5,
                        6.5,
                        6
                    ],
                    "texture": "#12"
                },
                "up": {
                    "uv": [
                        3,
                        12.5,
                        2,
                        6
                    ],
                    "texture": "#12"
                },
                "down": {
                    "uv": [
                        4,
                        6,
                        3,
                        12.5
                    ],
                    "texture": "#12"
                }
            }
        },
        {
            "from": [
                9.39491,
                9.90169,
                -1.10942
            ],
            "to": [
                10.46411,
                10.79269,
                0.40528
            ],
            "rotation": {
                "angle": 22.5,
                "axis": "z",
                "origin": [
                    9.39491,
                    8.11969,
                    -10.01942
                ]
            },
            "faces": {
                "north": {
                    "uv": [
                        13,
                        2,
                        13.5,
                        2.5
                    ],
                    "texture": "#12"
                },
                "east": {
                    "uv": [
                        12,
                        12.5,
                        13,
                        13
                    ],
                    "texture": "#12"
                },
                "south": {
                    "uv": [
                        2.5,
                        13,
                        3,
                        13.5
                    ],
                    "texture": "#12"
                },
                "west": {
                    "uv": [
                        0,
                        13,
                        1,
                        13.5
                    ],
                    "texture": "#12"
                },
                "up": {
                    "uv": [
                        13.5,
                        1,
                        13,
                        0
                    ],
                    "texture": "#12"
                },
                "down": {
                    "uv": [
                        1.5,
                        13,
                        1,
                        14
                    ],
                    "texture": "#12"
                }
            }
        }
    ],
    "display": {
        "thirdperson_righthand": {
            "rotation": [
                0,
                -180,
                0
            ],
            "translation": [
                0,
                -0.5,
                -2.25
            ],
            "scale": [
                0.65,
                0.65,
                0.65
            ]
        },
        "thirdperson_lefthand": {
            "rotation": [
                0,
                180,
                0
            ],
            "translation": [
                -0.75,
                0.5,
                -2.25
            ],
            "scale": [
                0.65,
                0.65,
                0.65
            ]
        },
        "firstperson_righthand": {
            "rotation": [
                -179.11,
                0.85,
                176.24
            ],
            "translation": [
                -2.75,
                2.5,
                -0.25
            ],
            "scale": [
                1,
                1,
                0.9
            ]
        },
        "firstperson_lefthand": {
            "rotation": [
                -179.11,
                0.85,
                176.24
            ],
            "translation": [
                -4.25,
                2.5,
                -0.25
            ],
            "scale": [
                1,
                1,
                0.9
            ]
        },
        "ground": {
            "translation": [
                0,
                2.25,
                0
            ]
        },
        "gui": {
            "rotation": [
                -90,
                -55,
                -90
            ],
            "translation": [
                1.75,
                -0.75,
                0
            ]
        },
        "fixed": {
            "rotation": [
                90,
                45,
                -90
            ],
            "translation": [
                -0.75,
                0.5,
                -1.5
            ],
            "scale": [
                0.65,
                0.65,
                0.65
            ]
        }
    }
}