{
	"credit": "Made with Blockbench",
	"textures": {
		"6": "gci:items/common/all_in_one",
		"particle": "gci:items/common/mpz"
	},
	"elements": [
		{
			"from": [7.68963, 10.44456, 4.80478],
			"to": [7.72563, 11.00444, 4.86476],
			"rotation": {"angle": 0, "axis": "x", "origin": [8.01609, 10.17876, 6.18325]},
			"faces": {
				"north": {"uv": [14.25, 6.5, 14.375, 6.625], "texture": "#6"},
				"east": {"uv": [14.25, 6.5, 14.375, 6.625], "texture": "#6"},
				"south": {"uv": [14.25, 6.5, 14.375, 6.625], "texture": "#6"},
				"west": {"uv": [14.25, 6.5, 14.375, 6.625], "texture": "#6"},
				"up": {"uv": [14.25, 6.5, 14.375, 6.625], "texture": "#6"},
				"down": {"uv": [14.25, 6.5, 14.375, 6.625], "texture": "#6"}
			}
		},
		{
			"from": [8.31571, 10.44456, 4.10478],
			"to": [8.35171, 11.00444, 4.16476],
			"rotation": {"angle": 0, "axis": "x", "origin": [8.01609, 10.17876, 6.18325]},
			"faces": {
				"north": {"uv": [14.25, 6.5, 14.375, 6.625], "texture": "#6"},
				"east": {"uv": [14.25, 6.5, 14.375, 6.625], "texture": "#6"},
				"south": {"uv": [14.25, 6.5, 14.375, 6.625], "texture": "#6"},
				"west": {"uv": [14.25, 6.5, 14.375, 6.625], "texture": "#6"},
				"up": {"uv": [14.25, 6.5, 14.375, 6.625], "texture": "#6"},
				"down": {"uv": [14.25, 6.5, 14.375, 6.625], "texture": "#6"}
			}
		},
		{
			"from": [7.68963, 10.44456, 4.10478],
			"to": [7.72563, 11.00444, 4.16476],
			"rotation": {"angle": 0, "axis": "x", "origin": [8.01609, 10.17876, 6.18325]},
			"faces": {
				"north": {"uv": [14.25, 6.5, 14.375, 6.625], "texture": "#6"},
				"east": {"uv": [14.25, 6.5, 14.375, 6.625], "texture": "#6"},
				"south": {"uv": [14.25, 6.5, 14.375, 6.625], "texture": "#6"},
				"west": {"uv": [14.25, 6.5, 14.375, 6.625], "texture": "#6"},
				"up": {"uv": [14.25, 6.5, 14.375, 6.625], "texture": "#6"},
				"down": {"uv": [14.25, 6.5, 14.375, 6.625], "texture": "#6"}
			}
		},
		{
			"from": [8.31571, 10.44456, 4.27978],
			"to": [8.35171, 11.00444, 4.33976],
			"rotation": {"angle": 0, "axis": "x", "origin": [8.01609, 10.17876, 6.18325]},
			"faces": {
				"north": {"uv": [14.25, 6.5, 14.375, 6.625], "texture": "#6"},
				"east": {"uv": [14.25, 6.5, 14.375, 6.625], "texture": "#6"},
				"south": {"uv": [14.25, 6.5, 14.375, 6.625], "texture": "#6"},
				"west": {"uv": [14.25, 6.5, 14.375, 6.625], "texture": "#6"},
				"up": {"uv": [14.25, 6.5, 14.375, 6.625], "texture": "#6"},
				"down": {"uv": [14.25, 6.5, 14.375, 6.625], "texture": "#6"}
			}
		},
		{
			"from": [7.68963, 10.44456, 4.27978],
			"to": [7.72563, 11.00444, 4.33976],
			"rotation": {"angle": 0, "axis": "x", "origin": [8.01609, 10.17876, 6.18325]},
			"faces": {
				"north": {"uv": [14.25, 6.5, 14.375, 6.625], "texture": "#6"},
				"east": {"uv": [14.25, 6.5, 14.375, 6.625], "texture": "#6"},
				"south": {"uv": [14.25, 6.5, 14.375, 6.625], "texture": "#6"},
				"west": {"uv": [14.25, 6.5, 14.375, 6.625], "texture": "#6"},
				"up": {"uv": [14.25, 6.5, 14.375, 6.625], "texture": "#6"},
				"down": {"uv": [14.25, 6.5, 14.375, 6.625], "texture": "#6"}
			}
		},
		{
			"from": [8.31571, 10.44456, 4.62978],
			"to": [8.35171, 11.00444, 4.68976],
			"rotation": {"angle": 0, "axis": "x", "origin": [8.01609, 10.17876, 6.18325]},
			"faces": {
				"north": {"uv": [14.25, 6.5, 14.375, 6.625], "texture": "#6"},
				"east": {"uv": [14.25, 6.5, 14.375, 6.625], "texture": "#6"},
				"south": {"uv": [14.25, 6.5, 14.375, 6.625], "texture": "#6"},
				"west": {"uv": [14.25, 6.5, 14.375, 6.625], "texture": "#6"},
				"up": {"uv": [14.25, 6.5, 14.375, 6.625], "texture": "#6"},
				"down": {"uv": [14.25, 6.5, 14.375, 6.625], "texture": "#6"}
			}
		},
		{
			"from": [7.68963, 10.44456, 4.62978],
			"to": [7.72563, 11.00444, 4.68976],
			"rotation": {"angle": 0, "axis": "x", "origin": [8.01609, 10.17876, 6.18325]},
			"faces": {
				"north": {"uv": [14.25, 6.5, 14.375, 6.625], "texture": "#6"},
				"east": {"uv": [14.25, 6.5, 14.375, 6.625], "texture": "#6"},
				"south": {"uv": [14.25, 6.5, 14.375, 6.625], "texture": "#6"},
				"west": {"uv": [14.25, 6.5, 14.375, 6.625], "texture": "#6"},
				"up": {"uv": [14.25, 6.5, 14.375, 6.625], "texture": "#6"},
				"down": {"uv": [14.25, 6.5, 14.375, 6.625], "texture": "#6"}
			}
		},
		{
			"from": [8.31571, 10.44456, 4.45478],
			"to": [8.35171, 11.00444, 4.51476],
			"rotation": {"angle": 0, "axis": "x", "origin": [8.01609, 10.17876, 6.18325]},
			"faces": {
				"north": {"uv": [14.25, 6.5, 14.375, 6.625], "texture": "#6"},
				"east": {"uv": [14.25, 6.5, 14.375, 6.625], "texture": "#6"},
				"south": {"uv": [14.25, 6.5, 14.375, 6.625], "texture": "#6"},
				"west": {"uv": [14.25, 6.5, 14.375, 6.625], "texture": "#6"},
				"up": {"uv": [14.25, 6.5, 14.375, 6.625], "texture": "#6"},
				"down": {"uv": [14.25, 6.5, 14.375, 6.625], "texture": "#6"}
			}
		},
		{
			"from": [7.68963, 10.44456, 4.45478],
			"to": [7.72563, 11.00444, 4.51476],
			"rotation": {"angle": 0, "axis": "x", "origin": [8.01609, 10.17876, 6.18325]},
			"faces": {
				"north": {"uv": [14.25, 6.5, 14.375, 6.625], "texture": "#6"},
				"east": {"uv": [14.25, 6.5, 14.375, 6.625], "texture": "#6"},
				"south": {"uv": [14.25, 6.5, 14.375, 6.625], "texture": "#6"},
				"west": {"uv": [14.25, 6.5, 14.375, 6.625], "texture": "#6"},
				"up": {"uv": [14.25, 6.5, 14.375, 6.625], "texture": "#6"},
				"down": {"uv": [14.25, 6.5, 14.375, 6.625], "texture": "#6"}
			}
		},
		{
			"from": [8.31571, 10.44456, 4.97978],
			"to": [8.35171, 11.00444, 5.03976],
			"rotation": {"angle": 0, "axis": "x", "origin": [8.01609, 10.17876, 6.18325]},
			"faces": {
				"north": {"uv": [14.25, 6.5, 14.375, 6.625], "texture": "#6"},
				"east": {"uv": [14.25, 6.5, 14.375, 6.625], "texture": "#6"},
				"south": {"uv": [14.25, 6.5, 14.375, 6.625], "texture": "#6"},
				"west": {"uv": [14.25, 6.5, 14.375, 6.625], "texture": "#6"},
				"up": {"uv": [14.25, 6.5, 14.375, 6.625], "texture": "#6"},
				"down": {"uv": [14.25, 6.5, 14.375, 6.625], "texture": "#6"}
			}
		},
		{
			"from": [7.68963, 10.44456, 4.97978],
			"to": [7.72563, 11.00444, 5.03976],
			"rotation": {"angle": 0, "axis": "x", "origin": [8.01609, 10.17876, 6.18325]},
			"faces": {
				"north": {"uv": [14.25, 6.5, 14.375, 6.625], "texture": "#6"},
				"east": {"uv": [14.25, 6.5, 14.375, 6.625], "texture": "#6"},
				"south": {"uv": [14.25, 6.5, 14.375, 6.625], "texture": "#6"},
				"west": {"uv": [14.25, 6.5, 14.375, 6.625], "texture": "#6"},
				"up": {"uv": [14.25, 6.5, 14.375, 6.625], "texture": "#6"},
				"down": {"uv": [14.25, 6.5, 14.375, 6.625], "texture": "#6"}
			}
		},
		{
			"from": [8.31571, 10.44456, 4.80478],
			"to": [8.35171, 11.00444, 4.86476],
			"rotation": {"angle": 0, "axis": "x", "origin": [8.01609, 10.17876, 6.18325]},
			"faces": {
				"north": {"uv": [14.25, 6.5, 14.375, 6.625], "texture": "#6"},
				"east": {"uv": [14.25, 6.5, 14.375, 6.625], "texture": "#6"},
				"south": {"uv": [14.25, 6.5, 14.375, 6.625], "texture": "#6"},
				"west": {"uv": [14.25, 6.5, 14.375, 6.625], "texture": "#6"},
				"up": {"uv": [14.25, 6.5, 14.375, 6.625], "texture": "#6"},
				"down": {"uv": [14.25, 6.5, 14.375, 6.625], "texture": "#6"}
			}
		},
		{
			"from": [7.94322, 10.57699, 3.7915],
			"to": [8.09322, 10.64999, 4.4355],
			"rotation": {"angle": 0, "axis": "y", "origin": [8.01651, 10.25768, 5.90707]},
			"faces": {
				"north": {"uv": [6.125, 2.375, 6.25, 2.5], "rotation": 90, "texture": "#6"},
				"east": {"uv": [6.125, 2.375, 6.25, 2.5], "texture": "#6"},
				"south": {"uv": [6.125, 2.375, 6.25, 2.5], "texture": "#6"},
				"west": {"uv": [6.125, 2.375, 6.25, 2.5], "texture": "#6"},
				"up": {"uv": [6.125, 2.375, 6.25, 2.5], "texture": "#6"},
				"down": {"uv": [6.125, 2.375, 6.25, 2.5], "texture": "#6"}
			}
		},
		{
			"from": [7.94241, 10.86532, 3.7915],
			"to": [8.09241, 10.93832, 4.4355],
			"rotation": {"angle": 0, "axis": "y", "origin": [8.01651, 10.25768, 5.90707]},
			"faces": {
				"north": {"uv": [6.125, 2.375, 6.25, 2.5], "rotation": 90, "texture": "#6"},
				"east": {"uv": [6.125, 2.375, 6.25, 2.5], "texture": "#6"},
				"south": {"uv": [6.125, 2.375, 6.25, 2.5], "texture": "#6"},
				"west": {"uv": [6.125, 2.375, 6.25, 2.5], "texture": "#6"},
				"up": {"uv": [6.125, 2.375, 6.25, 2.5], "texture": "#6"},
				"down": {"uv": [6.125, 2.375, 6.25, 2.5], "texture": "#6"}
			}
		},
		{
			"from": [7.83634, 10.68226, 3.7915],
			"to": [7.90934, 10.83226, 4.4355],
			"rotation": {"angle": 0, "axis": "y", "origin": [8.01651, 10.25768, 5.90707]},
			"faces": {
				"north": {"uv": [6.125, 2.375, 6.25, 2.5], "texture": "#6"},
				"east": {"uv": [6.125, 2.375, 6.25, 2.5], "texture": "#6"},
				"south": {"uv": [6.125, 2.375, 6.25, 2.5], "texture": "#6"},
				"west": {"uv": [6.125, 2.375, 6.25, 2.5], "texture": "#6"},
				"up": {"uv": [6.125, 2.375, 6.25, 2.5], "texture": "#6"},
				"down": {"uv": [6.125, 2.375, 6.25, 2.5], "texture": "#6"}
			}
		},
		{
			"from": [8.12434, 10.68226, 3.7915],
			"to": [8.19734, 10.83226, 4.4355],
			"rotation": {"angle": 0, "axis": "y", "origin": [8.01651, 10.25768, 5.90707]},
			"faces": {
				"north": {"uv": [6.125, 2.375, 6.25, 2.5], "texture": "#6"},
				"east": {"uv": [6.125, 2.375, 6.25, 2.5], "texture": "#6"},
				"south": {"uv": [6.125, 2.375, 6.25, 2.5], "texture": "#6"},
				"west": {"uv": [6.125, 2.375, 6.25, 2.5], "texture": "#6"},
				"up": {"uv": [6.125, 2.375, 6.25, 2.5], "texture": "#6"},
				"down": {"uv": [6.125, 2.375, 6.25, 2.5], "texture": "#6"}
			}
		},
		{
			"from": [7.5889, 10.43164, 3.7915],
			"to": [7.7389, 10.50464, 4.4355],
			"rotation": {"angle": -45, "axis": "z", "origin": [8.01651, 10.25768, 5.90707]},
			"faces": {
				"north": {"uv": [6.125, 2.375, 6.25, 2.5], "rotation": 90, "texture": "#6"},
				"east": {"uv": [6.125, 2.375, 6.25, 2.5], "texture": "#6"},
				"south": {"uv": [6.125, 2.375, 6.25, 2.5], "texture": "#6"},
				"west": {"uv": [6.125, 2.375, 6.25, 2.5], "texture": "#6"},
				"up": {"uv": [6.125, 2.375, 6.25, 2.5], "texture": "#6"},
				"down": {"uv": [6.125, 2.375, 6.25, 2.5], "texture": "#6"}
			}
		},
		{
			"from": [7.5889, 10.71964, 3.7915],
			"to": [7.7389, 10.79264, 4.4355],
			"rotation": {"angle": -45, "axis": "z", "origin": [8.01651, 10.25768, 5.90707]},
			"faces": {
				"north": {"uv": [6.125, 2.375, 6.25, 2.5], "rotation": 90, "texture": "#6"},
				"east": {"uv": [6.125, 2.375, 6.25, 2.5], "texture": "#6"},
				"south": {"uv": [6.125, 2.375, 6.25, 2.5], "texture": "#6"},
				"west": {"uv": [6.125, 2.375, 6.25, 2.5], "texture": "#6"},
				"up": {"uv": [6.125, 2.375, 6.25, 2.5], "texture": "#6"},
				"down": {"uv": [6.125, 2.375, 6.25, 2.5], "texture": "#6"}
			}
		},
		{
			"from": [7.48283, 10.53657, 3.7915],
			"to": [7.55583, 10.68657, 4.4355],
			"rotation": {"angle": -45, "axis": "z", "origin": [8.01651, 10.25768, 5.90707]},
			"faces": {
				"north": {"uv": [6.125, 2.375, 6.25, 2.5], "texture": "#6"},
				"east": {"uv": [6.125, 2.375, 6.25, 2.5], "texture": "#6"},
				"south": {"uv": [6.125, 2.375, 6.25, 2.5], "texture": "#6"},
				"west": {"uv": [6.125, 2.375, 6.25, 2.5], "texture": "#6"},
				"up": {"uv": [6.125, 2.375, 6.25, 2.5], "texture": "#6"},
				"down": {"uv": [6.125, 2.375, 6.25, 2.5], "texture": "#6"}
			}
		},
		{
			"from": [7.77083, 10.53657, 3.7915],
			"to": [7.84383, 10.68657, 4.4355],
			"rotation": {"angle": -45, "axis": "z", "origin": [8.01651, 10.25768, 5.90707]},
			"faces": {
				"north": {"uv": [6.125, 2.375, 6.25, 2.5], "texture": "#6"},
				"east": {"uv": [6.125, 2.375, 6.25, 2.5], "texture": "#6"},
				"south": {"uv": [6.125, 2.375, 6.25, 2.5], "texture": "#6"},
				"west": {"uv": [6.125, 2.375, 6.25, 2.5], "texture": "#6"},
				"up": {"uv": [6.125, 2.375, 6.25, 2.5], "texture": "#6"},
				"down": {"uv": [6.125, 2.375, 6.25, 2.5], "texture": "#6"}
			}
		},
		{
			"from": [7.73872, 9.88656, 5.02],
			"to": [8.29872, 10.01456, 5.272],
			"rotation": {"angle": 0, "axis": "x", "origin": [8.01609, 10.17876, 6.18325]},
			"faces": {
				"north": {"uv": [14, 5, 14.125, 5.125], "texture": "#6"},
				"east": {"uv": [14, 5, 14.125, 5.125], "texture": "#6"},
				"south": {"uv": [14, 5, 14.125, 5.125], "texture": "#6"},
				"west": {"uv": [14, 5, 14.125, 5.125], "texture": "#6"},
				"up": {"uv": [14, 5, 14.125, 5.125], "texture": "#6"},
				"down": {"uv": [14, 5, 14.125, 5.125], "texture": "#6"}
			}
		},
		{
			"from": [7.73872, 10.01456, 3.986],
			"to": [8.29872, 10.11056, 5.529],
			"rotation": {"angle": 0, "axis": "x", "origin": [8.01609, 10.17876, 6.18325]},
			"faces": {
				"north": {"uv": [14, 5, 14.125, 5.125], "texture": "#6"},
				"east": {"uv": [14, 5, 14.125, 5.125], "texture": "#6"},
				"south": {"uv": [14, 5, 14.125, 5.125], "texture": "#6"},
				"west": {"uv": [14, 5, 14.125, 5.125], "texture": "#6"},
				"up": {"uv": [14, 5, 14.125, 5.125], "texture": "#6"},
				"down": {"uv": [14, 5, 14.125, 5.125], "texture": "#6"}
			}
		},
		{
			"from": [7.73872, 9.88656, 3.996],
			"to": [8.29872, 10.01456, 4.248],
			"rotation": {"angle": 0, "axis": "x", "origin": [8.01609, 10.17876, 6.18325]},
			"faces": {
				"north": {"uv": [14, 5, 14.125, 5.125], "texture": "#6"},
				"east": {"uv": [14, 5, 14.125, 5.125], "texture": "#6"},
				"south": {"uv": [14, 5, 14.125, 5.125], "texture": "#6"},
				"west": {"uv": [14, 5, 14.125, 5.125], "texture": "#6"},
				"up": {"uv": [14, 5, 14.125, 5.125], "texture": "#6"},
				"down": {"uv": [14, 5, 14.125, 5.125], "texture": "#6"}
			}
		},
		{
			"from": [7.73872, 9.88656, 4.508],
			"to": [8.29872, 10.01456, 4.76],
			"rotation": {"angle": 0, "axis": "x", "origin": [8.01609, 10.17876, 6.18325]},
			"faces": {
				"north": {"uv": [14, 5, 14.125, 5.125], "texture": "#6"},
				"east": {"uv": [14, 5, 14.125, 5.125], "texture": "#6"},
				"south": {"uv": [14, 5, 14.125, 5.125], "texture": "#6"},
				"west": {"uv": [14, 5, 14.125, 5.125], "texture": "#6"},
				"up": {"uv": [14, 5, 14.125, 5.125], "texture": "#6"},
				"down": {"uv": [14, 5, 14.125, 5.125], "texture": "#6"}
			}
		},
		{
			"from": [7.73872, 9.88656, 5.5],
			"to": [8.29872, 10.01456, 5.627],
			"rotation": {"angle": 0, "axis": "x", "origin": [8.01609, 10.17876, 6.18325]},
			"faces": {
				"north": {"uv": [14, 5, 14.125, 5.125], "texture": "#6"},
				"east": {"uv": [14, 5, 14.125, 5.125], "texture": "#6"},
				"south": {"uv": [14, 5, 14.125, 5.125], "texture": "#6"},
				"west": {"uv": [14, 5, 14.125, 5.125], "texture": "#6"},
				"up": {"uv": [14, 5, 14.125, 5.125], "texture": "#6"},
				"down": {"uv": [14, 5, 14.125, 5.125], "texture": "#6"}
			}
		},
		{
			"from": [7.77072, 10.16111, 3.9705],
			"to": [8.27062, 10.98596, 7.8198],
			"rotation": {"angle": 0, "axis": "x", "origin": [8.01609, 10.17876, 6.18325]},
			"faces": {
				"north": {"uv": [6.125, 2.375, 6.25, 2.5], "texture": "#6"},
				"east": {"uv": [6.125, 2.375, 6.25, 2.5], "texture": "#6"},
				"south": {"uv": [6.125, 2.375, 6.25, 2.5], "texture": "#6"},
				"west": {"uv": [6.125, 2.375, 6.25, 2.5], "texture": "#6"},
				"up": {"uv": [6.125, 2.375, 6.25, 2.5], "texture": "#6"},
				"down": {"uv": [6.125, 2.375, 6.25, 2.5], "texture": "#6"}
			}
		},
		{
			"from": [7.69073, 10.11162, 6.55503],
			"to": [8.35061, 11.04645, 7.8198],
			"rotation": {"angle": 0, "axis": "x", "origin": [8.01609, 10.17876, 6.18325]},
			"faces": {
				"north": {"uv": [14, 5, 14.125, 5.125], "texture": "#6"},
				"east": {"uv": [14, 5, 14.125, 5.125], "texture": "#6"},
				"south": {"uv": [14, 5, 14.125, 5.125], "texture": "#6"},
				"west": {"uv": [14, 5, 14.125, 5.125], "texture": "#6"},
				"up": {"uv": [14, 5, 14.125, 5.125], "texture": "#6"},
				"down": {"uv": [14, 5, 14.125, 5.125], "texture": "#6"}
			}
		},
		{
			"from": [7.69073, 10.41162, 7.78003],
			"to": [8.35061, 11.04645, 7.8948],
			"rotation": {"angle": 0, "axis": "x", "origin": [8.01609, 10.17876, 6.18325]},
			"faces": {
				"north": {"uv": [14, 5, 14.125, 5.125], "texture": "#6"},
				"east": {"uv": [14, 5, 14.125, 5.125], "texture": "#6"},
				"south": {"uv": [14, 5, 14.125, 5.125], "texture": "#6"},
				"west": {"uv": [14, 5, 14.125, 5.125], "texture": "#6"},
				"up": {"uv": [14, 5, 14.125, 5.125], "texture": "#6"},
				"down": {"uv": [14, 5, 14.125, 5.125], "texture": "#6"}
			}
		},
		{
			"from": [7.69073, 10.11052, 5.45523],
			"to": [8.05565, 11.04645, 6.55503],
			"rotation": {"angle": 0, "axis": "x", "origin": [8.01609, 10.17876, 6.18325]},
			"faces": {
				"north": {"uv": [14, 5, 14.125, 5.125], "texture": "#6"},
				"east": {"uv": [14, 5, 14.125, 5.125], "texture": "#6"},
				"south": {"uv": [14, 5, 14.125, 5.125], "texture": "#6"},
				"west": {"uv": [14, 5, 14.125, 5.125], "texture": "#6"},
				"up": {"uv": [14, 5, 14.125, 5.125], "texture": "#6"},
				"down": {"uv": [14, 5, 14.125, 5.125], "texture": "#6"}
			}
		},
		{
			"from": [7.99073, 10.11162, 5.6202],
			"to": [8.35066, 10.7715, 6.72],
			"rotation": {"angle": 0, "axis": "x", "origin": [8.01609, 10.17876, 6.18325]},
			"faces": {
				"north": {"uv": [14, 5, 14.125, 5.125], "texture": "#6"},
				"east": {"uv": [14, 5, 14.125, 5.125], "texture": "#6"},
				"south": {"uv": [14, 5, 14.125, 5.125], "texture": "#6"},
				"west": {"uv": [14, 5, 14.125, 5.125], "texture": "#6"},
				"up": {"uv": [14, 5, 14.125, 5.125], "texture": "#6"},
				"down": {"uv": [14, 5, 14.125, 5.125], "texture": "#6"}
			}
		},
		{
			"from": [7.68963, 10.355, 3.952],
			"to": [8.35171, 10.38249, 7.997],
			"rotation": {"angle": 0, "axis": "x", "origin": [8.01609, 10.17876, 6.18325]},
			"faces": {
				"north": {"uv": [14.25, 6.5, 14.375, 6.625], "texture": "#6"},
				"east": {"uv": [14.25, 6.5, 14.375, 6.625], "texture": "#6"},
				"south": {"uv": [14.25, 6.5, 14.375, 6.625], "texture": "#6"},
				"west": {"uv": [14.25, 6.5, 14.375, 6.625], "texture": "#6"},
				"up": {"uv": [14.25, 6.5, 14.375, 6.625], "texture": "#6"},
				"down": {"uv": [14.25, 6.5, 14.375, 6.625], "texture": "#6"}
			}
		},
		{
			"from": [7.69073, 10.11162, 3.95678],
			"to": [8.35061, 11.04645, 5.72908],
			"rotation": {"angle": 0, "axis": "x", "origin": [8.01609, 10.17876, 6.18325]},
			"faces": {
				"north": {"uv": [14, 5, 14.125, 5.125], "texture": "#6"},
				"east": {"uv": [14, 5, 14.125, 5.125], "texture": "#6"},
				"south": {"uv": [14, 5, 14.125, 5.125], "texture": "#6"},
				"west": {"uv": [14, 5, 14.125, 5.125], "texture": "#6"},
				"up": {"uv": [14, 5, 14.125, 5.125], "texture": "#6"},
				"down": {"uv": [14, 5, 14.125, 5.125], "texture": "#6"}
			}
		},
		{
			"from": [7.95543, 10.1985, 3.91551],
			"to": [8.23038, 10.47345, 4.46541],
			"rotation": {"angle": 45, "axis": "z", "origin": [8.01651, 10.25768, 5.90707]},
			"faces": {
				"north": {"uv": [14.25, 6.5, 14.375, 6.625], "texture": "#6"},
				"east": {"uv": [14.25, 6.5, 14.375, 6.625], "texture": "#6"},
				"south": {"uv": [14.25, 6.5, 14.375, 6.625], "texture": "#6"},
				"west": {"uv": [14.25, 6.5, 14.375, 6.625], "texture": "#6"},
				"up": {"uv": [14.25, 6.5, 14.375, 6.625], "texture": "#6"},
				"down": {"uv": [14.25, 6.5, 14.375, 6.625], "texture": "#6"}
			}
		},
		{
			"from": [7.90519, 10.63351, 3.91551],
			"to": [8.12515, 10.87847, 4.46541],
			"rotation": {"angle": 0, "axis": "x", "origin": [8.01609, 10.17876, 6.18325]},
			"faces": {
				"north": {"uv": [7.75, 12.5, 7.875, 12.625], "texture": "#6"},
				"east": {"uv": [7.75, 12.5, 7.875, 12.625], "texture": "#6"},
				"south": {"uv": [7.75, 12.5, 7.875, 12.625], "texture": "#6"},
				"west": {"uv": [7.75, 12.5, 7.875, 12.625], "texture": "#6"},
				"up": {"uv": [7.75, 12.5, 7.875, 12.625], "texture": "#6"},
				"down": {"uv": [7.75, 12.5, 7.875, 12.625], "texture": "#6"}
			}
		},
		{
			"from": [7.69073, 10.11162, 7.59984],
			"to": [8.35061, 10.23259, 8.03976],
			"rotation": {"angle": 0, "axis": "x", "origin": [8.01609, 10.17876, 6.18325]},
			"faces": {
				"north": {"uv": [14, 5, 14.125, 5.125], "texture": "#6"},
				"east": {"uv": [14, 5, 14.125, 5.125], "texture": "#6"},
				"south": {"uv": [14, 5, 14.125, 5.125], "texture": "#6"},
				"west": {"uv": [14, 5, 14.125, 5.125], "texture": "#6"},
				"up": {"uv": [14, 5, 14.125, 5.125], "texture": "#6"},
				"down": {"uv": [14, 5, 14.125, 5.125], "texture": "#6"}
			}
		},
		{
			"from": [7.66074, 10.22358, 7.2699],
			"to": [8.3806, 10.34456, 7.8198],
			"rotation": {"angle": 0, "axis": "x", "origin": [8.01609, 10.17876, 6.18325]},
			"faces": {
				"north": {"uv": [14.25, 6.5, 14.375, 6.625], "texture": "#6"},
				"east": {"uv": [14.25, 6.5, 14.375, 6.625], "texture": "#6"},
				"south": {"uv": [14.25, 6.5, 14.375, 6.625], "texture": "#6"},
				"west": {"uv": [14.25, 6.5, 14.375, 6.625], "texture": "#6"},
				"up": {"uv": [14.25, 6.5, 14.375, 6.625], "texture": "#6"},
				"down": {"uv": [14.25, 6.5, 14.375, 6.625], "texture": "#6"}
			}
		},
		{
			"from": [7.64572, 9.98514, 6.77499],
			"to": [8.13859, 10.15011, 6.93996],
			"rotation": {"angle": 0, "axis": "x", "origin": [8.01609, 10.17876, 6.18325]},
			"faces": {
				"north": {"uv": [14.25, 6.5, 14.375, 6.625], "texture": "#6"},
				"east": {"uv": [14.25, 6.5, 14.375, 6.625], "texture": "#6"},
				"south": {"uv": [14.25, 6.5, 14.375, 6.625], "texture": "#6"},
				"west": {"uv": [14.25, 6.5, 14.375, 6.625], "texture": "#6"},
				"up": {"uv": [14.25, 6.5, 14.375, 6.625], "texture": "#6"},
				"down": {"uv": [14.25, 6.5, 14.375, 6.625], "texture": "#6"}
			}
		},
		{
			"from": [7.64572, 10.03463, 6.91796],
			"to": [8.13309, 10.11162, 7.10493],
			"rotation": {"angle": 0, "axis": "x", "origin": [8.01609, 10.17876, 6.18325]},
			"faces": {
				"north": {"uv": [14.25, 6.5, 14.375, 6.625], "texture": "#6"},
				"east": {"uv": [14.25, 6.5, 14.375, 6.625], "texture": "#6"},
				"south": {"uv": [14.25, 6.5, 14.375, 6.625], "texture": "#6"},
				"west": {"uv": [14.25, 6.5, 14.375, 6.625], "texture": "#6"},
				"up": {"uv": [14.25, 6.5, 14.375, 6.625], "texture": "#6"},
				"down": {"uv": [14.25, 6.5, 14.375, 6.625], "texture": "#6"}
			}
		},
		{
			"from": [7.69073, 9.51804, 7.5891],
			"to": [8.35061, 10.35994, 7.91904],
			"rotation": {"angle": -22.5, "axis": "x", "origin": [8.01609, 10.17876, 6.18325]},
			"faces": {
				"north": {"uv": [14, 5, 14.125, 5.125], "texture": "#6"},
				"east": {"uv": [14, 5, 14.125, 5.125], "texture": "#6"},
				"south": {"uv": [14, 5, 14.125, 5.125], "texture": "#6"},
				"west": {"uv": [14, 5, 14.125, 5.125], "texture": "#6"},
				"up": {"uv": [14, 5, 14.125, 5.125], "texture": "#6"},
				"down": {"uv": [14, 5, 14.125, 5.125], "texture": "#6"}
			}
		},
		{
			"from": [7.86573, 10.76367, 7.41193],
			"to": [8.17561, 11.55557, 7.69187],
			"rotation": {"angle": 22.5, "axis": "x", "origin": [8.01609, 10.17876, 6.18325]},
			"faces": {
				"north": {"uv": [14.25, 6.5, 14.375, 6.625], "texture": "#6"},
				"east": {"uv": [14.25, 6.5, 14.375, 6.625], "texture": "#6"},
				"south": {"uv": [14.25, 6.5, 14.375, 6.625], "texture": "#6"},
				"west": {"uv": [14.25, 6.5, 14.375, 6.625], "texture": "#6"},
				"up": {"uv": [14.25, 6.5, 14.375, 6.625], "texture": "#6"},
				"down": {"uv": [14.25, 6.5, 14.375, 6.625], "texture": "#6"}
			}
		},
		{
			"from": [8.09765, 10.96946, 7.45687],
			"to": [8.17464, 11.13443, 7.78681],
			"rotation": {"angle": 0, "axis": "x", "origin": [8.01609, 10.17876, 6.18325]},
			"faces": {
				"north": {"uv": [14.25, 6.5, 14.375, 6.625], "texture": "#6"},
				"east": {"uv": [14.25, 6.5, 14.375, 6.625], "texture": "#6"},
				"south": {"uv": [14.25, 6.5, 14.375, 6.625], "texture": "#6"},
				"west": {"uv": [14.25, 6.5, 14.375, 6.625], "texture": "#6"},
				"up": {"uv": [14.25, 6.5, 14.375, 6.625], "texture": "#6"},
				"down": {"uv": [14.25, 6.5, 14.375, 6.625], "texture": "#6"}
			}
		},
		{
			"from": [8.16809, 10.94616, 7.45687],
			"to": [8.21209, 11.13313, 7.78681],
			"rotation": {"angle": 22.5, "axis": "z", "origin": [8.19009, 11.03964, 7.62184]},
			"faces": {
				"north": {"uv": [14.25, 6.5, 14.375, 6.625], "texture": "#6"},
				"east": {"uv": [14.25, 6.5, 14.375, 6.625], "texture": "#6"},
				"south": {"uv": [14.25, 6.5, 14.375, 6.625], "texture": "#6"},
				"west": {"uv": [14.25, 6.5, 14.375, 6.625], "texture": "#6"},
				"up": {"uv": [14.25, 6.5, 14.375, 6.625], "texture": "#6"},
				"down": {"uv": [14.25, 6.5, 14.375, 6.625], "texture": "#6"}
			}
		},
		{
			"from": [7.87769, 10.96946, 7.45687],
			"to": [7.95468, 11.13443, 7.78681],
			"rotation": {"angle": 0, "axis": "x", "origin": [8.01609, 10.17876, 6.18325]},
			"faces": {
				"north": {"uv": [14.25, 6.5, 14.375, 6.625], "texture": "#6"},
				"east": {"uv": [14.25, 6.5, 14.375, 6.625], "texture": "#6"},
				"south": {"uv": [14.25, 6.5, 14.375, 6.625], "texture": "#6"},
				"west": {"uv": [14.25, 6.5, 14.375, 6.625], "texture": "#6"},
				"up": {"uv": [14.25, 6.5, 14.375, 6.625], "texture": "#6"},
				"down": {"uv": [14.25, 6.5, 14.375, 6.625], "texture": "#6"}
			}
		},
		{
			"from": [7.94368, 11.02445, 7.45687],
			"to": [8.10865, 11.07944, 7.78681],
			"rotation": {"angle": 0, "axis": "x", "origin": [8.01609, 10.17876, 6.18325]},
			"faces": {
				"north": {"uv": [14.25, 6.5, 14.375, 6.625], "texture": "#6"},
				"east": {"uv": [14.25, 6.5, 14.375, 6.625], "texture": "#6"},
				"south": {"uv": [14.25, 6.5, 14.375, 6.625], "texture": "#6"},
				"west": {"uv": [14.25, 6.5, 14.375, 6.625], "texture": "#6"},
				"up": {"uv": [14.25, 6.5, 14.375, 6.625], "texture": "#6"},
				"down": {"uv": [14.25, 6.5, 14.375, 6.625], "texture": "#6"}
			}
		},
		{
			"from": [7.84024, 10.94616, 7.45687],
			"to": [7.88423, 11.13313, 7.78681],
			"rotation": {"angle": -22.5, "axis": "z", "origin": [7.86224, 11.03964, 7.62184]},
			"faces": {
				"north": {"uv": [14.25, 6.5, 14.375, 6.625], "texture": "#6"},
				"east": {"uv": [14.25, 6.5, 14.375, 6.625], "texture": "#6"},
				"south": {"uv": [14.25, 6.5, 14.375, 6.625], "texture": "#6"},
				"west": {"uv": [14.25, 6.5, 14.375, 6.625], "texture": "#6"},
				"up": {"uv": [14.25, 6.5, 14.375, 6.625], "texture": "#6"},
				"down": {"uv": [14.25, 6.5, 14.375, 6.625], "texture": "#6"}
			}
		},
		{
			"from": [7.98767, 10.99446, 4.38842],
			"to": [8.03717, 11.15943, 4.44341],
			"rotation": {"angle": 0, "axis": "x", "origin": [8.01609, 10.17876, 6.18325]},
			"faces": {
				"north": {"uv": [14.25, 6.5, 14.375, 6.625], "texture": "#6"},
				"east": {"uv": [14.25, 6.5, 14.375, 6.625], "texture": "#6"},
				"south": {"uv": [14.25, 6.5, 14.375, 6.625], "texture": "#6"},
				"west": {"uv": [14.25, 6.5, 14.375, 6.625], "texture": "#6"},
				"up": {"uv": [14.25, 6.5, 14.375, 6.625], "texture": "#6"},
				"down": {"uv": [14.25, 6.5, 14.375, 6.625], "texture": "#6"}
			}
		},
		{
			"from": [7.98767, 11.60666, 4.62538],
			"to": [8.03717, 11.77163, 4.90033],
			"rotation": {"angle": -22.5, "axis": "x", "origin": [8.01609, 10.17876, 6.18325]},
			"faces": {
				"north": {"uv": [14.25, 6.5, 14.375, 6.625], "texture": "#6"},
				"east": {"uv": [14.25, 6.5, 14.375, 6.625], "texture": "#6"},
				"south": {"uv": [14.25, 6.5, 14.375, 6.625], "texture": "#6"},
				"west": {"uv": [14.25, 6.5, 14.375, 6.625], "texture": "#6"},
				"up": {"uv": [14.25, 6.5, 14.375, 6.625], "texture": "#6"},
				"down": {"uv": [14.25, 6.5, 14.375, 6.625], "texture": "#6"}
			}
		},
		{
			"from": [7.68963, 11.51568, 6.42312],
			"to": [7.72563, 11.62566, 7.083],
			"rotation": {"angle": 45, "axis": "x", "origin": [8.01609, 10.17876, 6.18325]},
			"faces": {
				"north": {"uv": [14.25, 6.5, 14.375, 6.625], "rotation": 180, "texture": "#6"},
				"east": {"uv": [14.25, 6.5, 14.375, 6.625], "rotation": 90, "texture": "#6"},
				"south": {"uv": [14.25, 6.5, 14.375, 6.625], "texture": "#6"},
				"west": {"uv": [14.25, 6.5, 14.375, 6.625], "rotation": 270, "texture": "#6"},
				"up": {"uv": [14.25, 6.5, 14.375, 6.625], "texture": "#6"},
				"down": {"uv": [14.25, 6.5, 14.375, 6.625], "rotation": 180, "texture": "#6"}
			}
		},
		{
			"from": [7.68973, 10.8558, 5.76324],
			"to": [7.72573, 10.96578, 6.42312],
			"rotation": {"angle": 45, "axis": "x", "origin": [8.01609, 10.17876, 6.18325]},
			"faces": {
				"north": {"uv": [14.25, 6.5, 14.375, 6.625], "rotation": 180, "texture": "#6"},
				"east": {"uv": [14.25, 6.5, 14.375, 6.625], "rotation": 90, "texture": "#6"},
				"south": {"uv": [14.25, 6.5, 14.375, 6.625], "texture": "#6"},
				"west": {"uv": [14.25, 6.5, 14.375, 6.625], "rotation": 270, "texture": "#6"},
				"up": {"uv": [14.25, 6.5, 14.375, 6.625], "texture": "#6"},
				"down": {"uv": [14.25, 6.5, 14.375, 6.625], "rotation": 180, "texture": "#6"}
			}
		},
		{
			"from": [8.31571, 11.07576, 5.9832],
			"to": [8.35171, 11.18574, 6.64308],
			"rotation": {"angle": 45, "axis": "x", "origin": [8.01609, 10.17876, 6.18325]},
			"faces": {
				"north": {"uv": [14.25, 6.5, 14.375, 6.625], "rotation": 180, "texture": "#6"},
				"east": {"uv": [14.25, 6.5, 14.375, 6.625], "rotation": 90, "texture": "#6"},
				"south": {"uv": [14.25, 6.5, 14.375, 6.625], "texture": "#6"},
				"west": {"uv": [14.25, 6.5, 14.375, 6.625], "rotation": 270, "texture": "#6"},
				"up": {"uv": [14.25, 6.5, 14.375, 6.625], "texture": "#6"},
				"down": {"uv": [14.25, 6.5, 14.375, 6.625], "rotation": 180, "texture": "#6"}
			}
		},
		{
			"from": [8.31571, 10.8558, 6.03824],
			"to": [8.35171, 10.96578, 6.42312],
			"rotation": {"angle": 45, "axis": "x", "origin": [8.01609, 10.17876, 6.18325]},
			"faces": {
				"north": {"uv": [14.25, 6.5, 14.375, 6.625], "rotation": 180, "texture": "#6"},
				"east": {"uv": [14.25, 6.5, 14.375, 6.625], "rotation": 90, "texture": "#6"},
				"south": {"uv": [14.25, 6.5, 14.375, 6.625], "texture": "#6"},
				"west": {"uv": [14.25, 6.5, 14.375, 6.625], "rotation": 270, "texture": "#6"},
				"up": {"uv": [14.25, 6.5, 14.375, 6.625], "texture": "#6"},
				"down": {"uv": [14.25, 6.5, 14.375, 6.625], "rotation": 180, "texture": "#6"}
			}
		},
		{
			"from": [8.31571, 11.29572, 6.20316],
			"to": [8.35171, 11.4057, 6.86304],
			"rotation": {"angle": 45, "axis": "x", "origin": [8.01609, 10.17876, 6.18325]},
			"faces": {
				"north": {"uv": [14.25, 6.5, 14.375, 6.625], "rotation": 180, "texture": "#6"},
				"east": {"uv": [14.25, 6.5, 14.375, 6.625], "rotation": 90, "texture": "#6"},
				"south": {"uv": [14.25, 6.5, 14.375, 6.625], "texture": "#6"},
				"west": {"uv": [14.25, 6.5, 14.375, 6.625], "rotation": 270, "texture": "#6"},
				"up": {"uv": [14.25, 6.5, 14.375, 6.625], "texture": "#6"},
				"down": {"uv": [14.25, 6.5, 14.375, 6.625], "rotation": 180, "texture": "#6"}
			}
		},
		{
			"from": [8.31571, 11.51568, 6.42312],
			"to": [8.35171, 11.62566, 7.083],
			"rotation": {"angle": 45, "axis": "x", "origin": [8.01609, 10.17876, 6.18325]},
			"faces": {
				"north": {"uv": [14.25, 6.5, 14.375, 6.625], "rotation": 180, "texture": "#6"},
				"east": {"uv": [14.25, 6.5, 14.375, 6.625], "rotation": 90, "texture": "#6"},
				"south": {"uv": [14.25, 6.5, 14.375, 6.625], "texture": "#6"},
				"west": {"uv": [14.25, 6.5, 14.375, 6.625], "rotation": 270, "texture": "#6"},
				"up": {"uv": [14.25, 6.5, 14.375, 6.625], "texture": "#6"},
				"down": {"uv": [14.25, 6.5, 14.375, 6.625], "rotation": 180, "texture": "#6"}
			}
		},
		{
			"from": [7.68963, 11.07576, 5.9832],
			"to": [7.72563, 11.18574, 6.64308],
			"rotation": {"angle": 45, "axis": "x", "origin": [8.01609, 10.17876, 6.18325]},
			"faces": {
				"north": {"uv": [14.25, 6.5, 14.375, 6.625], "rotation": 180, "texture": "#6"},
				"east": {"uv": [14.25, 6.5, 14.375, 6.625], "rotation": 90, "texture": "#6"},
				"south": {"uv": [14.25, 6.5, 14.375, 6.625], "texture": "#6"},
				"west": {"uv": [14.25, 6.5, 14.375, 6.625], "rotation": 270, "texture": "#6"},
				"up": {"uv": [14.25, 6.5, 14.375, 6.625], "texture": "#6"},
				"down": {"uv": [14.25, 6.5, 14.375, 6.625], "rotation": 180, "texture": "#6"}
			}
		},
		{
			"from": [7.68963, 11.29572, 6.20316],
			"to": [7.72563, 11.4057, 6.86304],
			"rotation": {"angle": 45, "axis": "x", "origin": [8.01609, 10.17876, 6.18325]},
			"faces": {
				"north": {"uv": [14.25, 6.5, 14.375, 6.625], "rotation": 180, "texture": "#6"},
				"east": {"uv": [14.25, 6.5, 14.375, 6.625], "rotation": 90, "texture": "#6"},
				"south": {"uv": [14.25, 6.5, 14.375, 6.625], "texture": "#6"},
				"west": {"uv": [14.25, 6.5, 14.375, 6.625], "rotation": 270, "texture": "#6"},
				"up": {"uv": [14.25, 6.5, 14.375, 6.625], "texture": "#6"},
				"down": {"uv": [14.25, 6.5, 14.375, 6.625], "rotation": 180, "texture": "#6"}
			}
		},
		{
			"from": [7.71595, 9.4066, 6.9859],
			"to": [8.32473, 9.84652, 7.86574],
			"rotation": {"angle": -22.5, "axis": "x", "origin": [8.01609, 10.17876, 6.18325]},
			"faces": {
				"north": {"uv": [2.25, 3.625, 2.375, 3.75], "texture": "#6"},
				"east": {"uv": [2.25, 3.625, 2.375, 3.75], "texture": "#6"},
				"south": {"uv": [2.25, 3.625, 2.375, 3.75], "texture": "#6"},
				"west": {"uv": [2.25, 3.625, 2.375, 3.75], "texture": "#6"},
				"up": {"uv": [2.25, 3.625, 2.375, 3.75], "texture": "#6"},
				"down": {"uv": [2.25, 3.625, 2.375, 3.75], "texture": "#6"}
			}
		},
		{
			"from": [7.71595, 9.67415, 6.97764],
			"to": [8.32473, 10.11407, 7.85748],
			"rotation": {"angle": -45, "axis": "x", "origin": [8.02034, 9.89411, 7.41756]},
			"faces": {
				"north": {"uv": [2.25, 3.625, 2.375, 3.75], "texture": "#6"},
				"east": {"uv": [2.25, 3.625, 2.375, 3.75], "texture": "#6"},
				"south": {"uv": [2.25, 3.625, 2.375, 3.75], "texture": "#6"},
				"west": {"uv": [2.25, 3.625, 2.375, 3.75], "texture": "#6"},
				"up": {"uv": [2.25, 3.625, 2.375, 3.75], "texture": "#6"},
				"down": {"uv": [2.25, 3.625, 2.375, 3.75], "texture": "#6"}
			}
		},
		{
			"from": [7.71705, 9.57441, 6.57024],
			"to": [8.32583, 10.12431, 7.43002],
			"rotation": {"angle": 22.5, "axis": "x", "origin": [8.02144, 9.84936, 7.07513]},
			"faces": {
				"north": {"uv": [2.25, 3.625, 2.375, 3.75], "texture": "#6"},
				"east": {"uv": [2.25, 3.625, 2.375, 3.75], "texture": "#6"},
				"south": {"uv": [2.25, 3.625, 2.375, 3.75], "texture": "#6"},
				"west": {"uv": [2.25, 3.625, 2.375, 3.75], "texture": "#6"},
				"up": {"uv": [2.25, 3.625, 2.375, 3.75], "texture": "#6"},
				"down": {"uv": [2.25, 3.625, 2.375, 3.75], "texture": "#6"}
			}
		},
		{
			"from": [7.71705, 9.64725, 7.30475],
			"to": [8.32583, 10.07215, 7.68953],
			"rotation": {"angle": 0, "axis": "x", "origin": [8.02144, 9.7972, 7.20964]},
			"faces": {
				"north": {"uv": [2.25, 3.625, 2.375, 3.75], "texture": "#6"},
				"east": {"uv": [2.25, 3.625, 2.375, 3.75], "texture": "#6"},
				"south": {"uv": [2.25, 3.625, 2.375, 3.75], "texture": "#6"},
				"west": {"uv": [2.25, 3.625, 2.375, 3.75], "texture": "#6"},
				"up": {"uv": [2.25, 3.625, 2.375, 3.75], "texture": "#6"},
				"down": {"uv": [2.25, 3.625, 2.375, 3.75], "texture": "#6"}
			}
		},
		{
			"from": [7.93268, 9.7101, 6.07423],
			"to": [8.09765, 10.01504, 6.31415],
			"rotation": {"angle": -22.5, "axis": "x", "origin": [8.01609, 10.17876, 6.18325]},
			"faces": {
				"north": {"uv": [14.5, 6.5, 14.625, 6.625], "texture": "#6"},
				"east": {"uv": [14.5, 6.5, 14.625, 6.625], "texture": "#6"},
				"south": {"uv": [14.5, 6.5, 14.625, 6.625], "texture": "#6"},
				"west": {"uv": [14.5, 6.5, 14.625, 6.625], "texture": "#6"},
				"up": {"uv": [14.5, 6.5, 14.625, 6.625], "texture": "#6"},
				"down": {"uv": [14.5, 6.5, 14.625, 6.625], "texture": "#6"}
			}
		},
		{
			"from": [7.93268, 9.81335, 6.2444],
			"to": [8.09765, 10.11829, 6.48432],
			"rotation": {"angle": 0, "axis": "x", "origin": [8.01517, 9.96582, 6.36436]},
			"faces": {
				"north": {"uv": [14.5, 6.5, 14.625, 6.625], "texture": "#6"},
				"east": {"uv": [14.5, 6.5, 14.625, 6.625], "texture": "#6"},
				"south": {"uv": [14.5, 6.5, 14.625, 6.625], "texture": "#6"},
				"west": {"uv": [14.5, 6.5, 14.625, 6.625], "texture": "#6"},
				"up": {"uv": [14.5, 6.5, 14.625, 6.625], "texture": "#6"},
				"down": {"uv": [14.5, 6.5, 14.625, 6.625], "texture": "#6"}
			}
		},
		{
			"from": [7.93268, 9.62852, 6.24636],
			"to": [8.09765, 9.75846, 6.28628],
			"rotation": {"angle": 0, "axis": "x", "origin": [8.01517, 9.90599, 6.41632]},
			"faces": {
				"north": {"uv": [14.5, 6.5, 14.625, 6.625], "texture": "#6"},
				"east": {"uv": [14.5, 6.5, 14.625, 6.625], "texture": "#6"},
				"south": {"uv": [14.5, 6.5, 14.625, 6.625], "texture": "#6"},
				"west": {"uv": [14.5, 6.5, 14.625, 6.625], "texture": "#6"},
				"up": {"uv": [14.5, 6.5, 14.625, 6.625], "texture": "#6"},
				"down": {"uv": [14.5, 6.5, 14.625, 6.625], "texture": "#6"}
			}
		},
		{
			"from": [7.93268, 9.70845, 6.48713],
			"to": [8.09765, 9.92841, 6.59711],
			"rotation": {"angle": 22.5, "axis": "x", "origin": [8.01609, 10.17876, 6.18325]},
			"faces": {
				"north": {"uv": [14.5, 6.5, 14.625, 6.625], "rotation": 180, "texture": "#6"},
				"east": {"uv": [14.5, 6.5, 14.625, 6.625], "rotation": 270, "texture": "#6"},
				"south": {"uv": [14.5, 6.5, 14.625, 6.625], "texture": "#6"},
				"west": {"uv": [14.5, 6.5, 14.625, 6.625], "rotation": 90, "texture": "#6"},
				"up": {"uv": [14.5, 6.5, 14.625, 6.625], "rotation": 180, "texture": "#6"},
				"down": {"uv": [14.5, 6.5, 14.625, 6.625], "texture": "#6"}
			}
		},
		{
			"from": [7.93268, 9.73766, 6.63561],
			"to": [8.09765, 9.90263, 6.74559],
			"rotation": {"angle": 45, "axis": "x", "origin": [8.01609, 10.17876, 6.18325]},
			"faces": {
				"north": {"uv": [14.5, 6.5, 14.625, 6.625], "texture": "#6"},
				"east": {"uv": [14.5, 6.5, 14.625, 6.625], "texture": "#6"},
				"south": {"uv": [14.5, 6.5, 14.625, 6.625], "texture": "#6"},
				"west": {"uv": [14.5, 6.5, 14.625, 6.625], "texture": "#6"},
				"up": {"uv": [14.5, 6.5, 14.625, 6.625], "texture": "#6"},
				"down": {"uv": [14.5, 6.5, 14.625, 6.625], "texture": "#6"}
			}
		},
		{
			"from": [7.93268, 9.7023, 6.65025],
			"to": [8.09765, 9.76727, 6.71023],
			"rotation": {"angle": 45, "axis": "x", "origin": [8.01609, 10.17876, 6.18325]},
			"faces": {
				"north": {"uv": [14.5, 6.5, 14.625, 6.625], "texture": "#6"},
				"east": {"uv": [14.5, 6.5, 14.625, 6.625], "texture": "#6"},
				"south": {"uv": [14.5, 6.5, 14.625, 6.625], "texture": "#6"},
				"west": {"uv": [14.5, 6.5, 14.625, 6.625], "texture": "#6"},
				"up": {"uv": [14.5, 6.5, 14.625, 6.625], "texture": "#6"},
				"down": {"uv": [14.5, 6.5, 14.625, 6.625], "texture": "#6"}
			}
		},
		{
			"from": [7.93268, 9.63439, 6.44325],
			"to": [8.09765, 9.82436, 6.55323],
			"rotation": {"angle": 22.5, "axis": "x", "origin": [8.01609, 10.17876, 6.18325]},
			"faces": {
				"north": {"uv": [14.5, 6.5, 14.625, 6.625], "texture": "#6"},
				"east": {"uv": [14.5, 6.5, 14.625, 6.625], "texture": "#6"},
				"south": {"uv": [14.5, 6.5, 14.625, 6.625], "texture": "#6"},
				"west": {"uv": [14.5, 6.5, 14.625, 6.625], "texture": "#6"},
				"up": {"uv": [14.5, 6.5, 14.625, 6.625], "texture": "#6"},
				"down": {"uv": [14.5, 6.5, 14.625, 6.625], "texture": "#6"}
			}
		},
		{
			"from": [7.93268, 9.67544, 6.62116],
			"to": [8.09765, 9.84041, 6.67615],
			"rotation": {"angle": 45, "axis": "x", "origin": [8.01609, 10.17876, 6.18325]},
			"faces": {
				"north": {"uv": [14.5, 6.5, 14.625, 6.625], "texture": "#6"},
				"east": {"uv": [14.5, 6.5, 14.625, 6.625], "texture": "#6"},
				"south": {"uv": [14.5, 6.5, 14.625, 6.625], "texture": "#6"},
				"west": {"uv": [14.5, 6.5, 14.625, 6.625], "texture": "#6"},
				"up": {"uv": [14.5, 6.5, 14.625, 6.625], "texture": "#6"},
				"down": {"uv": [14.5, 6.5, 14.625, 6.625], "texture": "#6"}
			}
		},
		{
			"from": [7.93268, 9.46922, 6.13699],
			"to": [8.09765, 9.51321, 6.26897],
			"rotation": {"angle": 0, "axis": "x", "origin": [8.01609, 10.17876, 6.18325]},
			"faces": {
				"north": {"uv": [14.5, 6.5, 14.625, 6.625], "rotation": 180, "texture": "#6"},
				"east": {"uv": [14.5, 6.5, 14.625, 6.625], "rotation": 90, "texture": "#6"},
				"south": {"uv": [14.5, 6.5, 14.625, 6.625], "texture": "#6"},
				"west": {"uv": [14.5, 6.5, 14.625, 6.625], "rotation": 270, "texture": "#6"},
				"up": {"uv": [14.5, 6.5, 14.625, 6.625], "texture": "#6"},
				"down": {"uv": [14.5, 6.5, 14.625, 6.625], "rotation": 180, "texture": "#6"}
			}
		},
		{
			"from": [7.71595, 8.78865, 6.44302],
			"to": [8.32583, 9.24359, 7.46782],
			"rotation": {"angle": -22.5, "axis": "x", "origin": [8.01631, 9.94023, 6.24981]},
			"faces": {
				"north": {"uv": [2.25, 3.625, 2.375, 3.75], "texture": "#6"},
				"east": {"uv": [2.25, 3.625, 2.375, 3.75], "texture": "#6"},
				"south": {"uv": [2.25, 3.625, 2.375, 3.75], "texture": "#6"},
				"west": {"uv": [2.25, 3.625, 2.375, 3.75], "texture": "#6"},
				"up": {"uv": [2.25, 3.625, 2.375, 3.75], "texture": "#6"},
				"down": {"uv": [2.25, 3.625, 2.375, 3.75], "texture": "#6"}
			}
		},
		{
			"from": [7.71595, 9.57009, 5.85651],
			"to": [8.32583, 9.73506, 6.02148],
			"rotation": {"angle": 45, "axis": "x", "origin": [8.01609, 10.17876, 6.18325]},
			"faces": {
				"north": {"uv": [2.25, 3.625, 2.375, 3.75], "texture": "#6"},
				"east": {"uv": [2.25, 3.625, 2.375, 3.75], "texture": "#6"},
				"south": {"uv": [2.25, 3.625, 2.375, 3.75], "texture": "#6"},
				"west": {"uv": [2.25, 3.625, 2.375, 3.75], "texture": "#6"},
				"up": {"uv": [2.25, 3.625, 2.375, 3.75], "texture": "#6"},
				"down": {"uv": [2.25, 3.625, 2.375, 3.75], "texture": "#6"}
			}
		},
		{
			"from": [7.82571, 9.09874, 6.3226],
			"to": [8.21563, 9.26371, 6.48757],
			"rotation": {"angle": 45, "axis": "x", "origin": [8.01609, 10.17876, 6.18325]},
			"faces": {
				"north": {"uv": [2.25, 3.625, 2.375, 3.75], "rotation": 180, "texture": "#6"},
				"east": {"uv": [2.25, 3.625, 2.375, 3.75], "rotation": 90, "texture": "#6"},
				"south": {"uv": [2.25, 3.625, 2.375, 3.75], "texture": "#6"},
				"west": {"uv": [2.25, 3.625, 2.375, 3.75], "rotation": 270, "texture": "#6"},
				"up": {"uv": [2.25, 3.625, 2.375, 3.75], "texture": "#6"},
				"down": {"uv": [2.25, 3.625, 2.375, 3.75], "rotation": 180, "texture": "#6"}
			}
		},
		{
			"from": [7.82571, 9.31976, 5.58171],
			"to": [8.21563, 9.97964, 5.69169],
			"rotation": {"angle": 0, "axis": "x", "origin": [8.01609, 10.17876, 6.18325]},
			"faces": {
				"north": {"uv": [2.25, 3.625, 2.375, 3.75], "texture": "#6"},
				"east": {"uv": [2.25, 3.625, 2.375, 3.75], "texture": "#6"},
				"south": {"uv": [2.25, 3.625, 2.375, 3.75], "texture": "#6"},
				"west": {"uv": [2.25, 3.625, 2.375, 3.75], "texture": "#6"},
				"up": {"uv": [2.25, 3.625, 2.375, 3.75], "texture": "#6"},
				"down": {"uv": [2.25, 3.625, 2.375, 3.75], "texture": "#6"}
			}
		},
		{
			"from": [7.82571, 9.24981, 5.60614],
			"to": [8.21563, 9.35979, 6.43099],
			"rotation": {"angle": 0, "axis": "x", "origin": [8.01609, 10.17876, 6.18325]},
			"faces": {
				"north": {"uv": [2.25, 3.625, 2.375, 3.75], "rotation": 180, "texture": "#6"},
				"east": {"uv": [2.25, 3.625, 2.375, 3.75], "rotation": 90, "texture": "#6"},
				"south": {"uv": [2.25, 3.625, 2.375, 3.75], "texture": "#6"},
				"west": {"uv": [2.25, 3.625, 2.375, 3.75], "rotation": 270, "texture": "#6"},
				"up": {"uv": [2.25, 3.625, 2.375, 3.75], "texture": "#6"},
				"down": {"uv": [2.25, 3.625, 2.375, 3.75], "rotation": 180, "texture": "#6"}
			}
		},
		{
			"from": [7.82571, 9.22572, 6.05664],
			"to": [8.21563, 9.3357, 6.88149],
			"rotation": {"angle": -22.5, "axis": "x", "origin": [8.01609, 10.17876, 6.18325]},
			"faces": {
				"north": {"uv": [2.25, 3.625, 2.375, 3.75], "rotation": 180, "texture": "#6"},
				"east": {"uv": [2.25, 3.625, 2.375, 3.75], "rotation": 90, "texture": "#6"},
				"south": {"uv": [2.25, 3.625, 2.375, 3.75], "texture": "#6"},
				"west": {"uv": [2.25, 3.625, 2.375, 3.75], "rotation": 270, "texture": "#6"},
				"up": {"uv": [2.25, 3.625, 2.375, 3.75], "texture": "#6"},
				"down": {"uv": [2.25, 3.625, 2.375, 3.75], "rotation": 180, "texture": "#6"}
			}
		},
		{
			"from": [7.71595, 9.21653, 6.33404],
			"to": [8.32583, 9.69143, 7.0289],
			"rotation": {"angle": -22.5, "axis": "x", "origin": [8.01609, 10.17876, 6.18325]},
			"faces": {
				"north": {"uv": [2.25, 3.625, 2.375, 3.75], "rotation": 180, "texture": "#6"},
				"east": {"uv": [2.25, 3.625, 2.375, 3.75], "rotation": 90, "texture": "#6"},
				"south": {"uv": [2.25, 3.625, 2.375, 3.75], "texture": "#6"},
				"west": {"uv": [2.25, 3.625, 2.375, 3.75], "rotation": 270, "texture": "#6"},
				"up": {"uv": [2.25, 3.625, 2.375, 3.75], "texture": "#6"},
				"down": {"uv": [2.25, 3.625, 2.375, 3.75], "rotation": 180, "texture": "#6"}
			}
		},
		{
			"from": [7.71595, 8.43924, 6.93699],
			"to": [8.32583, 8.92916, 7.37691],
			"rotation": {"angle": -22.5, "axis": "x", "origin": [8.01631, 10.16399, 6.18049]},
			"faces": {
				"north": {"uv": [2.25, 3.625, 2.375, 3.75], "texture": "#6"},
				"east": {"uv": [2.25, 3.625, 2.375, 3.75], "texture": "#6"},
				"south": {"uv": [2.25, 3.625, 2.375, 3.75], "texture": "#6"},
				"west": {"uv": [2.25, 3.625, 2.375, 3.75], "texture": "#6"},
				"up": {"uv": [2.25, 3.625, 2.375, 3.75], "texture": "#6"},
				"down": {"uv": [2.25, 3.625, 2.375, 3.75], "texture": "#6"}
			}
		},
		{
			"from": [7.71573, 8.32042, 6.83896],
			"to": [8.32561, 9.05026, 7.27888],
			"rotation": {"angle": 0, "axis": "x", "origin": [8.01609, 10.20033, 6.41895]},
			"faces": {
				"north": {"uv": [2.25, 3.625, 2.375, 3.75], "texture": "#6"},
				"east": {"uv": [2.25, 3.625, 2.375, 3.75], "texture": "#6"},
				"south": {"uv": [2.25, 3.625, 2.375, 3.75], "texture": "#6"},
				"west": {"uv": [2.25, 3.625, 2.375, 3.75], "texture": "#6"},
				"up": {"uv": [2.25, 3.625, 2.375, 3.75], "texture": "#6"},
				"down": {"uv": [2.25, 3.625, 2.375, 3.75], "texture": "#6"}
			}
		},
		{
			"from": [7.71595, 8.58846, 7.50596],
			"to": [8.32583, 9.02838, 7.94588],
			"rotation": {"angle": 0, "axis": "x", "origin": [8.01631, 10.16507, 6.16356]},
			"faces": {
				"north": {"uv": [2.25, 3.625, 2.375, 3.75], "texture": "#6"},
				"east": {"uv": [2.25, 3.625, 2.375, 3.75], "texture": "#6"},
				"south": {"uv": [2.25, 3.625, 2.375, 3.75], "texture": "#6"},
				"west": {"uv": [2.25, 3.625, 2.375, 3.75], "texture": "#6"},
				"up": {"uv": [2.25, 3.625, 2.375, 3.75], "texture": "#6"},
				"down": {"uv": [2.25, 3.625, 2.375, 3.75], "texture": "#6"}
			}
		},
		{
			"from": [7.71573, 8.20377, 7.5605],
			"to": [8.32561, 8.64369, 7.95042],
			"rotation": {"angle": 0, "axis": "x", "origin": [8.01609, 10.17876, 6.18325]},
			"faces": {
				"north": {"uv": [2.25, 3.625, 2.375, 3.75], "texture": "#6"},
				"east": {"uv": [2.25, 3.625, 2.375, 3.75], "texture": "#6"},
				"south": {"uv": [2.25, 3.625, 2.375, 3.75], "texture": "#6"},
				"west": {"uv": [2.25, 3.625, 2.375, 3.75], "texture": "#6"},
				"up": {"uv": [2.25, 3.625, 2.375, 3.75], "texture": "#6"},
				"down": {"uv": [2.25, 3.625, 2.375, 3.75], "texture": "#6"}
			}
		},
		{
			"from": [7.71573, 8.20377, 6.95561],
			"to": [8.32561, 9.45357, 7.5605],
			"rotation": {"angle": 0, "axis": "x", "origin": [8.01609, 10.17876, 6.18325]},
			"faces": {
				"north": {"uv": [2.25, 3.625, 2.375, 3.75], "texture": "#6"},
				"east": {"uv": [2.25, 3.625, 2.375, 3.75], "texture": "#6"},
				"south": {"uv": [2.25, 3.625, 2.375, 3.75], "texture": "#6"},
				"west": {"uv": [2.25, 3.625, 2.375, 3.75], "texture": "#6"},
				"up": {"uv": [2.25, 3.625, 2.375, 3.75], "texture": "#6"},
				"down": {"uv": [2.25, 3.625, 2.375, 3.75], "texture": "#6"}
			}
		},
		{
			"from": [7.71573, 9.33569, 7.95829],
			"to": [8.32561, 9.50066, 8.12326],
			"rotation": {"angle": 45, "axis": "x", "origin": [8.01609, 10.17921, 6.17308]},
			"faces": {
				"north": {"uv": [2.25, 3.625, 2.375, 3.75], "texture": "#6"},
				"east": {"uv": [2.25, 3.625, 2.375, 3.75], "texture": "#6"},
				"south": {"uv": [2.25, 3.625, 2.375, 3.75], "texture": "#6"},
				"west": {"uv": [2.25, 3.625, 2.375, 3.75], "texture": "#6"},
				"up": {"uv": [2.25, 3.625, 2.375, 3.75], "texture": "#6"},
				"down": {"uv": [2.25, 3.625, 2.375, 3.75], "texture": "#6"}
			}
		},
		{
			"from": [7.71595, 9.97964, 5.52834],
			"to": [8.32473, 10.28758, 7.02794],
			"rotation": {"angle": 0, "axis": "x", "origin": [8.01609, 10.17876, 6.18325]},
			"faces": {
				"north": {"uv": [2.25, 3.625, 2.375, 3.75], "texture": "#6"},
				"east": {"uv": [2.25, 3.625, 2.375, 3.75], "texture": "#6"},
				"south": {"uv": [2.25, 3.625, 2.375, 3.75], "texture": "#6"},
				"west": {"uv": [2.25, 3.625, 2.375, 3.75], "texture": "#6"},
				"up": {"uv": [2.25, 3.625, 2.375, 3.75], "texture": "#6"},
				"down": {"uv": [2.25, 3.625, 2.375, 3.75], "texture": "#6"}
			}
		}
	],
	"display": {
		"thirdperson_righthand": {
			"translation": [0, -2.75, 2.5],
			"scale": [1.6, 1.6, 1.6]
		},
		"thirdperson_lefthand": {
			"translation": [0, -2.75, 2.5],
			"scale": [1.6, 1.6, 1.6]
		},
		"firstperson_righthand": {
			"translation": [3, -2, -0.75],
			"scale": [2, 2, 2]
		},
		"firstperson_lefthand": {
			"translation": [3, -2, -0.75],
			"scale": [2, 2, 2]
		},
		"ground": {
			"rotation": [0, 0, -90],
			"translation": [-2.75, -1.5, 2.75],
			"scale": [2, 2, 2]
		},
		"gui": {
			"rotation": [8, 123, 3],
			"translation": [3.25, -3.75, 0],
			"scale": [2.3, 2.3, 2.3]
		},
		"head": {
			"rotation": [0, 90, 90],
			"translation": [6, 7.25, -4],
			"scale": [3, 3, 3]
		},
		"fixed": {
			"rotation": [90, 45, -90],
			"translation": [-0.5, -4, -1.5],
			"scale": [1.6, 1.6, 1.6]
		}
	},
	"groups": [
		{
			"name": "gun",
			"origin": [8, 8, 8],
			"children": [0, 1, 2, 3, 4, 5, 6, 7, 8, 9, 10, 11,
				{
					"name": "ствол",
					"origin": [8.4894, 17.97365, 5.184],
					"children": [12, 13, 14, 15, 16, 17, 18, 19]
				},
				{
					"name": "group",
					"origin": [8.06442, 10.43098, -8.696],
					"children": [20, 21, 22, 23, 24]
				},
				{
					"name": "group",
					"origin": [8, 8, 8],
					"children": [25, 26, 27, 28, 29, 30, 31, 32, 33, 34, 35, 36, 37, 38, 39, 40, 41, 42, 43, 44, 45, 46, 47, 48, 49, 50, 51, 52, 53, 54, 55, 56, 57, 58, 59, 60, 61, 62, 63, 64, 65, 66, 67, 68, 69, 70, 71, 72, 73, 74, 75, 76, 77, 78, 79, 80, 81]
				}
			]
		}
	]
}