{
	"credit": "Made with Blockbench",
	"textures": {
		"0": "gci:items/gun_toz/toz",
		"particle": "gci:items/gun_toz/toz"
	},
	"elements": [
		{
			"from": [8.46185, 10.03219, -15],
			"to": [8.66185, 10.13219, 10.5],
			"rotation": {"angle": -22.5, "axis": "z", "origin": [8.5, 9.51747, 2.50685]},
			"faces": {
				"north": {"uv": [13, 1, 14, 2.2], "rotation": 90, "texture": "#0"},
				"east": {"uv": [13, 1, 14, 2.2], "rotation": 90, "texture": "#0"},
				"south": {"uv": [13, 1, 14, 2.2], "rotation": 90, "texture": "#0"},
				"west": {"uv": [13, 1, 14, 2.2], "rotation": 90, "texture": "#0"},
				"up": {"uv": [13, 1, 14, 2.2], "rotation": 90, "texture": "#0"},
				"down": {"uv": [13, 1, 14, 2.2], "rotation": 90, "texture": "#0"}
			}
		},
		{
			"from": [9.02987, 9.40318, -15],
			"to": [9.12987, 9.60318, 10.5],
			"rotation": {"angle": 45, "axis": "z", "origin": [8.5, 9.51747, 2.50685]},
			"faces": {
				"north": {"uv": [13, 1, 14, 2.2], "rotation": 180, "texture": "#0"},
				"east": {"uv": [13, 1, 14, 2.2], "rotation": 180, "texture": "#0"},
				"south": {"uv": [13, 1, 14, 2.2], "rotation": 180, "texture": "#0"},
				"west": {"uv": [13, 1, 14, 2.2], "rotation": 180, "texture": "#0"},
				"up": {"uv": [13, 1, 14, 2.2], "rotation": 180, "texture": "#0"},
				"down": {"uv": [13, 1, 14, 2.2], "rotation": 180, "texture": "#0"}
			}
		},
		{
			"from": [9.02987, 9.26563, -15],
			"to": [9.12987, 9.46563, 10.5],
			"rotation": {"angle": 45, "axis": "z", "origin": [8.5, 9.51747, 2.50685]},
			"faces": {
				"north": {"uv": [13, 1, 14, 2.2], "rotation": 180, "texture": "#0"},
				"east": {"uv": [13, 1, 14, 2.2], "rotation": 180, "texture": "#0"},
				"south": {"uv": [13, 1, 14, 2.2], "rotation": 180, "texture": "#0"},
				"west": {"uv": [13, 1, 14, 2.2], "rotation": 180, "texture": "#0"},
				"up": {"uv": [13, 1, 14, 2.2], "rotation": 180, "texture": "#0"},
				"down": {"uv": [13, 1, 14, 2.2], "rotation": 180, "texture": "#0"}
			}
		},
		{
			"from": [9.0783, 9.32584, -15],
			"to": [9.1783, 9.52584, 10.5],
			"rotation": {"angle": 22.5, "axis": "z", "origin": [8.5, 9.51747, 2.50685]},
			"faces": {
				"north": {"uv": [13, 1, 14, 2.2], "rotation": 180, "texture": "#0"},
				"east": {"uv": [13, 1, 14, 2.2], "rotation": 180, "texture": "#0"},
				"south": {"uv": [13, 1, 14, 2.2], "rotation": 180, "texture": "#0"},
				"west": {"uv": [13, 1, 14, 2.2], "rotation": 180, "texture": "#0"},
				"up": {"uv": [13, 1, 14, 2.2], "rotation": 180, "texture": "#0"},
				"down": {"uv": [13, 1, 14, 2.2], "rotation": 180, "texture": "#0"}
			}
		},
		{
			"from": [9.16821, 9.29204, -15],
			"to": [9.26821, 9.49204, 10.5],
			"rotation": {"angle": -22.5, "axis": "z", "origin": [8.5, 9.51747, 2.50685]},
			"faces": {
				"north": {"uv": [13, 1, 14, 2.2], "rotation": 180, "texture": "#0"},
				"east": {"uv": [13, 1, 14, 2.2], "rotation": 180, "texture": "#0"},
				"south": {"uv": [13, 1, 14, 2.2], "rotation": 180, "texture": "#0"},
				"west": {"uv": [13, 1, 14, 2.2], "rotation": 180, "texture": "#0"},
				"up": {"uv": [13, 1, 14, 2.2], "rotation": 180, "texture": "#0"},
				"down": {"uv": [13, 1, 14, 2.2], "rotation": 180, "texture": "#0"}
			}
		},
		{
			"from": [9.196, 9.40318, -15],
			"to": [9.296, 9.60318, 10.5],
			"rotation": {"angle": -45, "axis": "z", "origin": [8.5, 9.51747, 2.50685]},
			"faces": {
				"north": {"uv": [13, 1, 14, 2.2], "rotation": 180, "texture": "#0"},
				"east": {"uv": [13, 1, 14, 2.2], "rotation": 180, "texture": "#0"},
				"south": {"uv": [13, 1, 14, 2.2], "rotation": 180, "texture": "#0"},
				"west": {"uv": [13, 1, 14, 2.2], "rotation": 180, "texture": "#0"},
				"up": {"uv": [13, 1, 14, 2.2], "rotation": 180, "texture": "#0"},
				"down": {"uv": [13, 1, 14, 2.2], "rotation": 180, "texture": "#0"}
			}
		},
		{
			"from": [9.196, 9.26563, -15],
			"to": [9.296, 9.46563, 10.5],
			"rotation": {"angle": -45, "axis": "z", "origin": [8.5, 9.51747, 2.50685]},
			"faces": {
				"north": {"uv": [13, 1, 14, 2.2], "rotation": 180, "texture": "#0"},
				"east": {"uv": [13, 1, 14, 2.2], "rotation": 180, "texture": "#0"},
				"south": {"uv": [13, 1, 14, 2.2], "rotation": 180, "texture": "#0"},
				"west": {"uv": [13, 1, 14, 2.2], "rotation": 180, "texture": "#0"},
				"up": {"uv": [13, 1, 14, 2.2], "rotation": 180, "texture": "#0"},
				"down": {"uv": [13, 1, 14, 2.2], "rotation": 180, "texture": "#0"}
			}
		},
		{
			"from": [8.37194, 8.68569, -15],
			"to": [8.57194, 8.78569, 10.5],
			"rotation": {"angle": 22.5, "axis": "z", "origin": [8.5, 9.51747, 2.50685]},
			"faces": {
				"north": {"uv": [13, 1, 14, 2.2], "rotation": 270, "texture": "#0"},
				"east": {"uv": [13, 1, 14, 2.2], "rotation": 270, "texture": "#0"},
				"south": {"uv": [13, 1, 14, 2.2], "rotation": 270, "texture": "#0"},
				"west": {"uv": [13, 1, 14, 2.2], "rotation": 270, "texture": "#0"},
				"up": {"uv": [13, 1, 14, 2.2], "rotation": 270, "texture": "#0"},
				"down": {"uv": [13, 1, 14, 2.2], "rotation": 270, "texture": "#0"}
			}
		},
		{
			"from": [8.42806, 8.68569, -15],
			"to": [8.62806, 8.78569, 10.5],
			"rotation": {"angle": -22.5, "axis": "z", "origin": [8.5, 9.51747, 2.50685]},
			"faces": {
				"north": {"uv": [13, 1, 14, 2.2], "rotation": 270, "texture": "#0"},
				"east": {"uv": [13, 1, 14, 2.2], "rotation": 270, "texture": "#0"},
				"south": {"uv": [13, 1, 14, 2.2], "rotation": 270, "texture": "#0"},
				"west": {"uv": [13, 1, 14, 2.2], "rotation": 270, "texture": "#0"},
				"up": {"uv": [13, 1, 14, 2.2], "rotation": 270, "texture": "#0"},
				"down": {"uv": [13, 1, 14, 2.2], "rotation": 270, "texture": "#0"}
			}
		},
		{
			"from": [8.55184, 8.72147, -15],
			"to": [8.75184, 8.82147, 10.5],
			"rotation": {"angle": -45, "axis": "z", "origin": [8.5, 9.51747, 2.50685]},
			"faces": {
				"north": {"uv": [13, 1, 14, 2.2], "rotation": 270, "texture": "#0"},
				"east": {"uv": [13, 1, 14, 2.2], "rotation": 270, "texture": "#0"},
				"south": {"uv": [13, 1, 14, 2.2], "rotation": 270, "texture": "#0"},
				"west": {"uv": [13, 1, 14, 2.2], "rotation": 270, "texture": "#0"},
				"up": {"uv": [13, 1, 14, 2.2], "rotation": 270, "texture": "#0"},
				"down": {"uv": [13, 1, 14, 2.2], "rotation": 270, "texture": "#0"}
			}
		},
		{
			"from": [8.41429, 8.72147, -15],
			"to": [8.61429, 8.82147, 10.5],
			"rotation": {"angle": -45, "axis": "z", "origin": [8.5, 9.51747, 2.50685]},
			"faces": {
				"north": {"uv": [13, 1, 14, 2.2], "rotation": 270, "texture": "#0"},
				"east": {"uv": [13, 1, 14, 2.2], "rotation": 270, "texture": "#0"},
				"south": {"uv": [13, 1, 14, 2.2], "rotation": 270, "texture": "#0"},
				"west": {"uv": [13, 1, 14, 2.2], "rotation": 270, "texture": "#0"},
				"up": {"uv": [13, 1, 14, 2.2], "rotation": 270, "texture": "#0"},
				"down": {"uv": [13, 1, 14, 2.2], "rotation": 270, "texture": "#0"}
			}
		},
		{
			"from": [7.73179, 9.29204, -15],
			"to": [7.83179, 9.49204, 10.5],
			"rotation": {"angle": 22.5, "axis": "z", "origin": [8.5, 9.51747, 2.50685]},
			"faces": {
				"north": {"uv": [13, 1, 14, 2.2], "texture": "#0"},
				"east": {"uv": [13, 1, 14, 2.2], "texture": "#0"},
				"south": {"uv": [13, 1, 14, 2.2], "texture": "#0"},
				"west": {"uv": [13, 1, 14, 2.2], "texture": "#0"},
				"up": {"uv": [13, 1, 14, 2.2], "texture": "#0"},
				"down": {"uv": [13, 1, 14, 2.2], "texture": "#0"}
			}
		},
		{
			"from": [7.8217, 9.32584, -15],
			"to": [7.9217, 9.52584, 10.5],
			"rotation": {"angle": -22.5, "axis": "z", "origin": [8.5, 9.51747, 2.50685]},
			"faces": {
				"north": {"uv": [13, 1, 14, 2.2], "texture": "#0"},
				"east": {"uv": [13, 1, 14, 2.2], "texture": "#0"},
				"south": {"uv": [13, 1, 14, 2.2], "texture": "#0"},
				"west": {"uv": [13, 1, 14, 2.2], "texture": "#0"},
				"up": {"uv": [13, 1, 14, 2.2], "texture": "#0"},
				"down": {"uv": [13, 1, 14, 2.2], "texture": "#0"}
			}
		},
		{
			"from": [7.87013, 9.26563, -15],
			"to": [7.97013, 9.46563, 10.5],
			"rotation": {"angle": -45, "axis": "z", "origin": [8.5, 9.51747, 2.50685]},
			"faces": {
				"north": {"uv": [13, 1, 14, 2.2], "texture": "#0"},
				"east": {"uv": [13, 1, 14, 2.2], "texture": "#0"},
				"south": {"uv": [13, 1, 14, 2.2], "texture": "#0"},
				"west": {"uv": [13, 1, 14, 2.2], "texture": "#0"},
				"up": {"uv": [13, 1, 14, 2.2], "texture": "#0"},
				"down": {"uv": [13, 1, 14, 2.2], "texture": "#0"}
			}
		},
		{
			"from": [8.38571, 10.04734, -15],
			"to": [8.58571, 10.14734, 10.5],
			"rotation": {"angle": 45, "axis": "z", "origin": [8.5, 9.51747, 2.50685]},
			"faces": {
				"north": {"uv": [13, 1, 14, 2.2], "rotation": 90, "texture": "#0"},
				"east": {"uv": [13, 1, 14, 2.2], "rotation": 90, "texture": "#0"},
				"south": {"uv": [13, 1, 14, 2.2], "rotation": 90, "texture": "#0"},
				"west": {"uv": [13, 1, 14, 2.2], "rotation": 90, "texture": "#0"},
				"up": {"uv": [13, 1, 14, 2.2], "rotation": 90, "texture": "#0"},
				"down": {"uv": [13, 1, 14, 2.2], "rotation": 90, "texture": "#0"}
			}
		},
		{
			"from": [8.33815, 10.03219, -15],
			"to": [8.53815, 10.13219, 10.5],
			"rotation": {"angle": 22.5, "axis": "z", "origin": [8.5, 9.51747, 2.50685]},
			"faces": {
				"north": {"uv": [13, 1, 14, 2.2], "rotation": 90, "texture": "#0"},
				"east": {"uv": [13, 1, 14, 2.2], "rotation": 90, "texture": "#0"},
				"south": {"uv": [13, 1, 14, 2.2], "rotation": 90, "texture": "#0"},
				"west": {"uv": [13, 1, 14, 2.2], "rotation": 90, "texture": "#0"},
				"up": {"uv": [13, 1, 14, 2.2], "rotation": 90, "texture": "#0"},
				"down": {"uv": [13, 1, 14, 2.2], "rotation": 90, "texture": "#0"}
			}
		},
		{
			"from": [7.8, 9.2, -15],
			"to": [7.9, 9.6, 10.5],
			"rotation": {"angle": 0, "axis": "z", "origin": [8.5, 9.51747, 2.50685]},
			"faces": {
				"north": {"uv": [13, 1, 14, 2.2], "texture": "#0"},
				"east": {"uv": [13, 1, 14, 2.2], "texture": "#0"},
				"south": {"uv": [13, 1, 14, 2.2], "texture": "#0"},
				"west": {"uv": [13, 1, 14, 2.2], "texture": "#0"},
				"up": {"uv": [13, 1, 14, 2.2], "texture": "#0"},
				"down": {"uv": [13, 1, 14, 2.2], "texture": "#0"}
			}
		},
		{
			"from": [9.1, 9.2, -15],
			"to": [9.2, 9.6, 10.5],
			"rotation": {"angle": 0, "axis": "z", "origin": [8.5, 9.51747, 2.50685]},
			"faces": {
				"north": {"uv": [13, 1, 14, 2.2], "texture": "#0"},
				"east": {"uv": [13, 1, 14, 2.2], "texture": "#0"},
				"south": {"uv": [13, 1, 14, 2.2], "texture": "#0"},
				"west": {"uv": [13, 1, 14, 2.2], "texture": "#0"},
				"up": {"uv": [13, 1, 14, 2.2], "texture": "#0"},
				"down": {"uv": [13, 1, 14, 2.2], "texture": "#0"}
			}
		},
		{
			"from": [8.3, 8.7, -15],
			"to": [8.7, 8.8, 10.5],
			"rotation": {"angle": 0, "axis": "z", "origin": [8.5, 9.51747, 2.50685]},
			"faces": {
				"north": {"uv": [13, 1, 14, 2.2], "texture": "#0"},
				"east": {"uv": [13, 1, 14, 2.2], "texture": "#0"},
				"south": {"uv": [13, 1, 14, 2.2], "texture": "#0"},
				"west": {"uv": [13, 1, 14, 2.2], "texture": "#0"},
				"up": {"uv": [13, 1, 14, 2.2], "texture": "#0"},
				"down": {"uv": [13, 1, 14, 2.2], "texture": "#0"}
			}
		},
		{
			"from": [8.3, 10, -15],
			"to": [8.7, 10.1, 10.5],
			"rotation": {"angle": 0, "axis": "z", "origin": [8.5, 9.51747, 2.50685]},
			"faces": {
				"north": {"uv": [13, 1, 14, 2.2], "texture": "#0"},
				"east": {"uv": [13, 1, 14, 2.2], "texture": "#0"},
				"south": {"uv": [13, 1, 14, 2.2], "texture": "#0"},
				"west": {"uv": [13, 1, 14, 2.2], "texture": "#0"},
				"up": {"uv": [13, 1, 14, 2.2], "texture": "#0"},
				"down": {"uv": [13, 1, 14, 2.2], "texture": "#0"}
			}
		},
		{
			"from": [8.1, 8.8, -14.4],
			"to": [8.9, 10, 10.5],
			"rotation": {"angle": 0, "axis": "z", "origin": [8.5, 9.4, -1.7]},
			"faces": {
				"north": {"uv": [11, 8, 12, 9.2], "rotation": 270, "texture": "#0"},
				"east": {"uv": [13, 1, 14, 2.2], "rotation": 270, "texture": "#0"},
				"south": {"uv": [13, 1, 14, 2.2], "rotation": 270, "texture": "#0"},
				"west": {"uv": [13, 1, 14, 2.2], "rotation": 270, "texture": "#0"},
				"up": {"uv": [13, 1, 14, 2.2], "rotation": 270, "texture": "#0"},
				"down": {"uv": [13, 1, 14, 2.2], "rotation": 270, "texture": "#0"}
			}
		},
		{
			"from": [8, 9.7, -14.4],
			"to": [9, 9.9, 10.5],
			"rotation": {"angle": 0, "axis": "z", "origin": [8.5, 9.3, -1.7]},
			"faces": {
				"north": {"uv": [11, 8, 12, 9.2], "rotation": 270, "texture": "#0"},
				"east": {"uv": [13, 1, 14, 2.2], "rotation": 270, "texture": "#0"},
				"south": {"uv": [13, 1, 14, 2.2], "rotation": 270, "texture": "#0"},
				"west": {"uv": [13, 1, 14, 2.2], "rotation": 270, "texture": "#0"},
				"up": {"uv": [13, 1, 14, 2.2], "rotation": 270, "texture": "#0"},
				"down": {"uv": [13, 1, 14, 2.2], "rotation": 270, "texture": "#0"}
			}
		},
		{
			"from": [8, 8.9, -14.4],
			"to": [9, 9.1, 10.5],
			"rotation": {"angle": 0, "axis": "z", "origin": [8.5, 8.5, -1.7]},
			"faces": {
				"north": {"uv": [11, 8, 12, 9.2], "rotation": 270, "texture": "#0"},
				"east": {"uv": [13, 1, 14, 2.2], "rotation": 270, "texture": "#0"},
				"south": {"uv": [13, 1, 14, 2.2], "rotation": 270, "texture": "#0"},
				"west": {"uv": [13, 1, 14, 2.2], "rotation": 270, "texture": "#0"},
				"up": {"uv": [13, 1, 14, 2.2], "rotation": 270, "texture": "#0"},
				"down": {"uv": [13, 1, 14, 2.2], "rotation": 270, "texture": "#0"}
			}
		},
		{
			"from": [7.9, 9, -14.4],
			"to": [9.1, 9.8, 10.5],
			"rotation": {"angle": 0, "axis": "z", "origin": [8.5, 9.4, -1.7]},
			"faces": {
				"north": {"uv": [11, 8, 12, 9.2], "texture": "#0"},
				"east": {"uv": [13, 1, 14, 2.2], "texture": "#0"},
				"south": {"uv": [13, 1, 14, 2.2], "texture": "#0"},
				"west": {"uv": [13, 1, 14, 2.2], "texture": "#0"},
				"up": {"uv": [13, 1, 14, 2.2], "texture": "#0"},
				"down": {"uv": [13, 1, 14, 2.2], "texture": "#0"}
			}
		},
		{
			"from": [8.4169, 3.95801, 8.7],
			"to": [8.6169, 4.05801, 10.6],
			"rotation": {"angle": 22.5, "axis": "x", "origin": [8.5, 4.68126, 21.77269]},
			"faces": {
				"north": {"uv": [13, 1, 14, 2.2], "rotation": 270, "texture": "#0"},
				"east": {"uv": [13, 1, 14, 2.2], "rotation": 270, "texture": "#0"},
				"south": {"uv": [13, 1, 14, 2.2], "rotation": 270, "texture": "#0"},
				"west": {"uv": [13, 1, 14, 2.2], "rotation": 270, "texture": "#0"},
				"up": {"uv": [13, 1, 14, 2.2], "rotation": 270, "texture": "#0"},
				"down": {"uv": [13, 1, 14, 2.2], "rotation": 270, "texture": "#0"}
			}
		},
		{
			"from": [8.3831, 3.95801, 8.7],
			"to": [8.5831, 4.05801, 10.6],
			"rotation": {"angle": 22.5, "axis": "x", "origin": [8.5, 4.68126, 21.77269]},
			"faces": {
				"north": {"uv": [13, 1, 14, 2.2], "rotation": 270, "texture": "#0"},
				"east": {"uv": [13, 1, 14, 2.2], "rotation": 270, "texture": "#0"},
				"south": {"uv": [13, 1, 14, 2.2], "rotation": 270, "texture": "#0"},
				"west": {"uv": [13, 1, 14, 2.2], "rotation": 270, "texture": "#0"},
				"up": {"uv": [13, 1, 14, 2.2], "rotation": 270, "texture": "#0"},
				"down": {"uv": [13, 1, 14, 2.2], "rotation": 270, "texture": "#0"}
			}
		},
		{
			"from": [8.46878, 3.96833, 8.7],
			"to": [8.66878, 4.06833, 10.6],
			"rotation": {"angle": 22.5, "axis": "x", "origin": [8.5, 4.68126, 21.77269]},
			"faces": {
				"north": {"uv": [13, 1, 14, 2.2], "rotation": 270, "texture": "#0"},
				"east": {"uv": [13, 1, 14, 2.2], "rotation": 270, "texture": "#0"},
				"south": {"uv": [13, 1, 14, 2.2], "rotation": 270, "texture": "#0"},
				"west": {"uv": [13, 1, 14, 2.2], "rotation": 270, "texture": "#0"},
				"up": {"uv": [13, 1, 14, 2.2], "rotation": 270, "texture": "#0"},
				"down": {"uv": [13, 1, 14, 2.2], "rotation": 270, "texture": "#0"}
			}
		},
		{
			"from": [8.33122, 3.96833, 8.7],
			"to": [8.53122, 4.06833, 10.6],
			"rotation": {"angle": 22.5, "axis": "x", "origin": [8.5, 4.68126, 21.77269]},
			"faces": {
				"north": {"uv": [13, 1, 14, 2.2], "rotation": 270, "texture": "#0"},
				"east": {"uv": [13, 1, 14, 2.2], "rotation": 270, "texture": "#0"},
				"south": {"uv": [13, 1, 14, 2.2], "rotation": 270, "texture": "#0"},
				"west": {"uv": [13, 1, 14, 2.2], "rotation": 270, "texture": "#0"},
				"up": {"uv": [13, 1, 14, 2.2], "rotation": 270, "texture": "#0"},
				"down": {"uv": [13, 1, 14, 2.2], "rotation": 270, "texture": "#0"}
			}
		},
		{
			"from": [8.3, 3.98126, 8.7],
			"to": [8.7, 4.08126, 10.6],
			"rotation": {"angle": 22.5, "axis": "x", "origin": [8.5, 4.68126, 21.77269]},
			"faces": {
				"north": {"uv": [13, 1, 14, 2.2], "texture": "#0"},
				"east": {"uv": [13, 1, 14, 2.2], "texture": "#0"},
				"south": {"uv": [13, 1, 14, 2.2], "texture": "#0"},
				"west": {"uv": [13, 1, 14, 2.2], "texture": "#0"},
				"up": {"uv": [13, 1, 14, 2.2], "texture": "#0"},
				"down": {"uv": [13, 1, 14, 2.2], "texture": "#0"}
			}
		},
		{
			"from": [8.1, 4.08126, 9.3],
			"to": [8.9, 5.28126, 10.6],
			"rotation": {"angle": 22.5, "axis": "x", "origin": [8.5, 4.68126, 21.77269]},
			"faces": {
				"north": {"uv": [13, 1, 14, 2.2], "rotation": 270, "texture": "#0"},
				"east": {"uv": [13, 1, 14, 2.2], "rotation": 270, "texture": "#0"},
				"south": {"uv": [13, 1, 14, 2.2], "rotation": 270, "texture": "#0"},
				"west": {"uv": [13, 1, 14, 2.2], "rotation": 270, "texture": "#0"},
				"up": {"uv": [13, 1, 14, 2.2], "rotation": 270, "texture": "#0"},
				"down": {"uv": [13, 1, 14, 2.2], "rotation": 270, "texture": "#0"}
			}
		},
		{
			"from": [8, 4.98126, 9.3],
			"to": [9, 5.18126, 10.6],
			"rotation": {"angle": 22.5, "axis": "x", "origin": [8.5, 4.68126, 21.77269]},
			"faces": {
				"north": {"uv": [13, 1, 14, 2.2], "rotation": 270, "texture": "#0"},
				"east": {"uv": [13, 1, 14, 2.2], "rotation": 270, "texture": "#0"},
				"south": {"uv": [13, 1, 14, 2.2], "rotation": 270, "texture": "#0"},
				"west": {"uv": [13, 1, 14, 2.2], "rotation": 270, "texture": "#0"},
				"up": {"uv": [13, 1, 14, 2.2], "rotation": 270, "texture": "#0"},
				"down": {"uv": [13, 1, 14, 2.2], "rotation": 270, "texture": "#0"}
			}
		},
		{
			"from": [8, 4.18126, 9.3],
			"to": [9, 4.38126, 10.6],
			"rotation": {"angle": 22.5, "axis": "x", "origin": [8.5, 4.68126, 21.77269]},
			"faces": {
				"north": {"uv": [13, 1, 14, 2.2], "rotation": 270, "texture": "#0"},
				"east": {"uv": [13, 1, 14, 2.2], "rotation": 270, "texture": "#0"},
				"south": {"uv": [13, 1, 14, 2.2], "rotation": 270, "texture": "#0"},
				"west": {"uv": [13, 1, 14, 2.2], "rotation": 270, "texture": "#0"},
				"up": {"uv": [13, 1, 14, 2.2], "rotation": 270, "texture": "#0"},
				"down": {"uv": [13, 1, 14, 2.2], "rotation": 270, "texture": "#0"}
			}
		},
		{
			"from": [7.9, 4.28126, 9.3],
			"to": [9.1, 5.08126, 10.6],
			"rotation": {"angle": 22.5, "axis": "x", "origin": [8.5, 4.68126, 21.77269]},
			"faces": {
				"north": {"uv": [13, 1, 14, 2.2], "texture": "#0"},
				"east": {"uv": [13, 1, 14, 2.2], "texture": "#0"},
				"south": {"uv": [13, 1, 14, 2.2], "texture": "#0"},
				"west": {"uv": [13, 1, 14, 2.2], "texture": "#0"},
				"up": {"uv": [13, 1, 14, 2.2], "texture": "#0"},
				"down": {"uv": [13, 1, 14, 2.2], "texture": "#0"}
			}
		},
		{
			"from": [8.4, 10.59594, -14.33477],
			"to": [8.6, 10.79594, -13.93477],
			"rotation": {"angle": -45, "axis": "x", "origin": [8.5, 10.1571, -13.61873]},
			"faces": {
				"north": {"uv": [9, 0, 9.2, 1.6], "texture": "#0"},
				"east": {"uv": [9, 0, 9.2, 1.6], "texture": "#0"},
				"south": {"uv": [9, 0, 9.2, 1.6], "texture": "#0"},
				"west": {"uv": [9, 0, 9.2, 1.6], "texture": "#0"},
				"up": {"uv": [9, 0, 9.2, 1.6], "texture": "#0"},
				"down": {"uv": [9, 0, 9.2, 1.6], "texture": "#0"}
			}
		},
		{
			"from": [8.4, 10.1, -14.5],
			"to": [8.6, 10.3, -13.3],
			"rotation": {"angle": 0, "axis": "z", "origin": [8.5, 10.1571, -13.61873]},
			"faces": {
				"north": {"uv": [9, 0, 9.2, 1.6], "texture": "#0"},
				"east": {"uv": [9, 0, 9.2, 1.6], "texture": "#0"},
				"south": {"uv": [9, 0, 9.2, 1.6], "texture": "#0"},
				"west": {"uv": [9, 0, 9.2, 1.6], "texture": "#0"},
				"up": {"uv": [9, 0, 9.2, 1.6], "texture": "#0"},
				"down": {"uv": [9, 0, 9.2, 1.6], "texture": "#0"}
			}
		},
		{
			"from": [8.4, 10.18826, -13.49375],
			"to": [8.6, 10.38826, -11.29375],
			"rotation": {"angle": 22.5, "axis": "x", "origin": [8.5, 10.1571, -13.61873]},
			"faces": {
				"north": {"uv": [9, 0, 9.2, 1.6], "texture": "#0"},
				"east": {"uv": [9, 0, 9.2, 1.6], "texture": "#0"},
				"south": {"uv": [9, 0, 9.2, 1.6], "texture": "#0"},
				"west": {"uv": [9, 0, 9.2, 1.6], "texture": "#0"},
				"up": {"uv": [9, 0, 9.2, 1.6], "texture": "#0"},
				"down": {"uv": [9, 0, 9.2, 1.6], "texture": "#0"}
			}
		},
		{
			"from": [8.7, 12.62337, 2.20774],
			"to": [8.9, 13.22337, 4.10774],
			"rotation": {"angle": 22.5, "axis": "x", "origin": [8.8, 9.51747, -4.69315]},
			"faces": {
				"north": {"uv": [9, 0, 9.2, 1.6], "texture": "#0"},
				"east": {"uv": [9, 0, 9.2, 1.6], "texture": "#0"},
				"south": {"uv": [9, 0, 9.2, 1.6], "texture": "#0"},
				"west": {"uv": [9, 0, 9.2, 1.6], "texture": "#0"},
				"up": {"uv": [9, 0, 9.2, 1.6], "texture": "#0"},
				"down": {"uv": [9, 0, 9.2, 1.6], "texture": "#0"}
			}
		},
		{
			"from": [8.1, 12.62337, 2.20774],
			"to": [8.3, 13.22337, 4.10774],
			"rotation": {"angle": 22.5, "axis": "x", "origin": [8.2, 9.51747, -4.69315]},
			"faces": {
				"north": {"uv": [9, 0, 9.2, 1.6], "texture": "#0"},
				"east": {"uv": [9, 0, 9.2, 1.6], "texture": "#0"},
				"south": {"uv": [9, 0, 9.2, 1.6], "texture": "#0"},
				"west": {"uv": [9, 0, 9.2, 1.6], "texture": "#0"},
				"up": {"uv": [9, 0, 9.2, 1.6], "texture": "#0"},
				"down": {"uv": [9, 0, 9.2, 1.6], "texture": "#0"}
			}
		},
		{
			"from": [7.5, 4.2, 11],
			"to": [7.7, 4.8, 24],
			"rotation": {"angle": 22.5, "axis": "x", "origin": [7.6, 4.85, 21]},
			"faces": {
				"north": {"uv": [12, 1, 13.2, 1.6], "texture": "#0"},
				"east": {"uv": [12, 0, 13, 2.6], "texture": "#0"},
				"south": {"uv": [0.4, 0, 0.6, 0.6], "texture": "#0"},
				"west": {"uv": [12, 0, 13, 3], "texture": "#0"},
				"up": {"uv": [14, 0, 15.2, 1], "texture": "#0"},
				"down": {"uv": [11, 1, 11.2, 2], "texture": "#0"}
			}
		},
		{
			"from": [9.3, 4.2, 11],
			"to": [9.5, 4.8, 24],
			"rotation": {"angle": 22.5, "axis": "x", "origin": [9.4, 4.85, 21]},
			"faces": {
				"north": {"uv": [12, 1, 13.2, 1.6], "texture": "#0"},
				"east": {"uv": [12, 0, 13, 2.6], "texture": "#0"},
				"south": {"uv": [0.4, 0, 0.6, 0.6], "texture": "#0"},
				"west": {"uv": [12, 0, 13, 3], "texture": "#0"},
				"up": {"uv": [14, 0, 15.2, 1], "texture": "#0"},
				"down": {"uv": [11, 1, 11.2, 2], "texture": "#0"}
			}
		},
		{
			"from": [7.4, 2.56603, 23.13248],
			"to": [9.6, 7.16603, 23.83248],
			"rotation": {"angle": 0, "axis": "x", "origin": [8.5, 2.86603, 17.63248]},
			"faces": {
				"north": {"uv": [9, 9, 13.9, 10.7], "texture": "#0"},
				"east": {"uv": [9, 6, 13.9, 7.7], "texture": "#0"},
				"south": {"uv": [9, 6, 13.9, 7.7], "texture": "#0"},
				"west": {"uv": [9, 6, 13.9, 7.7], "texture": "#0"},
				"up": {"uv": [9, 6, 13.9, 7.7], "texture": "#0"},
				"down": {"uv": [9, 6, 13.9, 7.7], "texture": "#0"}
			}
		},
		{
			"from": [7.4, 6.508, 23.72148],
			"to": [9.6, 7.208, 24.02148],
			"rotation": {"angle": 22.5, "axis": "x", "origin": [8.5, 6.908, 23.67148]},
			"faces": {
				"north": {"uv": [12.9, 10.7, 10, 9], "texture": "#0"},
				"east": {"uv": [9.9, 10.7, 9, 9], "texture": "#0"},
				"south": {"uv": [12.9, 10.7, 10, 9], "texture": "#0"},
				"west": {"uv": [10, 10.7, 12, 10], "texture": "#0"},
				"up": {"uv": [10.9, 6.7, 9, 6], "texture": "#0"},
				"down": {"uv": [12.9, 10.7, 10, 9], "texture": "#0"}
			}
		},
		{
			"from": [7.4, 2.67714, 23.69104],
			"to": [9.6, 3.57714, 23.99104],
			"rotation": {"angle": -22.5, "axis": "x", "origin": [8.5, 2.97714, 24.04104]},
			"faces": {
				"north": {"uv": [11, 6, 12.9, 7.7], "rotation": 180, "texture": "#0"},
				"east": {"uv": [11, 6, 12.9, 7.7], "rotation": 180, "texture": "#0"},
				"south": {"uv": [11, 6, 12.9, 7.7], "rotation": 180, "texture": "#0"},
				"west": {"uv": [11, 6, 12.9, 7.7], "rotation": 180, "texture": "#0"},
				"up": {"uv": [11, 6, 12.9, 7.7], "rotation": 180, "texture": "#0"},
				"down": {"uv": [11, 6, 12.9, 6.7], "rotation": 180, "texture": "#0"}
			}
		},
		{
			"from": [7.6, 8.9, -8.4],
			"to": [9.4, 9.4, 12.2],
			"rotation": {"angle": 0, "axis": "z", "origin": [8.5, 9.51747, 2.50685]},
			"faces": {
				"north": {"uv": [1, 3, 3.9, 11.7], "texture": "#0"},
				"east": {"uv": [1, 3, 3.9, 11.7], "texture": "#0"},
				"south": {"uv": [1, 3, 3.9, 11.7], "texture": "#0"},
				"west": {"uv": [1, 3, 3.9, 5.7], "texture": "#0"},
				"up": {"uv": [1, 3, 3.9, 11.7], "texture": "#0"},
				"down": {"uv": [1, 3, 3.9, 11.7], "texture": "#0"}
			}
		},
		{
			"from": [7.6, 8.7, -8.4],
			"to": [7.7, 9.2, 12.2],
			"rotation": {"angle": 0, "axis": "z", "origin": [8.5, 9.31747, 2.50685]},
			"faces": {
				"north": {"uv": [1, 3, 3.9, 11.7], "texture": "#0"},
				"east": {"uv": [1, 3, 3.9, 11.7], "texture": "#0"},
				"south": {"uv": [1, 3, 3.9, 11.7], "texture": "#0"},
				"west": {"uv": [1, 3, 3.9, 5.7], "texture": "#0"},
				"up": {"uv": [1, 3, 3.9, 11.7], "texture": "#0"},
				"down": {"uv": [1, 3, 3.9, 11.7], "texture": "#0"}
			}
		},
		{
			"from": [8.4, 8.7, -8.4],
			"to": [9.4, 9.2, -6],
			"rotation": {"angle": 0, "axis": "z", "origin": [10.3, 9.31747, 2.50685]},
			"faces": {
				"north": {"uv": [1, 3, 3.9, 11.7], "texture": "#0"},
				"east": {"uv": [1, 3, 3.9, 11.7], "texture": "#0"},
				"south": {"uv": [1, 3, 3.9, 11.7], "texture": "#0"},
				"west": {"uv": [1, 3, 3.9, 5.7], "texture": "#0"},
				"up": {"uv": [1, 3, 3.9, 11.7], "texture": "#0"},
				"down": {"uv": [1, 3, 3.9, 11.7], "texture": "#0"}
			}
		},
		{
			"from": [8.4, 8.7, -1.8],
			"to": [9.4, 9.2, 12.2],
			"rotation": {"angle": 0, "axis": "z", "origin": [10.3, 9.31747, 9.10685]},
			"faces": {
				"north": {"uv": [1, 3, 3.9, 11.7], "texture": "#0"},
				"east": {"uv": [1, 3, 3.9, 11.7], "texture": "#0"},
				"south": {"uv": [1, 3, 3.9, 11.7], "texture": "#0"},
				"west": {"uv": [1, 3, 3.9, 5.7], "texture": "#0"},
				"up": {"uv": [1, 3, 3.9, 11.7], "texture": "#0"},
				"down": {"uv": [1, 3, 3.9, 11.7], "texture": "#0"}
			}
		},
		{
			"from": [7.6, 8.7, -8.6],
			"to": [9.4, 9.4, -7.2],
			"rotation": {"angle": 0, "axis": "z", "origin": [8.5, 9.51747, 2.30685]},
			"faces": {
				"north": {"uv": [1, 3, 3.9, 11.7], "texture": "#0"},
				"east": {"uv": [1, 3, 3.9, 11.7], "texture": "#0"},
				"south": {"uv": [1, 3, 3.9, 11.7], "texture": "#0"},
				"west": {"uv": [1, 3, 3.9, 5.7], "texture": "#0"},
				"up": {"uv": [1, 3, 3.9, 11.7], "texture": "#0"},
				"down": {"uv": [1, 3, 3.9, 11.7], "texture": "#0"}
			}
		},
		{
			"from": [7.73013, 8.04578, -7.8],
			"to": [7.83013, 8.74578, 12.2],
			"rotation": {"angle": 22.5, "axis": "z", "origin": [7.78013, 8.39578, 2.75]},
			"faces": {
				"north": {"uv": [1, 3, 3.9, 11.7], "texture": "#0"},
				"east": {"uv": [1, 3, 3.9, 11.7], "texture": "#0"},
				"south": {"uv": [1, 3, 3.9, 11.7], "texture": "#0"},
				"west": {"uv": [1, 3, 3.9, 5.7], "texture": "#0"},
				"up": {"uv": [1, 3, 3.9, 11.7], "texture": "#0"},
				"down": {"uv": [1, 3, 3.9, 11.7], "texture": "#0"}
			}
		},
		{
			"from": [7.73013, 8.44578, -8.6],
			"to": [7.83013, 8.74578, 5],
			"rotation": {"angle": 22.5, "axis": "z", "origin": [7.78013, 8.39578, -5.25]},
			"faces": {
				"north": {"uv": [1, 3, 3.9, 11.7], "texture": "#0"},
				"east": {"uv": [1, 3, 3.9, 11.7], "texture": "#0"},
				"south": {"uv": [1, 3, 3.9, 11.7], "texture": "#0"},
				"west": {"uv": [1, 3, 3.9, 5.7], "texture": "#0"},
				"up": {"uv": [1, 3, 3.9, 11.7], "texture": "#0"},
				"down": {"uv": [1, 3, 3.9, 11.7], "texture": "#0"}
			}
		},
		{
			"from": [9.16987, 8.04578, -1.8],
			"to": [9.26987, 8.74578, 12.2],
			"rotation": {"angle": -22.5, "axis": "z", "origin": [9.21987, 8.39578, 2.75]},
			"faces": {
				"north": {"uv": [1, 3, 3.9, 11.7], "texture": "#0"},
				"east": {"uv": [1, 3, 3.9, 11.7], "texture": "#0"},
				"south": {"uv": [1, 3, 3.9, 11.7], "texture": "#0"},
				"west": {"uv": [1, 3, 3.9, 5.7], "texture": "#0"},
				"up": {"uv": [1, 3, 3.9, 11.7], "texture": "#0"},
				"down": {"uv": [1, 3, 3.9, 11.7], "texture": "#0"}
			}
		},
		{
			"from": [9.16987, 8.44578, -8.6],
			"to": [9.26987, 8.74578, -6],
			"rotation": {"angle": -22.5, "axis": "z", "origin": [9.21987, 8.39578, -5.25]},
			"faces": {
				"north": {"uv": [1, 3, 3.9, 11.7], "texture": "#0"},
				"east": {"uv": [1, 3, 3.9, 11.7], "texture": "#0"},
				"south": {"uv": [1, 3, 3.9, 11.7], "texture": "#0"},
				"west": {"uv": [1, 3, 3.9, 5.7], "texture": "#0"},
				"up": {"uv": [1, 3, 3.9, 11.7], "texture": "#0"},
				"down": {"uv": [1, 3, 3.9, 11.7], "texture": "#0"}
			}
		},
		{
			"from": [7.7, 7.7, -6.9],
			"to": [9.3, 9.1, 12.2],
			"rotation": {"angle": 0, "axis": "z", "origin": [8.5, 9.21747, 2.50685]},
			"faces": {
				"north": {"uv": [1, 3, 3.9, 11.7], "texture": "#0"},
				"east": {"uv": [3.9, 11.7, 0, 1], "texture": "#0"},
				"south": {"uv": [1, 3, 3.9, 11.7], "texture": "#0"},
				"west": {"uv": [1, 3, 3.9, 11.7], "texture": "#0"},
				"up": {"uv": [1, 3, 3.9, 11.7], "texture": "#0"},
				"down": {"uv": [1, 3, 3.9, 11.7], "texture": "#0"}
			}
		},
		{
			"from": [7.9, 7.4, -6.9],
			"to": [9.1, 8.1, 13],
			"rotation": {"angle": 0, "axis": "z", "origin": [8.5, 8.21747, 2.50685]},
			"faces": {
				"north": {"uv": [1, 3, 3.9, 11.7], "texture": "#0"},
				"east": {"uv": [1, 3, 3.9, 11.7], "texture": "#0"},
				"south": {"uv": [1, 3, 3.9, 11.7], "texture": "#0"},
				"west": {"uv": [1, 3, 3.9, 11.7], "texture": "#0"},
				"up": {"uv": [1, 3, 3.9, 11.7], "texture": "#0"},
				"down": {"uv": [1, 3, 3.9, 11.7], "texture": "#0"}
			}
		},
		{
			"from": [7.8, 2.59145, 11.1543],
			"to": [9.2, 8.29145, 13.0543],
			"rotation": {"angle": -22.5, "axis": "x", "origin": [8.8, 4.94145, 12.1043]},
			"faces": {
				"north": {"uv": [1, 3, 3.9, 11.7], "texture": "#0"},
				"east": {"uv": [1, 3, 3.9, 11.7], "texture": "#0"},
				"south": {"uv": [1, 3, 3.9, 11.7], "texture": "#0"},
				"west": {"uv": [1, 3, 3.9, 11.7], "texture": "#0"},
				"up": {"uv": [1, 3, 3.9, 11.7], "texture": "#0"},
				"down": {"uv": [1, 3, 3.9, 11.7], "texture": "#0"}
			}
		},
		{
			"from": [7.8, 2.33389, 11.9813],
			"to": [9.2, 3.13389, 13.8813],
			"rotation": {"angle": 0, "axis": "x", "origin": [8.8, 3.78389, 12.9313]},
			"faces": {
				"north": {"uv": [1, 3, 3.9, 11.7], "texture": "#0"},
				"east": {"uv": [1, 3, 3.9, 11.7], "texture": "#0"},
				"south": {"uv": [1, 3, 3.9, 11.7], "texture": "#0"},
				"west": {"uv": [1, 3, 3.9, 11.7], "texture": "#0"},
				"up": {"uv": [1, 3, 3.9, 11.7], "texture": "#0"},
				"down": {"uv": [1, 3, 3.9, 11.7], "texture": "#0"}
			}
		},
		{
			"from": [7.8, 5.93389, 9.8813],
			"to": [9.2, 7.73389, 10.8813],
			"rotation": {"angle": 0, "axis": "x", "origin": [8.8, 7.78389, 9.9313]},
			"faces": {
				"north": {"uv": [1, 3, 3.9, 11.7], "texture": "#0"},
				"east": {"uv": [1, 3, 3.9, 11.7], "texture": "#0"},
				"south": {"uv": [1, 3, 3.9, 11.7], "texture": "#0"},
				"west": {"uv": [1, 3, 3.9, 11.7], "texture": "#0"},
				"up": {"uv": [1, 3, 3.9, 11.7], "texture": "#0"},
				"down": {"uv": [1, 3, 3.9, 11.7], "texture": "#0"}
			}
		},
		{
			"from": [7.8, 7.59312, 10.86267],
			"to": [9.2, 9.29312, 11.96267],
			"rotation": {"angle": -22.5, "axis": "x", "origin": [8.8, 9.94312, 11.81267]},
			"faces": {
				"north": {"uv": [1, 3, 3.9, 11.7], "texture": "#0"},
				"east": {"uv": [1, 3, 3.9, 11.7], "texture": "#0"},
				"south": {"uv": [1, 3, 3.9, 11.7], "texture": "#0"},
				"west": {"uv": [1, 3, 3.9, 11.7], "texture": "#0"},
				"up": {"uv": [1, 3, 3.9, 11.7], "texture": "#0"},
				"down": {"uv": [1, 3, 3.9, 11.7], "texture": "#0"}
			}
		},
		{
			"from": [7.9, 5.97518, 11.61659],
			"to": [9.1, 7.67518, 12.71659],
			"rotation": {"angle": 22.5, "axis": "x", "origin": [8.6, 6.82518, 12.16659]},
			"faces": {
				"north": {"uv": [1, 3, 3.9, 11.7], "texture": "#0"},
				"east": {"uv": [1, 3, 3.9, 11.7], "texture": "#0"},
				"south": {"uv": [1, 3, 3.9, 11.7], "texture": "#0"},
				"west": {"uv": [1, 3, 3.9, 11.7], "texture": "#0"},
				"up": {"uv": [1, 3, 3.9, 11.7], "texture": "#0"},
				"down": {"uv": [1, 3, 3.9, 11.7], "texture": "#0"}
			}
		},
		{
			"from": [7.7, 6.93131, -8.64921],
			"to": [9.3, 7.83131, -6.44921],
			"rotation": {"angle": 22.5, "axis": "x", "origin": [8.5, 8.44878, -4.74236]},
			"faces": {
				"north": {"uv": [1, 3, 3.9, 11.7], "texture": "#0"},
				"east": {"uv": [1, 3, 3.9, 11.7], "texture": "#0"},
				"south": {"uv": [1, 3, 3.9, 11.7], "texture": "#0"},
				"west": {"uv": [1, 3, 3.9, 11.7], "texture": "#0"},
				"up": {"uv": [1, 3, 3.9, 11.7], "texture": "#0"},
				"down": {"uv": [1, 3, 3.9, 11.7], "texture": "#0"}
			}
		},
		{
			"from": [8.2, 6.13389, 9.3813],
			"to": [8.9, 6.33389, 9.8813],
			"rotation": {"angle": 0, "axis": "x", "origin": [8.8, 6.38389, 7.9313]},
			"faces": {
				"north": {"uv": [14, 2, 14, 2.2], "texture": "#0"},
				"east": {"uv": [14, 2, 14, 2.2], "texture": "#0"},
				"south": {"uv": [14, 2, 14, 2.2], "texture": "#0"},
				"west": {"uv": [14, 2, 14, 2.2], "texture": "#0"},
				"up": {"uv": [14, 2, 14, 2.2], "texture": "#0"},
				"down": {"uv": [14, 2, 14, 2.2], "texture": "#0"}
			}
		},
		{
			"from": [8.2, 5.95777, 8.49589],
			"to": [8.9, 6.15777, 8.99589],
			"rotation": {"angle": 0, "axis": "x", "origin": [8.8, 6.20777, 7.04589]},
			"faces": {
				"north": {"uv": [14, 2, 14, 2.2], "texture": "#0"},
				"east": {"uv": [14, 2, 14, 2.2], "texture": "#0"},
				"south": {"uv": [14, 2, 14, 2.2], "texture": "#0"},
				"west": {"uv": [14, 2, 14, 2.2], "texture": "#0"},
				"up": {"uv": [14, 2, 14, 2.2], "texture": "#0"},
				"down": {"uv": [14, 2, 14, 2.2], "texture": "#0"}
			}
		},
		{
			"from": [8.2, 6.16835, 7.84261],
			"to": [8.9, 6.66835, 8.04261],
			"rotation": {"angle": -22.5, "axis": "x", "origin": [8.55, 6.6397, 7.98664]},
			"faces": {
				"north": {"uv": [14, 2, 14, 2.2], "rotation": 270, "texture": "#0"},
				"east": {"uv": [14, 2, 14, 2.2], "rotation": 270, "texture": "#0"},
				"south": {"uv": [14, 2, 14, 2.2], "rotation": 270, "texture": "#0"},
				"west": {"uv": [14, 2, 14, 2.2], "rotation": 270, "texture": "#0"},
				"up": {"uv": [14, 2, 14, 2.2], "rotation": 270, "texture": "#0"},
				"down": {"uv": [14, 2, 14, 2.2], "rotation": 270, "texture": "#0"}
			}
		},
		{
			"from": [8.2, 6.68497, 8.24],
			"to": [8.9, 6.88497, 8.74],
			"rotation": {"angle": 22.5, "axis": "x", "origin": [8.8, 6.93497, 6.79]},
			"faces": {
				"north": {"uv": [14, 2, 14, 2.2], "texture": "#0"},
				"east": {"uv": [14, 2, 14, 2.2], "texture": "#0"},
				"south": {"uv": [14, 2, 14, 2.2], "texture": "#0"},
				"west": {"uv": [14, 2, 14, 2.2], "texture": "#0"},
				"up": {"uv": [14, 2, 14, 2.2], "texture": "#0"},
				"down": {"uv": [14, 2, 14, 2.2], "texture": "#0"}
			}
		},
		{
			"from": [8.2, 6.61105, 7.84261],
			"to": [8.9, 7.11105, 8.04261],
			"rotation": {"angle": 0, "axis": "x", "origin": [8.55, 6.6397, 7.98664]},
			"faces": {
				"north": {"uv": [14, 2, 14, 2.2], "rotation": 270, "texture": "#0"},
				"east": {"uv": [14, 2, 14, 2.2], "rotation": 270, "texture": "#0"},
				"south": {"uv": [14, 2, 14, 2.2], "rotation": 270, "texture": "#0"},
				"west": {"uv": [14, 2, 14, 2.2], "rotation": 270, "texture": "#0"},
				"up": {"uv": [14, 2, 14, 2.2], "rotation": 270, "texture": "#0"},
				"down": {"uv": [14, 2, 14, 2.2], "rotation": 270, "texture": "#0"}
			}
		},
		{
			"from": [8.2, 5.38385, 9.0106],
			"to": [8.9, 5.58385, 9.5106],
			"rotation": {"angle": -22.5, "axis": "x", "origin": [8.8, 5.63385, 7.5606]},
			"faces": {
				"north": {"uv": [14, 2, 14, 2.2], "texture": "#0"},
				"east": {"uv": [14, 2, 14, 2.2], "texture": "#0"},
				"south": {"uv": [14, 2, 14, 2.2], "texture": "#0"},
				"west": {"uv": [14, 2, 14, 2.2], "texture": "#0"},
				"up": {"uv": [14, 2, 14, 2.2], "texture": "#0"},
				"down": {"uv": [14, 2, 14, 2.2], "texture": "#0"}
			}
		},
		{
			"from": [8.2, 6.97351, 8.03406],
			"to": [8.9, 7.57351, 8.23406],
			"rotation": {"angle": 22.5, "axis": "x", "origin": [8.8, 7.52351, 8.28406]},
			"faces": {
				"north": {"uv": [14, 2, 14, 2.2], "rotation": 270, "texture": "#0"},
				"east": {"uv": [14, 2, 14, 2.2], "rotation": 270, "texture": "#0"},
				"south": {"uv": [14, 2, 14, 2.2], "rotation": 270, "texture": "#0"},
				"west": {"uv": [14, 2, 14, 2.2], "rotation": 270, "texture": "#0"},
				"up": {"uv": [14, 2, 14, 2.2], "rotation": 270, "texture": "#0"},
				"down": {"uv": [14, 2, 14, 2.2], "rotation": 270, "texture": "#0"}
			}
		},
		{
			"from": [8.2, 7.27351, 8.1],
			"to": [8.9, 7.47351, 9.93406],
			"rotation": {"angle": 0, "axis": "x", "origin": [8.8, 7.22351, 9.48406]},
			"faces": {
				"north": {"uv": [14, 2, 14, 2.2], "rotation": 180, "texture": "#0"},
				"east": {"uv": [14, 2, 14, 2.2], "rotation": 180, "texture": "#0"},
				"south": {"uv": [14, 2, 14, 2.2], "rotation": 180, "texture": "#0"},
				"west": {"uv": [14, 2, 14, 2.2], "rotation": 180, "texture": "#0"},
				"up": {"uv": [14, 2, 14, 2.2], "rotation": 180, "texture": "#0"},
				"down": {"uv": [14, 2, 14, 2.2], "rotation": 180, "texture": "#0"}
			}
		},
		{
			"from": [8.4, 7.26229, 9.8114],
			"to": [8.8, 7.66229, 9.9114],
			"rotation": {"angle": -22.5, "axis": "x", "origin": [8.55, 6.79646, 9.17679]},
			"faces": {
				"north": {"uv": [14, 2, 14, 2.2], "rotation": 90, "texture": "#0"},
				"east": {"uv": [14, 2, 14, 2.2], "rotation": 90, "texture": "#0"},
				"south": {"uv": [14, 2, 14, 2.2], "rotation": 90, "texture": "#0"},
				"west": {"uv": [14, 2, 14, 2.2], "rotation": 90, "texture": "#0"},
				"up": {"uv": [14, 2, 14, 2.2], "rotation": 90, "texture": "#0"},
				"down": {"uv": [14, 2, 14, 2.2], "rotation": 90, "texture": "#0"}
			}
		},
		{
			"from": [8.4, 7.01556, 9.41549],
			"to": [8.8, 7.41556, 9.51549],
			"rotation": {"angle": 0, "axis": "x", "origin": [8.55, 6.79646, 8.97679]},
			"faces": {
				"north": {"uv": [14, 2, 14, 2.2], "rotation": 90, "texture": "#0"},
				"east": {"uv": [14, 2, 14, 2.2], "rotation": 90, "texture": "#0"},
				"south": {"uv": [14, 2, 14, 2.2], "rotation": 90, "texture": "#0"},
				"west": {"uv": [14, 2, 14, 2.2], "rotation": 90, "texture": "#0"},
				"up": {"uv": [14, 2, 14, 2.2], "rotation": 90, "texture": "#0"},
				"down": {"uv": [14, 2, 14, 2.2], "rotation": 90, "texture": "#0"}
			}
		},
		{
			"from": [8.4, 6.81264, 9.3289],
			"to": [8.8, 7.21264, 9.4289],
			"rotation": {"angle": 22.5, "axis": "x", "origin": [8.55, 6.89646, 8.97679]},
			"faces": {
				"north": {"uv": [14, 2, 14, 2.2], "rotation": 90, "texture": "#0"},
				"east": {"uv": [14, 2, 14, 2.2], "rotation": 90, "texture": "#0"},
				"south": {"uv": [14, 2, 14, 2.2], "rotation": 90, "texture": "#0"},
				"west": {"uv": [14, 2, 14, 2.2], "rotation": 90, "texture": "#0"},
				"up": {"uv": [14, 2, 14, 2.2], "rotation": 90, "texture": "#0"},
				"down": {"uv": [14, 2, 14, 2.2], "rotation": 90, "texture": "#0"}
			}
		},
		{
			"from": [8.4, 6.54679, 8.84304],
			"to": [8.8, 6.64679, 9.24304],
			"rotation": {"angle": -22.5, "axis": "x", "origin": [8.55, 6.89646, 9.05333]},
			"faces": {
				"north": {"uv": [14, 2, 14, 2.2], "texture": "#0"},
				"east": {"uv": [14, 2, 14, 2.2], "texture": "#0"},
				"south": {"uv": [14, 2, 14, 2.2], "texture": "#0"},
				"west": {"uv": [14, 2, 14, 2.2], "texture": "#0"},
				"up": {"uv": [14, 2, 14, 2.2], "texture": "#0"},
				"down": {"uv": [14, 2, 14, 2.2], "texture": "#0"}
			}
		},
		{
			"from": [8, 4.47351, 3.8],
			"to": [9, 7.57351, 7.63406],
			"rotation": {"angle": 0, "axis": "x", "origin": [8.8, 6.82351, 7.18406]},
			"faces": {
				"north": {"uv": [7, 6, 7.834, 8.9], "rotation": 180, "texture": "#0"},
				"east": {"uv": [7, 6, 7.834, 8.9], "rotation": 180, "texture": "#0"},
				"south": {"uv": [7, 6, 7.834, 8.9], "rotation": 180, "texture": "#0"},
				"west": {"uv": [7, 6, 7.834, 8.9], "rotation": 180, "texture": "#0"},
				"up": {"uv": [7, 6, 7.834, 8.9], "rotation": 180, "texture": "#0"},
				"down": {"uv": [7, 8, 7.834, 8.9], "rotation": 180, "texture": "#0"}
			}
		},
		{
			"from": [9.08284, 9.17574, 8.06594],
			"to": [10.58284, 9.47574, 8.5],
			"rotation": {"angle": -45, "axis": "z", "origin": [9.58284, 9.07574, 8.28297]},
			"faces": {
				"north": {"uv": [12, 0, 13, 1.3], "rotation": 180, "texture": "#0"},
				"east": {"uv": [0, 0, 0.43406, 0.3], "rotation": 180, "texture": "#0"},
				"south": {"uv": [12, 0, 13, 1.3], "rotation": 180, "texture": "#0"},
				"west": {"uv": [0, 0, 0.43406, 0.3], "rotation": 180, "texture": "#0"},
				"up": {"uv": [12, 0, 13, 1.434], "texture": "#0"},
				"down": {"uv": [12, 0, 13, 1.434], "texture": "#0"}
			}
		},
		{
			"from": [10.08284, 7.97574, 7.96594],
			"to": [10.68284, 8.57574, 8.6],
			"rotation": {"angle": -45, "axis": "z", "origin": [10.58284, 8.07574, 8.28297]},
			"faces": {
				"north": {"uv": [13, 2, 14.6, 3.6], "rotation": 180, "texture": "#0"},
				"east": {"uv": [12, 2, 12.634, 2.6], "rotation": 180, "texture": "#0"},
				"south": {"uv": [13, 0, 14.6, 1.6], "rotation": 180, "texture": "#0"},
				"west": {"uv": [11, 2, 12.634, 3.6], "rotation": 180, "texture": "#0"},
				"up": {"uv": [13, 2.634, 13.6, 2], "texture": "#0"},
				"down": {"uv": [12, 0, 12.6, 0.634], "texture": "#0"}
			}
		},
		{
			"from": [8.83518, 9.82526, 8.06594],
			"to": [9.43518, 10.12526, 8.5],
			"rotation": {"angle": -22.5, "axis": "z", "origin": [8.43518, 9.72526, 8.28297]},
			"faces": {
				"north": {"uv": [12, 0, 12.6, 1.3], "rotation": 180, "texture": "#0"},
				"east": {"uv": [0, 0, 0.43406, 0.3], "rotation": 180, "texture": "#0"},
				"south": {"uv": [12, 0, 12.6, 1.3], "rotation": 180, "texture": "#0"},
				"west": {"uv": [0, 0, 0.43406, 0.3], "rotation": 180, "texture": "#0"},
				"up": {"uv": [12, 0, 12.6, 1.434], "texture": "#0"},
				"down": {"uv": [12, 0, 13.6, 1.434], "texture": "#0"}
			}
		}
	],
	"display": {
		"thirdperson_righthand": {
			"rotation": [3, -1, 27],
			"translation": [-2.25, -0.25, -0.75],
			"scale": [0.75, 0.75, 0.58]
		},
		"thirdperson_lefthand": {
			"rotation": [3, -1, 27],
			"translation": [-2.25, -0.25, -0.75],
			"scale": [0.75, 0.75, 0.58]
		},
		"firstperson_righthand": {
			"rotation": [3, 4, 6],
			"translation": [-0.75, 3.5, -5],
			"scale": [1.22, 1.22, 1.22]
		},
		"firstperson_lefthand": {
			"rotation": [3, 4, 6],
			"translation": [-0.75, 3.5, -5],
			"scale": [1.22, 1.22, 1.22]
		},
		"ground": {
			"translation": [0, 3.75, 0]
		},
		"gui": {
			"rotation": [-40, 135, 55],
			"translation": [2, 0, 2],
			"scale": [1.92, 0.99, 0.56]
		},
		"head": {
			"rotation": [0, 47, 90],
			"translation": [1, 6.5, 1.75]
		},
		"fixed": {
			"rotation": [90, 45, -90],
			"translation": [2.5, 0.5, -1.5],
			"scale": [0.75, 0.75, 0.58]
		}
	},
	"groups": [
		{
			"name": "dulo",
			"origin": [35.9, 18, 15],
			"children": [0, 1, 2, 3, 4, 5, 6, 7, 8, 9, 10, 11, 12, 13, 14, 15, 16, 17, 18, 19, 20, 21, 22, 23,
				{
					"name": "ending",
					"origin": [35.9, 18, 15],
					"children": [24, 25, 26, 27, 28, 29, 30, 31, 32]
				}
			]
		},
		{
			"name": "mushka",
			"origin": [8.5, 10.13942, 16.84134],
			"children": [33, 34, 35]
		},
		{
			"name": "celik",
			"origin": [8.5, 10.13942, 16.84134],
			"children": [36, 37]
		},
		{
			"name": "priklad",
			"origin": [8.5, 9.51747, 2.50685],
			"children": [
				{
					"name": "metal",
					"origin": [7.6, 4.85, 21],
					"children": [38, 39]
				}, 40, 41, 42, 43, 44, 45, 46, 47, 48, 49, 50, 51, 52, 53, 54, 55, 56, 57, 58, 59]
		},
		{
			"name": "skoba",
			"origin": [8.8, 7.78389, 9.9313],
			"children": [60, 61, 62, 63, 64, 65, 66, 67,
				{
					"name": "kruchok",
					"origin": [8.8, 7.52351, 8.28406],
					"children": [68, 69, 70, 71]
				}
			]
		},
		{
			"name": "mag",
			"origin": [8, 8, 8],
			"children": [72]
		},
		{
			"name": "rukoyatka",
			"origin": [8, 8, 8],
			"children": [73, 74, 75]
		}
	]
}