{
    "textures": {
        "0": "gci:items/common/all_in_one", 
        "2": "gci:items/common/mpz", 
        "particle": "gci:items/common/all_in_one"
    }, 
    "elements": [
        {
            "to": [
                8.37158, 
                8.79753, 
                16.08375
            ], 
            "rotation": {
                "origin": [
                    7.97158, 
                    8.01485, 
                    14.45987
                ], 
                "angle": 22.5, 
                "axis": "x"
            }, 
            "from": [
                7.57158, 
                7.69753, 
                14.93175
            ], 
            "name": "lozhe", 
            "faces": {
                "north": {
                    "rotation": 180, 
                    "uv": [
                        0.25, 
                        2.5, 
                        0.5, 
                        3.075
                    ], 
                    "texture": "#0"
                }, 
                "west": {
                    "rotation": 180, 
                    "uv": [
                        0.25, 
                        2.5, 
                        0.5, 
                        3.075
                    ], 
                    "texture": "#0"
                }, 
                "up": {
                    "rotation": 180, 
                    "uv": [
                        0.25, 
                        2.5, 
                        0.25, 
                        2.5
                    ], 
                    "texture": "#0"
                }, 
                "down": {
                    "rotation": 180, 
                    "uv": [
                        0.25, 
                        2.5, 
                        0.5, 
                        3.075
                    ], 
                    "texture": "#0"
                }, 
                "east": {
                    "rotation": 180, 
                    "uv": [
                        0.25, 
                        2.5, 
                        0.5, 
                        3.075
                    ], 
                    "texture": "#0"
                }, 
                "south": {
                    "rotation": 180, 
                    "uv": [
                        0.25, 
                        2.5, 
                        0.5, 
                        3.075
                    ], 
                    "texture": "#0"
                }
            }
        }, 
        {
            "to": [
                8.24358, 
                8.79753, 
                16.01975
            ], 
            "rotation": {
                "origin": [
                    7.97158, 
                    8.01485, 
                    14.39587
                ], 
                "angle": 22.5, 
                "axis": "x"
            }, 
            "from": [
                7.69958, 
                7.69753, 
                14.93175
            ], 
            "name": "lozhe", 
            "faces": {
                "north": {
                    "rotation": 180, 
                    "uv": [
                        0, 
                        1.875, 
                        0, 
                        1.875
                    ], 
                    "texture": "#0"
                }, 
                "west": {
                    "rotation": 180, 
                    "uv": [
                        0, 
                        1.875, 
                        0, 
                        1.875
                    ], 
                    "texture": "#0"
                }, 
                "up": {
                    "rotation": 180, 
                    "uv": [
                        0, 
                        1.875, 
                        0, 
                        1.875
                    ], 
                    "texture": "#0"
                }, 
                "down": {
                    "rotation": 180, 
                    "uv": [
                        0, 
                        1.875, 
                        0, 
                        1.875
                    ], 
                    "texture": "#0"
                }, 
                "east": {
                    "rotation": 180, 
                    "uv": [
                        0, 
                        1.875, 
                        0, 
                        1.875
                    ], 
                    "texture": "#0"
                }, 
                "south": {
                    "rotation": 180, 
                    "uv": [
                        0, 
                        1.875, 
                        0, 
                        1.875
                    ], 
                    "texture": "#0"
                }
            }
        }, 
        {
            "to": [
                8.37158, 
                7.87032, 
                18.51804
            ], 
            "rotation": {
                "origin": [
                    7.97158, 
                    7.32032, 
                    16.27804
                ], 
                "angle": 45, 
                "axis": "x"
            }, 
            "from": [
                7.57158, 
                6.77032, 
                15.70204
            ], 
            "name": "lozhe", 
            "faces": {
                "north": {
                    "rotation": 180, 
                    "uv": [
                        0.25, 
                        2.5, 
                        0.5, 
                        3.075
                    ], 
                    "texture": "#0"
                }, 
                "west": {
                    "rotation": 180, 
                    "uv": [
                        0.25, 
                        2.5, 
                        0.5, 
                        3.075
                    ], 
                    "texture": "#0"
                }, 
                "up": {
                    "rotation": 180, 
                    "uv": [
                        0.25, 
                        2.5, 
                        0.25, 
                        2.5
                    ], 
                    "texture": "#0"
                }, 
                "down": {
                    "rotation": 180, 
                    "uv": [
                        0.25, 
                        2.5, 
                        0.5, 
                        3.075
                    ], 
                    "texture": "#0"
                }, 
                "east": {
                    "rotation": 180, 
                    "uv": [
                        0.25, 
                        2.5, 
                        0.5, 
                        3.075
                    ], 
                    "texture": "#0"
                }, 
                "south": {
                    "rotation": 180, 
                    "uv": [
                        0.25, 
                        2.5, 
                        0.5, 
                        3.075
                    ], 
                    "texture": "#0"
                }
            }
        }, 
        {
            "to": [
                8.33578, 
                6.52953, 
                24.90775
            ], 
            "rotation": {
                "origin": [
                    7.97158, 
                    7.09753, 
                    19.08375
                ], 
                "angle": 0, 
                "axis": "x"
            }, 
            "from": [
                7.60778, 
                4.81753, 
                22.30775
            ], 
            "name": "lozhe", 
            "faces": {
                "north": {
                    "rotation": 180, 
                    "uv": [
                        0.25, 
                        2.5, 
                        0.5, 
                        3.075
                    ], 
                    "texture": "#0"
                }, 
                "west": {
                    "rotation": 180, 
                    "uv": [
                        0.25, 
                        2.5, 
                        0.5, 
                        3.075
                    ], 
                    "texture": "#0"
                }, 
                "up": {
                    "rotation": 180, 
                    "uv": [
                        0.25, 
                        2.5, 
                        0.25, 
                        2.5
                    ], 
                    "texture": "#0"
                }, 
                "down": {
                    "rotation": 180, 
                    "uv": [
                        0.25, 
                        2.5, 
                        0.5, 
                        3.075
                    ], 
                    "texture": "#0"
                }, 
                "east": {
                    "rotation": 180, 
                    "uv": [
                        0.25, 
                        2.5, 
                        0.5, 
                        3.075
                    ], 
                    "texture": "#0"
                }, 
                "south": {
                    "rotation": 180, 
                    "uv": [
                        0.25, 
                        2.5, 
                        0.5, 
                        3.075
                    ], 
                    "texture": "#0"
                }
            }
        }, 
        {
            "to": [
                8.33568, 
                8.12953, 
                24.90775
            ], 
            "rotation": {
                "origin": [
                    7.97158, 
                    7.09753, 
                    19.08375
                ], 
                "angle": 0, 
                "axis": "x"
            }, 
            "from": [
                7.60768, 
                6.28953, 
                17.82775
            ], 
            "name": "lozhe", 
            "faces": {
                "north": {
                    "rotation": 180, 
                    "uv": [
                        0.25, 
                        2.5, 
                        0.5, 
                        3.075
                    ], 
                    "texture": "#0"
                }, 
                "west": {
                    "rotation": 180, 
                    "uv": [
                        0.25, 
                        2.5, 
                        0.5, 
                        3.075
                    ], 
                    "texture": "#0"
                }, 
                "up": {
                    "rotation": 180, 
                    "uv": [
                        0.25, 
                        2.5, 
                        0.25, 
                        2.5
                    ], 
                    "texture": "#0"
                }, 
                "down": {
                    "rotation": 180, 
                    "uv": [
                        0.25, 
                        2.5, 
                        0.5, 
                        3.075
                    ], 
                    "texture": "#0"
                }, 
                "east": {
                    "rotation": 180, 
                    "uv": [
                        0.25, 
                        2.5, 
                        0.5, 
                        3.075
                    ], 
                    "texture": "#0"
                }, 
                "south": {
                    "rotation": 180, 
                    "uv": [
                        0.25, 
                        2.5, 
                        0.5, 
                        3.075
                    ], 
                    "texture": "#0"
                }
            }
        }, 
        {
            "to": [
                8.20557, 
                8.25964, 
                24.90775
            ], 
            "rotation": {
                "origin": [
                    7.93232, 
                    7.12226, 
                    19.14775
                ], 
                "angle": 0, 
                "axis": "x"
            }, 
            "from": [
                7.73779, 
                6.31426, 
                17.79575
            ], 
            "name": "lozhe", 
            "faces": {
                "north": {
                    "rotation": 180, 
                    "uv": [
                        0.25, 
                        2.5, 
                        0.5, 
                        3.075
                    ], 
                    "texture": "#0"
                }, 
                "west": {
                    "rotation": 180, 
                    "uv": [
                        0.25, 
                        2.5, 
                        0.5, 
                        3.075
                    ], 
                    "texture": "#0"
                }, 
                "up": {
                    "rotation": 180, 
                    "uv": [
                        0.25, 
                        2.5, 
                        0.25, 
                        2.5
                    ], 
                    "texture": "#0"
                }, 
                "down": {
                    "rotation": 180, 
                    "uv": [
                        0.25, 
                        2.5, 
                        0.5, 
                        3.075
                    ], 
                    "texture": "#0"
                }, 
                "east": {
                    "rotation": 180, 
                    "uv": [
                        0.25, 
                        2.5, 
                        0.5, 
                        3.075
                    ], 
                    "texture": "#0"
                }, 
                "south": {
                    "rotation": 180, 
                    "uv": [
                        0.25, 
                        2.5, 
                        0.5, 
                        3.075
                    ], 
                    "texture": "#0"
                }
            }
        }, 
        {
            "to": [
                8.23952, 
                8.29359, 
                25.23975
            ], 
            "rotation": {
                "origin": [
                    7.93232, 
                    7.12226, 
                    19.46775
                ], 
                "angle": 0, 
                "axis": "x"
            }, 
            "from": [
                7.70374, 
                6.31426, 
                24.83575
            ], 
            "name": "lozhe", 
            "faces": {
                "north": {
                    "rotation": 180, 
                    "uv": [
                        2.875, 
                        3.125, 
                        2.875, 
                        3.125
                    ], 
                    "texture": "#0"
                }, 
                "west": {
                    "rotation": 180, 
                    "uv": [
                        2.875, 
                        3.125, 
                        2.875, 
                        3.125
                    ], 
                    "texture": "#0"
                }, 
                "up": {
                    "rotation": 180, 
                    "uv": [
                        2.875, 
                        3.125, 
                        2.875, 
                        3.125
                    ], 
                    "texture": "#0"
                }, 
                "down": {
                    "rotation": 180, 
                    "uv": [
                        2.875, 
                        3.125, 
                        2.875, 
                        3.125
                    ], 
                    "texture": "#0"
                }, 
                "east": {
                    "rotation": 180, 
                    "uv": [
                        2.875, 
                        3.125, 
                        2.875, 
                        3.125
                    ], 
                    "texture": "#0"
                }, 
                "south": {
                    "rotation": 180, 
                    "uv": [
                        2.875, 
                        3.125, 
                        2.875, 
                        3.125
                    ], 
                    "texture": "#0"
                }
            }
        }, 
        {
            "to": [
                8.35777, 
                8.26287, 
                24.90775
            ], 
            "rotation": {
                "origin": [
                    8.18577, 
                    8.22287, 
                    21.57575
                ], 
                "angle": -45, 
                "axis": "z"
            }, 
            "from": [
                8.17377, 
                8.15087, 
                17.79575
            ], 
            "name": "lozhe", 
            "faces": {
                "north": {
                    "rotation": 180, 
                    "uv": [
                        0.25, 
                        2.5, 
                        0.5, 
                        3.075
                    ], 
                    "texture": "#0"
                }, 
                "west": {
                    "rotation": 180, 
                    "uv": [
                        0.25, 
                        2.5, 
                        0.5, 
                        3.075
                    ], 
                    "texture": "#0"
                }, 
                "up": {
                    "rotation": 180, 
                    "uv": [
                        0.25, 
                        2.5, 
                        0.25, 
                        2.5
                    ], 
                    "texture": "#0"
                }, 
                "down": {
                    "rotation": 180, 
                    "uv": [
                        0.25, 
                        2.5, 
                        0.5, 
                        3.075
                    ], 
                    "texture": "#0"
                }, 
                "east": {
                    "rotation": 180, 
                    "uv": [
                        0.25, 
                        2.5, 
                        0.5, 
                        3.075
                    ], 
                    "texture": "#0"
                }, 
                "south": {
                    "rotation": 180, 
                    "uv": [
                        0.25, 
                        2.5, 
                        0.5, 
                        3.075
                    ], 
                    "texture": "#0"
                }
            }
        }, 
        {
            "to": [
                8.36053, 
                8.31088, 
                25.23975
            ], 
            "rotation": {
                "origin": [
                    8.18577, 
                    8.22287, 
                    21.89575
                ], 
                "angle": -45, 
                "axis": "z"
            }, 
            "from": [
                8.17377, 
                8.18287, 
                24.84375
            ], 
            "name": "lozhe", 
            "faces": {
                "north": {
                    "rotation": 180, 
                    "uv": [
                        2.875, 
                        3.125, 
                        2.875, 
                        3.125
                    ], 
                    "texture": "#0"
                }, 
                "west": {
                    "rotation": 180, 
                    "uv": [
                        2.875, 
                        3.125, 
                        2.875, 
                        3.125
                    ], 
                    "texture": "#0"
                }, 
                "up": {
                    "rotation": 180, 
                    "uv": [
                        2.875, 
                        3.125, 
                        2.875, 
                        3.125
                    ], 
                    "texture": "#0"
                }, 
                "down": {
                    "rotation": 180, 
                    "uv": [
                        2.875, 
                        3.125, 
                        2.875, 
                        3.125
                    ], 
                    "texture": "#0"
                }, 
                "east": {
                    "rotation": 180, 
                    "uv": [
                        2.875, 
                        3.125, 
                        2.875, 
                        3.125
                    ], 
                    "texture": "#0"
                }, 
                "south": {
                    "rotation": 180, 
                    "uv": [
                        2.875, 
                        3.125, 
                        2.875, 
                        3.125
                    ], 
                    "texture": "#0"
                }
            }
        }, 
        {
            "to": [
                7.76959, 
                8.26287, 
                24.90775
            ], 
            "rotation": {
                "origin": [
                    7.75759, 
                    8.22287, 
                    21.57575
                ], 
                "angle": 45, 
                "axis": "z"
            }, 
            "from": [
                7.58559, 
                8.15087, 
                17.79575
            ], 
            "name": "lozhe", 
            "faces": {
                "north": {
                    "rotation": 180, 
                    "uv": [
                        0.25, 
                        2.5, 
                        0.5, 
                        3.075
                    ], 
                    "texture": "#0"
                }, 
                "west": {
                    "rotation": 180, 
                    "uv": [
                        0.25, 
                        2.5, 
                        0.5, 
                        3.075
                    ], 
                    "texture": "#0"
                }, 
                "up": {
                    "rotation": 180, 
                    "uv": [
                        0.25, 
                        2.5, 
                        0.25, 
                        2.5
                    ], 
                    "texture": "#0"
                }, 
                "down": {
                    "rotation": 180, 
                    "uv": [
                        0.25, 
                        2.5, 
                        0.5, 
                        3.075
                    ], 
                    "texture": "#0"
                }, 
                "east": {
                    "rotation": 180, 
                    "uv": [
                        0.25, 
                        2.5, 
                        0.5, 
                        3.075
                    ], 
                    "texture": "#0"
                }, 
                "south": {
                    "rotation": 180, 
                    "uv": [
                        0.25, 
                        2.5, 
                        0.5, 
                        3.075
                    ], 
                    "texture": "#0"
                }
            }
        }, 
        {
            "to": [
                7.76959, 
                8.31102, 
                25.23975
            ], 
            "rotation": {
                "origin": [
                    7.75759, 
                    8.22287, 
                    21.89575
                ], 
                "angle": 45, 
                "axis": "z"
            }, 
            "from": [
                7.58269, 
                8.18287, 
                24.84375
            ], 
            "name": "lozhe", 
            "faces": {
                "north": {
                    "rotation": 180, 
                    "uv": [
                        2.875, 
                        3.125, 
                        2.875, 
                        3.125
                    ], 
                    "texture": "#0"
                }, 
                "west": {
                    "rotation": 180, 
                    "uv": [
                        2.875, 
                        3.125, 
                        2.875, 
                        3.125
                    ], 
                    "texture": "#0"
                }, 
                "up": {
                    "rotation": 180, 
                    "uv": [
                        2.875, 
                        3.125, 
                        2.875, 
                        3.125
                    ], 
                    "texture": "#0"
                }, 
                "down": {
                    "rotation": 180, 
                    "uv": [
                        2.875, 
                        3.125, 
                        2.875, 
                        3.125
                    ], 
                    "texture": "#0"
                }, 
                "east": {
                    "rotation": 180, 
                    "uv": [
                        2.875, 
                        3.125, 
                        2.875, 
                        3.125
                    ], 
                    "texture": "#0"
                }, 
                "south": {
                    "rotation": 180, 
                    "uv": [
                        2.875, 
                        3.125, 
                        2.875, 
                        3.125
                    ], 
                    "texture": "#0"
                }
            }
        }, 
        {
            "to": [
                8.33568, 
                6.84486, 
                18.44928
            ], 
            "rotation": {
                "origin": [
                    7.97168, 
                    5.92486, 
                    14.90928
                ], 
                "angle": -22.5, 
                "axis": "x"
            }, 
            "from": [
                7.60768, 
                5.00486, 
                16.58528
            ], 
            "name": "lozhe", 
            "faces": {
                "north": {
                    "rotation": 180, 
                    "uv": [
                        0.25, 
                        2.5, 
                        0.5, 
                        3.075
                    ], 
                    "texture": "#0"
                }, 
                "west": {
                    "rotation": 180, 
                    "uv": [
                        0.25, 
                        2.5, 
                        0.5, 
                        3.075
                    ], 
                    "texture": "#0"
                }, 
                "up": {
                    "rotation": 180, 
                    "uv": [
                        0.25, 
                        2.5, 
                        0.25, 
                        2.5
                    ], 
                    "texture": "#0"
                }, 
                "down": {
                    "rotation": 180, 
                    "uv": [
                        0.25, 
                        2.5, 
                        0.5, 
                        3.075
                    ], 
                    "texture": "#0"
                }, 
                "east": {
                    "rotation": 180, 
                    "uv": [
                        0.25, 
                        2.5, 
                        0.5, 
                        3.075
                    ], 
                    "texture": "#0"
                }, 
                "south": {
                    "rotation": 180, 
                    "uv": [
                        0.25, 
                        2.5, 
                        0.5, 
                        3.075
                    ], 
                    "texture": "#0"
                }
            }
        }, 
        {
            "to": [
                8.33578, 
                7.8429, 
                18.25076
            ], 
            "rotation": {
                "origin": [
                    7.97168, 
                    6.9229, 
                    17.31876
                ], 
                "angle": 0, 
                "axis": "x"
            }, 
            "from": [
                7.60778, 
                6.8029, 
                16.38676
            ], 
            "name": "lozhe", 
            "faces": {
                "north": {
                    "rotation": 180, 
                    "uv": [
                        0.25, 
                        2.5, 
                        0.5, 
                        3.075
                    ], 
                    "texture": "#0"
                }, 
                "west": {
                    "rotation": 180, 
                    "uv": [
                        0.25, 
                        2.5, 
                        0.5, 
                        3.075
                    ], 
                    "texture": "#0"
                }, 
                "up": {
                    "rotation": 180, 
                    "uv": [
                        0.25, 
                        2.5, 
                        0.25, 
                        2.5
                    ], 
                    "texture": "#0"
                }, 
                "down": {
                    "rotation": 180, 
                    "uv": [
                        0.25, 
                        2.5, 
                        0.5, 
                        3.075
                    ], 
                    "texture": "#0"
                }, 
                "east": {
                    "rotation": 180, 
                    "uv": [
                        0.25, 
                        2.5, 
                        0.5, 
                        3.075
                    ], 
                    "texture": "#0"
                }, 
                "south": {
                    "rotation": 180, 
                    "uv": [
                        0.25, 
                        2.5, 
                        0.5, 
                        3.075
                    ], 
                    "texture": "#0"
                }
            }
        }, 
        {
            "to": [
                8.23978, 
                7.9069, 
                17.29076
            ], 
            "rotation": {
                "origin": [
                    7.97168, 
                    6.9869, 
                    17.31876
                ], 
                "angle": 0, 
                "axis": "x"
            }, 
            "from": [
                7.70378, 
                7.7789, 
                16.38676
            ], 
            "name": "lozhe", 
            "faces": {
                "north": {
                    "rotation": 180, 
                    "uv": [
                        0.25, 
                        2.5, 
                        0.5, 
                        3.075
                    ], 
                    "texture": "#0"
                }, 
                "west": {
                    "rotation": 180, 
                    "uv": [
                        0.25, 
                        2.5, 
                        0.5, 
                        3.075
                    ], 
                    "texture": "#0"
                }, 
                "up": {
                    "rotation": 180, 
                    "uv": [
                        0.25, 
                        2.5, 
                        0.25, 
                        2.5
                    ], 
                    "texture": "#0"
                }, 
                "down": {
                    "rotation": 180, 
                    "uv": [
                        0.25, 
                        2.5, 
                        0.5, 
                        3.075
                    ], 
                    "texture": "#0"
                }, 
                "east": {
                    "rotation": 180, 
                    "uv": [
                        0.25, 
                        2.5, 
                        0.5, 
                        3.075
                    ], 
                    "texture": "#0"
                }, 
                "south": {
                    "rotation": 180, 
                    "uv": [
                        0.25, 
                        2.5, 
                        0.5, 
                        3.075
                    ], 
                    "texture": "#0"
                }
            }
        }, 
        {
            "to": [
                8.33568, 
                7.07353, 
                25.13175
            ], 
            "rotation": {
                "origin": [
                    7.97158, 
                    6.71353, 
                    19.08375
                ], 
                "angle": 22.5, 
                "axis": "x"
            }, 
            "from": [
                7.60768, 
                6.06553, 
                18.40375
            ], 
            "name": "lozhe", 
            "faces": {
                "north": {
                    "rotation": 180, 
                    "uv": [
                        0.25, 
                        2.5, 
                        0.5, 
                        3.075
                    ], 
                    "texture": "#0"
                }, 
                "west": {
                    "rotation": 180, 
                    "uv": [
                        0.25, 
                        2.5, 
                        0.5, 
                        3.075
                    ], 
                    "texture": "#0"
                }, 
                "up": {
                    "rotation": 180, 
                    "uv": [
                        0.25, 
                        2.5, 
                        0.25, 
                        2.5
                    ], 
                    "texture": "#0"
                }, 
                "down": {
                    "rotation": 180, 
                    "uv": [
                        0.25, 
                        2.5, 
                        0.5, 
                        3.075
                    ], 
                    "texture": "#0"
                }, 
                "east": {
                    "rotation": 180, 
                    "uv": [
                        0.25, 
                        2.5, 
                        0.5, 
                        3.075
                    ], 
                    "texture": "#0"
                }, 
                "south": {
                    "rotation": 180, 
                    "uv": [
                        0.25, 
                        2.5, 
                        0.5, 
                        3.075
                    ], 
                    "texture": "#0"
                }
            }
        }, 
        {
            "to": [
                8.33588, 
                7.64953, 
                25.13175
            ], 
            "rotation": {
                "origin": [
                    7.97158, 
                    6.71353, 
                    19.08375
                ], 
                "angle": 22.5, 
                "axis": "x"
            }, 
            "from": [
                7.60788, 
                6.67353, 
                18.40375
            ], 
            "name": "lozhe", 
            "faces": {
                "north": {
                    "rotation": 180, 
                    "uv": [
                        0.25, 
                        2.5, 
                        0.5, 
                        3.075
                    ], 
                    "texture": "#0"
                }, 
                "west": {
                    "rotation": 180, 
                    "uv": [
                        0.25, 
                        2.5, 
                        0.5, 
                        3.075
                    ], 
                    "texture": "#0"
                }, 
                "up": {
                    "rotation": 180, 
                    "uv": [
                        0.25, 
                        2.5, 
                        0.25, 
                        2.5
                    ], 
                    "texture": "#0"
                }, 
                "down": {
                    "rotation": 180, 
                    "uv": [
                        0.25, 
                        2.5, 
                        0.5, 
                        3.075
                    ], 
                    "texture": "#0"
                }, 
                "east": {
                    "rotation": 180, 
                    "uv": [
                        0.25, 
                        2.5, 
                        0.5, 
                        3.075
                    ], 
                    "texture": "#0"
                }, 
                "south": {
                    "rotation": 180, 
                    "uv": [
                        0.25, 
                        2.5, 
                        0.5, 
                        3.075
                    ], 
                    "texture": "#0"
                }
            }
        }, 
        {
            "to": [
                8.37158, 
                6.86552, 
                25.91525
            ], 
            "rotation": {
                "origin": [
                    8.00758, 
                    7.52952, 
                    20.37925
                ], 
                "angle": 22.5, 
                "axis": "x"
            }, 
            "from": [
                7.57158, 
                5.47352, 
                25.47809
            ], 
            "name": "lozhe", 
            "faces": {
                "north": {
                    "rotation": 180, 
                    "uv": [
                        2.875, 
                        3, 
                        2.875, 
                        3.45
                    ], 
                    "texture": "#0"
                }, 
                "west": {
                    "rotation": 180, 
                    "uv": [
                        2.875, 
                        3, 
                        2.875, 
                        3.45
                    ], 
                    "texture": "#0"
                }, 
                "up": {
                    "rotation": 180, 
                    "uv": [
                        2.875, 
                        3, 
                        2.875, 
                        3.45
                    ], 
                    "texture": "#0"
                }, 
                "down": {
                    "rotation": 180, 
                    "uv": [
                        2.875, 
                        3, 
                        2.875, 
                        3.45
                    ], 
                    "texture": "#0"
                }, 
                "east": {
                    "rotation": 180, 
                    "uv": [
                        2.875, 
                        3, 
                        2.875, 
                        3.45
                    ], 
                    "texture": "#0"
                }, 
                "south": {
                    "rotation": 180, 
                    "uv": [
                        2.875, 
                        3, 
                        2.875, 
                        3.45
                    ], 
                    "texture": "#0"
                }
            }
        }, 
        {
            "to": [
                8.37158, 
                8.16153, 
                25.23975
            ], 
            "rotation": {
                "origin": [
                    7.97158, 
                    7.09753, 
                    18.73975
                ], 
                "angle": 0, 
                "axis": "x"
            }, 
            "from": [
                7.57158, 
                4.79753, 
                24.84375
            ], 
            "name": "lozhe", 
            "faces": {
                "north": {
                    "rotation": 180, 
                    "uv": [
                        2.875, 
                        3.125, 
                        2.875, 
                        3.125
                    ], 
                    "texture": "#0"
                }, 
                "west": {
                    "rotation": 180, 
                    "uv": [
                        2.875, 
                        3.125, 
                        2.875, 
                        3.125
                    ], 
                    "texture": "#0"
                }, 
                "up": {
                    "rotation": 180, 
                    "uv": [
                        2.875, 
                        3.125, 
                        2.875, 
                        3.125
                    ], 
                    "texture": "#0"
                }, 
                "down": {
                    "rotation": 180, 
                    "uv": [
                        2.875, 
                        3.125, 
                        2.875, 
                        3.125
                    ], 
                    "texture": "#0"
                }, 
                "east": {
                    "rotation": 180, 
                    "uv": [
                        2.875, 
                        3.125, 
                        2.875, 
                        3.125
                    ], 
                    "texture": "#0"
                }, 
                "south": {
                    "rotation": 180, 
                    "uv": [
                        2.875, 
                        3.125, 
                        2.875, 
                        3.125
                    ], 
                    "texture": "#0"
                }
            }
        }, 
        {
            "to": [
                8.36368, 
                6.8721, 
                16.89131
            ], 
            "rotation": {
                "origin": [
                    7.96748, 
                    6.7221, 
                    16.74131
                ], 
                "angle": -22.5, 
                "axis": "x"
            }, 
            "from": [
                7.57168, 
                5.1721, 
                16.29131
            ], 
            "name": "lozhe", 
            "faces": {
                "north": {
                    "rotation": 90, 
                    "uv": [
                        0.25, 
                        2.5, 
                        0.5, 
                        3.075
                    ], 
                    "texture": "#0"
                }, 
                "west": {
                    "rotation": 90, 
                    "uv": [
                        0.25, 
                        2.5, 
                        0.5, 
                        3.075
                    ], 
                    "texture": "#0"
                }, 
                "up": {
                    "rotation": 90, 
                    "uv": [
                        0.25, 
                        2.5, 
                        0.25, 
                        2.5
                    ], 
                    "texture": "#0"
                }, 
                "down": {
                    "rotation": 90, 
                    "uv": [
                        0.25, 
                        2.5, 
                        0.5, 
                        3.075
                    ], 
                    "texture": "#0"
                }, 
                "east": {
                    "rotation": 90, 
                    "uv": [
                        0.25, 
                        2.5, 
                        0.5, 
                        3.075
                    ], 
                    "texture": "#0"
                }, 
                "south": {
                    "rotation": 90, 
                    "uv": [
                        0.25, 
                        2.5, 
                        0.5, 
                        3.075
                    ], 
                    "texture": "#0"
                }
            }
        }, 
        {
            "to": [
                8.23568, 
                6.8721, 
                16.82731
            ], 
            "rotation": {
                "origin": [
                    7.96748, 
                    6.7221, 
                    16.67731
                ], 
                "angle": -22.5, 
                "axis": "x"
            }, 
            "from": [
                7.69968, 
                5.1081, 
                16.22731
            ], 
            "name": "lozhe", 
            "faces": {
                "north": {
                    "rotation": 90, 
                    "uv": [
                        0, 
                        1.875, 
                        0, 
                        1.875
                    ], 
                    "texture": "#0"
                }, 
                "west": {
                    "rotation": 90, 
                    "uv": [
                        0, 
                        1.875, 
                        0, 
                        1.875
                    ], 
                    "texture": "#0"
                }, 
                "up": {
                    "rotation": 90, 
                    "uv": [
                        0, 
                        1.875, 
                        0, 
                        1.875
                    ], 
                    "texture": "#0"
                }, 
                "down": {
                    "rotation": 90, 
                    "uv": [
                        0, 
                        1.875, 
                        0, 
                        1.875
                    ], 
                    "texture": "#0"
                }, 
                "east": {
                    "rotation": 90, 
                    "uv": [
                        0, 
                        1.875, 
                        0, 
                        1.875
                    ], 
                    "texture": "#0"
                }, 
                "south": {
                    "rotation": 90, 
                    "uv": [
                        0, 
                        1.875, 
                        0, 
                        1.875
                    ], 
                    "texture": "#0"
                }
            }
        }, 
        {
            "to": [
                8.33558, 
                7.64953, 
                24.39575
            ], 
            "rotation": {
                "origin": [
                    7.97158, 
                    7.09753, 
                    19.08375
                ], 
                "angle": 0, 
                "axis": "x"
            }, 
            "from": [
                7.60758, 
                6.28953, 
                16.54775
            ], 
            "name": "lozhe", 
            "faces": {
                "north": {
                    "rotation": 180, 
                    "uv": [
                        0.25, 
                        2.5, 
                        0.5, 
                        3.075
                    ], 
                    "texture": "#0"
                }, 
                "west": {
                    "rotation": 180, 
                    "uv": [
                        0.25, 
                        2.5, 
                        0.5, 
                        3.075
                    ], 
                    "texture": "#0"
                }, 
                "up": {
                    "rotation": 180, 
                    "uv": [
                        0.25, 
                        2.5, 
                        0.25, 
                        2.5
                    ], 
                    "texture": "#0"
                }, 
                "down": {
                    "rotation": 180, 
                    "uv": [
                        0.25, 
                        2.5, 
                        0.5, 
                        3.075
                    ], 
                    "texture": "#0"
                }, 
                "east": {
                    "rotation": 180, 
                    "uv": [
                        0.25, 
                        2.5, 
                        0.5, 
                        3.075
                    ], 
                    "texture": "#0"
                }, 
                "south": {
                    "rotation": 180, 
                    "uv": [
                        0.25, 
                        2.5, 
                        0.5, 
                        3.075
                    ], 
                    "texture": "#0"
                }
            }
        }, 
        {
            "to": [
                8.24358, 
                7.87032, 
                18.45404
            ], 
            "rotation": {
                "origin": [
                    7.97158, 
                    7.32032, 
                    16.21404
                ], 
                "angle": 45, 
                "axis": "x"
            }, 
            "from": [
                7.69958, 
                6.77032, 
                15.63804
            ], 
            "name": "lozhe", 
            "faces": {
                "north": {
                    "rotation": 180, 
                    "uv": [
                        0, 
                        1.875, 
                        0, 
                        1.875
                    ], 
                    "texture": "#0"
                }, 
                "west": {
                    "rotation": 180, 
                    "uv": [
                        0, 
                        1.875, 
                        0, 
                        1.875
                    ], 
                    "texture": "#0"
                }, 
                "up": {
                    "rotation": 180, 
                    "uv": [
                        0, 
                        1.875, 
                        0, 
                        1.875
                    ], 
                    "texture": "#0"
                }, 
                "down": {
                    "rotation": 180, 
                    "uv": [
                        0, 
                        1.875, 
                        0, 
                        1.875
                    ], 
                    "texture": "#0"
                }, 
                "east": {
                    "rotation": 180, 
                    "uv": [
                        0, 
                        1.875, 
                        0, 
                        1.875
                    ], 
                    "texture": "#0"
                }, 
                "south": {
                    "rotation": 180, 
                    "uv": [
                        0, 
                        1.875, 
                        0, 
                        1.875
                    ], 
                    "texture": "#0"
                }
            }
        }, 
        {
            "to": [
                8.23968, 
                6.90886, 
                18.44928
            ], 
            "rotation": {
                "origin": [
                    7.97168, 
                    5.98886, 
                    14.90928
                ], 
                "angle": -22.5, 
                "axis": "x"
            }, 
            "from": [
                7.70368, 
                6.76486, 
                17.67328
            ], 
            "name": "lozhe", 
            "faces": {
                "north": {
                    "rotation": 180, 
                    "uv": [
                        0.25, 
                        2.5, 
                        0.5, 
                        3.075
                    ], 
                    "texture": "#0"
                }, 
                "west": {
                    "rotation": 180, 
                    "uv": [
                        0.25, 
                        2.5, 
                        0.5, 
                        3.075
                    ], 
                    "texture": "#0"
                }, 
                "up": {
                    "rotation": 180, 
                    "uv": [
                        0.25, 
                        2.5, 
                        0.25, 
                        2.5
                    ], 
                    "texture": "#0"
                }, 
                "down": {
                    "rotation": 180, 
                    "uv": [
                        0.25, 
                        2.5, 
                        0.5, 
                        3.075
                    ], 
                    "texture": "#0"
                }, 
                "east": {
                    "rotation": 180, 
                    "uv": [
                        0.25, 
                        2.5, 
                        0.5, 
                        3.075
                    ], 
                    "texture": "#0"
                }, 
                "south": {
                    "rotation": 180, 
                    "uv": [
                        0.25, 
                        2.5, 
                        0.5, 
                        3.075
                    ], 
                    "texture": "#0"
                }
            }
        }
    ], 
    "display": {
        "thirdperson_righthand": {
            "rotation": [
                -4, 
                -1, 
                6
            ], 
            "scale": [
                0.88, 
                0.88, 
                0.88
            ], 
            "translation": [
                -2, 
                -0.75, 
                -3.5
            ]
        }, 
        "head": {
            "rotation": [
                0, 
                91, 
                90
            ], 
            "scale": [
                1.61, 
                1.5, 
                1.28
            ], 
            "translation": [
                -2, 
                7, 
                0
            ]
        }, 
        "thirdperson_lefthand": {
            "rotation": [
                -4, 
                -1, 
                6
            ], 
            "scale": [
                0.88, 
                0.88, 
                0.88
            ], 
            "translation": [
                -2, 
                -0.75, 
                -3.5
            ]
        }, 
        "gui": {
            "rotation": [
                27, 
                38, 
                -14
            ], 
            "scale": [
                1.11, 
                1.14, 
                0.77
            ], 
            "translation": [
                0, 
                3, 
                1.75
            ]
        }, 
        "firstperson_righthand": {
            "rotation": [
                1, 
                0, 
                0
            ], 
            "scale": [
                1.36, 
                1.36, 
                0.89
            ], 
            "translation": [
                -4.25, 
                5, 
                0.25
            ]
        }, 
        "firstperson_lefthand": {
            "rotation": [
                1, 
                0, 
                0
            ], 
            "scale": [
                1.36, 
                1.36, 
                0.89
            ], 
            "translation": [
                -4.25, 
                5, 
                0.25
            ]
        }, 
        "fixed": {
            "rotation": [
                0, 
                91, 
                0
            ], 
            "scale": [
                0.9, 
                1.28, 
                0.97
            ], 
            "translation": [
                2, 
                -0.25, 
                -1
            ]
        }, 
        "ground": {
            "scale": [
                1, 
                0.99, 
                0.54
            ]
        }
    }
}