{
    "textures": {
        "0": "gci:items/common/all_in_one", 
        "2": "gci:items/common/mpz", 
        "particle": "gci:items/common/all_in_one"
    }, 
    "elements": [
        {
            "to": [
                7.90495, 
                6.84026, 
                2.00874
            ], 
            "rotation": {
                "origin": [
                    7.72095, 
                    5.84826, 
                    1.93074
                ], 
                "angle": -45, 
                "axis": "y"
            }, 
            "from": [
                7.53695, 
                6.29626, 
                1.85274
            ], 
            "faces": {
                "north": {
                    "rotation": 90, 
                    "uv": [
                        3, 
                        3, 
                        3, 
                        3
                    ], 
                    "texture": "#0"
                }, 
                "west": {
                    "rotation": 90, 
                    "uv": [
                        3, 
                        3, 
                        3, 
                        3
                    ], 
                    "texture": "#0"
                }, 
                "up": {
                    "rotation": 90, 
                    "uv": [
                        3, 
                        3, 
                        3, 
                        3
                    ], 
                    "texture": "#0"
                }, 
                "down": {
                    "rotation": 90, 
                    "uv": [
                        3, 
                        3, 
                        3, 
                        3
                    ], 
                    "texture": "#0"
                }, 
                "east": {
                    "rotation": 90, 
                    "uv": [
                        3, 
                        3, 
                        3, 
                        3
                    ], 
                    "texture": "#0"
                }, 
                "south": {
                    "rotation": 90, 
                    "uv": [
                        3, 
                        3, 
                        3, 
                        3
                    ], 
                    "texture": "#0"
                }
            }
        }, 
        {
            "to": [
                7.90495, 
                6.16826, 
                2.00874
            ], 
            "rotation": {
                "origin": [
                    7.72095, 
                    5.17626, 
                    1.93074
                ], 
                "angle": -45, 
                "axis": "y"
            }, 
            "from": [
                7.53695, 
                4.08826, 
                1.85274
            ], 
            "faces": {
                "north": {
                    "rotation": 90, 
                    "uv": [
                        3, 
                        3, 
                        3, 
                        3
                    ], 
                    "texture": "#0"
                }, 
                "west": {
                    "rotation": 90, 
                    "uv": [
                        3, 
                        3, 
                        3, 
                        3
                    ], 
                    "texture": "#0"
                }, 
                "up": {
                    "rotation": 90, 
                    "uv": [
                        3, 
                        3, 
                        3, 
                        3
                    ], 
                    "texture": "#0"
                }, 
                "down": {
                    "rotation": 90, 
                    "uv": [
                        3, 
                        3, 
                        3, 
                        3
                    ], 
                    "texture": "#0"
                }, 
                "east": {
                    "rotation": 90, 
                    "uv": [
                        3, 
                        3, 
                        3, 
                        3
                    ], 
                    "texture": "#0"
                }, 
                "south": {
                    "rotation": 90, 
                    "uv": [
                        3, 
                        3, 
                        3, 
                        3
                    ], 
                    "texture": "#0"
                }
            }
        }, 
        {
            "to": [
                8.42412, 
                6.84026, 
                1.67268
            ], 
            "rotation": {
                "origin": [
                    8.20093, 
                    5.84826, 
                    1.58023
                ], 
                "angle": 45, 
                "axis": "y"
            }, 
            "from": [
                8.26812, 
                6.29626, 
                1.30468
            ], 
            "faces": {
                "north": {
                    "rotation": 90, 
                    "uv": [
                        3, 
                        3, 
                        3, 
                        3
                    ], 
                    "texture": "#0"
                }, 
                "west": {
                    "rotation": 90, 
                    "uv": [
                        3, 
                        3, 
                        3, 
                        3
                    ], 
                    "texture": "#0"
                }, 
                "up": {
                    "uv": [
                        3, 
                        3, 
                        3, 
                        3
                    ], 
                    "texture": "#0"
                }, 
                "down": {
                    "rotation": 180, 
                    "uv": [
                        3, 
                        3, 
                        3, 
                        3
                    ], 
                    "texture": "#0"
                }, 
                "east": {
                    "rotation": 90, 
                    "uv": [
                        3, 
                        3, 
                        3, 
                        3
                    ], 
                    "texture": "#0"
                }, 
                "south": {
                    "rotation": 90, 
                    "uv": [
                        3, 
                        3, 
                        3, 
                        3
                    ], 
                    "texture": "#0"
                }
            }
        }, 
        {
            "to": [
                8.42412, 
                6.16826, 
                1.67268
            ], 
            "rotation": {
                "origin": [
                    8.20093, 
                    5.17626, 
                    1.58023
                ], 
                "angle": 45, 
                "axis": "y"
            }, 
            "from": [
                8.26812, 
                4.08826, 
                1.30468
            ], 
            "faces": {
                "north": {
                    "rotation": 90, 
                    "uv": [
                        3, 
                        3, 
                        3, 
                        3
                    ], 
                    "texture": "#0"
                }, 
                "west": {
                    "rotation": 90, 
                    "uv": [
                        3, 
                        3, 
                        3, 
                        3
                    ], 
                    "texture": "#0"
                }, 
                "up": {
                    "uv": [
                        3, 
                        3, 
                        3, 
                        3
                    ], 
                    "texture": "#0"
                }, 
                "down": {
                    "rotation": 180, 
                    "uv": [
                        3, 
                        3, 
                        3, 
                        3
                    ], 
                    "texture": "#0"
                }, 
                "east": {
                    "rotation": 90, 
                    "uv": [
                        3, 
                        3, 
                        3, 
                        3
                    ], 
                    "texture": "#0"
                }, 
                "south": {
                    "rotation": 90, 
                    "uv": [
                        3, 
                        3, 
                        3, 
                        3
                    ], 
                    "texture": "#0"
                }
            }
        }, 
        {
            "to": [
                7.79895, 
                6.84026, 
                1.59683
            ], 
            "rotation": {
                "origin": [
                    7.72095, 
                    5.84826, 
                    1.41283
                ], 
                "angle": -45, 
                "axis": "y"
            }, 
            "from": [
                7.64295, 
                6.29626, 
                1.22883
            ], 
            "faces": {
                "north": {
                    "rotation": 90, 
                    "uv": [
                        3, 
                        3, 
                        3, 
                        3
                    ], 
                    "texture": "#0"
                }, 
                "west": {
                    "rotation": 90, 
                    "uv": [
                        3, 
                        3, 
                        3, 
                        3
                    ], 
                    "texture": "#0"
                }, 
                "up": {
                    "uv": [
                        3, 
                        3, 
                        3, 
                        3
                    ], 
                    "texture": "#0"
                }, 
                "down": {
                    "rotation": 180, 
                    "uv": [
                        3, 
                        3, 
                        3, 
                        3
                    ], 
                    "texture": "#0"
                }, 
                "east": {
                    "rotation": 90, 
                    "uv": [
                        3, 
                        3, 
                        3, 
                        3
                    ], 
                    "texture": "#0"
                }, 
                "south": {
                    "rotation": 90, 
                    "uv": [
                        3, 
                        3, 
                        3, 
                        3
                    ], 
                    "texture": "#0"
                }
            }
        }, 
        {
            "to": [
                7.79895, 
                6.16826, 
                1.59683
            ], 
            "rotation": {
                "origin": [
                    7.72095, 
                    5.17626, 
                    1.41283
                ], 
                "angle": -45, 
                "axis": "y"
            }, 
            "from": [
                7.64295, 
                4.08826, 
                1.22883
            ], 
            "faces": {
                "north": {
                    "rotation": 90, 
                    "uv": [
                        3, 
                        3, 
                        3, 
                        3
                    ], 
                    "texture": "#0"
                }, 
                "west": {
                    "rotation": 90, 
                    "uv": [
                        3, 
                        3, 
                        3, 
                        3
                    ], 
                    "texture": "#0"
                }, 
                "up": {
                    "uv": [
                        3, 
                        3, 
                        3, 
                        3
                    ], 
                    "texture": "#0"
                }, 
                "down": {
                    "rotation": 180, 
                    "uv": [
                        3, 
                        3, 
                        3, 
                        3
                    ], 
                    "texture": "#0"
                }, 
                "east": {
                    "rotation": 90, 
                    "uv": [
                        3, 
                        3, 
                        3, 
                        3
                    ], 
                    "texture": "#0"
                }, 
                "south": {
                    "rotation": 90, 
                    "uv": [
                        3, 
                        3, 
                        3, 
                        3
                    ], 
                    "texture": "#0"
                }
            }
        }, 
        {
            "to": [
                8.1639, 
                6.84026, 
                1.93289
            ], 
            "rotation": {
                "origin": [
                    8.20093, 
                    5.84826, 
                    1.58023
                ], 
                "angle": 45, 
                "axis": "y"
            }, 
            "from": [
                7.7959, 
                6.29626, 
                1.77689
            ], 
            "faces": {
                "north": {
                    "rotation": 90, 
                    "uv": [
                        3, 
                        3, 
                        3, 
                        3
                    ], 
                    "texture": "#0"
                }, 
                "west": {
                    "rotation": 90, 
                    "uv": [
                        3, 
                        3, 
                        3, 
                        3
                    ], 
                    "texture": "#0"
                }, 
                "up": {
                    "rotation": 270, 
                    "uv": [
                        3, 
                        3, 
                        3, 
                        3
                    ], 
                    "texture": "#0"
                }, 
                "down": {
                    "rotation": 270, 
                    "uv": [
                        3, 
                        3, 
                        3, 
                        3
                    ], 
                    "texture": "#0"
                }, 
                "east": {
                    "rotation": 90, 
                    "uv": [
                        3, 
                        3, 
                        3, 
                        3
                    ], 
                    "texture": "#0"
                }, 
                "south": {
                    "rotation": 90, 
                    "uv": [
                        3, 
                        3, 
                        3, 
                        3
                    ], 
                    "texture": "#0"
                }
            }
        }, 
        {
            "to": [
                8.1639, 
                6.16826, 
                1.93289
            ], 
            "rotation": {
                "origin": [
                    8.20093, 
                    5.17626, 
                    1.58023
                ], 
                "angle": 45, 
                "axis": "y"
            }, 
            "from": [
                7.7959, 
                4.08826, 
                1.77689
            ], 
            "faces": {
                "north": {
                    "rotation": 90, 
                    "uv": [
                        3, 
                        3, 
                        3, 
                        3
                    ], 
                    "texture": "#0"
                }, 
                "west": {
                    "rotation": 90, 
                    "uv": [
                        3, 
                        3, 
                        3, 
                        3
                    ], 
                    "texture": "#0"
                }, 
                "up": {
                    "rotation": 270, 
                    "uv": [
                        3, 
                        3, 
                        3, 
                        3
                    ], 
                    "texture": "#0"
                }, 
                "down": {
                    "rotation": 270, 
                    "uv": [
                        3, 
                        3, 
                        3, 
                        3
                    ], 
                    "texture": "#0"
                }, 
                "east": {
                    "rotation": 90, 
                    "uv": [
                        3, 
                        3, 
                        3, 
                        3
                    ], 
                    "texture": "#0"
                }, 
                "south": {
                    "rotation": 90, 
                    "uv": [
                        3, 
                        3, 
                        3, 
                        3
                    ], 
                    "texture": "#0"
                }
            }
        }, 
        {
            "to": [
                7.69168, 
                7.28826, 
                1.85578
            ], 
            "rotation": {
                "origin": [
                    7.61368, 
                    5.84826, 
                    1.67178
                ], 
                "angle": 0, 
                "axis": "y"
            }, 
            "from": [
                7.53568, 
                6.29626, 
                1.48778
            ], 
            "faces": {
                "north": {
                    "rotation": 90, 
                    "uv": [
                        3, 
                        3, 
                        3, 
                        3
                    ], 
                    "texture": "#0"
                }, 
                "west": {
                    "rotation": 90, 
                    "uv": [
                        3, 
                        3, 
                        3, 
                        3
                    ], 
                    "texture": "#0"
                }, 
                "up": {
                    "rotation": 180, 
                    "uv": [
                        3, 
                        3, 
                        3, 
                        3
                    ], 
                    "texture": "#0"
                }, 
                "down": {
                    "uv": [
                        3, 
                        3, 
                        3, 
                        3
                    ], 
                    "texture": "#0"
                }, 
                "east": {
                    "rotation": 90, 
                    "uv": [
                        3, 
                        3, 
                        3, 
                        3
                    ], 
                    "texture": "#0"
                }, 
                "south": {
                    "rotation": 90, 
                    "uv": [
                        3, 
                        3, 
                        3, 
                        3
                    ], 
                    "texture": "#0"
                }
            }
        }, 
        {
            "to": [
                8.45968, 
                7.17626, 
                1.75978
            ], 
            "rotation": {
                "origin": [
                    7.59768, 
                    7.07226, 
                    1.65578
                ], 
                "angle": 45, 
                "axis": "x"
            }, 
            "from": [
                7.50368, 
                7.00026, 
                1.58378
            ], 
            "faces": {
                "north": {
                    "rotation": 90, 
                    "uv": [
                        4.375, 
                        3.375, 
                        4.375, 
                        3.375
                    ], 
                    "texture": "#0"
                }, 
                "west": {
                    "rotation": 90, 
                    "uv": [
                        4.375, 
                        3.375, 
                        4.375, 
                        3.375
                    ], 
                    "texture": "#0"
                }, 
                "up": {
                    "rotation": 90, 
                    "uv": [
                        4.375, 
                        3.375, 
                        4.375, 
                        3.375
                    ], 
                    "texture": "#0"
                }, 
                "down": {
                    "rotation": 90, 
                    "uv": [
                        4.375, 
                        3.375, 
                        4.375, 
                        3.375
                    ], 
                    "texture": "#0"
                }, 
                "east": {
                    "rotation": 90, 
                    "uv": [
                        4.375, 
                        3.375, 
                        4.375, 
                        3.375
                    ], 
                    "texture": "#0"
                }, 
                "south": {
                    "rotation": 90, 
                    "uv": [
                        4.375, 
                        3.375, 
                        4.375, 
                        3.375
                    ], 
                    "texture": "#0"
                }
            }
        }, 
        {
            "to": [
                7.69168, 
                6.16826, 
                1.85578
            ], 
            "rotation": {
                "origin": [
                    7.61368, 
                    5.17626, 
                    1.67178
                ], 
                "angle": 0, 
                "axis": "y"
            }, 
            "from": [
                7.53568, 
                4.08826, 
                1.48778
            ], 
            "faces": {
                "north": {
                    "rotation": 90, 
                    "uv": [
                        3, 
                        3, 
                        3, 
                        3
                    ], 
                    "texture": "#0"
                }, 
                "west": {
                    "rotation": 90, 
                    "uv": [
                        3, 
                        3, 
                        3, 
                        3
                    ], 
                    "texture": "#0"
                }, 
                "up": {
                    "rotation": 180, 
                    "uv": [
                        3, 
                        3, 
                        3, 
                        3
                    ], 
                    "texture": "#0"
                }, 
                "down": {
                    "uv": [
                        3, 
                        3, 
                        3, 
                        3
                    ], 
                    "texture": "#0"
                }, 
                "east": {
                    "rotation": 90, 
                    "uv": [
                        3, 
                        3, 
                        3, 
                        3
                    ], 
                    "texture": "#0"
                }, 
                "south": {
                    "rotation": 90, 
                    "uv": [
                        3, 
                        3, 
                        3, 
                        3
                    ], 
                    "texture": "#0"
                }
            }
        }, 
        {
            "to": [
                8.42412, 
                7.28826, 
                1.85578
            ], 
            "rotation": {
                "origin": [
                    8.20093, 
                    5.84826, 
                    1.58023
                ], 
                "angle": 0, 
                "axis": "y"
            }, 
            "from": [
                8.26812, 
                6.29626, 
                1.48778
            ], 
            "faces": {
                "north": {
                    "rotation": 90, 
                    "uv": [
                        3, 
                        3, 
                        3, 
                        3
                    ], 
                    "texture": "#0"
                }, 
                "west": {
                    "rotation": 90, 
                    "uv": [
                        3, 
                        3, 
                        3, 
                        3
                    ], 
                    "texture": "#0"
                }, 
                "up": {
                    "uv": [
                        3, 
                        3, 
                        3, 
                        3
                    ], 
                    "texture": "#0"
                }, 
                "down": {
                    "rotation": 180, 
                    "uv": [
                        3, 
                        3, 
                        3, 
                        3
                    ], 
                    "texture": "#0"
                }, 
                "east": {
                    "rotation": 90, 
                    "uv": [
                        3, 
                        3, 
                        3, 
                        3
                    ], 
                    "texture": "#0"
                }, 
                "south": {
                    "rotation": 90, 
                    "uv": [
                        3, 
                        3, 
                        3, 
                        3
                    ], 
                    "texture": "#0"
                }
            }
        }, 
        {
            "to": [
                8.42412, 
                6.16826, 
                1.85578
            ], 
            "rotation": {
                "origin": [
                    8.20093, 
                    5.17626, 
                    1.58023
                ], 
                "angle": 0, 
                "axis": "y"
            }, 
            "from": [
                8.26812, 
                4.08826, 
                1.48778
            ], 
            "faces": {
                "north": {
                    "rotation": 90, 
                    "uv": [
                        3, 
                        3, 
                        3, 
                        3
                    ], 
                    "texture": "#0"
                }, 
                "west": {
                    "rotation": 90, 
                    "uv": [
                        3, 
                        3, 
                        3, 
                        3
                    ], 
                    "texture": "#0"
                }, 
                "up": {
                    "uv": [
                        3, 
                        3, 
                        3, 
                        3
                    ], 
                    "texture": "#0"
                }, 
                "down": {
                    "rotation": 180, 
                    "uv": [
                        3, 
                        3, 
                        3, 
                        3
                    ], 
                    "texture": "#0"
                }, 
                "east": {
                    "rotation": 90, 
                    "uv": [
                        3, 
                        3, 
                        3, 
                        3
                    ], 
                    "texture": "#0"
                }, 
                "south": {
                    "rotation": 90, 
                    "uv": [
                        3, 
                        3, 
                        3, 
                        3
                    ], 
                    "texture": "#0"
                }
            }
        }, 
        {
            "to": [
                8.1639, 
                6.84026, 
                2.116
            ], 
            "rotation": {
                "origin": [
                    7.9799, 
                    5.84826, 
                    2.038
                ], 
                "angle": 0, 
                "axis": "y"
            }, 
            "from": [
                7.7959, 
                6.29626, 
                1.96
            ], 
            "faces": {
                "north": {
                    "rotation": 90, 
                    "uv": [
                        3, 
                        3, 
                        3, 
                        3
                    ], 
                    "texture": "#0"
                }, 
                "west": {
                    "rotation": 90, 
                    "uv": [
                        3, 
                        3, 
                        3, 
                        3
                    ], 
                    "texture": "#0"
                }, 
                "up": {
                    "rotation": 90, 
                    "uv": [
                        3, 
                        3, 
                        3, 
                        3
                    ], 
                    "texture": "#0"
                }, 
                "down": {
                    "rotation": 90, 
                    "uv": [
                        3, 
                        3, 
                        3, 
                        3
                    ], 
                    "texture": "#0"
                }, 
                "east": {
                    "rotation": 90, 
                    "uv": [
                        3, 
                        3, 
                        3, 
                        3
                    ], 
                    "texture": "#0"
                }, 
                "south": {
                    "rotation": 90, 
                    "uv": [
                        3, 
                        3, 
                        3, 
                        3
                    ], 
                    "texture": "#0"
                }
            }
        }, 
        {
            "to": [
                8.1639, 
                6.16826, 
                2.116
            ], 
            "rotation": {
                "origin": [
                    7.9799, 
                    5.17626, 
                    2.038
                ], 
                "angle": 0, 
                "axis": "y"
            }, 
            "from": [
                7.7959, 
                4.08826, 
                1.96
            ], 
            "faces": {
                "north": {
                    "rotation": 90, 
                    "uv": [
                        3, 
                        3, 
                        3, 
                        3
                    ], 
                    "texture": "#0"
                }, 
                "west": {
                    "rotation": 90, 
                    "uv": [
                        3, 
                        3, 
                        3, 
                        3
                    ], 
                    "texture": "#0"
                }, 
                "up": {
                    "rotation": 90, 
                    "uv": [
                        3, 
                        3, 
                        3, 
                        3
                    ], 
                    "texture": "#0"
                }, 
                "down": {
                    "rotation": 90, 
                    "uv": [
                        3, 
                        3, 
                        3, 
                        3
                    ], 
                    "texture": "#0"
                }, 
                "east": {
                    "rotation": 90, 
                    "uv": [
                        3, 
                        3, 
                        3, 
                        3
                    ], 
                    "texture": "#0"
                }, 
                "south": {
                    "rotation": 90, 
                    "uv": [
                        3, 
                        3, 
                        3, 
                        3
                    ], 
                    "texture": "#0"
                }
            }
        }, 
        {
            "to": [
                7.76894, 
                6.84026, 
                1.83704
            ], 
            "rotation": {
                "origin": [
                    7.69094, 
                    6.61626, 
                    1.68504
                ], 
                "angle": 0, 
                "axis": "y"
            }, 
            "from": [
                7.61294, 
                3.89626, 
                1.53304
            ], 
            "faces": {
                "north": {
                    "rotation": 90, 
                    "uv": [
                        7.625, 
                        11.875, 
                        7.625, 
                        11.875
                    ], 
                    "texture": "#0"
                }, 
                "west": {
                    "rotation": 90, 
                    "uv": [
                        7.625, 
                        11.875, 
                        7.625, 
                        11.875
                    ], 
                    "texture": "#0"
                }, 
                "up": {
                    "rotation": 90, 
                    "uv": [
                        7.625, 
                        11.875, 
                        7.625, 
                        11.875
                    ], 
                    "texture": "#0"
                }, 
                "down": {
                    "rotation": 90, 
                    "uv": [
                        7.625, 
                        11.875, 
                        7.625, 
                        11.875
                    ], 
                    "texture": "#0"
                }, 
                "east": {
                    "rotation": 90, 
                    "uv": [
                        7.625, 
                        11.875, 
                        7.625, 
                        11.875
                    ], 
                    "texture": "#0"
                }, 
                "south": {
                    "rotation": 90, 
                    "uv": [
                        7.625, 
                        11.875, 
                        7.625, 
                        11.875
                    ], 
                    "texture": "#0"
                }
            }
        }, 
        {
            "to": [
                8.34686, 
                6.84026, 
                1.83704
            ], 
            "rotation": {
                "origin": [
                    8.1543, 
                    6.61626, 
                    1.6128
                ], 
                "angle": 0, 
                "axis": "y"
            }, 
            "from": [
                7.74286, 
                3.89626, 
                1.53304
            ], 
            "faces": {
                "north": {
                    "rotation": 90, 
                    "uv": [
                        7.625, 
                        11.875, 
                        7.625, 
                        11.875
                    ], 
                    "texture": "#0"
                }, 
                "west": {
                    "rotation": 90, 
                    "uv": [
                        7.625, 
                        11.875, 
                        7.625, 
                        11.875
                    ], 
                    "texture": "#0"
                }, 
                "up": {
                    "rotation": 90, 
                    "uv": [
                        7.625, 
                        11.875, 
                        7.625, 
                        11.875
                    ], 
                    "texture": "#0"
                }, 
                "down": {
                    "rotation": 90, 
                    "uv": [
                        7.625, 
                        11.875, 
                        7.625, 
                        11.875
                    ], 
                    "texture": "#0"
                }, 
                "east": {
                    "rotation": 90, 
                    "uv": [
                        7.625, 
                        11.875, 
                        7.625, 
                        11.875
                    ], 
                    "texture": "#0"
                }, 
                "south": {
                    "rotation": 90, 
                    "uv": [
                        7.625, 
                        11.875, 
                        7.625, 
                        11.875
                    ], 
                    "texture": "#0"
                }
            }
        }, 
        {
            "to": [
                7.92757, 
                6.84026, 
                1.96737
            ], 
            "rotation": {
                "origin": [
                    7.77557, 
                    6.61626, 
                    1.88937
                ], 
                "angle": -45, 
                "axis": "y"
            }, 
            "from": [
                7.62357, 
                3.89626, 
                1.81137
            ], 
            "faces": {
                "north": {
                    "rotation": 90, 
                    "uv": [
                        7.625, 
                        11.875, 
                        7.625, 
                        11.875
                    ], 
                    "texture": "#0"
                }, 
                "west": {
                    "rotation": 90, 
                    "uv": [
                        7.625, 
                        11.875, 
                        7.625, 
                        11.875
                    ], 
                    "texture": "#0"
                }, 
                "up": {
                    "rotation": 90, 
                    "uv": [
                        7.625, 
                        11.875, 
                        7.625, 
                        11.875
                    ], 
                    "texture": "#0"
                }, 
                "down": {
                    "rotation": 90, 
                    "uv": [
                        7.625, 
                        11.875, 
                        7.625, 
                        11.875
                    ], 
                    "texture": "#0"
                }, 
                "east": {
                    "rotation": 90, 
                    "uv": [
                        7.625, 
                        11.875, 
                        7.625, 
                        11.875
                    ], 
                    "texture": "#0"
                }, 
                "south": {
                    "rotation": 90, 
                    "uv": [
                        7.625, 
                        11.875, 
                        7.625, 
                        11.875
                    ], 
                    "texture": "#0"
                }
            }
        }, 
        {
            "to": [
                8.23406, 
                6.84026, 
                1.57624
            ], 
            "rotation": {
                "origin": [
                    8.1543, 
                    6.61626, 
                    1.6128
                ], 
                "angle": -45, 
                "axis": "y"
            }, 
            "from": [
                7.93006, 
                3.89626, 
                1.42024
            ], 
            "faces": {
                "north": {
                    "rotation": 90, 
                    "uv": [
                        7.625, 
                        11.875, 
                        7.625, 
                        11.875
                    ], 
                    "texture": "#0"
                }, 
                "west": {
                    "rotation": 90, 
                    "uv": [
                        7.625, 
                        11.875, 
                        7.625, 
                        11.875
                    ], 
                    "texture": "#0"
                }, 
                "up": {
                    "rotation": 90, 
                    "uv": [
                        7.625, 
                        11.875, 
                        7.625, 
                        11.875
                    ], 
                    "texture": "#0"
                }, 
                "down": {
                    "rotation": 90, 
                    "uv": [
                        7.625, 
                        11.875, 
                        7.625, 
                        11.875
                    ], 
                    "texture": "#0"
                }, 
                "east": {
                    "rotation": 90, 
                    "uv": [
                        7.625, 
                        11.875, 
                        7.625, 
                        11.875
                    ], 
                    "texture": "#0"
                }, 
                "south": {
                    "rotation": 90, 
                    "uv": [
                        7.625, 
                        11.875, 
                        7.625, 
                        11.875
                    ], 
                    "texture": "#0"
                }
            }
        }, 
        {
            "to": [
                8.1319, 
                6.84026, 
                2.052
            ], 
            "rotation": {
                "origin": [
                    7.9799, 
                    6.61626, 
                    1.974
                ], 
                "angle": 0, 
                "axis": "y"
            }, 
            "from": [
                7.8279, 
                3.89626, 
                1.896
            ], 
            "faces": {
                "north": {
                    "rotation": 90, 
                    "uv": [
                        7.625, 
                        11.875, 
                        7.625, 
                        11.875
                    ], 
                    "texture": "#0"
                }, 
                "west": {
                    "rotation": 90, 
                    "uv": [
                        7.625, 
                        11.875, 
                        7.625, 
                        11.875
                    ], 
                    "texture": "#0"
                }, 
                "up": {
                    "rotation": 90, 
                    "uv": [
                        7.625, 
                        11.875, 
                        7.625, 
                        11.875
                    ], 
                    "texture": "#0"
                }, 
                "down": {
                    "rotation": 90, 
                    "uv": [
                        7.625, 
                        11.875, 
                        7.625, 
                        11.875
                    ], 
                    "texture": "#0"
                }, 
                "east": {
                    "rotation": 90, 
                    "uv": [
                        7.625, 
                        11.875, 
                        7.625, 
                        11.875
                    ], 
                    "texture": "#0"
                }, 
                "south": {
                    "rotation": 90, 
                    "uv": [
                        7.625, 
                        11.875, 
                        7.625, 
                        11.875
                    ], 
                    "texture": "#0"
                }
            }
        }, 
        {
            "to": [
                8.1319, 
                6.84026, 
                2.01808
            ], 
            "rotation": {
                "origin": [
                    8.1543, 
                    6.61626, 
                    1.6128
                ], 
                "angle": 0, 
                "axis": "y"
            }, 
            "from": [
                7.8279, 
                3.89626, 
                1.31808
            ], 
            "faces": {
                "north": {
                    "rotation": 90, 
                    "uv": [
                        7.625, 
                        11.875, 
                        7.625, 
                        11.875
                    ], 
                    "texture": "#0"
                }, 
                "west": {
                    "rotation": 90, 
                    "uv": [
                        7.625, 
                        11.875, 
                        7.625, 
                        11.875
                    ], 
                    "texture": "#0"
                }, 
                "up": {
                    "rotation": 90, 
                    "uv": [
                        7.625, 
                        11.875, 
                        7.625, 
                        11.875
                    ], 
                    "texture": "#0"
                }, 
                "down": {
                    "rotation": 90, 
                    "uv": [
                        7.625, 
                        11.875, 
                        7.625, 
                        11.875
                    ], 
                    "texture": "#0"
                }, 
                "east": {
                    "rotation": 90, 
                    "uv": [
                        7.625, 
                        11.875, 
                        7.625, 
                        11.875
                    ], 
                    "texture": "#0"
                }, 
                "south": {
                    "rotation": 90, 
                    "uv": [
                        7.625, 
                        11.875, 
                        7.625, 
                        11.875
                    ], 
                    "texture": "#0"
                }
            }
        }, 
        {
            "to": [
                8.3559, 
                7.32026, 
                2.17808
            ], 
            "rotation": {
                "origin": [
                    8.1543, 
                    6.61626, 
                    1.6128
                ], 
                "angle": 0, 
                "axis": "y"
            }, 
            "from": [
                7.6039, 
                6.77626, 
                1.12608
            ], 
            "faces": {
                "north": {
                    "rotation": 90, 
                    "uv": [
                        7.625, 
                        11.875, 
                        7.625, 
                        11.875
                    ], 
                    "texture": "#0"
                }, 
                "west": {
                    "rotation": 90, 
                    "uv": [
                        7.625, 
                        11.875, 
                        7.625, 
                        11.875
                    ], 
                    "texture": "#0"
                }, 
                "up": {
                    "rotation": 90, 
                    "uv": [
                        7.625, 
                        11.875, 
                        7.625, 
                        11.875
                    ], 
                    "texture": "#0"
                }, 
                "down": {
                    "rotation": 90, 
                    "uv": [
                        7.625, 
                        11.875, 
                        7.625, 
                        11.875
                    ], 
                    "texture": "#0"
                }, 
                "east": {
                    "rotation": 90, 
                    "uv": [
                        7.625, 
                        11.875, 
                        7.625, 
                        11.875
                    ], 
                    "texture": "#0"
                }, 
                "south": {
                    "rotation": 90, 
                    "uv": [
                        7.625, 
                        11.875, 
                        7.625, 
                        11.875
                    ], 
                    "texture": "#0"
                }
            }
        }, 
        {
            "to": [
                7.92757, 
                6.84026, 
                1.55871
            ], 
            "rotation": {
                "origin": [
                    7.77557, 
                    6.61626, 
                    1.48071
                ], 
                "angle": 45, 
                "axis": "y"
            }, 
            "from": [
                7.62357, 
                3.89626, 
                1.40271
            ], 
            "faces": {
                "north": {
                    "rotation": 90, 
                    "uv": [
                        7.625, 
                        11.875, 
                        7.625, 
                        11.875
                    ], 
                    "texture": "#0"
                }, 
                "west": {
                    "rotation": 90, 
                    "uv": [
                        7.625, 
                        11.875, 
                        7.625, 
                        11.875
                    ], 
                    "texture": "#0"
                }, 
                "up": {
                    "rotation": 90, 
                    "uv": [
                        7.625, 
                        11.875, 
                        7.625, 
                        11.875
                    ], 
                    "texture": "#0"
                }, 
                "down": {
                    "rotation": 90, 
                    "uv": [
                        7.625, 
                        11.875, 
                        7.625, 
                        11.875
                    ], 
                    "texture": "#0"
                }, 
                "east": {
                    "rotation": 90, 
                    "uv": [
                        7.625, 
                        11.875, 
                        7.625, 
                        11.875
                    ], 
                    "texture": "#0"
                }, 
                "south": {
                    "rotation": 90, 
                    "uv": [
                        7.625, 
                        11.875, 
                        7.625, 
                        11.875
                    ], 
                    "texture": "#0"
                }
            }
        }, 
        {
            "to": [
                8.44902, 
                6.84026, 
                1.9392
            ], 
            "rotation": {
                "origin": [
                    8.1543, 
                    6.61626, 
                    1.6128
                ], 
                "angle": -45, 
                "axis": "y"
            }, 
            "from": [
                8.29302, 
                3.89626, 
                1.6352
            ], 
            "faces": {
                "north": {
                    "rotation": 90, 
                    "uv": [
                        7.625, 
                        11.875, 
                        7.625, 
                        11.875
                    ], 
                    "texture": "#0"
                }, 
                "west": {
                    "rotation": 90, 
                    "uv": [
                        7.625, 
                        11.875, 
                        7.625, 
                        11.875
                    ], 
                    "texture": "#0"
                }, 
                "up": {
                    "rotation": 90, 
                    "uv": [
                        7.625, 
                        11.875, 
                        7.625, 
                        11.875
                    ], 
                    "texture": "#0"
                }, 
                "down": {
                    "rotation": 90, 
                    "uv": [
                        7.625, 
                        11.875, 
                        7.625, 
                        11.875
                    ], 
                    "texture": "#0"
                }, 
                "east": {
                    "rotation": 90, 
                    "uv": [
                        7.625, 
                        11.875, 
                        7.625, 
                        11.875
                    ], 
                    "texture": "#0"
                }, 
                "south": {
                    "rotation": 90, 
                    "uv": [
                        7.625, 
                        11.875, 
                        7.625, 
                        11.875
                    ], 
                    "texture": "#0"
                }
            }
        }, 
        {
            "to": [
                8.1639, 
                6.84026, 
                1.38357
            ], 
            "rotation": {
                "origin": [
                    8.20093, 
                    5.84826, 
                    1.58023
                ], 
                "angle": 0, 
                "axis": "y"
            }, 
            "from": [
                7.7959, 
                6.29626, 
                1.22757
            ], 
            "faces": {
                "north": {
                    "rotation": 90, 
                    "uv": [
                        3, 
                        3, 
                        3, 
                        3
                    ], 
                    "texture": "#0"
                }, 
                "west": {
                    "rotation": 90, 
                    "uv": [
                        3, 
                        3, 
                        3, 
                        3
                    ], 
                    "texture": "#0"
                }, 
                "up": {
                    "rotation": 270, 
                    "uv": [
                        3, 
                        3, 
                        3, 
                        3
                    ], 
                    "texture": "#0"
                }, 
                "down": {
                    "rotation": 270, 
                    "uv": [
                        3, 
                        3, 
                        3, 
                        3
                    ], 
                    "texture": "#0"
                }, 
                "east": {
                    "rotation": 90, 
                    "uv": [
                        3, 
                        3, 
                        3, 
                        3
                    ], 
                    "texture": "#0"
                }, 
                "south": {
                    "rotation": 90, 
                    "uv": [
                        3, 
                        3, 
                        3, 
                        3
                    ], 
                    "texture": "#0"
                }
            }
        }, 
        {
            "to": [
                8.1639, 
                6.16826, 
                1.38357
            ], 
            "rotation": {
                "origin": [
                    8.20093, 
                    5.17626, 
                    1.58023
                ], 
                "angle": 0, 
                "axis": "y"
            }, 
            "from": [
                7.7959, 
                4.08826, 
                1.22757
            ], 
            "faces": {
                "north": {
                    "rotation": 90, 
                    "uv": [
                        3, 
                        3, 
                        3, 
                        3
                    ], 
                    "texture": "#0"
                }, 
                "west": {
                    "rotation": 90, 
                    "uv": [
                        3, 
                        3, 
                        3, 
                        3
                    ], 
                    "texture": "#0"
                }, 
                "up": {
                    "rotation": 270, 
                    "uv": [
                        3, 
                        3, 
                        3, 
                        3
                    ], 
                    "texture": "#0"
                }, 
                "down": {
                    "rotation": 270, 
                    "uv": [
                        3, 
                        3, 
                        3, 
                        3
                    ], 
                    "texture": "#0"
                }, 
                "east": {
                    "rotation": 90, 
                    "uv": [
                        3, 
                        3, 
                        3, 
                        3
                    ], 
                    "texture": "#0"
                }, 
                "south": {
                    "rotation": 90, 
                    "uv": [
                        3, 
                        3, 
                        3, 
                        3
                    ], 
                    "texture": "#0"
                }
            }
        }
    ], 
    "display": {
        "thirdperson_righthand": {
            "rotation": [
                -4, 
                -1, 
                6
            ], 
            "scale": [
                0.88, 
                0.88, 
                0.88
            ], 
            "translation": [
                -2, 
                -0.75, 
                -3.5
            ]
        }, 
        "head": {
            "rotation": [
                0, 
                91, 
                90
            ], 
            "scale": [
                1.61, 
                1.5, 
                1.28
            ], 
            "translation": [
                -2, 
                7, 
                0
            ]
        }, 
        "thirdperson_lefthand": {
            "rotation": [
                -4, 
                -1, 
                6
            ], 
            "scale": [
                0.88, 
                0.88, 
                0.88
            ], 
            "translation": [
                -2, 
                -0.75, 
                -3.5
            ]
        }, 
        "gui": {
            "rotation": [
                27, 
                38, 
                -14
            ], 
            "scale": [
                1.11, 
                1.14, 
                0.77
            ], 
            "translation": [
                0, 
                3, 
                1.75
            ]
        }, 
        "firstperson_righthand": {
            "rotation": [
                1, 
                0, 
                0
            ], 
            "scale": [
                1.36, 
                1.36, 
                0.89
            ], 
            "translation": [
                -4.25, 
                5, 
                0.25
            ]
        }, 
        "firstperson_lefthand": {
            "rotation": [
                1, 
                0, 
                0
            ], 
            "scale": [
                1.36, 
                1.36, 
                0.89
            ], 
            "translation": [
                -4.25, 
                5, 
                0.25
            ]
        }, 
        "fixed": {
            "rotation": [
                0, 
                91, 
                0
            ], 
            "scale": [
                0.9, 
                1.28, 
                0.97
            ], 
            "translation": [
                2, 
                -0.25, 
                -1
            ]
        }, 
        "ground": {
            "scale": [
                1, 
                0.99, 
                0.54
            ]
        }
    }
}