{
    "textures": {
        "0": "gci:items/common/mpz",
        "1": "gci:items/common/all_in_one",
        "particle": "gci:items/common/mpz"
    },
    "elements": [
        {
            "from": [
                7.77368,
                2.1,
                4.48
            ],
            "to": [
                8.27368,
                4.6,
                5.08
            ],
            "rotation": {
                "angle": 22.5,
                "axis": "x",
                "origin": [
                    8.02368,
                    3.29046,
                    4.82821
                ]
            },
            "faces": {
                "north": {
                    "uv": [
                        5.66667,
                        0.33333,
                        7.66667,
                        2.33333
                    ],
                    "texture": "#0"
                },
                "east": {
                    "uv": [
                        5.66667,
                        0.33333,
                        7.66667,
                        2.33333
                    ],
                    "texture": "#0"
                },
                "south": {
                    "uv": [
                        5.66667,
                        0.33333,
                        7.66667,
                        2.33333
                    ],
                    "texture": "#0"
                },
                "west": {
                    "uv": [
                        5.66667,
                        0.33333,
                        7.66667,
                        2.33333
                    ],
                    "texture": "#0"
                },
                "up": {
                    "uv": [
                        5.66667,
                        0.33333,
                        7.66667,
                        2.33333
                    ],
                    "rotation": 270,
                    "texture": "#0"
                },
                "down": {
                    "uv": [
                        5.66667,
                        0.33333,
                        7.66667,
                        2.33333
                    ],
                    "rotation": 90,
                    "texture": "#0"
                }
            }
        },
        {
            "from": [
                7.77368,
                2.00761,
                4.24173
            ],
            "to": [
                8.27368,
                2.10761,
                5.04173
            ],
            "rotation": {
                "angle": 22.5,
                "axis": "x",
                "origin": [
                    8.02368,
                    3.19807,
                    4.78994
                ]
            },
            "faces": {
                "north": {
                    "uv": [
                        5.66667,
                        0.33333,
                        7.66667,
                        2.33333
                    ],
                    "texture": "#0"
                },
                "east": {
                    "uv": [
                        5.66667,
                        0.33333,
                        7.66667,
                        2.33333
                    ],
                    "texture": "#0"
                },
                "south": {
                    "uv": [
                        5.66667,
                        0.33333,
                        7.66667,
                        2.33333
                    ],
                    "texture": "#0"
                },
                "west": {
                    "uv": [
                        5.66667,
                        0.33333,
                        7.66667,
                        2.33333
                    ],
                    "texture": "#0"
                },
                "up": {
                    "uv": [
                        5.66667,
                        0.33333,
                        7.66667,
                        2.33333
                    ],
                    "rotation": 270,
                    "texture": "#0"
                },
                "down": {
                    "uv": [
                        5.66667,
                        0.33333,
                        7.66667,
                        2.33333
                    ],
                    "rotation": 90,
                    "texture": "#0"
                }
            }
        }
    ],
    "display": {
        "thirdperson_righthand": {
            "translation": [
                -0.75,
                5,
                1.75
            ],
            "scale": [
                1.56,
                1.56,
                1.56
            ]
        },
        "thirdperson_lefthand": {
            "translation": [
                -0.75,
                4.75,
                1.75
            ],
            "scale": [
                1.56,
                1.56,
                1.56
            ]
        },
        "firstperson_righthand": {
            "translation": [
                -6.5,
                9.25,
                8.25
            ]
        },
        "firstperson_lefthand": {
            "translation": [
                -6.5,
                9.25,
                8.25
            ]
        },
        "ground": {
            "translation": [
                0,
                7,
                4
            ],
            "scale": [
                1.2,
                1.2,
                1.2
            ]
        },
        "gui": {
            "rotation": [
                19,
                28,
                -15
            ],
            "translation": [
                2.5,
                7.25,
                0
            ],
            "scale": [
                2.3,
                2.3,
                2.3
            ]
        },
        "head": {
            "rotation": [
                0,
                0,
                50
            ],
            "translation": [
                -5,
                13.25,
                5.5
            ],
            "scale": [
                2,
                2,
                2
            ]
        },
        "fixed": {
            "rotation": [
                90,
                45,
                -90
            ],
            "translation": [
                6.5,
                2,
                -1.75
            ],
            "scale": [
                1.85,
                1.85,
                1.85
            ]
        }
    }
}