{
    "textures": {
        "0": "gci:items/common/mpz",
        "1": "gci:items/common/all_in_one",
        "particle": "gci:items/common/mpz"
    },
    "elements": [
        {
            "from": [
                7.97894,
                4.6188,
                0.44132
            ],
            "to": [
                8.14994,
                4.6758,
                1.23932
            ],
            "rotation": {
                "angle": 0,
                "axis": "y",
                "origin": [
                    8.01395,
                    4.6473,
                    1.13964
                ]
            },
            "faces": {
                "north": {
                    "uv": [
                        6,
                        3.33333,
                        7,
                        4.66667
                    ],
                    "rotation": 90,
                    "texture": "#0"
                },
                "east": {
                    "uv": [
                        6,
                        3.33333,
                        7,
                        4.66667
                    ],
                    "rotation": 90,
                    "texture": "#0"
                },
                "south": {
                    "uv": [
                        6,
                        3.33333,
                        7,
                        4.66667
                    ],
                    "rotation": 90,
                    "texture": "#0"
                },
                "west": {
                    "uv": [
                        6,
                        3.33333,
                        7,
                        4.66667
                    ],
                    "rotation": 90,
                    "texture": "#0"
                },
                "up": {
                    "uv": [
                        6,
                        3.33333,
                        7,
                        4.66667
                    ],
                    "rotation": 90,
                    "texture": "#0"
                },
                "down": {
                    "uv": [
                        6,
                        3.33333,
                        7,
                        4.66667
                    ],
                    "rotation": 90,
                    "texture": "#0"
                }
            }
        },
        {
            "from": [
                7.95614,
                4.67578,
                0.78332
            ],
            "to": [
                8.17274,
                4.73278,
                0.89732
            ],
            "rotation": {
                "angle": 0,
                "axis": "y",
                "origin": [
                    8.01395,
                    4.6473,
                    0.91164
                ]
            },
            "faces": {
                "north": {
                    "uv": [
                        6,
                        3.33333,
                        7,
                        4.66667
                    ],
                    "rotation": 90,
                    "texture": "#0"
                },
                "east": {
                    "uv": [
                        6,
                        3.33333,
                        7,
                        4.66667
                    ],
                    "rotation": 90,
                    "texture": "#0"
                },
                "south": {
                    "uv": [
                        6,
                        3.33333,
                        7,
                        4.66667
                    ],
                    "rotation": 90,
                    "texture": "#0"
                },
                "west": {
                    "uv": [
                        6,
                        3.33333,
                        7,
                        4.66667
                    ],
                    "rotation": 90,
                    "texture": "#0"
                },
                "up": {
                    "uv": [
                        6,
                        3.33333,
                        7,
                        4.66667
                    ],
                    "rotation": 90,
                    "texture": "#0"
                },
                "down": {
                    "uv": [
                        6,
                        3.33333,
                        7,
                        4.66667
                    ],
                    "rotation": 90,
                    "texture": "#0"
                }
            }
        },
        {
            "from": [
                7.95614,
                4.20986,
                0.78332
            ],
            "to": [
                8.17274,
                4.26686,
                0.89732
            ],
            "rotation": {
                "angle": 0,
                "axis": "y",
                "origin": [
                    8.01395,
                    4.18138,
                    0.91164
                ]
            },
            "faces": {
                "north": {
                    "uv": [
                        6,
                        3.33333,
                        7,
                        4.66667
                    ],
                    "rotation": 90,
                    "texture": "#0"
                },
                "east": {
                    "uv": [
                        6,
                        3.33333,
                        7,
                        4.66667
                    ],
                    "rotation": 90,
                    "texture": "#0"
                },
                "south": {
                    "uv": [
                        6,
                        3.33333,
                        7,
                        4.66667
                    ],
                    "rotation": 90,
                    "texture": "#0"
                },
                "west": {
                    "uv": [
                        6,
                        3.33333,
                        7,
                        4.66667
                    ],
                    "rotation": 90,
                    "texture": "#0"
                },
                "up": {
                    "uv": [
                        6,
                        3.33333,
                        7,
                        4.66667
                    ],
                    "rotation": 90,
                    "texture": "#0"
                },
                "down": {
                    "uv": [
                        6,
                        3.33333,
                        7,
                        4.66667
                    ],
                    "rotation": 90,
                    "texture": "#0"
                }
            }
        },
        {
            "from": [
                8.2689,
                4.36302,
                0.78332
            ],
            "to": [
                8.3259,
                4.57962,
                0.89732
            ],
            "rotation": {
                "angle": 0,
                "axis": "y",
                "origin": [
                    8.35438,
                    4.41513,
                    0.91164
                ]
            },
            "faces": {
                "north": {
                    "uv": [
                        6,
                        3.33333,
                        7,
                        4.66667
                    ],
                    "rotation": 180,
                    "texture": "#0"
                },
                "east": {
                    "uv": [
                        6,
                        3.33333,
                        7,
                        4.66667
                    ],
                    "rotation": 180,
                    "texture": "#0"
                },
                "south": {
                    "uv": [
                        6,
                        3.33333,
                        7,
                        4.66667
                    ],
                    "rotation": 180,
                    "texture": "#0"
                },
                "west": {
                    "uv": [
                        6,
                        3.33333,
                        7,
                        4.66667
                    ],
                    "rotation": 180,
                    "texture": "#0"
                },
                "up": {
                    "uv": [
                        6,
                        3.33333,
                        7,
                        4.66667
                    ],
                    "rotation": 180,
                    "texture": "#0"
                },
                "down": {
                    "uv": [
                        6,
                        3.33333,
                        7,
                        4.66667
                    ],
                    "rotation": 180,
                    "texture": "#0"
                }
            }
        },
        {
            "from": [
                7.80298,
                4.36302,
                0.78332
            ],
            "to": [
                7.85998,
                4.57962,
                0.89732
            ],
            "rotation": {
                "angle": 0,
                "axis": "y",
                "origin": [
                    7.88846,
                    4.41513,
                    0.91164
                ]
            },
            "faces": {
                "north": {
                    "uv": [
                        6,
                        3.33333,
                        7,
                        4.66667
                    ],
                    "rotation": 180,
                    "texture": "#0"
                },
                "east": {
                    "uv": [
                        6,
                        3.33333,
                        7,
                        4.66667
                    ],
                    "rotation": 180,
                    "texture": "#0"
                },
                "south": {
                    "uv": [
                        6,
                        3.33333,
                        7,
                        4.66667
                    ],
                    "rotation": 180,
                    "texture": "#0"
                },
                "west": {
                    "uv": [
                        6,
                        3.33333,
                        7,
                        4.66667
                    ],
                    "rotation": 180,
                    "texture": "#0"
                },
                "up": {
                    "uv": [
                        6,
                        3.33333,
                        7,
                        4.66667
                    ],
                    "rotation": 180,
                    "texture": "#0"
                },
                "down": {
                    "uv": [
                        6,
                        3.33333,
                        7,
                        4.66667
                    ],
                    "rotation": 180,
                    "texture": "#0"
                }
            }
        },
        {
            "from": [
                7.84816,
                4.5845,
                0.78332
            ],
            "to": [
                8.06476,
                4.6415,
                0.89732
            ],
            "rotation": {
                "angle": 45,
                "axis": "z",
                "origin": [
                    7.90027,
                    4.55602,
                    0.91164
                ]
            },
            "faces": {
                "north": {
                    "uv": [
                        6,
                        3.33333,
                        7,
                        4.66667
                    ],
                    "rotation": 90,
                    "texture": "#0"
                },
                "east": {
                    "uv": [
                        6,
                        3.33333,
                        7,
                        4.66667
                    ],
                    "rotation": 90,
                    "texture": "#0"
                },
                "south": {
                    "uv": [
                        6,
                        3.33333,
                        7,
                        4.66667
                    ],
                    "rotation": 90,
                    "texture": "#0"
                },
                "west": {
                    "uv": [
                        6,
                        3.33333,
                        7,
                        4.66667
                    ],
                    "rotation": 90,
                    "texture": "#0"
                },
                "up": {
                    "uv": [
                        6,
                        3.33333,
                        7,
                        4.66667
                    ],
                    "rotation": 90,
                    "texture": "#0"
                },
                "down": {
                    "uv": [
                        6,
                        3.33333,
                        7,
                        4.66667
                    ],
                    "rotation": 90,
                    "texture": "#0"
                }
            }
        },
        {
            "from": [
                8.17761,
                4.25505,
                0.78332
            ],
            "to": [
                8.39421,
                4.31205,
                0.89732
            ],
            "rotation": {
                "angle": 45,
                "axis": "z",
                "origin": [
                    8.22972,
                    4.22657,
                    0.91164
                ]
            },
            "faces": {
                "north": {
                    "uv": [
                        6,
                        3.33333,
                        7,
                        4.66667
                    ],
                    "rotation": 90,
                    "texture": "#0"
                },
                "east": {
                    "uv": [
                        6,
                        3.33333,
                        7,
                        4.66667
                    ],
                    "rotation": 90,
                    "texture": "#0"
                },
                "south": {
                    "uv": [
                        6,
                        3.33333,
                        7,
                        4.66667
                    ],
                    "rotation": 90,
                    "texture": "#0"
                },
                "west": {
                    "uv": [
                        6,
                        3.33333,
                        7,
                        4.66667
                    ],
                    "rotation": 90,
                    "texture": "#0"
                },
                "up": {
                    "uv": [
                        6,
                        3.33333,
                        7,
                        4.66667
                    ],
                    "rotation": 90,
                    "texture": "#0"
                },
                "down": {
                    "uv": [
                        6,
                        3.33333,
                        7,
                        4.66667
                    ],
                    "rotation": 90,
                    "texture": "#0"
                }
            }
        },
        {
            "from": [
                8.09703,
                4.66397,
                0.78332
            ],
            "to": [
                8.31363,
                4.72097,
                0.89732
            ],
            "rotation": {
                "angle": -45,
                "axis": "z",
                "origin": [
                    8.14914,
                    4.63549,
                    0.91164
                ]
            },
            "faces": {
                "north": {
                    "uv": [
                        6,
                        3.33333,
                        7,
                        4.66667
                    ],
                    "rotation": 90,
                    "texture": "#0"
                },
                "east": {
                    "uv": [
                        6,
                        3.33333,
                        7,
                        4.66667
                    ],
                    "rotation": 90,
                    "texture": "#0"
                },
                "south": {
                    "uv": [
                        6,
                        3.33333,
                        7,
                        4.66667
                    ],
                    "rotation": 90,
                    "texture": "#0"
                },
                "west": {
                    "uv": [
                        6,
                        3.33333,
                        7,
                        4.66667
                    ],
                    "rotation": 90,
                    "texture": "#0"
                },
                "up": {
                    "uv": [
                        6,
                        3.33333,
                        7,
                        4.66667
                    ],
                    "rotation": 90,
                    "texture": "#0"
                },
                "down": {
                    "uv": [
                        6,
                        3.33333,
                        7,
                        4.66667
                    ],
                    "rotation": 90,
                    "texture": "#0"
                }
            }
        },
        {
            "from": [
                7.76759,
                4.33451,
                0.78332
            ],
            "to": [
                7.98419,
                4.39151,
                0.89732
            ],
            "rotation": {
                "angle": -45,
                "axis": "z",
                "origin": [
                    7.8197,
                    4.30603,
                    0.91164
                ]
            },
            "faces": {
                "north": {
                    "uv": [
                        6,
                        3.33333,
                        7,
                        4.66667
                    ],
                    "rotation": 90,
                    "texture": "#0"
                },
                "east": {
                    "uv": [
                        6,
                        3.33333,
                        7,
                        4.66667
                    ],
                    "rotation": 90,
                    "texture": "#0"
                },
                "south": {
                    "uv": [
                        6,
                        3.33333,
                        7,
                        4.66667
                    ],
                    "rotation": 90,
                    "texture": "#0"
                },
                "west": {
                    "uv": [
                        6,
                        3.33333,
                        7,
                        4.66667
                    ],
                    "rotation": 90,
                    "texture": "#0"
                },
                "up": {
                    "uv": [
                        6,
                        3.33333,
                        7,
                        4.66667
                    ],
                    "rotation": 90,
                    "texture": "#0"
                },
                "down": {
                    "uv": [
                        6,
                        3.33333,
                        7,
                        4.66667
                    ],
                    "rotation": 90,
                    "texture": "#0"
                }
            }
        },
        {
            "from": [
                7.86149,
                4.54654,
                0.44132
            ],
            "to": [
                8.03249,
                4.60354,
                1.23932
            ],
            "rotation": {
                "angle": 45,
                "axis": "z",
                "origin": [
                    7.91849,
                    4.57504,
                    1.18232
                ]
            },
            "faces": {
                "north": {
                    "uv": [
                        6,
                        3.33333,
                        7,
                        4.66667
                    ],
                    "rotation": 90,
                    "texture": "#0"
                },
                "east": {
                    "uv": [
                        6,
                        3.33333,
                        7,
                        4.66667
                    ],
                    "rotation": 90,
                    "texture": "#0"
                },
                "south": {
                    "uv": [
                        6,
                        3.33333,
                        7,
                        4.66667
                    ],
                    "rotation": 90,
                    "texture": "#0"
                },
                "west": {
                    "uv": [
                        6,
                        3.33333,
                        7,
                        4.66667
                    ],
                    "rotation": 90,
                    "texture": "#0"
                },
                "up": {
                    "uv": [
                        6,
                        3.33333,
                        7,
                        4.66667
                    ],
                    "rotation": 90,
                    "texture": "#0"
                },
                "down": {
                    "uv": [
                        6,
                        3.33333,
                        7,
                        4.66667
                    ],
                    "rotation": 90,
                    "texture": "#0"
                }
            }
        },
        {
            "from": [
                7.85802,
                4.38389,
                0.44132
            ],
            "to": [
                7.91502,
                4.55489,
                1.23932
            ],
            "rotation": {
                "angle": 0,
                "axis": "y",
                "origin": [
                    8.24562,
                    4.81529,
                    0.88592
                ]
            },
            "faces": {
                "north": {
                    "uv": [
                        6,
                        3.33333,
                        7,
                        4.66667
                    ],
                    "rotation": 270,
                    "texture": "#0"
                },
                "east": {
                    "uv": [
                        6,
                        3.33333,
                        7,
                        4.66667
                    ],
                    "rotation": 270,
                    "texture": "#0"
                },
                "south": {
                    "uv": [
                        6,
                        3.33333,
                        7,
                        4.66667
                    ],
                    "rotation": 270,
                    "texture": "#0"
                },
                "west": {
                    "uv": [
                        6,
                        3.33333,
                        7,
                        4.66667
                    ],
                    "rotation": 270,
                    "texture": "#0"
                },
                "up": {
                    "uv": [
                        6,
                        3.33333,
                        7,
                        4.66667
                    ],
                    "rotation": 270,
                    "texture": "#0"
                },
                "down": {
                    "uv": [
                        6,
                        3.33333,
                        7,
                        4.66667
                    ],
                    "rotation": 270,
                    "texture": "#0"
                }
            }
        },
        {
            "from": [
                7.93029,
                4.26643,
                0.44132
            ],
            "to": [
                7.98729,
                4.43743,
                1.23932
            ],
            "rotation": {
                "angle": 45,
                "axis": "z",
                "origin": [
                    7.95879,
                    4.32343,
                    1.18232
                ]
            },
            "faces": {
                "north": {
                    "uv": [
                        6,
                        3.33333,
                        7,
                        4.66667
                    ],
                    "rotation": 270,
                    "texture": "#0"
                },
                "east": {
                    "uv": [
                        6,
                        3.33333,
                        7,
                        4.66667
                    ],
                    "rotation": 270,
                    "texture": "#0"
                },
                "south": {
                    "uv": [
                        6,
                        3.33333,
                        7,
                        4.66667
                    ],
                    "rotation": 270,
                    "texture": "#0"
                },
                "west": {
                    "uv": [
                        6,
                        3.33333,
                        7,
                        4.66667
                    ],
                    "rotation": 270,
                    "texture": "#0"
                },
                "up": {
                    "uv": [
                        6,
                        3.33333,
                        7,
                        4.66667
                    ],
                    "rotation": 270,
                    "texture": "#0"
                },
                "down": {
                    "uv": [
                        6,
                        3.33333,
                        7,
                        4.66667
                    ],
                    "rotation": 270,
                    "texture": "#0"
                }
            }
        },
        {
            "from": [
                8.1819,
                4.51804,
                0.44132
            ],
            "to": [
                8.2389,
                4.68904,
                1.23932
            ],
            "rotation": {
                "angle": 45,
                "axis": "z",
                "origin": [
                    8.2104,
                    4.57504,
                    1.18232
                ]
            },
            "faces": {
                "north": {
                    "uv": [
                        6,
                        3.33333,
                        7,
                        4.66667
                    ],
                    "rotation": 270,
                    "texture": "#0"
                },
                "east": {
                    "uv": [
                        6,
                        3.33333,
                        7,
                        4.66667
                    ],
                    "rotation": 270,
                    "texture": "#0"
                },
                "south": {
                    "uv": [
                        6,
                        3.33333,
                        7,
                        4.66667
                    ],
                    "rotation": 270,
                    "texture": "#0"
                },
                "west": {
                    "uv": [
                        6,
                        3.33333,
                        7,
                        4.66667
                    ],
                    "rotation": 270,
                    "texture": "#0"
                },
                "up": {
                    "uv": [
                        6,
                        3.33333,
                        7,
                        4.66667
                    ],
                    "rotation": 270,
                    "texture": "#0"
                },
                "down": {
                    "uv": [
                        6,
                        3.33333,
                        7,
                        4.66667
                    ],
                    "rotation": 270,
                    "texture": "#0"
                }
            }
        },
        {
            "from": [
                8.21386,
                4.38389,
                0.44132
            ],
            "to": [
                8.27086,
                4.55489,
                1.23932
            ],
            "rotation": {
                "angle": 0,
                "axis": "y",
                "origin": [
                    8.53307,
                    4.58729,
                    0.88592
                ]
            },
            "faces": {
                "north": {
                    "uv": [
                        6,
                        3.33333,
                        7,
                        4.66667
                    ],
                    "rotation": 270,
                    "texture": "#0"
                },
                "east": {
                    "uv": [
                        6,
                        3.33333,
                        7,
                        4.66667
                    ],
                    "rotation": 270,
                    "texture": "#0"
                },
                "south": {
                    "uv": [
                        6,
                        3.33333,
                        7,
                        4.66667
                    ],
                    "rotation": 270,
                    "texture": "#0"
                },
                "west": {
                    "uv": [
                        6,
                        3.33333,
                        7,
                        4.66667
                    ],
                    "rotation": 270,
                    "texture": "#0"
                },
                "up": {
                    "uv": [
                        6,
                        3.33333,
                        7,
                        4.66667
                    ],
                    "rotation": 270,
                    "texture": "#0"
                },
                "down": {
                    "uv": [
                        6,
                        3.33333,
                        7,
                        4.66667
                    ],
                    "rotation": 270,
                    "texture": "#0"
                }
            }
        },
        {
            "from": [
                8.1131,
                4.29493,
                0.44132
            ],
            "to": [
                8.2841,
                4.35193,
                1.23932
            ],
            "rotation": {
                "angle": 45,
                "axis": "z",
                "origin": [
                    8.1701,
                    4.32343,
                    1.18232
                ]
            },
            "faces": {
                "north": {
                    "uv": [
                        6,
                        3.33333,
                        7,
                        4.66667
                    ],
                    "rotation": 90,
                    "texture": "#0"
                },
                "east": {
                    "uv": [
                        6,
                        3.33333,
                        7,
                        4.66667
                    ],
                    "rotation": 90,
                    "texture": "#0"
                },
                "south": {
                    "uv": [
                        6,
                        3.33333,
                        7,
                        4.66667
                    ],
                    "rotation": 90,
                    "texture": "#0"
                },
                "west": {
                    "uv": [
                        6,
                        3.33333,
                        7,
                        4.66667
                    ],
                    "rotation": 90,
                    "texture": "#0"
                },
                "up": {
                    "uv": [
                        6,
                        3.33333,
                        7,
                        4.66667
                    ],
                    "rotation": 90,
                    "texture": "#0"
                },
                "down": {
                    "uv": [
                        6,
                        3.33333,
                        7,
                        4.66667
                    ],
                    "rotation": 90,
                    "texture": "#0"
                }
            }
        },
        {
            "from": [
                7.97894,
                4.26297,
                0.44132
            ],
            "to": [
                8.14994,
                4.31997,
                1.23932
            ],
            "rotation": {
                "angle": 0,
                "axis": "y",
                "origin": [
                    8.04244,
                    4.29147,
                    1.13964
                ]
            },
            "faces": {
                "north": {
                    "uv": [
                        6,
                        3.33333,
                        7,
                        4.66667
                    ],
                    "rotation": 90,
                    "texture": "#0"
                },
                "east": {
                    "uv": [
                        6,
                        3.33333,
                        7,
                        4.66667
                    ],
                    "rotation": 90,
                    "texture": "#0"
                },
                "south": {
                    "uv": [
                        6,
                        3.33333,
                        7,
                        4.66667
                    ],
                    "rotation": 90,
                    "texture": "#0"
                },
                "west": {
                    "uv": [
                        6,
                        3.33333,
                        7,
                        4.66667
                    ],
                    "rotation": 90,
                    "texture": "#0"
                },
                "up": {
                    "uv": [
                        6,
                        3.33333,
                        7,
                        4.66667
                    ],
                    "rotation": 90,
                    "texture": "#0"
                },
                "down": {
                    "uv": [
                        6,
                        3.33333,
                        7,
                        4.66667
                    ],
                    "rotation": 90,
                    "texture": "#0"
                }
            }
        },
        {
            "from": [
                7.72244,
                4.08708,
                1.26212
            ],
            "to": [
                8.40644,
                4.31508,
                3.88412
            ],
            "rotation": {
                "angle": 0,
                "axis": "y",
                "origin": [
                    8.06444,
                    5.03912,
                    7.74532
                ]
            },
            "faces": {
                "north": {
                    "uv": [
                        0,
                        0,
                        2.33333,
                        2.33333
                    ],
                    "texture": "#0"
                },
                "east": {
                    "uv": [
                        0,
                        0,
                        2.33333,
                        2.33333
                    ],
                    "texture": "#0"
                },
                "south": {
                    "uv": [
                        0,
                        0,
                        2.33333,
                        2.33333
                    ],
                    "texture": "#0"
                },
                "west": {
                    "uv": [
                        0,
                        0,
                        2.33333,
                        2.33333
                    ],
                    "texture": "#0"
                },
                "up": {
                    "uv": [
                        0,
                        0,
                        2.33333,
                        2.33333
                    ],
                    "texture": "#0"
                },
                "down": {
                    "uv": [
                        0,
                        0,
                        2.33333,
                        2.33333
                    ],
                    "texture": "#0"
                }
            }
        },
        {
            "from": [
                7.83644,
                4.31508,
                1.26212
            ],
            "to": [
                8.40644,
                4.65708,
                3.99812
            ],
            "rotation": {
                "angle": 0,
                "axis": "y",
                "origin": [
                    8.17844,
                    5.26712,
                    7.74532
                ]
            },
            "faces": {
                "north": {
                    "uv": [
                        0,
                        0,
                        2.33333,
                        2.33333
                    ],
                    "texture": "#0"
                },
                "east": {
                    "uv": [
                        0,
                        0,
                        2.33333,
                        2.33333
                    ],
                    "texture": "#0"
                },
                "south": {
                    "uv": [
                        0,
                        0,
                        2.33333,
                        2.33333
                    ],
                    "texture": "#0"
                },
                "west": {
                    "uv": [
                        0,
                        0,
                        2.33333,
                        2.33333
                    ],
                    "texture": "#0"
                },
                "up": {
                    "uv": [
                        0,
                        0,
                        2.33333,
                        2.33333
                    ],
                    "texture": "#0"
                },
                "down": {
                    "uv": [
                        0,
                        0,
                        2.33333,
                        2.33333
                    ],
                    "texture": "#0"
                }
            }
        },
        {
            "from": [
                7.72244,
                4.31508,
                1.26212
            ],
            "to": [
                7.83644,
                4.65708,
                1.49012
            ],
            "rotation": {
                "angle": 0,
                "axis": "y",
                "origin": [
                    8.06444,
                    5.26712,
                    7.74532
                ]
            },
            "faces": {
                "north": {
                    "uv": [
                        0,
                        0,
                        3.032,
                        2.394
                    ],
                    "texture": "#0"
                },
                "east": {
                    "uv": [
                        0,
                        0,
                        3.032,
                        2.394
                    ],
                    "texture": "#0"
                },
                "south": {
                    "uv": [
                        0,
                        0,
                        3.032,
                        2.394
                    ],
                    "texture": "#0"
                },
                "west": {
                    "uv": [
                        0,
                        0,
                        3.032,
                        2.394
                    ],
                    "texture": "#0"
                },
                "up": {
                    "uv": [
                        0,
                        0,
                        3.032,
                        2.394
                    ],
                    "rotation": 270,
                    "texture": "#0"
                },
                "down": {
                    "uv": [
                        0,
                        0,
                        3.032,
                        2.394
                    ],
                    "rotation": 90,
                    "texture": "#0"
                }
            }
        },
        {
            "from": [
                7.68824,
                4.77108,
                4.11212
            ],
            "to": [
                7.80444,
                5.11708,
                4.34012
            ],
            "rotation": {
                "angle": 0,
                "axis": "y",
                "origin": [
                    8.06444,
                    5.72312,
                    10.59532
                ]
            },
            "faces": {
                "north": {
                    "uv": [
                        0,
                        0,
                        2.33333,
                        2.33333
                    ],
                    "texture": "#0"
                },
                "east": {
                    "uv": [
                        0,
                        0,
                        2.33333,
                        2.33333
                    ],
                    "texture": "#0"
                },
                "south": {
                    "uv": [
                        0,
                        0,
                        2.33333,
                        2.33333
                    ],
                    "texture": "#0"
                },
                "west": {
                    "uv": [
                        0,
                        0,
                        2.33333,
                        2.33333
                    ],
                    "texture": "#0"
                },
                "up": {
                    "uv": [
                        0,
                        0,
                        2.33333,
                        2.33333
                    ],
                    "texture": "#0"
                },
                "down": {
                    "uv": [
                        0,
                        0,
                        2.33333,
                        2.33333
                    ],
                    "texture": "#0"
                }
            }
        },
        {
            "from": [
                7.68824,
                4.77108,
                2.23012
            ],
            "to": [
                7.80444,
                5.11708,
                2.45812
            ],
            "rotation": {
                "angle": 0,
                "axis": "y",
                "origin": [
                    8.06444,
                    5.72312,
                    8.71332
                ]
            },
            "faces": {
                "north": {
                    "uv": [
                        0,
                        0,
                        2.33333,
                        2.33333
                    ],
                    "texture": "#0"
                },
                "east": {
                    "uv": [
                        0,
                        0,
                        2.33333,
                        2.33333
                    ],
                    "texture": "#0"
                },
                "south": {
                    "uv": [
                        0,
                        0,
                        2.33333,
                        2.33333
                    ],
                    "texture": "#0"
                },
                "west": {
                    "uv": [
                        0,
                        0,
                        2.33333,
                        2.33333
                    ],
                    "texture": "#0"
                },
                "up": {
                    "uv": [
                        0,
                        0,
                        2.33333,
                        2.33333
                    ],
                    "texture": "#0"
                },
                "down": {
                    "uv": [
                        0,
                        0,
                        2.33333,
                        2.33333
                    ],
                    "texture": "#0"
                }
            }
        },
        {
            "from": [
                8.32444,
                4.77108,
                4.11212
            ],
            "to": [
                8.44064,
                5.11708,
                4.34012
            ],
            "rotation": {
                "angle": 0,
                "axis": "y",
                "origin": [
                    8.63444,
                    5.72312,
                    10.59532
                ]
            },
            "faces": {
                "north": {
                    "uv": [
                        0,
                        0,
                        3.032,
                        2.394
                    ],
                    "texture": "#0"
                },
                "east": {
                    "uv": [
                        0,
                        0,
                        3.032,
                        2.394
                    ],
                    "texture": "#0"
                },
                "south": {
                    "uv": [
                        0,
                        0,
                        3.032,
                        2.394
                    ],
                    "texture": "#0"
                },
                "west": {
                    "uv": [
                        0,
                        0,
                        3.032,
                        2.394
                    ],
                    "texture": "#0"
                },
                "up": {
                    "uv": [
                        0,
                        0,
                        3.032,
                        2.394
                    ],
                    "rotation": 270,
                    "texture": "#0"
                },
                "down": {
                    "uv": [
                        0,
                        0,
                        3.032,
                        2.394
                    ],
                    "rotation": 90,
                    "texture": "#0"
                }
            }
        },
        {
            "from": [
                8.32444,
                4.77108,
                2.23012
            ],
            "to": [
                8.44064,
                5.11708,
                2.45812
            ],
            "rotation": {
                "angle": 0,
                "axis": "y",
                "origin": [
                    8.63444,
                    5.72312,
                    8.71332
                ]
            },
            "faces": {
                "north": {
                    "uv": [
                        0,
                        0,
                        3.032,
                        2.394
                    ],
                    "texture": "#0"
                },
                "east": {
                    "uv": [
                        0,
                        0,
                        3.032,
                        2.394
                    ],
                    "texture": "#0"
                },
                "south": {
                    "uv": [
                        0,
                        0,
                        3.032,
                        2.394
                    ],
                    "texture": "#0"
                },
                "west": {
                    "uv": [
                        0,
                        0,
                        3.032,
                        2.394
                    ],
                    "texture": "#0"
                },
                "up": {
                    "uv": [
                        0,
                        0,
                        3.032,
                        2.394
                    ],
                    "rotation": 270,
                    "texture": "#0"
                },
                "down": {
                    "uv": [
                        0,
                        0,
                        3.032,
                        2.394
                    ],
                    "rotation": 90,
                    "texture": "#0"
                }
            }
        },
        {
            "from": [
                7.72244,
                4.63428,
                1.26212
            ],
            "to": [
                8.40644,
                5.08628,
                4.45412
            ],
            "rotation": {
                "angle": 0,
                "axis": "y",
                "origin": [
                    8.06444,
                    5.49512,
                    7.74532
                ]
            },
            "faces": {
                "north": {
                    "uv": [
                        0,
                        0,
                        2.33333,
                        2.33333
                    ],
                    "texture": "#0"
                },
                "east": {
                    "uv": [
                        0,
                        0,
                        2.33333,
                        2.33333
                    ],
                    "texture": "#0"
                },
                "south": {
                    "uv": [
                        0,
                        0,
                        2.33333,
                        2.33333
                    ],
                    "texture": "#0"
                },
                "west": {
                    "uv": [
                        0,
                        0,
                        2.33333,
                        2.33333
                    ],
                    "texture": "#0"
                },
                "up": {
                    "uv": [
                        0,
                        0,
                        2.33333,
                        2.33333
                    ],
                    "texture": "#0"
                },
                "down": {
                    "uv": [
                        0,
                        0,
                        2.33333,
                        2.33333
                    ],
                    "texture": "#0"
                }
            }
        },
        {
            "from": [
                7.72244,
                3.66089,
                2.40212
            ],
            "to": [
                8.40644,
                4.34489,
                3.20012
            ],
            "rotation": {
                "angle": -22.5,
                "axis": "x",
                "origin": [
                    8.06444,
                    4.00289,
                    2.68712
                ]
            },
            "faces": {
                "north": {
                    "uv": [
                        0,
                        0,
                        2.33333,
                        2.33333
                    ],
                    "texture": "#0"
                },
                "east": {
                    "uv": [
                        0,
                        0,
                        2.33333,
                        2.33333
                    ],
                    "texture": "#0"
                },
                "south": {
                    "uv": [
                        0,
                        0,
                        2.33333,
                        2.33333
                    ],
                    "texture": "#0"
                },
                "west": {
                    "uv": [
                        0,
                        0,
                        2.33333,
                        2.33333
                    ],
                    "texture": "#0"
                },
                "up": {
                    "uv": [
                        0,
                        0,
                        2.33333,
                        2.33333
                    ],
                    "texture": "#0"
                },
                "down": {
                    "uv": [
                        0,
                        0,
                        2.33333,
                        2.33333
                    ],
                    "texture": "#0"
                }
            }
        },
        {
            "from": [
                7.72244,
                3.83628,
                2.74412
            ],
            "to": [
                8.40644,
                4.63428,
                3.99812
            ],
            "rotation": {
                "angle": 0,
                "axis": "y",
                "origin": [
                    8.06444,
                    4.06428,
                    3.37112
                ]
            },
            "faces": {
                "north": {
                    "uv": [
                        0,
                        0,
                        2.33333,
                        2.33333
                    ],
                    "texture": "#0"
                },
                "east": {
                    "uv": [
                        0,
                        0,
                        2.33333,
                        2.33333
                    ],
                    "texture": "#0"
                },
                "south": {
                    "uv": [
                        0,
                        0,
                        2.33333,
                        2.33333
                    ],
                    "texture": "#0"
                },
                "west": {
                    "uv": [
                        0,
                        0,
                        2.33333,
                        2.33333
                    ],
                    "texture": "#0"
                },
                "up": {
                    "uv": [
                        0,
                        0,
                        2.33333,
                        2.33333
                    ],
                    "texture": "#0"
                },
                "down": {
                    "uv": [
                        0,
                        0,
                        2.33333,
                        2.33333
                    ],
                    "texture": "#0"
                }
            }
        },
        {
            "from": [
                7.72244,
                3.75206,
                3.73131
            ],
            "to": [
                8.40644,
                4.77806,
                4.30131
            ],
            "rotation": {
                "angle": 22.5,
                "axis": "x",
                "origin": [
                    8.06444,
                    4.32206,
                    4.01631
                ]
            },
            "faces": {
                "north": {
                    "uv": [
                        0,
                        0,
                        2.33333,
                        2.33333
                    ],
                    "texture": "#0"
                },
                "east": {
                    "uv": [
                        0,
                        0,
                        2.33333,
                        2.33333
                    ],
                    "texture": "#0"
                },
                "south": {
                    "uv": [
                        0,
                        0,
                        2.33333,
                        2.33333
                    ],
                    "texture": "#0"
                },
                "west": {
                    "uv": [
                        0,
                        0,
                        2.33333,
                        2.33333
                    ],
                    "texture": "#0"
                },
                "up": {
                    "uv": [
                        0,
                        0,
                        2.33333,
                        2.33333
                    ],
                    "texture": "#0"
                },
                "down": {
                    "uv": [
                        0,
                        0,
                        2.33333,
                        2.33333
                    ],
                    "texture": "#0"
                }
            }
        },
        {
            "from": [
                7.95044,
                3.67001,
                1.38403
            ],
            "to": [
                8.17844,
                3.72701,
                1.72603
            ],
            "rotation": {
                "angle": 45,
                "axis": "x",
                "origin": [
                    8.06444,
                    3.69851,
                    1.44103
                ]
            },
            "faces": {
                "north": {
                    "uv": [
                        5.66667,
                        3.33333,
                        7,
                        4.66667
                    ],
                    "texture": "#0"
                },
                "east": {
                    "uv": [
                        5.66667,
                        3.33333,
                        7,
                        4.66667
                    ],
                    "texture": "#0"
                },
                "south": {
                    "uv": [
                        5.66667,
                        3.33333,
                        7,
                        4.66667
                    ],
                    "texture": "#0"
                },
                "west": {
                    "uv": [
                        5.66667,
                        3.33333,
                        7,
                        4.66667
                    ],
                    "texture": "#0"
                },
                "up": {
                    "uv": [
                        5.66667,
                        3.33333,
                        7,
                        4.66667
                    ],
                    "texture": "#0"
                },
                "down": {
                    "uv": [
                        5.66667,
                        3.33333,
                        7,
                        4.66667
                    ],
                    "texture": "#0"
                }
            }
        },
        {
            "from": [
                7.95044,
                3.71656,
                1.31296
            ],
            "to": [
                8.17844,
                3.94456,
                1.36996
            ],
            "rotation": {
                "angle": -22.5,
                "axis": "x",
                "origin": [
                    8.06444,
                    3.88756,
                    1.34146
                ]
            },
            "faces": {
                "north": {
                    "uv": [
                        5.66667,
                        3.33333,
                        7,
                        4.66667
                    ],
                    "rotation": 90,
                    "texture": "#0"
                },
                "east": {
                    "uv": [
                        5.66667,
                        3.33333,
                        7,
                        4.66667
                    ],
                    "rotation": 90,
                    "texture": "#0"
                },
                "south": {
                    "uv": [
                        5.66667,
                        3.33333,
                        7,
                        4.66667
                    ],
                    "rotation": 90,
                    "texture": "#0"
                },
                "west": {
                    "uv": [
                        5.66667,
                        3.33333,
                        7,
                        4.66667
                    ],
                    "rotation": 90,
                    "texture": "#0"
                },
                "up": {
                    "uv": [
                        5.66667,
                        3.33333,
                        7,
                        4.66667
                    ],
                    "rotation": 90,
                    "texture": "#0"
                },
                "down": {
                    "uv": [
                        5.66667,
                        3.33333,
                        7,
                        4.66667
                    ],
                    "rotation": 90,
                    "texture": "#0"
                }
            }
        },
        {
            "from": [
                7.95044,
                3.92932,
                1.29332
            ],
            "to": [
                8.17844,
                4.15732,
                1.35032
            ],
            "rotation": {
                "angle": 0,
                "axis": "y",
                "origin": [
                    8.06444,
                    4.10032,
                    1.32182
                ]
            },
            "faces": {
                "north": {
                    "uv": [
                        5.66667,
                        3.33333,
                        7,
                        4.66667
                    ],
                    "rotation": 90,
                    "texture": "#0"
                },
                "east": {
                    "uv": [
                        5.66667,
                        3.33333,
                        7,
                        4.66667
                    ],
                    "rotation": 90,
                    "texture": "#0"
                },
                "south": {
                    "uv": [
                        5.66667,
                        3.33333,
                        7,
                        4.66667
                    ],
                    "rotation": 90,
                    "texture": "#0"
                },
                "west": {
                    "uv": [
                        5.66667,
                        3.33333,
                        7,
                        4.66667
                    ],
                    "rotation": 90,
                    "texture": "#0"
                },
                "up": {
                    "uv": [
                        5.66667,
                        3.33333,
                        7,
                        4.66667
                    ],
                    "rotation": 90,
                    "texture": "#0"
                },
                "down": {
                    "uv": [
                        5.66667,
                        3.33333,
                        7,
                        4.66667
                    ],
                    "rotation": 90,
                    "texture": "#0"
                }
            }
        },
        {
            "from": [
                7.95044,
                3.47684,
                1.62241
            ],
            "to": [
                8.17844,
                3.53384,
                2.19241
            ],
            "rotation": {
                "angle": 0,
                "axis": "y",
                "origin": [
                    8.06444,
                    3.50534,
                    2.10691
                ]
            },
            "faces": {
                "north": {
                    "uv": [
                        5.66667,
                        3.33333,
                        7,
                        4.66667
                    ],
                    "texture": "#0"
                },
                "east": {
                    "uv": [
                        5.66667,
                        3.33333,
                        7,
                        4.66667
                    ],
                    "texture": "#0"
                },
                "south": {
                    "uv": [
                        5.66667,
                        3.33333,
                        7,
                        4.66667
                    ],
                    "texture": "#0"
                },
                "west": {
                    "uv": [
                        5.66667,
                        3.33333,
                        7,
                        4.66667
                    ],
                    "texture": "#0"
                },
                "up": {
                    "uv": [
                        5.66667,
                        3.33333,
                        7,
                        4.66667
                    ],
                    "texture": "#0"
                },
                "down": {
                    "uv": [
                        5.66667,
                        3.33333,
                        7,
                        4.66667
                    ],
                    "texture": "#0"
                }
            }
        },
        {
            "from": [
                7.95044,
                3.51613,
                2.16191
            ],
            "to": [
                8.17844,
                3.57313,
                2.67491
            ],
            "rotation": {
                "angle": -22.5,
                "axis": "x",
                "origin": [
                    8.06444,
                    3.57313,
                    2.27591
                ]
            },
            "faces": {
                "north": {
                    "uv": [
                        5.66667,
                        3.33333,
                        7,
                        4.66667
                    ],
                    "texture": "#0"
                },
                "east": {
                    "uv": [
                        5.66667,
                        3.33333,
                        7,
                        4.66667
                    ],
                    "texture": "#0"
                },
                "south": {
                    "uv": [
                        5.66667,
                        3.33333,
                        7,
                        4.66667
                    ],
                    "texture": "#0"
                },
                "west": {
                    "uv": [
                        5.66667,
                        3.33333,
                        7,
                        4.66667
                    ],
                    "texture": "#0"
                },
                "up": {
                    "uv": [
                        5.66667,
                        3.33333,
                        7,
                        4.66667
                    ],
                    "texture": "#0"
                },
                "down": {
                    "uv": [
                        5.66667,
                        3.33333,
                        7,
                        4.66667
                    ],
                    "texture": "#0"
                }
            }
        },
        {
            "from": [
                8.00744,
                3.79547,
                2.20113
            ],
            "to": [
                8.12144,
                3.90947,
                2.25813
            ],
            "rotation": {
                "angle": 22.5,
                "axis": "x",
                "origin": [
                    8.06444,
                    3.96647,
                    2.22963
                ]
            },
            "faces": {
                "north": {
                    "uv": [
                        3,
                        3.33333,
                        4.33333,
                        4.66667
                    ],
                    "rotation": 270,
                    "texture": "#0"
                },
                "east": {
                    "uv": [
                        3,
                        3.33333,
                        4.33333,
                        4.66667
                    ],
                    "rotation": 270,
                    "texture": "#0"
                },
                "south": {
                    "uv": [
                        3,
                        3.33333,
                        4.33333,
                        4.66667
                    ],
                    "rotation": 270,
                    "texture": "#0"
                },
                "west": {
                    "uv": [
                        3,
                        3.33333,
                        4.33333,
                        4.66667
                    ],
                    "rotation": 270,
                    "texture": "#0"
                },
                "up": {
                    "uv": [
                        3,
                        3.33333,
                        4.33333,
                        4.66667
                    ],
                    "rotation": 270,
                    "texture": "#0"
                },
                "down": {
                    "uv": [
                        3,
                        3.33333,
                        4.33333,
                        4.66667
                    ],
                    "rotation": 270,
                    "texture": "#0"
                }
            }
        },
        {
            "from": [
                8.00744,
                3.72044,
                2.10156
            ],
            "to": [
                8.12144,
                3.83444,
                2.15856
            ],
            "rotation": {
                "angle": 45,
                "axis": "x",
                "origin": [
                    8.06444,
                    3.77744,
                    2.13006
                ]
            },
            "faces": {
                "north": {
                    "uv": [
                        3,
                        3.33333,
                        4.33333,
                        4.66667
                    ],
                    "rotation": 270,
                    "texture": "#0"
                },
                "east": {
                    "uv": [
                        3,
                        3.33333,
                        4.33333,
                        4.66667
                    ],
                    "rotation": 270,
                    "texture": "#0"
                },
                "south": {
                    "uv": [
                        3,
                        3.33333,
                        4.33333,
                        4.66667
                    ],
                    "rotation": 270,
                    "texture": "#0"
                },
                "west": {
                    "uv": [
                        3,
                        3.33333,
                        4.33333,
                        4.66667
                    ],
                    "rotation": 270,
                    "texture": "#0"
                },
                "up": {
                    "uv": [
                        3,
                        3.33333,
                        4.33333,
                        4.66667
                    ],
                    "rotation": 270,
                    "texture": "#0"
                },
                "down": {
                    "uv": [
                        3,
                        3.33333,
                        4.33333,
                        4.66667
                    ],
                    "rotation": 270,
                    "texture": "#0"
                }
            }
        },
        {
            "from": [
                8.00744,
                3.9008,
                2.24475
            ],
            "to": [
                8.12144,
                4.2428,
                2.30175
            ],
            "rotation": {
                "angle": 22.5,
                "axis": "x",
                "origin": [
                    8.06444,
                    4.0718,
                    2.27325
                ]
            },
            "faces": {
                "north": {
                    "uv": [
                        3,
                        3.33333,
                        4.33333,
                        4.66667
                    ],
                    "rotation": 270,
                    "texture": "#0"
                },
                "east": {
                    "uv": [
                        3,
                        3.33333,
                        4.33333,
                        4.66667
                    ],
                    "rotation": 270,
                    "texture": "#0"
                },
                "south": {
                    "uv": [
                        3,
                        3.33333,
                        4.33333,
                        4.66667
                    ],
                    "rotation": 270,
                    "texture": "#0"
                },
                "west": {
                    "uv": [
                        3,
                        3.33333,
                        4.33333,
                        4.66667
                    ],
                    "rotation": 270,
                    "texture": "#0"
                },
                "up": {
                    "uv": [
                        3,
                        3.33333,
                        4.33333,
                        4.66667
                    ],
                    "rotation": 270,
                    "texture": "#0"
                },
                "down": {
                    "uv": [
                        3,
                        3.33333,
                        4.33333,
                        4.66667
                    ],
                    "rotation": 270,
                    "texture": "#0"
                }
            }
        },
        {
            "from": [
                8.00744,
                3.99299,
                2.24041
            ],
            "to": [
                8.12144,
                4.33499,
                2.29741
            ],
            "rotation": {
                "angle": 22.5,
                "axis": "x",
                "origin": [
                    8.06444,
                    4.16399,
                    2.26891
                ]
            },
            "faces": {
                "north": {
                    "uv": [
                        3,
                        3.33333,
                        4.33333,
                        4.66667
                    ],
                    "rotation": 270,
                    "texture": "#0"
                },
                "east": {
                    "uv": [
                        3,
                        3.33333,
                        4.33333,
                        4.66667
                    ],
                    "rotation": 270,
                    "texture": "#0"
                },
                "south": {
                    "uv": [
                        3,
                        3.33333,
                        4.33333,
                        4.66667
                    ],
                    "rotation": 270,
                    "texture": "#0"
                },
                "west": {
                    "uv": [
                        3,
                        3.33333,
                        4.33333,
                        4.66667
                    ],
                    "rotation": 270,
                    "texture": "#0"
                },
                "up": {
                    "uv": [
                        3,
                        3.33333,
                        4.33333,
                        4.66667
                    ],
                    "rotation": 270,
                    "texture": "#0"
                },
                "down": {
                    "uv": [
                        3,
                        3.33333,
                        4.33333,
                        4.66667
                    ],
                    "rotation": 270,
                    "texture": "#0"
                }
            }
        },
        {
            "from": [
                8.00744,
                4.0169,
                2.17714
            ],
            "to": [
                8.12144,
                4.3589,
                2.23414
            ],
            "rotation": {
                "angle": 0,
                "axis": "y",
                "origin": [
                    8.06444,
                    4.1879,
                    2.20564
                ]
            },
            "faces": {
                "north": {
                    "uv": [
                        3,
                        3.33333,
                        4.33333,
                        4.66667
                    ],
                    "rotation": 270,
                    "texture": "#0"
                },
                "east": {
                    "uv": [
                        3,
                        3.33333,
                        4.33333,
                        4.66667
                    ],
                    "rotation": 270,
                    "texture": "#0"
                },
                "south": {
                    "uv": [
                        3,
                        3.33333,
                        4.33333,
                        4.66667
                    ],
                    "rotation": 270,
                    "texture": "#0"
                },
                "west": {
                    "uv": [
                        3,
                        3.33333,
                        4.33333,
                        4.66667
                    ],
                    "rotation": 270,
                    "texture": "#0"
                },
                "up": {
                    "uv": [
                        3,
                        3.33333,
                        4.33333,
                        4.66667
                    ],
                    "rotation": 270,
                    "texture": "#0"
                },
                "down": {
                    "uv": [
                        3,
                        3.33333,
                        4.33333,
                        4.66667
                    ],
                    "rotation": 270,
                    "texture": "#0"
                }
            }
        },
        {
            "from": [
                8.00744,
                3.9029,
                2.17714
            ],
            "to": [
                8.12144,
                4.0169,
                2.23414
            ],
            "rotation": {
                "angle": 0,
                "axis": "y",
                "origin": [
                    8.06444,
                    4.0739,
                    2.20564
                ]
            },
            "faces": {
                "north": {
                    "uv": [
                        3,
                        3.33333,
                        4.33333,
                        4.66667
                    ],
                    "rotation": 270,
                    "texture": "#0"
                },
                "east": {
                    "uv": [
                        3,
                        3.33333,
                        4.33333,
                        4.66667
                    ],
                    "rotation": 270,
                    "texture": "#0"
                },
                "south": {
                    "uv": [
                        3,
                        3.33333,
                        4.33333,
                        4.66667
                    ],
                    "rotation": 270,
                    "texture": "#0"
                },
                "west": {
                    "uv": [
                        3,
                        3.33333,
                        4.33333,
                        4.66667
                    ],
                    "rotation": 270,
                    "texture": "#0"
                },
                "up": {
                    "uv": [
                        3,
                        3.33333,
                        4.33333,
                        4.66667
                    ],
                    "rotation": 270,
                    "texture": "#0"
                },
                "down": {
                    "uv": [
                        3,
                        3.33333,
                        4.33333,
                        4.66667
                    ],
                    "rotation": 270,
                    "texture": "#0"
                }
            }
        },
        {
            "from": [
                7.7441,
                4.31508,
                1.49012
            ],
            "to": [
                7.8581,
                4.65708,
                2.85812
            ],
            "rotation": {
                "angle": 0,
                "axis": "y",
                "origin": [
                    8.06444,
                    5.26712,
                    7.97332
                ]
            },
            "faces": {
                "north": {
                    "uv": [
                        0,
                        3,
                        1.66667,
                        4.33333
                    ],
                    "rotation": 270,
                    "texture": "#0"
                },
                "east": {
                    "uv": [
                        0,
                        3,
                        1.66667,
                        4.33333
                    ],
                    "rotation": 270,
                    "texture": "#0"
                },
                "south": {
                    "uv": [
                        0,
                        3,
                        1.66667,
                        4.33333
                    ],
                    "rotation": 270,
                    "texture": "#0"
                },
                "west": {
                    "uv": [
                        0,
                        3,
                        1.66667,
                        4.33333
                    ],
                    "rotation": 270,
                    "texture": "#0"
                },
                "up": {
                    "uv": [
                        0,
                        3,
                        1.66667,
                        4.33333
                    ],
                    "rotation": 270,
                    "texture": "#0"
                },
                "down": {
                    "uv": [
                        0,
                        3,
                        1.66667,
                        4.33333
                    ],
                    "rotation": 270,
                    "texture": "#0"
                }
            }
        },
        {
            "from": [
                7.38159,
                4.44744,
                1.66714
            ],
            "to": [
                7.59819,
                4.58424,
                1.75834
            ],
            "rotation": {
                "angle": 45,
                "axis": "y",
                "origin": [
                    7.49559,
                    4.51584,
                    1.70134
                ]
            },
            "faces": {
                "north": {
                    "uv": [
                        0,
                        3,
                        1.66667,
                        4.33333
                    ],
                    "rotation": 270,
                    "texture": "#0"
                },
                "east": {
                    "uv": [
                        0,
                        3,
                        1.66667,
                        4.33333
                    ],
                    "rotation": 270,
                    "texture": "#0"
                },
                "south": {
                    "uv": [
                        0,
                        3,
                        1.66667,
                        4.33333
                    ],
                    "rotation": 270,
                    "texture": "#0"
                },
                "west": {
                    "uv": [
                        0,
                        3,
                        1.66667,
                        4.33333
                    ],
                    "rotation": 270,
                    "texture": "#0"
                },
                "up": {
                    "uv": [
                        0,
                        3,
                        1.66667,
                        4.33333
                    ],
                    "rotation": 270,
                    "texture": "#0"
                },
                "down": {
                    "uv": [
                        0,
                        3,
                        1.66667,
                        4.33333
                    ],
                    "rotation": 270,
                    "texture": "#0"
                }
            }
        },
        {
            "from": [
                7.45454,
                4.44744,
                1.6064
            ],
            "to": [
                7.54574,
                4.58424,
                1.823
            ],
            "rotation": {
                "angle": 0,
                "axis": "y",
                "origin": [
                    7.50014,
                    4.51584,
                    1.7147
                ]
            },
            "faces": {
                "north": {
                    "uv": [
                        0,
                        3,
                        1.66667,
                        4.33333
                    ],
                    "rotation": 270,
                    "texture": "#0"
                },
                "east": {
                    "uv": [
                        0,
                        3,
                        1.66667,
                        4.33333
                    ],
                    "rotation": 270,
                    "texture": "#0"
                },
                "south": {
                    "uv": [
                        0,
                        3,
                        1.66667,
                        4.33333
                    ],
                    "rotation": 270,
                    "texture": "#0"
                },
                "west": {
                    "uv": [
                        0,
                        3,
                        1.66667,
                        4.33333
                    ],
                    "rotation": 270,
                    "texture": "#0"
                },
                "up": {
                    "uv": [
                        0,
                        3,
                        1.66667,
                        4.33333
                    ],
                    "rotation": 270,
                    "texture": "#0"
                },
                "down": {
                    "uv": [
                        0,
                        3,
                        1.66667,
                        4.33333
                    ],
                    "rotation": 270,
                    "texture": "#0"
                }
            }
        },
        {
            "from": [
                7.39184,
                4.44744,
                1.6691
            ],
            "to": [
                7.60844,
                4.58424,
                1.7603
            ],
            "rotation": {
                "angle": 0,
                "axis": "y",
                "origin": [
                    7.73384,
                    5.38112,
                    8.5433
                ]
            },
            "faces": {
                "north": {
                    "uv": [
                        0,
                        3,
                        1.66667,
                        4.33333
                    ],
                    "rotation": 270,
                    "texture": "#0"
                },
                "east": {
                    "uv": [
                        0,
                        3,
                        1.66667,
                        4.33333
                    ],
                    "rotation": 270,
                    "texture": "#0"
                },
                "south": {
                    "uv": [
                        0,
                        3,
                        1.66667,
                        4.33333
                    ],
                    "rotation": 270,
                    "texture": "#0"
                },
                "west": {
                    "uv": [
                        0,
                        3,
                        1.66667,
                        4.33333
                    ],
                    "rotation": 270,
                    "texture": "#0"
                },
                "up": {
                    "uv": [
                        0,
                        3,
                        1.66667,
                        4.33333
                    ],
                    "rotation": 270,
                    "texture": "#0"
                },
                "down": {
                    "uv": [
                        0,
                        3,
                        1.66667,
                        4.33333
                    ],
                    "rotation": 270,
                    "texture": "#0"
                }
            }
        },
        {
            "from": [
                7.39184,
                4.44744,
                1.6691
            ],
            "to": [
                7.60844,
                4.58424,
                1.7603
            ],
            "rotation": {
                "angle": -45,
                "axis": "y",
                "origin": [
                    7.50014,
                    4.51584,
                    1.7147
                ]
            },
            "faces": {
                "north": {
                    "uv": [
                        0,
                        3,
                        1.66667,
                        4.33333
                    ],
                    "rotation": 270,
                    "texture": "#0"
                },
                "east": {
                    "uv": [
                        0,
                        3,
                        1.66667,
                        4.33333
                    ],
                    "rotation": 270,
                    "texture": "#0"
                },
                "south": {
                    "uv": [
                        0,
                        3,
                        1.66667,
                        4.33333
                    ],
                    "rotation": 270,
                    "texture": "#0"
                },
                "west": {
                    "uv": [
                        0,
                        3,
                        1.66667,
                        4.33333
                    ],
                    "rotation": 270,
                    "texture": "#0"
                },
                "up": {
                    "uv": [
                        0,
                        3,
                        1.66667,
                        4.33333
                    ],
                    "rotation": 270,
                    "texture": "#0"
                },
                "down": {
                    "uv": [
                        0,
                        3,
                        1.66667,
                        4.33333
                    ],
                    "rotation": 270,
                    "texture": "#0"
                }
            }
        },
        {
            "from": [
                7.60844,
                4.47024,
                1.6691
            ],
            "to": [
                8.12144,
                4.56144,
                1.7603
            ],
            "rotation": {
                "angle": 0,
                "axis": "y",
                "origin": [
                    7.95044,
                    5.38112,
                    8.5433
                ]
            },
            "faces": {
                "north": {
                    "uv": [
                        0,
                        3,
                        1.66667,
                        4.33333
                    ],
                    "rotation": 270,
                    "texture": "#0"
                },
                "east": {
                    "uv": [
                        0,
                        3,
                        1.66667,
                        4.33333
                    ],
                    "rotation": 270,
                    "texture": "#0"
                },
                "south": {
                    "uv": [
                        0,
                        3,
                        1.66667,
                        4.33333
                    ],
                    "rotation": 270,
                    "texture": "#0"
                },
                "west": {
                    "uv": [
                        0,
                        3,
                        1.66667,
                        4.33333
                    ],
                    "rotation": 270,
                    "texture": "#0"
                },
                "up": {
                    "uv": [
                        0,
                        3,
                        1.66667,
                        4.33333
                    ],
                    "rotation": 270,
                    "texture": "#0"
                },
                "down": {
                    "uv": [
                        0,
                        3,
                        1.66667,
                        4.33333
                    ],
                    "rotation": 270,
                    "texture": "#0"
                }
            }
        }
    ],
    "display": {
        "thirdperson_righthand": {
            "translation": [
                -0.75,
                5,
                1.75
            ],
            "scale": [
                1.56,
                1.56,
                1.56
            ]
        },
        "thirdperson_lefthand": {
            "translation": [
                -0.75,
                4.75,
                1.75
            ],
            "scale": [
                1.56,
                1.56,
                1.56
            ]
        },
        "firstperson_righthand": {
            "translation": [
                -6.5,
                9.25,
                8.25
            ]
        },
        "firstperson_lefthand": {
            "translation": [
                -6.5,
                9.25,
                8.25
            ]
        },
        "ground": {
            "translation": [
                0,
                7,
                4
            ],
            "scale": [
                1.2,
                1.2,
                1.2
            ]
        },
        "gui": {
            "rotation": [
                19,
                28,
                -15
            ],
            "translation": [
                2.5,
                7.25,
                0
            ],
            "scale": [
                2.3,
                2.3,
                2.3
            ]
        },
        "head": {
            "rotation": [
                0,
                0,
                50
            ],
            "translation": [
                -5,
                13.25,
                5.5
            ],
            "scale": [
                2,
                2,
                2
            ]
        },
        "fixed": {
            "rotation": [
                90,
                45,
                -90
            ],
            "translation": [
                6.5,
                2,
                -1.75
            ],
            "scale": [
                1.85,
                1.85,
                1.85
            ]
        }
    }
}