{
	"credit": "Made with Blockbench",
	"textures": {
		"1": "gci:items/common/mpz",
		"particle": "gci:MIGHTY_ALL_IN_ONE"
	},
	"elements": [
		{
			"name": "octagon",
			"from": [7.82525, 5.78438, 7.57813],
			"to": [8.17475, 6.51563, 8.42188],
			"rotation": {"angle": 45, "axis": "y", "origin": [8, 5.925, 8]},
			"faces": {
				"north": {"uv": [12, 12.41667, 12.625, 13.04167], "texture": "#1"},
				"east": {"uv": [12, 12.41667, 12.625, 13.04167], "texture": "#1"},
				"south": {"uv": [12, 12.41667, 12.625, 13.04167], "texture": "#1"},
				"west": {"uv": [12, 12.41667, 12.625, 13.04167], "texture": "#1"},
				"up": {"uv": [12, 12.41667, 12.625, 13.04167], "texture": "#1"},
				"down": {"uv": [12, 12.41667, 12.625, 13.04167], "texture": "#1"}
			}
		},
		{
			"name": "octagon",
			"from": [7.82525, 5.78438, 7.57813],
			"to": [8.17475, 6.51563, 8.42188],
			"rotation": {"angle": 0, "axis": "y", "origin": [8, 5.925, 8]},
			"faces": {
				"north": {"uv": [12, 12.41667, 12.625, 13.04167], "texture": "#1"},
				"east": {"uv": [12, 12.41667, 12.625, 13.04167], "texture": "#1"},
				"south": {"uv": [12, 12.41667, 12.625, 13.04167], "texture": "#1"},
				"west": {"uv": [12, 12.41667, 12.625, 13.04167], "texture": "#1"},
				"up": {"uv": [12, 12.41667, 12.625, 13.04167], "texture": "#1"},
				"down": {"uv": [12, 12.41667, 12.625, 13.04167], "texture": "#1"}
			}
		},
		{
			"name": "octagon",
			"from": [7.57813, 5.78438, 7.82525],
			"to": [8.42188, 6.51563, 8.17475],
			"rotation": {"angle": 45, "axis": "y", "origin": [8, 5.925, 8]},
			"faces": {
				"north": {"uv": [12, 12.41667, 12.625, 13.04167], "texture": "#1"},
				"east": {"uv": [12, 12.41667, 12.625, 13.04167], "texture": "#1"},
				"south": {"uv": [12, 12.41667, 12.625, 13.04167], "texture": "#1"},
				"west": {"uv": [12, 12.41667, 12.625, 13.04167], "texture": "#1"},
				"up": {"uv": [12, 12.41667, 12.625, 13.04167], "texture": "#1"},
				"down": {"uv": [12, 12.41667, 12.625, 13.04167], "texture": "#1"}
			}
		},
		{
			"name": "octagon",
			"from": [7.57813, 5.78438, 7.82525],
			"to": [8.42188, 6.51563, 8.17475],
			"rotation": {"angle": 0, "axis": "y", "origin": [8, 5.925, 8]},
			"faces": {
				"north": {"uv": [12, 12.41667, 12.625, 13.04167], "texture": "#1"},
				"east": {"uv": [12, 12.41667, 12.625, 13.04167], "texture": "#1"},
				"south": {"uv": [12, 12.41667, 12.625, 13.04167], "texture": "#1"},
				"west": {"uv": [12, 12.41667, 12.625, 13.04167], "texture": "#1"},
				"up": {"uv": [12, 12.41667, 12.625, 13.04167], "texture": "#1"},
				"down": {"uv": [12, 12.41667, 12.625, 13.04167], "texture": "#1"}
			}
		},
		{
			"name": "octagon",
			"from": [7.70876, 6.26563, 7.29688],
			"to": [8.29124, 7.76563, 8.70313],
			"rotation": {"angle": 45, "axis": "y", "origin": [8, 6.5, 8]},
			"faces": {
				"north": {"uv": [12.33333, 11.75, 12.95833, 12.375], "texture": "#1"},
				"east": {"uv": [12.33333, 11.75, 12.95833, 12.375], "texture": "#1"},
				"south": {"uv": [12.33333, 11.75, 12.95833, 12.375], "texture": "#1"},
				"west": {"uv": [12.33333, 11.75, 12.95833, 12.375], "texture": "#1"},
				"up": {"uv": [12.33333, 11.75, 12.95833, 12.375], "texture": "#1"},
				"down": {"uv": [12.33333, 11.75, 12.95833, 12.375], "texture": "#1"}
			}
		},
		{
			"name": "octagon",
			"from": [7.29688, 6.26563, 7.70876],
			"to": [8.70313, 7.76563, 8.29124],
			"rotation": {"angle": 45, "axis": "y", "origin": [8, 6.5, 8]},
			"faces": {
				"north": {"uv": [12.33333, 11.75, 12.95833, 12.375], "texture": "#1"},
				"east": {"uv": [12.33333, 11.75, 12.95833, 12.375], "texture": "#1"},
				"south": {"uv": [12.33333, 11.75, 12.95833, 12.375], "texture": "#1"},
				"west": {"uv": [12.33333, 11.75, 12.95833, 12.375], "texture": "#1"},
				"up": {"uv": [12.33333, 11.75, 12.95833, 12.375], "texture": "#1"},
				"down": {"uv": [12.33333, 11.75, 12.95833, 12.375], "texture": "#1"}
			}
		},
		{
			"name": "octagon",
			"from": [7.70876, 6.26563, 7.29688],
			"to": [8.29124, 7.76563, 8.70313],
			"rotation": {"angle": 0, "axis": "y", "origin": [8, 6.5, 8]},
			"faces": {
				"north": {"uv": [12.33333, 11.75, 12.95833, 12.375], "texture": "#1"},
				"east": {"uv": [12.33333, 11.75, 12.95833, 12.375], "texture": "#1"},
				"south": {"uv": [12.33333, 11.75, 12.95833, 12.375], "texture": "#1"},
				"west": {"uv": [12.33333, 11.75, 12.95833, 12.375], "texture": "#1"},
				"up": {"uv": [12.33333, 11.75, 12.95833, 12.375], "texture": "#1"},
				"down": {"uv": [12.33333, 11.75, 12.95833, 12.375], "texture": "#1"}
			}
		},
		{
			"name": "octagon",
			"from": [7.29688, 6.26563, 7.70876],
			"to": [8.70313, 7.76563, 8.29124],
			"rotation": {"angle": 0, "axis": "y", "origin": [8, 6.5, 8]},
			"faces": {
				"north": {"uv": [12.33333, 11.75, 12.95833, 12.375], "texture": "#1"},
				"east": {"uv": [12.33333, 11.75, 12.95833, 12.375], "texture": "#1"},
				"south": {"uv": [12.33333, 11.75, 12.95833, 12.375], "texture": "#1"},
				"west": {"uv": [12.33333, 11.75, 12.95833, 12.375], "texture": "#1"},
				"up": {"uv": [12.33333, 11.75, 12.95833, 12.375], "texture": "#1"},
				"down": {"uv": [12.33333, 11.75, 12.95833, 12.375], "texture": "#1"}
			}
		},
		{
			"name": "octagon",
			"from": [7.29688, 7.76563, 7.70876],
			"to": [8.70313, 8.01563, 8.29124],
			"rotation": {"angle": 0, "axis": "y", "origin": [8, 8, 8]},
			"faces": {
				"north": {"uv": [1.33333, 6.08333, 1.95833, 6.70833], "texture": "#1"},
				"east": {"uv": [1.33333, 6.08333, 1.95833, 6.70833], "texture": "#1"},
				"south": {"uv": [1.33333, 6.08333, 1.95833, 6.70833], "texture": "#1"},
				"west": {"uv": [1.33333, 6.08333, 1.95833, 6.70833], "texture": "#1"},
				"up": {"uv": [1.33333, 6.08333, 1.95833, 6.70833], "texture": "#1"},
				"down": {"uv": [1.33333, 6.08333, 1.95833, 6.70833], "texture": "#1"}
			}
		},
		{
			"name": "octagon",
			"from": [7.70876, 7.76563, 7.29688],
			"to": [8.29124, 8.01563, 8.70313],
			"rotation": {"angle": 45, "axis": "y", "origin": [8, 8, 8]},
			"faces": {
				"north": {"uv": [1.33333, 6.08333, 1.95833, 6.70833], "texture": "#1"},
				"east": {"uv": [1.33333, 6.08333, 1.95833, 6.70833], "texture": "#1"},
				"south": {"uv": [1.33333, 6.08333, 1.95833, 6.70833], "texture": "#1"},
				"west": {"uv": [1.33333, 6.08333, 1.95833, 6.70833], "texture": "#1"},
				"up": {"uv": [1.33333, 6.08333, 1.95833, 6.70833], "texture": "#1"},
				"down": {"uv": [1.33333, 6.08333, 1.95833, 6.70833], "texture": "#1"}
			}
		},
		{
			"name": "octagon",
			"from": [7.29688, 7.76563, 7.70876],
			"to": [8.70313, 8.01563, 8.29124],
			"rotation": {"angle": 45, "axis": "y", "origin": [8, 8, 8]},
			"faces": {
				"north": {"uv": [1.33333, 6.08333, 1.95833, 6.70833], "texture": "#1"},
				"east": {"uv": [1.33333, 6.08333, 1.95833, 6.70833], "texture": "#1"},
				"south": {"uv": [1.33333, 6.08333, 1.95833, 6.70833], "texture": "#1"},
				"west": {"uv": [1.33333, 6.08333, 1.95833, 6.70833], "texture": "#1"},
				"up": {"uv": [1.33333, 6.08333, 1.95833, 6.70833], "texture": "#1"},
				"down": {"uv": [1.33333, 6.08333, 1.95833, 6.70833], "texture": "#1"}
			}
		},
		{
			"name": "octagon",
			"from": [7.70876, 7.76563, 7.29688],
			"to": [8.29124, 8.01563, 8.70313],
			"rotation": {"angle": 0, "axis": "y", "origin": [8, 8, 8]},
			"faces": {
				"north": {"uv": [1.33333, 6.08333, 1.95833, 6.70833], "texture": "#1"},
				"east": {"uv": [1.33333, 6.08333, 1.95833, 6.70833], "texture": "#1"},
				"south": {"uv": [1.33333, 6.08333, 1.95833, 6.70833], "texture": "#1"},
				"west": {"uv": [1.33333, 6.08333, 1.95833, 6.70833], "texture": "#1"},
				"up": {"uv": [1.33333, 6.08333, 1.95833, 6.70833], "texture": "#1"},
				"down": {"uv": [1.33333, 6.08333, 1.95833, 6.70833], "texture": "#1"}
			}
		},
		{
			"name": "octagon",
			"from": [7.70876, 8.01563, 7.29688],
			"to": [8.29124, 8.26563, 8.70313],
			"rotation": {"angle": 45, "axis": "y", "origin": [8, 8.25, 8]},
			"faces": {
				"north": {"uv": [11.66667, 11.75, 12.29167, 12.375], "texture": "#1"},
				"east": {"uv": [11.66667, 11.75, 12.29167, 12.375], "texture": "#1"},
				"south": {"uv": [11.66667, 11.75, 12.29167, 12.375], "texture": "#1"},
				"west": {"uv": [11.66667, 11.75, 12.29167, 12.375], "texture": "#1"},
				"up": {"uv": [11.66667, 11.75, 12.29167, 12.375], "texture": "#1"},
				"down": {"uv": [11.66667, 11.75, 12.29167, 12.375], "texture": "#1"}
			}
		},
		{
			"name": "octagon",
			"from": [7.29688, 8.01563, 7.70876],
			"to": [8.70313, 8.26563, 8.29124],
			"rotation": {"angle": 45, "axis": "y", "origin": [8, 8.25, 8]},
			"faces": {
				"north": {"uv": [11.66667, 11.75, 12.29167, 12.375], "texture": "#1"},
				"east": {"uv": [11.66667, 11.75, 12.29167, 12.375], "texture": "#1"},
				"south": {"uv": [11.66667, 11.75, 12.29167, 12.375], "texture": "#1"},
				"west": {"uv": [11.66667, 11.75, 12.29167, 12.375], "texture": "#1"},
				"up": {"uv": [11.66667, 11.75, 12.29167, 12.375], "texture": "#1"},
				"down": {"uv": [11.66667, 11.75, 12.29167, 12.375], "texture": "#1"}
			}
		},
		{
			"name": "octagon",
			"from": [7.70876, 8.01563, 7.29688],
			"to": [8.29124, 8.26563, 8.70313],
			"rotation": {"angle": 0, "axis": "y", "origin": [8, 8.25, 8]},
			"faces": {
				"north": {"uv": [11.66667, 11.75, 12.29167, 12.375], "texture": "#1"},
				"east": {"uv": [11.66667, 11.75, 12.29167, 12.375], "texture": "#1"},
				"south": {"uv": [11.66667, 11.75, 12.29167, 12.375], "texture": "#1"},
				"west": {"uv": [11.66667, 11.75, 12.29167, 12.375], "texture": "#1"},
				"up": {"uv": [11.66667, 11.75, 12.29167, 12.375], "texture": "#1"},
				"down": {"uv": [11.66667, 11.75, 12.29167, 12.375], "texture": "#1"}
			}
		},
		{
			"name": "octagon",
			"from": [7.29688, 8.01563, 7.70876],
			"to": [8.70313, 8.26563, 8.29124],
			"rotation": {"angle": 0, "axis": "y", "origin": [8, 8.25, 8]},
			"faces": {
				"north": {"uv": [11.66667, 11.75, 12.29167, 12.375], "texture": "#1"},
				"east": {"uv": [11.66667, 11.75, 12.29167, 12.375], "texture": "#1"},
				"south": {"uv": [11.66667, 11.75, 12.29167, 12.375], "texture": "#1"},
				"west": {"uv": [11.66667, 11.75, 12.29167, 12.375], "texture": "#1"},
				"up": {"uv": [11.66667, 11.75, 12.29167, 12.375], "texture": "#1"},
				"down": {"uv": [11.66667, 11.75, 12.29167, 12.375], "texture": "#1"}
			}
		}
	],
	"display": {
		"thirdperson_righthand": {
			"translation": [0, 5.5, 1.5]
		},
		"thirdperson_lefthand": {
			"translation": [0, 5.75, 1.25]
		},
		"firstperson_righthand": {
			"translation": [-1.5, 7, 2.5]
		},
		"firstperson_lefthand": {
			"translation": [-0.5, 6.5, 2.25]
		},
		"ground": {
			"rotation": [45, 0, 0],
			"translation": [0, 4.25, 0]
		},
		"gui": {
			"rotation": [0, 0, -45],
			"translation": [1.5, 2, 0],
			"scale": [2, 2, 2]
		},
		"fixed": {
			"rotation": [0, 0, 45],
			"translation": [-2.25, 2.5, 0]
		}
	}
}