{
    "textures": {
        "0": "gci:items/common/mpz",
        "1": "gci:items/common/all_in_one",
        "particle": "gci:items/common/mpz"
    },
    "elements": [
        {
            "from": [
                7.8323,
                2.31293,
                9.18617
            ],
            "to": [
                8.17286,
                2.97647,
                9.62479
            ],
            "rotation": {
                "angle": -22.5,
                "axis": "x",
                "origin": [
                    8.00217,
                    2.18797,
                    9.50617
                ]
            },
            "faces": {
                "north": {
                    "uv": [
                        11,
                        0.33333,
                        13,
                        2.33333
                    ],
                    "texture": "#0"
                },
                "east": {
                    "uv": [
                        11,
                        0.33333,
                        13,
                        2.33333
                    ],
                    "texture": "#0"
                },
                "south": {
                    "uv": [
                        11,
                        0.33333,
                        13,
                        2.33333
                    ],
                    "texture": "#0"
                },
                "west": {
                    "uv": [
                        11,
                        0.33333,
                        13,
                        2.33333
                    ],
                    "texture": "#0"
                },
                "up": {
                    "uv": [
                        11,
                        0.33333,
                        13,
                        2.33333
                    ],
                    "texture": "#0"
                },
                "down": {
                    "uv": [
                        11,
                        0.33333,
                        13,
                        2.33333
                    ],
                    "texture": "#0"
                }
            }
        },
        {
            "from": [
                7.8323,
                2.19321,
                9.19227
            ],
            "to": [
                8.17286,
                2.59634,
                9.89041
            ],
            "rotation": {
                "angle": 0,
                "axis": "y",
                "origin": [
                    8.00217,
                    2.59434,
                    9.59677
                ]
            },
            "faces": {
                "north": {
                    "uv": [
                        11,
                        0.33333,
                        13,
                        2.33333
                    ],
                    "texture": "#0"
                },
                "east": {
                    "uv": [
                        11,
                        0.33333,
                        13,
                        2.33333
                    ],
                    "texture": "#0"
                },
                "south": {
                    "uv": [
                        11,
                        0.33333,
                        13,
                        2.33333
                    ],
                    "texture": "#0"
                },
                "west": {
                    "uv": [
                        11,
                        0.33333,
                        13,
                        2.33333
                    ],
                    "texture": "#0"
                },
                "up": {
                    "uv": [
                        11,
                        0.33333,
                        13,
                        2.33333
                    ],
                    "texture": "#0"
                },
                "down": {
                    "uv": [
                        11,
                        0.33333,
                        13,
                        2.33333
                    ],
                    "texture": "#0"
                }
            }
        },
        {
            "from": [
                7.8323,
                2.33528,
                9.99342
            ],
            "to": [
                8.17286,
                3.11228,
                10.44342
            ],
            "rotation": {
                "angle": 45,
                "axis": "x",
                "origin": [
                    8.00217,
                    2.93178,
                    9.99542
                ]
            },
            "faces": {
                "north": {
                    "uv": [
                        11,
                        0.33333,
                        13,
                        2.33333
                    ],
                    "texture": "#0"
                },
                "east": {
                    "uv": [
                        11,
                        0.33333,
                        13,
                        2.33333
                    ],
                    "texture": "#0"
                },
                "south": {
                    "uv": [
                        11,
                        0.33333,
                        13,
                        2.33333
                    ],
                    "texture": "#0"
                },
                "west": {
                    "uv": [
                        11,
                        0.33333,
                        13,
                        2.33333
                    ],
                    "texture": "#0"
                },
                "up": {
                    "uv": [
                        11,
                        0.33333,
                        13,
                        2.33333
                    ],
                    "texture": "#0"
                },
                "down": {
                    "uv": [
                        11,
                        0.33333,
                        13,
                        2.33333
                    ],
                    "texture": "#0"
                }
            }
        },
        {
            "from": [
                7.8643,
                2.77083,
                10.12163
            ],
            "to": [
                8.14086,
                3.02883,
                14.61063
            ],
            "rotation": {
                "angle": 0,
                "axis": "y",
                "origin": [
                    8.00217,
                    3.05883,
                    10.71813
                ]
            },
            "faces": {
                "north": {
                    "uv": [
                        5.66667,
                        3,
                        7.66667,
                        5
                    ],
                    "rotation": 180,
                    "texture": "#0"
                },
                "east": {
                    "uv": [
                        5.66667,
                        3,
                        7.66667,
                        5
                    ],
                    "rotation": 90,
                    "texture": "#0"
                },
                "south": {
                    "uv": [
                        5.66667,
                        3,
                        7.66667,
                        5
                    ],
                    "texture": "#0"
                },
                "west": {
                    "uv": [
                        5.66667,
                        3,
                        7.66667,
                        5
                    ],
                    "rotation": 270,
                    "texture": "#0"
                },
                "up": {
                    "uv": [
                        5.66667,
                        3,
                        7.66667,
                        5
                    ],
                    "texture": "#0"
                },
                "down": {
                    "uv": [
                        5.66667,
                        3,
                        7.66667,
                        5
                    ],
                    "rotation": 180,
                    "texture": "#0"
                }
            }
        },
        {
            "from": [
                7.8003,
                1.77883,
                14.44163
            ],
            "to": [
                8.20486,
                3.98883,
                14.70663
            ],
            "rotation": {
                "angle": 0,
                "axis": "y",
                "origin": [
                    8.00217,
                    3.05883,
                    10.71813
                ]
            },
            "faces": {
                "north": {
                    "uv": [
                        3,
                        0,
                        5,
                        2
                    ],
                    "rotation": 270,
                    "texture": "#0"
                },
                "east": {
                    "uv": [
                        3,
                        0,
                        5,
                        2
                    ],
                    "rotation": 270,
                    "texture": "#0"
                },
                "south": {
                    "uv": [
                        3,
                        0,
                        5,
                        2
                    ],
                    "rotation": 270,
                    "texture": "#0"
                },
                "west": {
                    "uv": [
                        3,
                        0,
                        5,
                        2
                    ],
                    "rotation": 270,
                    "texture": "#0"
                },
                "up": {
                    "uv": [
                        3,
                        0,
                        5,
                        2
                    ],
                    "rotation": 270,
                    "texture": "#0"
                },
                "down": {
                    "uv": [
                        3,
                        0,
                        5,
                        2
                    ],
                    "rotation": 270,
                    "texture": "#0"
                }
            }
        },
        {
            "from": [
                7.8323,
                1.97083,
                14.34563
            ],
            "to": [
                8.17286,
                3.79683,
                14.61063
            ],
            "rotation": {
                "angle": 0,
                "axis": "y",
                "origin": [
                    8.00217,
                    3.05883,
                    10.62213
                ]
            },
            "faces": {
                "north": {
                    "uv": [
                        11,
                        0.33333,
                        13,
                        2.33333
                    ],
                    "rotation": 270,
                    "texture": "#0"
                },
                "east": {
                    "uv": [
                        11,
                        0.33333,
                        13,
                        2.33333
                    ],
                    "rotation": 270,
                    "texture": "#0"
                },
                "south": {
                    "uv": [
                        11,
                        0.33333,
                        13,
                        2.33333
                    ],
                    "rotation": 270,
                    "texture": "#0"
                },
                "west": {
                    "uv": [
                        11,
                        0.33333,
                        13,
                        2.33333
                    ],
                    "rotation": 270,
                    "texture": "#0"
                },
                "up": {
                    "uv": [
                        11,
                        0.33333,
                        13,
                        2.33333
                    ],
                    "rotation": 270,
                    "texture": "#0"
                },
                "down": {
                    "uv": [
                        11,
                        0.33333,
                        13,
                        2.33333
                    ],
                    "rotation": 270,
                    "texture": "#0"
                }
            }
        },
        {
            "from": [
                7.8323,
                2.73883,
                11.56163
            ],
            "to": [
                8.17286,
                3.06083,
                12.17863
            ],
            "rotation": {
                "angle": 0,
                "axis": "y",
                "origin": [
                    8.00217,
                    3.05883,
                    10.62213
                ]
            },
            "faces": {
                "north": {
                    "uv": [
                        11,
                        0.33333,
                        13,
                        2.33333
                    ],
                    "rotation": 270,
                    "texture": "#0"
                },
                "east": {
                    "uv": [
                        11,
                        0.33333,
                        13,
                        2.33333
                    ],
                    "rotation": 270,
                    "texture": "#0"
                },
                "south": {
                    "uv": [
                        11,
                        0.33333,
                        13,
                        2.33333
                    ],
                    "rotation": 270,
                    "texture": "#0"
                },
                "west": {
                    "uv": [
                        11,
                        0.33333,
                        13,
                        2.33333
                    ],
                    "rotation": 270,
                    "texture": "#0"
                },
                "up": {
                    "uv": [
                        11,
                        0.33333,
                        13,
                        2.33333
                    ],
                    "rotation": 270,
                    "texture": "#0"
                },
                "down": {
                    "uv": [
                        11,
                        0.33333,
                        13,
                        2.33333
                    ],
                    "rotation": 270,
                    "texture": "#0"
                }
            }
        },
        {
            "from": [
                7.8323,
                2.73883,
                13.35363
            ],
            "to": [
                8.17286,
                3.06083,
                14.61063
            ],
            "rotation": {
                "angle": 0,
                "axis": "y",
                "origin": [
                    8.00217,
                    3.05883,
                    10.62213
                ]
            },
            "faces": {
                "north": {
                    "uv": [
                        11,
                        0.33333,
                        13,
                        2.33333
                    ],
                    "rotation": 270,
                    "texture": "#0"
                },
                "east": {
                    "uv": [
                        11,
                        0.33333,
                        13,
                        2.33333
                    ],
                    "rotation": 270,
                    "texture": "#0"
                },
                "south": {
                    "uv": [
                        11,
                        0.33333,
                        13,
                        2.33333
                    ],
                    "rotation": 270,
                    "texture": "#0"
                },
                "west": {
                    "uv": [
                        11,
                        0.33333,
                        13,
                        2.33333
                    ],
                    "rotation": 270,
                    "texture": "#0"
                },
                "up": {
                    "uv": [
                        11,
                        0.33333,
                        13,
                        2.33333
                    ],
                    "rotation": 270,
                    "texture": "#0"
                },
                "down": {
                    "uv": [
                        11,
                        0.33333,
                        13,
                        2.33333
                    ],
                    "rotation": 270,
                    "texture": "#0"
                }
            }
        },
        {
            "from": [
                7.8323,
                2.73883,
                13.96163
            ],
            "to": [
                8.17286,
                3.06083,
                14.61063
            ],
            "rotation": {
                "angle": -22.5,
                "axis": "x",
                "origin": [
                    8.00258,
                    2.89983,
                    13.98213
                ]
            },
            "faces": {
                "north": {
                    "uv": [
                        11,
                        0.33333,
                        13,
                        2.33333
                    ],
                    "rotation": 270,
                    "texture": "#0"
                },
                "east": {
                    "uv": [
                        11,
                        0.33333,
                        13,
                        2.33333
                    ],
                    "rotation": 270,
                    "texture": "#0"
                },
                "south": {
                    "uv": [
                        11,
                        0.33333,
                        13,
                        2.33333
                    ],
                    "rotation": 270,
                    "texture": "#0"
                },
                "west": {
                    "uv": [
                        11,
                        0.33333,
                        13,
                        2.33333
                    ],
                    "rotation": 270,
                    "texture": "#0"
                },
                "up": {
                    "uv": [
                        11,
                        0.33333,
                        13,
                        2.33333
                    ],
                    "rotation": 270,
                    "texture": "#0"
                },
                "down": {
                    "uv": [
                        11,
                        0.33333,
                        13,
                        2.33333
                    ],
                    "rotation": 270,
                    "texture": "#0"
                }
            }
        },
        {
            "from": [
                7.8323,
                2.73883,
                13.96163
            ],
            "to": [
                8.17286,
                3.06083,
                14.61063
            ],
            "rotation": {
                "angle": 22.5,
                "axis": "x",
                "origin": [
                    8.00258,
                    2.89983,
                    13.98213
                ]
            },
            "faces": {
                "north": {
                    "uv": [
                        11,
                        0.33333,
                        13,
                        2.33333
                    ],
                    "rotation": 270,
                    "texture": "#0"
                },
                "east": {
                    "uv": [
                        11,
                        0.33333,
                        13,
                        2.33333
                    ],
                    "rotation": 270,
                    "texture": "#0"
                },
                "south": {
                    "uv": [
                        11,
                        0.33333,
                        13,
                        2.33333
                    ],
                    "rotation": 270,
                    "texture": "#0"
                },
                "west": {
                    "uv": [
                        11,
                        0.33333,
                        13,
                        2.33333
                    ],
                    "rotation": 270,
                    "texture": "#0"
                },
                "up": {
                    "uv": [
                        11,
                        0.33333,
                        13,
                        2.33333
                    ],
                    "rotation": 270,
                    "texture": "#0"
                },
                "down": {
                    "uv": [
                        11,
                        0.33333,
                        13,
                        2.33333
                    ],
                    "rotation": 270,
                    "texture": "#0"
                }
            }
        },
        {
            "from": [
                7.8323,
                3.50683,
                11.11363
            ],
            "to": [
                8.17286,
                3.82883,
                13.36263
            ],
            "rotation": {
                "angle": 0,
                "axis": "y",
                "origin": [
                    8.00217,
                    3.82683,
                    10.39813
                ]
            },
            "faces": {
                "north": {
                    "uv": [
                        11,
                        0.33333,
                        13,
                        2.33333
                    ],
                    "rotation": 270,
                    "texture": "#0"
                },
                "east": {
                    "uv": [
                        11,
                        0.33333,
                        13,
                        2.33333
                    ],
                    "rotation": 270,
                    "texture": "#0"
                },
                "south": {
                    "uv": [
                        11,
                        0.33333,
                        13,
                        2.33333
                    ],
                    "rotation": 270,
                    "texture": "#0"
                },
                "west": {
                    "uv": [
                        11,
                        0.33333,
                        13,
                        2.33333
                    ],
                    "rotation": 270,
                    "texture": "#0"
                },
                "up": {
                    "uv": [
                        11,
                        0.33333,
                        13,
                        2.33333
                    ],
                    "rotation": 270,
                    "texture": "#0"
                },
                "down": {
                    "uv": [
                        11,
                        0.33333,
                        13,
                        2.33333
                    ],
                    "rotation": 270,
                    "texture": "#0"
                }
            }
        },
        {
            "from": [
                7.8643,
                3.79483,
                11.08163
            ],
            "to": [
                8.14086,
                3.89283,
                13.39463
            ],
            "rotation": {
                "angle": 0,
                "axis": "y",
                "origin": [
                    8.00217,
                    4.11483,
                    10.39813
                ]
            },
            "faces": {
                "north": {
                    "uv": [
                        6,
                        0.33333,
                        8,
                        2.33333
                    ],
                    "rotation": 270,
                    "texture": "#0"
                },
                "east": {
                    "uv": [
                        6,
                        0.33333,
                        8,
                        2.33333
                    ],
                    "rotation": 270,
                    "texture": "#0"
                },
                "south": {
                    "uv": [
                        6,
                        0.33333,
                        8,
                        2.33333
                    ],
                    "rotation": 270,
                    "texture": "#0"
                },
                "west": {
                    "uv": [
                        6,
                        0.33333,
                        8,
                        2.33333
                    ],
                    "rotation": 270,
                    "texture": "#0"
                },
                "up": {
                    "uv": [
                        6,
                        0.33333,
                        8,
                        2.33333
                    ],
                    "rotation": 270,
                    "texture": "#0"
                },
                "down": {
                    "uv": [
                        6,
                        0.33333,
                        8,
                        2.33333
                    ],
                    "rotation": 270,
                    "texture": "#0"
                }
            }
        },
        {
            "from": [
                8.20801,
                3.68843,
                11.08163
            ],
            "to": [
                8.35657,
                3.78643,
                13.39463
            ],
            "rotation": {
                "angle": -22.5,
                "axis": "z",
                "origin": [
                    8.44189,
                    4.00843,
                    10.39813
                ]
            },
            "faces": {
                "north": {
                    "uv": [
                        6,
                        0.33333,
                        8,
                        2.33333
                    ],
                    "rotation": 270,
                    "texture": "#0"
                },
                "east": {
                    "uv": [
                        6,
                        0.33333,
                        8,
                        2.33333
                    ],
                    "rotation": 270,
                    "texture": "#0"
                },
                "south": {
                    "uv": [
                        6,
                        0.33333,
                        8,
                        2.33333
                    ],
                    "rotation": 270,
                    "texture": "#0"
                },
                "west": {
                    "uv": [
                        6,
                        0.33333,
                        8,
                        2.33333
                    ],
                    "rotation": 270,
                    "texture": "#0"
                },
                "up": {
                    "uv": [
                        6,
                        0.33333,
                        8,
                        2.33333
                    ],
                    "rotation": 270,
                    "texture": "#0"
                },
                "down": {
                    "uv": [
                        6,
                        0.33333,
                        8,
                        2.33333
                    ],
                    "rotation": 270,
                    "texture": "#0"
                }
            }
        },
        {
            "from": [
                7.64865,
                3.68812,
                11.08163
            ],
            "to": [
                7.79721,
                3.78612,
                13.39463
            ],
            "rotation": {
                "angle": 22.5,
                "axis": "z",
                "origin": [
                    7.56252,
                    4.00812,
                    10.39813
                ]
            },
            "faces": {
                "north": {
                    "uv": [
                        6,
                        0.33333,
                        8,
                        2.33333
                    ],
                    "rotation": 270,
                    "texture": "#0"
                },
                "east": {
                    "uv": [
                        6,
                        0.33333,
                        8,
                        2.33333
                    ],
                    "rotation": 270,
                    "texture": "#0"
                },
                "south": {
                    "uv": [
                        6,
                        0.33333,
                        8,
                        2.33333
                    ],
                    "rotation": 270,
                    "texture": "#0"
                },
                "west": {
                    "uv": [
                        6,
                        0.33333,
                        8,
                        2.33333
                    ],
                    "rotation": 270,
                    "texture": "#0"
                },
                "up": {
                    "uv": [
                        6,
                        0.33333,
                        8,
                        2.33333
                    ],
                    "rotation": 270,
                    "texture": "#0"
                },
                "down": {
                    "uv": [
                        6,
                        0.33333,
                        8,
                        2.33333
                    ],
                    "rotation": 270,
                    "texture": "#0"
                }
            }
        },
        {
            "from": [
                7.8643,
                3.2498,
                13.01499
            ],
            "to": [
                8.14086,
                4.2828,
                13.30499
            ],
            "rotation": {
                "angle": -45,
                "axis": "x",
                "origin": [
                    8.00217,
                    1.6383,
                    12.98499
                ]
            },
            "faces": {
                "north": {
                    "uv": [
                        11,
                        0.33333,
                        13,
                        2.33333
                    ],
                    "rotation": 90,
                    "texture": "#0"
                },
                "east": {
                    "uv": [
                        11,
                        0.33333,
                        13,
                        2.33333
                    ],
                    "texture": "#0"
                },
                "south": {
                    "uv": [
                        11,
                        0.33333,
                        13,
                        2.33333
                    ],
                    "rotation": 270,
                    "texture": "#0"
                },
                "west": {
                    "uv": [
                        11,
                        0.33333,
                        13,
                        2.33333
                    ],
                    "rotation": 180,
                    "texture": "#0"
                },
                "up": {
                    "uv": [
                        11,
                        0.33333,
                        13,
                        2.33333
                    ],
                    "rotation": 270,
                    "texture": "#0"
                },
                "down": {
                    "uv": [
                        11,
                        0.33333,
                        13,
                        2.33333
                    ],
                    "rotation": 90,
                    "texture": "#0"
                }
            }
        },
        {
            "from": [
                7.8643,
                3.24811,
                15.0043
            ],
            "to": [
                8.14086,
                4.37711,
                15.2943
            ],
            "rotation": {
                "angle": -45,
                "axis": "x",
                "origin": [
                    8.00217,
                    1.73261,
                    14.9743
                ]
            },
            "faces": {
                "north": {
                    "uv": [
                        11,
                        0.33333,
                        13,
                        2.33333
                    ],
                    "rotation": 90,
                    "texture": "#0"
                },
                "east": {
                    "uv": [
                        11,
                        0.33333,
                        13,
                        2.33333
                    ],
                    "texture": "#0"
                },
                "south": {
                    "uv": [
                        11,
                        0.33333,
                        13,
                        2.33333
                    ],
                    "rotation": 270,
                    "texture": "#0"
                },
                "west": {
                    "uv": [
                        11,
                        0.33333,
                        13,
                        2.33333
                    ],
                    "rotation": 180,
                    "texture": "#0"
                },
                "up": {
                    "uv": [
                        11,
                        0.33333,
                        13,
                        2.33333
                    ],
                    "rotation": 270,
                    "texture": "#0"
                },
                "down": {
                    "uv": [
                        11,
                        0.33333,
                        13,
                        2.33333
                    ],
                    "rotation": 90,
                    "texture": "#0"
                }
            }
        },
        {
            "from": [
                7.8323,
                3.43572,
                14.95241
            ],
            "to": [
                8.17286,
                3.66172,
                15.21741
            ],
            "rotation": {
                "angle": 45,
                "axis": "x",
                "origin": [
                    8.00258,
                    4.34872,
                    15.08491
                ]
            },
            "faces": {
                "north": {
                    "uv": [
                        11,
                        0.33333,
                        13,
                        2.33333
                    ],
                    "rotation": 270,
                    "texture": "#0"
                },
                "east": {
                    "uv": [
                        11,
                        0.33333,
                        13,
                        2.33333
                    ],
                    "rotation": 270,
                    "texture": "#0"
                },
                "south": {
                    "uv": [
                        11,
                        0.33333,
                        13,
                        2.33333
                    ],
                    "rotation": 270,
                    "texture": "#0"
                },
                "west": {
                    "uv": [
                        11,
                        0.33333,
                        13,
                        2.33333
                    ],
                    "rotation": 270,
                    "texture": "#0"
                },
                "up": {
                    "uv": [
                        11,
                        0.33333,
                        13,
                        2.33333
                    ],
                    "rotation": 270,
                    "texture": "#0"
                },
                "down": {
                    "uv": [
                        11,
                        0.33333,
                        13,
                        2.33333
                    ],
                    "rotation": 270,
                    "texture": "#0"
                }
            }
        },
        {
            "from": [
                7.8323,
                2.17193,
                14.95241
            ],
            "to": [
                8.17286,
                2.33193,
                15.21741
            ],
            "rotation": {
                "angle": -45,
                "axis": "x",
                "origin": [
                    8.00258,
                    1.41893,
                    15.08491
                ]
            },
            "faces": {
                "north": {
                    "uv": [
                        11,
                        0.33333,
                        13,
                        2.33333
                    ],
                    "rotation": 270,
                    "texture": "#0"
                },
                "east": {
                    "uv": [
                        11,
                        0.33333,
                        13,
                        2.33333
                    ],
                    "rotation": 270,
                    "texture": "#0"
                },
                "south": {
                    "uv": [
                        11,
                        0.33333,
                        13,
                        2.33333
                    ],
                    "rotation": 270,
                    "texture": "#0"
                },
                "west": {
                    "uv": [
                        11,
                        0.33333,
                        13,
                        2.33333
                    ],
                    "rotation": 270,
                    "texture": "#0"
                },
                "up": {
                    "uv": [
                        11,
                        0.33333,
                        13,
                        2.33333
                    ],
                    "rotation": 270,
                    "texture": "#0"
                },
                "down": {
                    "uv": [
                        11,
                        0.33333,
                        13,
                        2.33333
                    ],
                    "rotation": 270,
                    "texture": "#0"
                }
            }
        },
        {
            "from": [
                7.8323,
                2.64784,
                8.69781
            ],
            "to": [
                8.17286,
                2.96984,
                9.31481
            ],
            "rotation": {
                "angle": 22.5,
                "axis": "x",
                "origin": [
                    8.00217,
                    2.96784,
                    9.29431
                ]
            },
            "faces": {
                "north": {
                    "uv": [
                        11,
                        0.33333,
                        13,
                        2.33333
                    ],
                    "texture": "#0"
                },
                "east": {
                    "uv": [
                        11,
                        0.33333,
                        13,
                        2.33333
                    ],
                    "texture": "#0"
                },
                "south": {
                    "uv": [
                        11,
                        0.33333,
                        13,
                        2.33333
                    ],
                    "texture": "#0"
                },
                "west": {
                    "uv": [
                        11,
                        0.33333,
                        13,
                        2.33333
                    ],
                    "texture": "#0"
                },
                "up": {
                    "uv": [
                        11,
                        0.33333,
                        13,
                        2.33333
                    ],
                    "texture": "#0"
                },
                "down": {
                    "uv": [
                        11,
                        0.33333,
                        13,
                        2.33333
                    ],
                    "texture": "#0"
                }
            }
        }
    ],
    "display": {
        "thirdperson_righthand": {
            "translation": [
                -1.25,
                6,
                1
            ],
            "scale": [
                1.5,
                1.5,
                1.5
            ]
        },
        "thirdperson_lefthand": {
            "translation": [
                0,
                6,
                1.75
            ],
            "scale": [
                1.5,
                1.5,
                1.5
            ]
        },
        "firstperson_righthand": {
            "translation": [
                0,
                8.5,
                2.75
            ],
            "scale": [
                1.5,
                1.5,
                1.5
            ]
        },
        "firstperson_lefthand": {
            "translation": [
                0,
                8.5,
                2.75
            ],
            "scale": [
                1.5,
                1.5,
                1.5
            ]
        },
        "ground": {
            "translation": [
                -2,
                7.75,
                0
            ],
            "scale": [
                2,
                2,
                2
            ]
        },
        "gui": {
            "rotation": [
                30,
                42,
                -34
            ],
            "translation": [
                3.5,
                6.5,
                0
            ],
            "scale": [
                1.59,
                1.61,
                1.62
            ]
        },
        "head": {
            "rotation": [
                0,
                0,
                -39
            ],
            "translation": [
                4.5,
                15,
                -3
            ],
            "scale": [
                2,
                2,
                2
            ]
        },
        "fixed": {
            "rotation": [
                90,
                45,
                -90
            ],
            "translation": [
                9.75,
                6.75,
                -1.25
            ],
            "scale": [
                2.65,
                2.65,
                2.65
            ]
        }
    }
}