{
	"credit": "Made with Blockbench",
	"textures": {
		"1": "gci:items/common/all_in_one",
		"particle": "gci:items/common/mpz2"
	},
	"elements": [
		{
			"from": [7.96, 13.31492, 7.08],
			"to": [8.648, 13.69892, 8.74],
			"rotation": {"angle": 0, "axis": "y", "origin": [8.291, 13.62559, 8.582]},
			"faces": {
				"north": {"uv": [2.875, 3, 2.875, 3.25], "rotation": 270, "texture": "#1"},
				"east": {"uv": [2.875, 3, 2.875, 3.25], "rotation": 270, "texture": "#1"},
				"south": {"uv": [2.875, 3, 2.875, 3.25], "rotation": 270, "texture": "#1"},
				"west": {"uv": [2.875, 3, 2.875, 3.25], "rotation": 270, "texture": "#1"},
				"up": {"uv": [2.875, 3, 2.875, 3.25], "rotation": 270, "texture": "#1"},
				"down": {"uv": [2.875, 3, 2.875, 3.25], "rotation": 270, "texture": "#1"}
			}
		},
		{
			"from": [7.928, 13.38092, 7.206],
			"to": [8.68, 13.50492, 7.334],
			"rotation": {"angle": -45, "axis": "x", "origin": [8.304, 13.44292, 7.27]},
			"faces": {
				"north": {"uv": [14.25, 6.625, 14.25, 6.625], "texture": "#1"},
				"east": {"uv": [14.25, 6.625, 14.25, 6.625], "texture": "#1"},
				"south": {"uv": [14.25, 6.625, 14.25, 6.625], "texture": "#1"},
				"west": {"uv": [14.25, 6.625, 14.25, 6.625], "texture": "#1"},
				"up": {"uv": [14.25, 6.625, 14.25, 6.625], "texture": "#1"},
				"down": {"uv": [14.25, 6.625, 14.25, 6.625], "texture": "#1"}
			}
		},
		{
			"from": [7.928, 13.38092, 8.518],
			"to": [8.68, 13.50492, 8.646],
			"rotation": {"angle": -45, "axis": "x", "origin": [8.304, 13.44292, 8.582]},
			"faces": {
				"north": {"uv": [14.25, 6.625, 14.25, 6.625], "texture": "#1"},
				"east": {"uv": [14.25, 6.625, 14.25, 6.625], "texture": "#1"},
				"south": {"uv": [14.25, 6.625, 14.25, 6.625], "texture": "#1"},
				"west": {"uv": [14.25, 6.625, 14.25, 6.625], "texture": "#1"},
				"up": {"uv": [14.25, 6.625, 14.25, 6.625], "texture": "#1"},
				"down": {"uv": [14.25, 6.625, 14.25, 6.625], "texture": "#1"}
			}
		},
		{
			"from": [7.928, 13.82892, 8.614],
			"to": [8.68, 13.95292, 8.742],
			"rotation": {"angle": -45, "axis": "x", "origin": [8.304, 13.89092, 8.678]},
			"faces": {
				"north": {"uv": [2.875, 1, 2.875, 1.25], "texture": "#1"},
				"east": {"uv": [2.875, 1, 2.875, 1.25], "texture": "#1"},
				"south": {"uv": [2.875, 1, 2.875, 1.25], "texture": "#1"},
				"west": {"uv": [2.875, 1, 2.875, 1.25], "texture": "#1"},
				"up": {"uv": [2.875, 1, 2.875, 1.25], "texture": "#1"},
				"down": {"uv": [2.875, 1, 2.875, 1.25], "texture": "#1"}
			}
		},
		{
			"from": [7.96, 13.76292, 7.08],
			"to": [8.648, 13.92292, 9.156],
			"rotation": {"angle": 0, "axis": "y", "origin": [8.291, 14.07359, 8.582]},
			"faces": {
				"north": {"uv": [2.875, 3, 2.875, 3.25], "rotation": 270, "texture": "#1"},
				"east": {"uv": [2.875, 3, 2.875, 3.25], "rotation": 270, "texture": "#1"},
				"south": {"uv": [2.875, 3, 2.875, 3.25], "rotation": 270, "texture": "#1"},
				"west": {"uv": [2.875, 3, 2.875, 3.25], "rotation": 270, "texture": "#1"},
				"up": {"uv": [2.875, 3, 2.875, 3.25], "rotation": 270, "texture": "#1"},
				"down": {"uv": [2.875, 3, 2.875, 3.25], "rotation": 270, "texture": "#1"}
			}
		},
		{
			"from": [8.248, 13.92292, 7.816],
			"to": [8.36, 14.02292, 7.928],
			"rotation": {"angle": -45, "axis": "y", "origin": [8.304, 13.98692, 7.872]},
			"faces": {
				"north": {"uv": [4.25, 3.125, 4.25, 3.375], "rotation": 270, "texture": "#1"},
				"east": {"uv": [4.25, 3.125, 4.25, 3.375], "rotation": 270, "texture": "#1"},
				"south": {"uv": [4.25, 3.125, 4.25, 3.375], "rotation": 270, "texture": "#1"},
				"west": {"uv": [4.25, 3.125, 4.25, 3.375], "rotation": 270, "texture": "#1"},
				"up": {"uv": [4.25, 3.125, 4.25, 3.375], "rotation": 270, "texture": "#1"},
				"down": {"uv": [4.25, 3.125, 4.25, 3.375], "rotation": 270, "texture": "#1"}
			}
		},
		{
			"from": [8.05414, 13.92292, 7.74353],
			"to": [8.78614, 14.01892, 8.04753],
			"rotation": {"angle": 45, "axis": "y", "origin": [8.33414, 13.95492, 8.02353]},
			"faces": {
				"north": {"uv": [14.25, 6.625, 14.25, 6.625], "rotation": 270, "texture": "#1"},
				"east": {"uv": [14.25, 6.625, 14.25, 6.625], "rotation": 270, "texture": "#1"},
				"south": {"uv": [14.25, 6.625, 14.25, 6.625], "rotation": 270, "texture": "#1"},
				"west": {"uv": [14.25, 6.625, 14.25, 6.625], "rotation": 270, "texture": "#1"},
				"up": {"uv": [14.25, 6.625, 14.25, 6.625], "rotation": 270, "texture": "#1"},
				"down": {"uv": [14.25, 6.625, 14.25, 6.625], "rotation": 270, "texture": "#1"}
			}
		},
		{
			"from": [7.93844, 13.92292, 7.72021],
			"to": [8.67044, 14.01892, 8.02421],
			"rotation": {"angle": 0, "axis": "y", "origin": [8.30444, 13.97092, 7.87221]},
			"faces": {
				"north": {"uv": [14.25, 6.625, 14.25, 6.625], "rotation": 270, "texture": "#1"},
				"east": {"uv": [14.25, 6.625, 14.25, 6.625], "rotation": 270, "texture": "#1"},
				"south": {"uv": [14.25, 6.625, 14.25, 6.625], "rotation": 270, "texture": "#1"},
				"west": {"uv": [14.25, 6.625, 14.25, 6.625], "rotation": 270, "texture": "#1"},
				"up": {"uv": [14.25, 6.625, 14.25, 6.625], "rotation": 270, "texture": "#1"},
				"down": {"uv": [14.25, 6.625, 14.25, 6.625], "rotation": 270, "texture": "#1"}
			}
		},
		{
			"from": [8.15244, 13.92292, 7.50621],
			"to": [8.45644, 14.01892, 8.23821],
			"rotation": {"angle": 45, "axis": "y", "origin": [8.30444, 13.97092, 7.87221]},
			"faces": {
				"north": {"uv": [14.25, 6.625, 14.25, 6.625], "texture": "#1"},
				"east": {"uv": [14.25, 6.625, 14.25, 6.625], "texture": "#1"},
				"south": {"uv": [14.25, 6.625, 14.25, 6.625], "texture": "#1"},
				"west": {"uv": [14.25, 6.625, 14.25, 6.625], "texture": "#1"},
				"up": {"uv": [14.25, 6.625, 14.25, 6.625], "texture": "#1"},
				"down": {"uv": [14.25, 6.625, 14.25, 6.625], "texture": "#1"}
			}
		},
		{
			"from": [8.15244, 13.92292, 7.50621],
			"to": [8.45644, 14.01892, 8.23821],
			"rotation": {"angle": 0, "axis": "y", "origin": [8.30444, 13.97092, 7.87221]},
			"faces": {
				"north": {"uv": [14.25, 6.625, 14.25, 6.625], "texture": "#1"},
				"east": {"uv": [14.25, 6.625, 14.25, 6.625], "texture": "#1"},
				"south": {"uv": [14.25, 6.625, 14.25, 6.625], "texture": "#1"},
				"west": {"uv": [14.25, 6.625, 14.25, 6.625], "texture": "#1"},
				"up": {"uv": [14.25, 6.625, 14.25, 6.625], "texture": "#1"},
				"down": {"uv": [14.25, 6.625, 14.25, 6.625], "texture": "#1"}
			}
		},
		{
			"from": [8.27356, 13.93689, 7.176],
			"to": [8.51356, 13.98489, 7.46],
			"rotation": {"angle": 22.5, "axis": "z", "origin": [8.6106, 14.26658, 7.318]},
			"faces": {
				"north": {"uv": [2.875, 3, 2.875, 3.25], "rotation": 90, "texture": "#1"},
				"east": {"uv": [2.875, 3, 2.875, 3.25], "rotation": 90, "texture": "#1"},
				"south": {"uv": [2.875, 3, 2.875, 3.25], "rotation": 90, "texture": "#1"},
				"west": {"uv": [2.875, 3, 2.875, 3.25], "rotation": 90, "texture": "#1"},
				"up": {"uv": [2.875, 3, 2.875, 3.25], "rotation": 90, "texture": "#1"},
				"down": {"uv": [2.875, 3, 2.875, 3.25], "rotation": 90, "texture": "#1"}
			}
		},
		{
			"from": [7.96365, 14.59232, 7.176],
			"to": [8.65165, 14.64032, 7.46],
			"rotation": {"angle": 0, "axis": "y", "origin": [8.29465, 14.23099, 8.646]},
			"faces": {
				"north": {"uv": [2.875, 3, 2.875, 3.25], "rotation": 270, "texture": "#1"},
				"east": {"uv": [2.875, 3, 2.875, 3.25], "rotation": 270, "texture": "#1"},
				"south": {"uv": [2.875, 3, 2.875, 3.25], "rotation": 270, "texture": "#1"},
				"west": {"uv": [2.875, 3, 2.875, 3.25], "rotation": 270, "texture": "#1"},
				"up": {"uv": [2.875, 3, 2.875, 3.25], "rotation": 270, "texture": "#1"},
				"down": {"uv": [2.875, 3, 2.875, 3.25], "rotation": 270, "texture": "#1"}
			}
		},
		{
			"from": [8.2657, 14.24032, 7.304],
			"to": [8.3457, 14.32032, 7.304],
			"rotation": {"angle": 0, "axis": "y", "origin": [8.64665, 14.51899, 8.646]},
			"faces": {
				"north": {"uv": [8.75, 7, 8.75, 7.125], "texture": "#1"},
				"east": {"uv": [8.75, 7, 8.75, 7.125], "texture": "#1"},
				"south": {"uv": [8.75, 7, 8.75, 7.125], "texture": "#1"},
				"west": {"uv": [8.75, 7, 8.75, 7.125], "texture": "#1"},
				"up": {"uv": [8.75, 7, 8.75, 7.125], "texture": "#1"},
				"down": {"uv": [8.75, 7, 8.75, 7.125], "texture": "#1"}
			}
		},
		{
			"from": [7.81243, 13.82325, 7.176],
			"to": [8.05243, 13.87125, 7.46],
			"rotation": {"angle": -22.5, "axis": "z", "origin": [8.14343, 13.49392, 8.646]},
			"faces": {
				"north": {"uv": [2.875, 3, 2.875, 3.25], "rotation": 270, "texture": "#1"},
				"east": {"uv": [2.875, 3, 2.875, 3.25], "rotation": 270, "texture": "#1"},
				"south": {"uv": [2.875, 3, 2.875, 3.25], "rotation": 270, "texture": "#1"},
				"west": {"uv": [2.875, 3, 2.875, 3.25], "rotation": 270, "texture": "#1"},
				"up": {"uv": [2.875, 3, 2.875, 3.25], "rotation": 270, "texture": "#1"},
				"down": {"uv": [2.875, 3, 2.875, 3.25], "rotation": 270, "texture": "#1"}
			}
		},
		{
			"from": [7.87181, 14.17858, 7.176],
			"to": [7.91981, 14.41858, 7.46],
			"rotation": {"angle": 0, "axis": "y", "origin": [7.94838, 14.2103, 7.318]},
			"faces": {
				"north": {"uv": [2.875, 3, 2.875, 3.25], "texture": "#1"},
				"east": {"uv": [2.875, 3, 2.875, 3.25], "rotation": 180, "texture": "#1"},
				"south": {"uv": [2.875, 3, 2.875, 3.25], "rotation": 180, "texture": "#1"},
				"west": {"uv": [2.875, 3, 2.875, 3.25], "rotation": 180, "texture": "#1"},
				"up": {"uv": [2.875, 3, 2.875, 3.25], "rotation": 180, "texture": "#1"},
				"down": {"uv": [2.875, 3, 2.875, 3.25], "rotation": 180, "texture": "#1"}
			}
		},
		{
			"from": [8.69096, 14.17858, 7.176],
			"to": [8.73896, 14.41858, 7.46],
			"rotation": {"angle": 0, "axis": "y", "origin": [8.6106, 14.29858, 7.318]},
			"faces": {
				"north": {"uv": [2.875, 3, 2.875, 3.25], "rotation": 180, "texture": "#1"},
				"east": {"uv": [2.875, 3, 2.875, 3.25], "texture": "#1"},
				"south": {"uv": [2.875, 3, 2.875, 3.25], "texture": "#1"},
				"west": {"uv": [2.875, 3, 2.875, 3.25], "texture": "#1"},
				"up": {"uv": [2.875, 3, 2.875, 3.25], "texture": "#1"},
				"down": {"uv": [2.875, 3, 2.875, 3.25], "texture": "#1"}
			}
		},
		{
			"from": [7.96, 13.85892, 7.176],
			"to": [8.648, 13.97092, 7.46],
			"rotation": {"angle": 0, "axis": "y", "origin": [8.291, 13.52959, 8.646]},
			"faces": {
				"north": {"uv": [2.875, 3, 2.875, 3.25], "rotation": 270, "texture": "#1"},
				"east": {"uv": [2.875, 3, 2.875, 3.25], "rotation": 270, "texture": "#1"},
				"south": {"uv": [2.875, 3, 2.875, 3.25], "rotation": 270, "texture": "#1"},
				"west": {"uv": [2.875, 3, 2.875, 3.25], "rotation": 270, "texture": "#1"},
				"up": {"uv": [2.875, 3, 2.875, 3.25], "rotation": 270, "texture": "#1"},
				"down": {"uv": [2.875, 3, 2.875, 3.25], "rotation": 270, "texture": "#1"}
			}
		},
		{
			"from": [7.96, 13.92292, 8.712],
			"to": [8.648, 14.06692, 9.156],
			"rotation": {"angle": 0, "axis": "y", "origin": [8.291, 13.59359, 10.342]},
			"faces": {
				"north": {"uv": [2.875, 3, 2.875, 3.25], "rotation": 270, "texture": "#1"},
				"east": {"uv": [2.875, 3, 2.875, 3.25], "rotation": 270, "texture": "#1"},
				"south": {"uv": [2.875, 3, 2.875, 3.25], "rotation": 270, "texture": "#1"},
				"west": {"uv": [2.875, 3, 2.875, 3.25], "rotation": 270, "texture": "#1"},
				"up": {"uv": [2.875, 3, 2.875, 3.25], "rotation": 270, "texture": "#1"},
				"down": {"uv": [2.875, 3, 2.875, 3.25], "rotation": 270, "texture": "#1"}
			}
		},
		{
			"from": [7.96, 13.82648, 8.25918],
			"to": [8.648, 13.97048, 8.83118],
			"rotation": {"angle": 0, "axis": "y", "origin": [8.291, 13.49715, 9.66518]},
			"faces": {
				"north": {"uv": [2.875, 3, 2.875, 3.25], "rotation": 270, "texture": "#1"},
				"east": {"uv": [2.875, 3, 2.875, 3.25], "rotation": 270, "texture": "#1"},
				"south": {"uv": [2.875, 3, 2.875, 3.25], "rotation": 270, "texture": "#1"},
				"west": {"uv": [2.875, 3, 2.875, 3.25], "rotation": 270, "texture": "#1"},
				"up": {"uv": [2.875, 3, 2.875, 3.25], "rotation": 270, "texture": "#1"},
				"down": {"uv": [2.875, 3, 2.875, 3.25], "rotation": 270, "texture": "#1"}
			}
		},
		{
			"from": [7.96, 14.41281, 8.55086],
			"to": [8.648, 14.55681, 8.80286],
			"rotation": {"angle": -22.5, "axis": "x", "origin": [8.291, 14.08348, 9.98886]},
			"faces": {
				"north": {"uv": [2.875, 3, 2.875, 3.25], "rotation": 270, "texture": "#1"},
				"east": {"uv": [2.875, 3, 2.875, 3.25], "rotation": 270, "texture": "#1"},
				"south": {"uv": [2.875, 3, 2.875, 3.25], "rotation": 270, "texture": "#1"},
				"west": {"uv": [2.875, 3, 2.875, 3.25], "rotation": 270, "texture": "#1"},
				"up": {"uv": [2.875, 3, 2.875, 3.25], "rotation": 270, "texture": "#1"},
				"down": {"uv": [2.875, 3, 2.875, 3.25], "rotation": 270, "texture": "#1"}
			}
		},
		{
			"from": [8.0249, 14.37222, 7.176],
			"to": [8.0729, 14.61222, 7.46],
			"rotation": {"angle": -22.5, "axis": "z", "origin": [8.0649, 14.78022, 7.318]},
			"faces": {
				"north": {"uv": [2.875, 3, 2.875, 3.25], "rotation": 180, "texture": "#1"},
				"east": {"uv": [2.875, 3, 2.875, 3.25], "texture": "#1"},
				"south": {"uv": [2.875, 3, 2.875, 3.25], "texture": "#1"},
				"west": {"uv": [2.875, 3, 2.875, 3.25], "texture": "#1"},
				"up": {"uv": [2.875, 3, 2.875, 3.25], "texture": "#1"},
				"down": {"uv": [2.875, 3, 2.875, 3.25], "texture": "#1"}
			}
		},
		{
			"from": [8.72711, 13.99684, 7.176],
			"to": [8.77511, 14.23684, 7.46],
			"rotation": {"angle": -22.5, "axis": "z", "origin": [8.6106, 14.29858, 7.318]},
			"faces": {
				"north": {"uv": [2.875, 3, 2.875, 3.25], "texture": "#1"},
				"east": {"uv": [2.875, 3, 2.875, 3.25], "rotation": 180, "texture": "#1"},
				"south": {"uv": [2.875, 3, 2.875, 3.25], "rotation": 180, "texture": "#1"},
				"west": {"uv": [2.875, 3, 2.875, 3.25], "rotation": 180, "texture": "#1"},
				"up": {"uv": [2.875, 3, 2.875, 3.25], "rotation": 180, "texture": "#1"},
				"down": {"uv": [2.875, 3, 2.875, 3.25], "rotation": 180, "texture": "#1"}
			}
		},
		{
			"from": [7.87812, 13.9703, 7.176],
			"to": [7.92612, 14.2103, 7.46],
			"rotation": {"angle": 22.5, "axis": "z", "origin": [7.95469, 14.17858, 7.318]},
			"faces": {
				"north": {"uv": [2.875, 3, 2.875, 3.25], "rotation": 180, "texture": "#1"},
				"east": {"uv": [2.875, 3, 2.875, 3.25], "texture": "#1"},
				"south": {"uv": [2.875, 3, 2.875, 3.25], "texture": "#1"},
				"west": {"uv": [2.875, 3, 2.875, 3.25], "texture": "#1"},
				"up": {"uv": [2.875, 3, 2.875, 3.25], "texture": "#1"},
				"down": {"uv": [2.875, 3, 2.875, 3.25], "texture": "#1"}
			}
		},
		{
			"from": [8.72711, 14.36033, 7.176],
			"to": [8.77511, 14.60033, 7.46],
			"rotation": {"angle": 22.5, "axis": "z", "origin": [8.6106, 14.29858, 7.318]},
			"faces": {
				"north": {"uv": [2.875, 3, 2.875, 3.25], "texture": "#1"},
				"east": {"uv": [2.875, 3, 2.875, 3.25], "rotation": 180, "texture": "#1"},
				"south": {"uv": [2.875, 3, 2.875, 3.25], "rotation": 180, "texture": "#1"},
				"west": {"uv": [2.875, 3, 2.875, 3.25], "rotation": 180, "texture": "#1"},
				"up": {"uv": [2.875, 3, 2.875, 3.25], "rotation": 180, "texture": "#1"},
				"down": {"uv": [2.875, 3, 2.875, 3.25], "rotation": 180, "texture": "#1"}
			}
		},
		{
			"from": [7.992, 13.66692, 7.112],
			"to": [8.616, 13.85892, 9.124],
			"rotation": {"angle": 0, "axis": "y", "origin": [8.291, 14.00959, 8.582]},
			"faces": {
				"north": {"uv": [1.625, 0.875, 1.625, 0.875], "rotation": 270, "texture": "#1"},
				"east": {"uv": [1.625, 0.875, 1.625, 0.875], "rotation": 270, "texture": "#1"},
				"south": {"uv": [1.625, 0.875, 1.625, 0.875], "rotation": 270, "texture": "#1"},
				"west": {"uv": [1.625, 0.875, 1.625, 0.875], "rotation": 270, "texture": "#1"},
				"up": {"uv": [1.625, 0.875, 1.625, 0.875], "rotation": 270, "texture": "#1"},
				"down": {"uv": [1.625, 0.875, 1.625, 0.875], "rotation": 270, "texture": "#1"}
			}
		}
	],
	"display": {
		"thirdperson_righthand": {
			"rotation": [3, 0, 13],
			"translation": [-1, -2.75, -4],
			"scale": [1.28, 1.08, 1.11]
		},
		"thirdperson_lefthand": {
			"rotation": [3, 0, 13],
			"translation": [-1.25, -3, -3.5],
			"scale": [1.28, 1, 1]
		},
		"firstperson_righthand": {
			"rotation": [1, 0, 9],
			"translation": [-4, -0.25, -0.25],
			"scale": [1.5, 1.47, 1.39]
		},
		"firstperson_lefthand": {
			"rotation": [1, 1, 9],
			"translation": [-4, -0.25, -0.25],
			"scale": [1.5, 1.47, 1.39]
		},
		"gui": {
			"rotation": [11, 16, -16],
			"translation": [0.5, -2.75, 0],
			"scale": [1.69, 1.5618, 1.53453]
		},
		"head": {
			"rotation": [0, -92.75, 90],
			"translation": [1, 6.5, 4.5],
			"scale": [1.74477, 1.60414, 1.67641]
		},
		"fixed": {
			"rotation": [0, -90, 0],
			"translation": [1, 0, -1.75],
			"scale": [1.58, 1.39, 1.28]
		}
	}
}