{
    "textures": {
        "0": "gci:items/common/all_in_one",
        "particle": "gci:items/common/all_in_one"
    },
    "elements": [
        {
            "from": [
                7.53695,
                7.99226,
                5.85274
            ],
            "to": [
                7.90495,
                8.53626,
                6.00874
            ],
            "rotation": {
                "angle": -45,
                "axis": "y",
                "origin": [
                    7.72095,
                    7.54426,
                    5.93074
                ]
            },
            "faces": {
                "north": {
                    "uv": [
                        3,
                        3,
                        3,
                        3
                    ],
                    "rotation": 90,
                    "texture": "#0"
                },
                "east": {
                    "uv": [
                        3,
                        3,
                        3,
                        3
                    ],
                    "rotation": 90,
                    "texture": "#0"
                },
                "south": {
                    "uv": [
                        3,
                        3,
                        3,
                        3
                    ],
                    "rotation": 90,
                    "texture": "#0"
                },
                "west": {
                    "uv": [
                        3,
                        3,
                        3,
                        3
                    ],
                    "rotation": 90,
                    "texture": "#0"
                },
                "up": {
                    "uv": [
                        3,
                        3,
                        3,
                        3
                    ],
                    "rotation": 90,
                    "texture": "#0"
                },
                "down": {
                    "uv": [
                        3,
                        3,
                        3,
                        3
                    ],
                    "rotation": 90,
                    "texture": "#0"
                }
            }
        },
        {
            "from": [
                7.53695,
                5.78426,
                5.85274
            ],
            "to": [
                7.90495,
                7.86426,
                6.00874
            ],
            "rotation": {
                "angle": -45,
                "axis": "y",
                "origin": [
                    7.72095,
                    6.87226,
                    5.93074
                ]
            },
            "faces": {
                "north": {
                    "uv": [
                        3,
                        3,
                        3,
                        3
                    ],
                    "rotation": 90,
                    "texture": "#0"
                },
                "east": {
                    "uv": [
                        3,
                        3,
                        3,
                        3
                    ],
                    "rotation": 90,
                    "texture": "#0"
                },
                "south": {
                    "uv": [
                        3,
                        3,
                        3,
                        3
                    ],
                    "rotation": 90,
                    "texture": "#0"
                },
                "west": {
                    "uv": [
                        3,
                        3,
                        3,
                        3
                    ],
                    "rotation": 90,
                    "texture": "#0"
                },
                "up": {
                    "uv": [
                        3,
                        3,
                        3,
                        3
                    ],
                    "rotation": 90,
                    "texture": "#0"
                },
                "down": {
                    "uv": [
                        3,
                        3,
                        3,
                        3
                    ],
                    "rotation": 90,
                    "texture": "#0"
                }
            }
        },
        {
            "from": [
                8.26812,
                7.99226,
                5.30468
            ],
            "to": [
                8.42412,
                8.53626,
                5.67268
            ],
            "rotation": {
                "angle": 45,
                "axis": "y",
                "origin": [
                    8.20093,
                    7.54426,
                    5.58023
                ]
            },
            "faces": {
                "north": {
                    "uv": [
                        3,
                        3,
                        3,
                        3
                    ],
                    "rotation": 90,
                    "texture": "#0"
                },
                "east": {
                    "uv": [
                        3,
                        3,
                        3,
                        3
                    ],
                    "rotation": 90,
                    "texture": "#0"
                },
                "south": {
                    "uv": [
                        3,
                        3,
                        3,
                        3
                    ],
                    "rotation": 90,
                    "texture": "#0"
                },
                "west": {
                    "uv": [
                        3,
                        3,
                        3,
                        3
                    ],
                    "rotation": 90,
                    "texture": "#0"
                },
                "up": {
                    "uv": [
                        3,
                        3,
                        3,
                        3
                    ],
                    "texture": "#0"
                },
                "down": {
                    "uv": [
                        3,
                        3,
                        3,
                        3
                    ],
                    "rotation": 180,
                    "texture": "#0"
                }
            }
        },
        {
            "from": [
                8.26812,
                5.78426,
                5.30468
            ],
            "to": [
                8.42412,
                7.86426,
                5.67268
            ],
            "rotation": {
                "angle": 45,
                "axis": "y",
                "origin": [
                    8.20093,
                    6.87226,
                    5.58023
                ]
            },
            "faces": {
                "north": {
                    "uv": [
                        3,
                        3,
                        3,
                        3
                    ],
                    "rotation": 90,
                    "texture": "#0"
                },
                "east": {
                    "uv": [
                        3,
                        3,
                        3,
                        3
                    ],
                    "rotation": 90,
                    "texture": "#0"
                },
                "south": {
                    "uv": [
                        3,
                        3,
                        3,
                        3
                    ],
                    "rotation": 90,
                    "texture": "#0"
                },
                "west": {
                    "uv": [
                        3,
                        3,
                        3,
                        3
                    ],
                    "rotation": 90,
                    "texture": "#0"
                },
                "up": {
                    "uv": [
                        3,
                        3,
                        3,
                        3
                    ],
                    "texture": "#0"
                },
                "down": {
                    "uv": [
                        3,
                        3,
                        3,
                        3
                    ],
                    "rotation": 180,
                    "texture": "#0"
                }
            }
        },
        {
            "from": [
                7.64295,
                7.99226,
                5.22883
            ],
            "to": [
                7.79895,
                8.53626,
                5.59683
            ],
            "rotation": {
                "angle": -45,
                "axis": "y",
                "origin": [
                    7.72095,
                    7.54426,
                    5.41283
                ]
            },
            "faces": {
                "north": {
                    "uv": [
                        3,
                        3,
                        3,
                        3
                    ],
                    "rotation": 90,
                    "texture": "#0"
                },
                "east": {
                    "uv": [
                        3,
                        3,
                        3,
                        3
                    ],
                    "rotation": 90,
                    "texture": "#0"
                },
                "south": {
                    "uv": [
                        3,
                        3,
                        3,
                        3
                    ],
                    "rotation": 90,
                    "texture": "#0"
                },
                "west": {
                    "uv": [
                        3,
                        3,
                        3,
                        3
                    ],
                    "rotation": 90,
                    "texture": "#0"
                },
                "up": {
                    "uv": [
                        3,
                        3,
                        3,
                        3
                    ],
                    "texture": "#0"
                },
                "down": {
                    "uv": [
                        3,
                        3,
                        3,
                        3
                    ],
                    "rotation": 180,
                    "texture": "#0"
                }
            }
        },
        {
            "from": [
                7.64295,
                5.78426,
                5.22883
            ],
            "to": [
                7.79895,
                7.86426,
                5.59683
            ],
            "rotation": {
                "angle": -45,
                "axis": "y",
                "origin": [
                    7.72095,
                    6.87226,
                    5.41283
                ]
            },
            "faces": {
                "north": {
                    "uv": [
                        3,
                        3,
                        3,
                        3
                    ],
                    "rotation": 90,
                    "texture": "#0"
                },
                "east": {
                    "uv": [
                        3,
                        3,
                        3,
                        3
                    ],
                    "rotation": 90,
                    "texture": "#0"
                },
                "south": {
                    "uv": [
                        3,
                        3,
                        3,
                        3
                    ],
                    "rotation": 90,
                    "texture": "#0"
                },
                "west": {
                    "uv": [
                        3,
                        3,
                        3,
                        3
                    ],
                    "rotation": 90,
                    "texture": "#0"
                },
                "up": {
                    "uv": [
                        3,
                        3,
                        3,
                        3
                    ],
                    "texture": "#0"
                },
                "down": {
                    "uv": [
                        3,
                        3,
                        3,
                        3
                    ],
                    "rotation": 180,
                    "texture": "#0"
                }
            }
        },
        {
            "from": [
                7.7959,
                7.99226,
                5.77689
            ],
            "to": [
                8.1639,
                8.53626,
                5.93289
            ],
            "rotation": {
                "angle": 45,
                "axis": "y",
                "origin": [
                    8.20093,
                    7.54426,
                    5.58023
                ]
            },
            "faces": {
                "north": {
                    "uv": [
                        3,
                        3,
                        3,
                        3
                    ],
                    "rotation": 90,
                    "texture": "#0"
                },
                "east": {
                    "uv": [
                        3,
                        3,
                        3,
                        3
                    ],
                    "rotation": 90,
                    "texture": "#0"
                },
                "south": {
                    "uv": [
                        3,
                        3,
                        3,
                        3
                    ],
                    "rotation": 90,
                    "texture": "#0"
                },
                "west": {
                    "uv": [
                        3,
                        3,
                        3,
                        3
                    ],
                    "rotation": 90,
                    "texture": "#0"
                },
                "up": {
                    "uv": [
                        3,
                        3,
                        3,
                        3
                    ],
                    "rotation": 270,
                    "texture": "#0"
                },
                "down": {
                    "uv": [
                        3,
                        3,
                        3,
                        3
                    ],
                    "rotation": 270,
                    "texture": "#0"
                }
            }
        },
        {
            "from": [
                7.7959,
                5.78426,
                5.77689
            ],
            "to": [
                8.1639,
                7.86426,
                5.93289
            ],
            "rotation": {
                "angle": 45,
                "axis": "y",
                "origin": [
                    8.20093,
                    6.87226,
                    5.58023
                ]
            },
            "faces": {
                "north": {
                    "uv": [
                        3,
                        3,
                        3,
                        3
                    ],
                    "rotation": 90,
                    "texture": "#0"
                },
                "east": {
                    "uv": [
                        3,
                        3,
                        3,
                        3
                    ],
                    "rotation": 90,
                    "texture": "#0"
                },
                "south": {
                    "uv": [
                        3,
                        3,
                        3,
                        3
                    ],
                    "rotation": 90,
                    "texture": "#0"
                },
                "west": {
                    "uv": [
                        3,
                        3,
                        3,
                        3
                    ],
                    "rotation": 90,
                    "texture": "#0"
                },
                "up": {
                    "uv": [
                        3,
                        3,
                        3,
                        3
                    ],
                    "rotation": 270,
                    "texture": "#0"
                },
                "down": {
                    "uv": [
                        3,
                        3,
                        3,
                        3
                    ],
                    "rotation": 270,
                    "texture": "#0"
                }
            }
        },
        {
            "from": [
                7.53568,
                7.99226,
                5.48778
            ],
            "to": [
                7.69168,
                8.98426,
                5.85578
            ],
            "rotation": {
                "angle": 0,
                "axis": "y",
                "origin": [
                    7.61368,
                    7.54426,
                    5.67178
                ]
            },
            "faces": {
                "north": {
                    "uv": [
                        3,
                        3,
                        3,
                        3
                    ],
                    "rotation": 90,
                    "texture": "#0"
                },
                "east": {
                    "uv": [
                        3,
                        3,
                        3,
                        3
                    ],
                    "rotation": 90,
                    "texture": "#0"
                },
                "south": {
                    "uv": [
                        3,
                        3,
                        3,
                        3
                    ],
                    "rotation": 90,
                    "texture": "#0"
                },
                "west": {
                    "uv": [
                        3,
                        3,
                        3,
                        3
                    ],
                    "rotation": 90,
                    "texture": "#0"
                },
                "up": {
                    "uv": [
                        3,
                        3,
                        3,
                        3
                    ],
                    "rotation": 180,
                    "texture": "#0"
                },
                "down": {
                    "uv": [
                        3,
                        3,
                        3,
                        3
                    ],
                    "texture": "#0"
                }
            }
        },
        {
            "from": [
                7.50368,
                8.69626,
                5.58378
            ],
            "to": [
                8.45968,
                8.87226,
                5.75978
            ],
            "rotation": {
                "angle": 45,
                "axis": "x",
                "origin": [
                    7.59768,
                    8.76826,
                    5.65578
                ]
            },
            "faces": {
                "north": {
                    "uv": [
                        4.375,
                        3.375,
                        4.375,
                        3.375
                    ],
                    "rotation": 90,
                    "texture": "#0"
                },
                "east": {
                    "uv": [
                        4.375,
                        3.375,
                        4.375,
                        3.375
                    ],
                    "rotation": 90,
                    "texture": "#0"
                },
                "south": {
                    "uv": [
                        4.375,
                        3.375,
                        4.375,
                        3.375
                    ],
                    "rotation": 90,
                    "texture": "#0"
                },
                "west": {
                    "uv": [
                        4.375,
                        3.375,
                        4.375,
                        3.375
                    ],
                    "rotation": 90,
                    "texture": "#0"
                },
                "up": {
                    "uv": [
                        4.375,
                        3.375,
                        4.375,
                        3.375
                    ],
                    "rotation": 90,
                    "texture": "#0"
                },
                "down": {
                    "uv": [
                        4.375,
                        3.375,
                        4.375,
                        3.375
                    ],
                    "rotation": 90,
                    "texture": "#0"
                }
            }
        },
        {
            "from": [
                7.53568,
                5.78426,
                5.48778
            ],
            "to": [
                7.69168,
                7.86426,
                5.85578
            ],
            "rotation": {
                "angle": 0,
                "axis": "y",
                "origin": [
                    7.61368,
                    6.87226,
                    5.67178
                ]
            },
            "faces": {
                "north": {
                    "uv": [
                        3,
                        3,
                        3,
                        3
                    ],
                    "rotation": 90,
                    "texture": "#0"
                },
                "east": {
                    "uv": [
                        3,
                        3,
                        3,
                        3
                    ],
                    "rotation": 90,
                    "texture": "#0"
                },
                "south": {
                    "uv": [
                        3,
                        3,
                        3,
                        3
                    ],
                    "rotation": 90,
                    "texture": "#0"
                },
                "west": {
                    "uv": [
                        3,
                        3,
                        3,
                        3
                    ],
                    "rotation": 90,
                    "texture": "#0"
                },
                "up": {
                    "uv": [
                        3,
                        3,
                        3,
                        3
                    ],
                    "rotation": 180,
                    "texture": "#0"
                },
                "down": {
                    "uv": [
                        3,
                        3,
                        3,
                        3
                    ],
                    "texture": "#0"
                }
            }
        },
        {
            "from": [
                8.26812,
                7.99226,
                5.48778
            ],
            "to": [
                8.42412,
                8.98426,
                5.85578
            ],
            "rotation": {
                "angle": 0,
                "axis": "y",
                "origin": [
                    8.20093,
                    7.54426,
                    5.58023
                ]
            },
            "faces": {
                "north": {
                    "uv": [
                        3,
                        3,
                        3,
                        3
                    ],
                    "rotation": 90,
                    "texture": "#0"
                },
                "east": {
                    "uv": [
                        3,
                        3,
                        3,
                        3
                    ],
                    "rotation": 90,
                    "texture": "#0"
                },
                "south": {
                    "uv": [
                        3,
                        3,
                        3,
                        3
                    ],
                    "rotation": 90,
                    "texture": "#0"
                },
                "west": {
                    "uv": [
                        3,
                        3,
                        3,
                        3
                    ],
                    "rotation": 90,
                    "texture": "#0"
                },
                "up": {
                    "uv": [
                        3,
                        3,
                        3,
                        3
                    ],
                    "texture": "#0"
                },
                "down": {
                    "uv": [
                        3,
                        3,
                        3,
                        3
                    ],
                    "rotation": 180,
                    "texture": "#0"
                }
            }
        },
        {
            "from": [
                8.26812,
                5.78426,
                5.48778
            ],
            "to": [
                8.42412,
                7.86426,
                5.85578
            ],
            "rotation": {
                "angle": 0,
                "axis": "y",
                "origin": [
                    8.20093,
                    6.87226,
                    5.58023
                ]
            },
            "faces": {
                "north": {
                    "uv": [
                        3,
                        3,
                        3,
                        3
                    ],
                    "rotation": 90,
                    "texture": "#0"
                },
                "east": {
                    "uv": [
                        3,
                        3,
                        3,
                        3
                    ],
                    "rotation": 90,
                    "texture": "#0"
                },
                "south": {
                    "uv": [
                        3,
                        3,
                        3,
                        3
                    ],
                    "rotation": 90,
                    "texture": "#0"
                },
                "west": {
                    "uv": [
                        3,
                        3,
                        3,
                        3
                    ],
                    "rotation": 90,
                    "texture": "#0"
                },
                "up": {
                    "uv": [
                        3,
                        3,
                        3,
                        3
                    ],
                    "texture": "#0"
                },
                "down": {
                    "uv": [
                        3,
                        3,
                        3,
                        3
                    ],
                    "rotation": 180,
                    "texture": "#0"
                }
            }
        },
        {
            "from": [
                7.7959,
                7.99226,
                5.96
            ],
            "to": [
                8.1639,
                8.53626,
                6.116
            ],
            "rotation": {
                "angle": 0,
                "axis": "y",
                "origin": [
                    7.9799,
                    7.54426,
                    6.038
                ]
            },
            "faces": {
                "north": {
                    "uv": [
                        3,
                        3,
                        3,
                        3
                    ],
                    "rotation": 90,
                    "texture": "#0"
                },
                "east": {
                    "uv": [
                        3,
                        3,
                        3,
                        3
                    ],
                    "rotation": 90,
                    "texture": "#0"
                },
                "south": {
                    "uv": [
                        3,
                        3,
                        3,
                        3
                    ],
                    "rotation": 90,
                    "texture": "#0"
                },
                "west": {
                    "uv": [
                        3,
                        3,
                        3,
                        3
                    ],
                    "rotation": 90,
                    "texture": "#0"
                },
                "up": {
                    "uv": [
                        3,
                        3,
                        3,
                        3
                    ],
                    "rotation": 90,
                    "texture": "#0"
                },
                "down": {
                    "uv": [
                        3,
                        3,
                        3,
                        3
                    ],
                    "rotation": 90,
                    "texture": "#0"
                }
            }
        },
        {
            "from": [
                7.7959,
                5.78426,
                5.96
            ],
            "to": [
                8.1639,
                7.86426,
                6.116
            ],
            "rotation": {
                "angle": 0,
                "axis": "y",
                "origin": [
                    7.9799,
                    6.87226,
                    6.038
                ]
            },
            "faces": {
                "north": {
                    "uv": [
                        3,
                        3,
                        3,
                        3
                    ],
                    "rotation": 90,
                    "texture": "#0"
                },
                "east": {
                    "uv": [
                        3,
                        3,
                        3,
                        3
                    ],
                    "rotation": 90,
                    "texture": "#0"
                },
                "south": {
                    "uv": [
                        3,
                        3,
                        3,
                        3
                    ],
                    "rotation": 90,
                    "texture": "#0"
                },
                "west": {
                    "uv": [
                        3,
                        3,
                        3,
                        3
                    ],
                    "rotation": 90,
                    "texture": "#0"
                },
                "up": {
                    "uv": [
                        3,
                        3,
                        3,
                        3
                    ],
                    "rotation": 90,
                    "texture": "#0"
                },
                "down": {
                    "uv": [
                        3,
                        3,
                        3,
                        3
                    ],
                    "rotation": 90,
                    "texture": "#0"
                }
            }
        },
        {
            "from": [
                7.61294,
                5.59226,
                5.53304
            ],
            "to": [
                7.76894,
                8.53626,
                5.83704
            ],
            "rotation": {
                "angle": 0,
                "axis": "y",
                "origin": [
                    7.69094,
                    8.31226,
                    5.68504
                ]
            },
            "faces": {
                "north": {
                    "uv": [
                        7.625,
                        11.875,
                        7.625,
                        11.875
                    ],
                    "rotation": 90,
                    "texture": "#0"
                },
                "east": {
                    "uv": [
                        7.625,
                        11.875,
                        7.625,
                        11.875
                    ],
                    "rotation": 90,
                    "texture": "#0"
                },
                "south": {
                    "uv": [
                        7.625,
                        11.875,
                        7.625,
                        11.875
                    ],
                    "rotation": 90,
                    "texture": "#0"
                },
                "west": {
                    "uv": [
                        7.625,
                        11.875,
                        7.625,
                        11.875
                    ],
                    "rotation": 90,
                    "texture": "#0"
                },
                "up": {
                    "uv": [
                        7.625,
                        11.875,
                        7.625,
                        11.875
                    ],
                    "rotation": 90,
                    "texture": "#0"
                },
                "down": {
                    "uv": [
                        7.625,
                        11.875,
                        7.625,
                        11.875
                    ],
                    "rotation": 90,
                    "texture": "#0"
                }
            }
        },
        {
            "from": [
                7.74286,
                5.59226,
                5.53304
            ],
            "to": [
                8.34686,
                8.53626,
                5.83704
            ],
            "rotation": {
                "angle": 0,
                "axis": "y",
                "origin": [
                    8.1543,
                    8.31226,
                    5.6128
                ]
            },
            "faces": {
                "north": {
                    "uv": [
                        7.625,
                        11.875,
                        7.625,
                        11.875
                    ],
                    "rotation": 90,
                    "texture": "#0"
                },
                "east": {
                    "uv": [
                        7.625,
                        11.875,
                        7.625,
                        11.875
                    ],
                    "rotation": 90,
                    "texture": "#0"
                },
                "south": {
                    "uv": [
                        7.625,
                        11.875,
                        7.625,
                        11.875
                    ],
                    "rotation": 90,
                    "texture": "#0"
                },
                "west": {
                    "uv": [
                        7.625,
                        11.875,
                        7.625,
                        11.875
                    ],
                    "rotation": 90,
                    "texture": "#0"
                },
                "up": {
                    "uv": [
                        7.625,
                        11.875,
                        7.625,
                        11.875
                    ],
                    "rotation": 90,
                    "texture": "#0"
                },
                "down": {
                    "uv": [
                        7.625,
                        11.875,
                        7.625,
                        11.875
                    ],
                    "rotation": 90,
                    "texture": "#0"
                }
            }
        },
        {
            "from": [
                7.62357,
                5.59226,
                5.81137
            ],
            "to": [
                7.92757,
                8.53626,
                5.96737
            ],
            "rotation": {
                "angle": -45,
                "axis": "y",
                "origin": [
                    7.77557,
                    8.31226,
                    5.88937
                ]
            },
            "faces": {
                "north": {
                    "uv": [
                        7.625,
                        11.875,
                        7.625,
                        11.875
                    ],
                    "rotation": 90,
                    "texture": "#0"
                },
                "east": {
                    "uv": [
                        7.625,
                        11.875,
                        7.625,
                        11.875
                    ],
                    "rotation": 90,
                    "texture": "#0"
                },
                "south": {
                    "uv": [
                        7.625,
                        11.875,
                        7.625,
                        11.875
                    ],
                    "rotation": 90,
                    "texture": "#0"
                },
                "west": {
                    "uv": [
                        7.625,
                        11.875,
                        7.625,
                        11.875
                    ],
                    "rotation": 90,
                    "texture": "#0"
                },
                "up": {
                    "uv": [
                        7.625,
                        11.875,
                        7.625,
                        11.875
                    ],
                    "rotation": 90,
                    "texture": "#0"
                },
                "down": {
                    "uv": [
                        7.625,
                        11.875,
                        7.625,
                        11.875
                    ],
                    "rotation": 90,
                    "texture": "#0"
                }
            }
        },
        {
            "from": [
                7.93006,
                5.59226,
                5.42024
            ],
            "to": [
                8.23406,
                8.53626,
                5.57624
            ],
            "rotation": {
                "angle": -45,
                "axis": "y",
                "origin": [
                    8.1543,
                    8.31226,
                    5.6128
                ]
            },
            "faces": {
                "north": {
                    "uv": [
                        7.625,
                        11.875,
                        7.625,
                        11.875
                    ],
                    "rotation": 90,
                    "texture": "#0"
                },
                "east": {
                    "uv": [
                        7.625,
                        11.875,
                        7.625,
                        11.875
                    ],
                    "rotation": 90,
                    "texture": "#0"
                },
                "south": {
                    "uv": [
                        7.625,
                        11.875,
                        7.625,
                        11.875
                    ],
                    "rotation": 90,
                    "texture": "#0"
                },
                "west": {
                    "uv": [
                        7.625,
                        11.875,
                        7.625,
                        11.875
                    ],
                    "rotation": 90,
                    "texture": "#0"
                },
                "up": {
                    "uv": [
                        7.625,
                        11.875,
                        7.625,
                        11.875
                    ],
                    "rotation": 90,
                    "texture": "#0"
                },
                "down": {
                    "uv": [
                        7.625,
                        11.875,
                        7.625,
                        11.875
                    ],
                    "rotation": 90,
                    "texture": "#0"
                }
            }
        },
        {
            "from": [
                7.8279,
                5.59226,
                5.896
            ],
            "to": [
                8.1319,
                8.53626,
                6.052
            ],
            "rotation": {
                "angle": 0,
                "axis": "y",
                "origin": [
                    7.9799,
                    8.31226,
                    5.974
                ]
            },
            "faces": {
                "north": {
                    "uv": [
                        7.625,
                        11.875,
                        7.625,
                        11.875
                    ],
                    "rotation": 90,
                    "texture": "#0"
                },
                "east": {
                    "uv": [
                        7.625,
                        11.875,
                        7.625,
                        11.875
                    ],
                    "rotation": 90,
                    "texture": "#0"
                },
                "south": {
                    "uv": [
                        7.625,
                        11.875,
                        7.625,
                        11.875
                    ],
                    "rotation": 90,
                    "texture": "#0"
                },
                "west": {
                    "uv": [
                        7.625,
                        11.875,
                        7.625,
                        11.875
                    ],
                    "rotation": 90,
                    "texture": "#0"
                },
                "up": {
                    "uv": [
                        7.625,
                        11.875,
                        7.625,
                        11.875
                    ],
                    "rotation": 90,
                    "texture": "#0"
                },
                "down": {
                    "uv": [
                        7.625,
                        11.875,
                        7.625,
                        11.875
                    ],
                    "rotation": 90,
                    "texture": "#0"
                }
            }
        },
        {
            "from": [
                7.8279,
                5.59226,
                5.31808
            ],
            "to": [
                8.1319,
                8.53626,
                6.01808
            ],
            "rotation": {
                "angle": 0,
                "axis": "y",
                "origin": [
                    8.1543,
                    8.31226,
                    5.6128
                ]
            },
            "faces": {
                "north": {
                    "uv": [
                        7.625,
                        11.875,
                        7.625,
                        11.875
                    ],
                    "rotation": 90,
                    "texture": "#0"
                },
                "east": {
                    "uv": [
                        7.625,
                        11.875,
                        7.625,
                        11.875
                    ],
                    "rotation": 90,
                    "texture": "#0"
                },
                "south": {
                    "uv": [
                        7.625,
                        11.875,
                        7.625,
                        11.875
                    ],
                    "rotation": 90,
                    "texture": "#0"
                },
                "west": {
                    "uv": [
                        7.625,
                        11.875,
                        7.625,
                        11.875
                    ],
                    "rotation": 90,
                    "texture": "#0"
                },
                "up": {
                    "uv": [
                        7.625,
                        11.875,
                        7.625,
                        11.875
                    ],
                    "rotation": 90,
                    "texture": "#0"
                },
                "down": {
                    "uv": [
                        7.625,
                        11.875,
                        7.625,
                        11.875
                    ],
                    "rotation": 90,
                    "texture": "#0"
                }
            }
        },
        {
            "from": [
                7.6039,
                8.47226,
                5.12608
            ],
            "to": [
                8.3559,
                9.01626,
                6.17808
            ],
            "rotation": {
                "angle": 0,
                "axis": "y",
                "origin": [
                    8.1543,
                    8.31226,
                    5.6128
                ]
            },
            "faces": {
                "north": {
                    "uv": [
                        7.625,
                        11.875,
                        7.625,
                        11.875
                    ],
                    "rotation": 90,
                    "texture": "#0"
                },
                "east": {
                    "uv": [
                        7.625,
                        11.875,
                        7.625,
                        11.875
                    ],
                    "rotation": 90,
                    "texture": "#0"
                },
                "south": {
                    "uv": [
                        7.625,
                        11.875,
                        7.625,
                        11.875
                    ],
                    "rotation": 90,
                    "texture": "#0"
                },
                "west": {
                    "uv": [
                        7.625,
                        11.875,
                        7.625,
                        11.875
                    ],
                    "rotation": 90,
                    "texture": "#0"
                },
                "up": {
                    "uv": [
                        7.625,
                        11.875,
                        7.625,
                        11.875
                    ],
                    "rotation": 90,
                    "texture": "#0"
                },
                "down": {
                    "uv": [
                        7.625,
                        11.875,
                        7.625,
                        11.875
                    ],
                    "rotation": 90,
                    "texture": "#0"
                }
            }
        },
        {
            "from": [
                7.62357,
                5.59226,
                5.40271
            ],
            "to": [
                7.92757,
                8.53626,
                5.55871
            ],
            "rotation": {
                "angle": 45,
                "axis": "y",
                "origin": [
                    7.77557,
                    8.31226,
                    5.48071
                ]
            },
            "faces": {
                "north": {
                    "uv": [
                        7.625,
                        11.875,
                        7.625,
                        11.875
                    ],
                    "rotation": 90,
                    "texture": "#0"
                },
                "east": {
                    "uv": [
                        7.625,
                        11.875,
                        7.625,
                        11.875
                    ],
                    "rotation": 90,
                    "texture": "#0"
                },
                "south": {
                    "uv": [
                        7.625,
                        11.875,
                        7.625,
                        11.875
                    ],
                    "rotation": 90,
                    "texture": "#0"
                },
                "west": {
                    "uv": [
                        7.625,
                        11.875,
                        7.625,
                        11.875
                    ],
                    "rotation": 90,
                    "texture": "#0"
                },
                "up": {
                    "uv": [
                        7.625,
                        11.875,
                        7.625,
                        11.875
                    ],
                    "rotation": 90,
                    "texture": "#0"
                },
                "down": {
                    "uv": [
                        7.625,
                        11.875,
                        7.625,
                        11.875
                    ],
                    "rotation": 90,
                    "texture": "#0"
                }
            }
        },
        {
            "from": [
                8.29302,
                5.59226,
                5.6352
            ],
            "to": [
                8.44902,
                8.53626,
                5.9392
            ],
            "rotation": {
                "angle": -45,
                "axis": "y",
                "origin": [
                    8.1543,
                    8.31226,
                    5.6128
                ]
            },
            "faces": {
                "north": {
                    "uv": [
                        7.625,
                        11.875,
                        7.625,
                        11.875
                    ],
                    "rotation": 90,
                    "texture": "#0"
                },
                "east": {
                    "uv": [
                        7.625,
                        11.875,
                        7.625,
                        11.875
                    ],
                    "rotation": 90,
                    "texture": "#0"
                },
                "south": {
                    "uv": [
                        7.625,
                        11.875,
                        7.625,
                        11.875
                    ],
                    "rotation": 90,
                    "texture": "#0"
                },
                "west": {
                    "uv": [
                        7.625,
                        11.875,
                        7.625,
                        11.875
                    ],
                    "rotation": 90,
                    "texture": "#0"
                },
                "up": {
                    "uv": [
                        7.625,
                        11.875,
                        7.625,
                        11.875
                    ],
                    "rotation": 90,
                    "texture": "#0"
                },
                "down": {
                    "uv": [
                        7.625,
                        11.875,
                        7.625,
                        11.875
                    ],
                    "rotation": 90,
                    "texture": "#0"
                }
            }
        },
        {
            "from": [
                7.7959,
                7.99226,
                5.22757
            ],
            "to": [
                8.1639,
                8.53626,
                5.38357
            ],
            "rotation": {
                "angle": 0,
                "axis": "y",
                "origin": [
                    8.20093,
                    7.54426,
                    5.58023
                ]
            },
            "faces": {
                "north": {
                    "uv": [
                        3,
                        3,
                        3,
                        3
                    ],
                    "rotation": 90,
                    "texture": "#0"
                },
                "east": {
                    "uv": [
                        3,
                        3,
                        3,
                        3
                    ],
                    "rotation": 90,
                    "texture": "#0"
                },
                "south": {
                    "uv": [
                        3,
                        3,
                        3,
                        3
                    ],
                    "rotation": 90,
                    "texture": "#0"
                },
                "west": {
                    "uv": [
                        3,
                        3,
                        3,
                        3
                    ],
                    "rotation": 90,
                    "texture": "#0"
                },
                "up": {
                    "uv": [
                        3,
                        3,
                        3,
                        3
                    ],
                    "rotation": 270,
                    "texture": "#0"
                },
                "down": {
                    "uv": [
                        3,
                        3,
                        3,
                        3
                    ],
                    "rotation": 270,
                    "texture": "#0"
                }
            }
        },
        {
            "from": [
                7.7959,
                5.78426,
                5.22757
            ],
            "to": [
                8.1639,
                7.86426,
                5.38357
            ],
            "rotation": {
                "angle": 0,
                "axis": "y",
                "origin": [
                    8.20093,
                    6.87226,
                    5.58023
                ]
            },
            "faces": {
                "north": {
                    "uv": [
                        3,
                        3,
                        3,
                        3
                    ],
                    "rotation": 90,
                    "texture": "#0"
                },
                "east": {
                    "uv": [
                        3,
                        3,
                        3,
                        3
                    ],
                    "rotation": 90,
                    "texture": "#0"
                },
                "south": {
                    "uv": [
                        3,
                        3,
                        3,
                        3
                    ],
                    "rotation": 90,
                    "texture": "#0"
                },
                "west": {
                    "uv": [
                        3,
                        3,
                        3,
                        3
                    ],
                    "rotation": 90,
                    "texture": "#0"
                },
                "up": {
                    "uv": [
                        3,
                        3,
                        3,
                        3
                    ],
                    "rotation": 270,
                    "texture": "#0"
                },
                "down": {
                    "uv": [
                        3,
                        3,
                        3,
                        3
                    ],
                    "rotation": 270,
                    "texture": "#0"
                }
            }
        }
    ],
    "display": {
        "thirdperson_righthand": {
            "translation": [
                0,
                0,
                -3.5
            ]
        },
        "thirdperson_lefthand": {
            "translation": [
                0,
                0,
                -3.5
            ]
        },
        "firstperson_righthand": {
            "translation": [
                0,
                2.75,
                -2.25
            ]
        },
        "firstperson_lefthand": {
            "translation": [
                0,
                2.75,
                -2.25
            ]
        },
        "ground": {
            "rotation": [
                0,
                0,
                -90
            ],
            "translation": [
                0,
                -2.5,
                0
            ]
        },
        "gui": {
            "rotation": [
                -26,
                150,
                0
            ],
            "scale": [
                0.85,
                0.85,
                0.85
            ]
        },
        "fixed": {
            "rotation": [
                90,
                45,
                -90
            ],
            "translation": [
                0.5,
                -0.25,
                -2.75
            ],
            "scale": [
                2,
                2,
                2
            ]
        }
    }
}