{
    "textures": {
        "0": "gci:items/common/all_in_one",
        "particle": "gci:items/common/all_in_one"
    },
    "elements": [
        {
            "from": [
                7.565,
                2.40715,
                8.26554
            ],
            "to": [
                8.435,
                2.45715,
                9.95314
            ],
            "rotation": {
                "angle": 0,
                "axis": "y",
                "origin": [
                    8,
                    2.09715,
                    8.96954
                ]
            },
            "faces": {
                "north": {
                    "uv": [
                        8.625,
                        10.625,
                        8.75,
                        10.75
                    ],
                    "rotation": 90,
                    "texture": "#0"
                },
                "east": {
                    "uv": [
                        8.625,
                        10.625,
                        8.75,
                        10.75
                    ],
                    "rotation": 90,
                    "texture": "#0"
                },
                "south": {
                    "uv": [
                        8.625,
                        10.625,
                        8.75,
                        10.75
                    ],
                    "rotation": 90,
                    "texture": "#0"
                },
                "west": {
                    "uv": [
                        8.625,
                        10.625,
                        8.75,
                        10.75
                    ],
                    "rotation": 90,
                    "texture": "#0"
                },
                "up": {
                    "uv": [
                        8.625,
                        10.625,
                        8.75,
                        10.75
                    ],
                    "rotation": 90,
                    "texture": "#0"
                },
                "down": {
                    "uv": [
                        8.625,
                        10.625,
                        8.75,
                        10.75
                    ],
                    "rotation": 90,
                    "texture": "#0"
                }
            }
        },
        {
            "from": [
                7.565,
                2.31622,
                8.48505
            ],
            "to": [
                8.435,
                2.36622,
                9.95305
            ],
            "rotation": {
                "angle": 0,
                "axis": "y",
                "origin": [
                    8,
                    2.00622,
                    9.18905
                ]
            },
            "faces": {
                "north": {
                    "uv": [
                        8.625,
                        10.625,
                        8.75,
                        10.75
                    ],
                    "rotation": 90,
                    "texture": "#0"
                },
                "east": {
                    "uv": [
                        8.625,
                        10.625,
                        8.75,
                        10.75
                    ],
                    "rotation": 90,
                    "texture": "#0"
                },
                "south": {
                    "uv": [
                        8.625,
                        10.625,
                        8.75,
                        10.75
                    ],
                    "rotation": 90,
                    "texture": "#0"
                },
                "west": {
                    "uv": [
                        8.625,
                        10.625,
                        8.75,
                        10.75
                    ],
                    "rotation": 90,
                    "texture": "#0"
                },
                "up": {
                    "uv": [
                        8.625,
                        10.625,
                        8.75,
                        10.75
                    ],
                    "rotation": 90,
                    "texture": "#0"
                },
                "down": {
                    "uv": [
                        8.625,
                        10.625,
                        8.75,
                        10.75
                    ],
                    "rotation": 90,
                    "texture": "#0"
                }
            }
        },
        {
            "from": [
                7.565,
                2.36622,
                8.38505
            ],
            "to": [
                8.435,
                2.41622,
                9.95305
            ],
            "rotation": {
                "angle": 0,
                "axis": "y",
                "origin": [
                    8,
                    2.00622,
                    9.18905
                ]
            },
            "faces": {
                "north": {
                    "uv": [
                        8.625,
                        10.625,
                        8.75,
                        10.75
                    ],
                    "rotation": 90,
                    "texture": "#0"
                },
                "east": {
                    "uv": [
                        8.625,
                        10.625,
                        8.75,
                        10.75
                    ],
                    "rotation": 90,
                    "texture": "#0"
                },
                "south": {
                    "uv": [
                        8.625,
                        10.625,
                        8.75,
                        10.75
                    ],
                    "rotation": 90,
                    "texture": "#0"
                },
                "west": {
                    "uv": [
                        8.625,
                        10.625,
                        8.75,
                        10.75
                    ],
                    "rotation": 90,
                    "texture": "#0"
                },
                "up": {
                    "uv": [
                        8.625,
                        10.625,
                        8.75,
                        10.75
                    ],
                    "rotation": 90,
                    "texture": "#0"
                },
                "down": {
                    "uv": [
                        8.625,
                        10.625,
                        8.75,
                        10.75
                    ],
                    "rotation": 90,
                    "texture": "#0"
                }
            }
        },
        {
            "from": [
                7.84,
                2.21622,
                8.68505
            ],
            "to": [
                8.16,
                2.31622,
                9.89505
            ],
            "rotation": {
                "angle": 0,
                "axis": "y",
                "origin": [
                    8,
                    2.00622,
                    9.18905
                ]
            },
            "faces": {
                "north": {
                    "uv": [
                        8.625,
                        10.625,
                        8.75,
                        10.75
                    ],
                    "rotation": 90,
                    "texture": "#0"
                },
                "east": {
                    "uv": [
                        8.625,
                        10.625,
                        8.75,
                        10.75
                    ],
                    "rotation": 90,
                    "texture": "#0"
                },
                "south": {
                    "uv": [
                        8.625,
                        10.625,
                        8.75,
                        10.75
                    ],
                    "rotation": 90,
                    "texture": "#0"
                },
                "west": {
                    "uv": [
                        8.625,
                        10.625,
                        8.75,
                        10.75
                    ],
                    "rotation": 90,
                    "texture": "#0"
                },
                "up": {
                    "uv": [
                        8.625,
                        10.625,
                        8.75,
                        10.75
                    ],
                    "rotation": 90,
                    "texture": "#0"
                },
                "down": {
                    "uv": [
                        8.625,
                        10.625,
                        8.75,
                        10.75
                    ],
                    "rotation": 90,
                    "texture": "#0"
                }
            }
        },
        {
            "from": [
                7.84,
                2.44394,
                8.64024
            ],
            "to": [
                8.16,
                2.54394,
                8.75024
            ],
            "rotation": {
                "angle": 22.5,
                "axis": "x",
                "origin": [
                    8,
                    2.49394,
                    8.14524
                ]
            },
            "faces": {
                "north": {
                    "uv": [
                        8.625,
                        10.625,
                        8.75,
                        10.75
                    ],
                    "rotation": 90,
                    "texture": "#0"
                },
                "east": {
                    "uv": [
                        8.625,
                        10.625,
                        8.75,
                        10.75
                    ],
                    "rotation": 90,
                    "texture": "#0"
                },
                "south": {
                    "uv": [
                        8.625,
                        10.625,
                        8.75,
                        10.75
                    ],
                    "rotation": 90,
                    "texture": "#0"
                },
                "west": {
                    "uv": [
                        8.625,
                        10.625,
                        8.75,
                        10.75
                    ],
                    "rotation": 90,
                    "texture": "#0"
                },
                "up": {
                    "uv": [
                        8.625,
                        10.625,
                        8.75,
                        10.75
                    ],
                    "rotation": 90,
                    "texture": "#0"
                },
                "down": {
                    "uv": [
                        8.625,
                        10.625,
                        8.75,
                        10.75
                    ],
                    "rotation": 90,
                    "texture": "#0"
                }
            }
        },
        {
            "from": [
                7.73,
                2.453,
                8.53054
            ],
            "to": [
                8.27,
                2.901,
                9.81814
            ],
            "rotation": {
                "angle": 0,
                "axis": "x",
                "origin": [
                    8,
                    2.677,
                    9.17434
                ]
            },
            "faces": {
                "north": {
                    "uv": [
                        6.125,
                        9.5,
                        6.25,
                        9.625
                    ],
                    "texture": "#0"
                },
                "east": {
                    "uv": [
                        6.125,
                        9.5,
                        6.25,
                        9.625
                    ],
                    "texture": "#0"
                },
                "south": {
                    "uv": [
                        6.125,
                        9.5,
                        6.25,
                        9.625
                    ],
                    "texture": "#0"
                },
                "west": {
                    "uv": [
                        6.125,
                        9.5,
                        6.25,
                        9.625
                    ],
                    "texture": "#0"
                },
                "up": {
                    "uv": [
                        6.125,
                        9.5,
                        6.25,
                        9.625
                    ],
                    "texture": "#0"
                },
                "down": {
                    "uv": [
                        6.125,
                        9.5,
                        6.25,
                        9.625
                    ],
                    "texture": "#0"
                }
            }
        },
        {
            "from": [
                7.83,
                2.453,
                8.50554
            ],
            "to": [
                8.17,
                2.901,
                9.79314
            ],
            "rotation": {
                "angle": 0,
                "axis": "y",
                "origin": [
                    8,
                    2.677,
                    9.14934
                ]
            },
            "faces": {
                "north": {
                    "uv": [
                        6.75,
                        9.875,
                        6.875,
                        10
                    ],
                    "texture": "#0"
                },
                "east": {
                    "uv": [
                        6.75,
                        9.875,
                        6.875,
                        10
                    ],
                    "texture": "#0"
                },
                "south": {
                    "uv": [
                        6.75,
                        9.875,
                        6.875,
                        10
                    ],
                    "texture": "#0"
                },
                "west": {
                    "uv": [
                        6.75,
                        9.875,
                        6.875,
                        10
                    ],
                    "texture": "#0"
                },
                "up": {
                    "uv": [
                        6.75,
                        9.875,
                        6.875,
                        10
                    ],
                    "texture": "#0"
                },
                "down": {
                    "uv": [
                        6.75,
                        9.875,
                        6.875,
                        10
                    ],
                    "texture": "#0"
                }
            }
        },
        {
            "from": [
                7.73,
                2.63758,
                8.59382
            ],
            "to": [
                8.27,
                4.61058,
                9.78142
            ],
            "rotation": {
                "angle": -22.5,
                "axis": "x",
                "origin": [
                    8,
                    2.86158,
                    9.13762
                ]
            },
            "faces": {
                "north": {
                    "uv": [
                        6.125,
                        9.5,
                        6.25,
                        9.625
                    ],
                    "texture": "#0"
                },
                "east": {
                    "uv": [
                        6.125,
                        9.5,
                        6.25,
                        9.625
                    ],
                    "texture": "#0"
                },
                "south": {
                    "uv": [
                        6.125,
                        9.5,
                        6.25,
                        9.625
                    ],
                    "texture": "#0"
                },
                "west": {
                    "uv": [
                        6.125,
                        9.5,
                        6.25,
                        9.625
                    ],
                    "texture": "#0"
                },
                "up": {
                    "uv": [
                        6.125,
                        9.5,
                        6.25,
                        9.625
                    ],
                    "texture": "#0"
                },
                "down": {
                    "uv": [
                        6.125,
                        9.5,
                        6.25,
                        9.625
                    ],
                    "texture": "#0"
                }
            }
        },
        {
            "from": [
                7.83,
                3.11258,
                8.56882
            ],
            "to": [
                8.17,
                4.61058,
                9.75642
            ],
            "rotation": {
                "angle": -22.5,
                "axis": "x",
                "origin": [
                    8,
                    2.86158,
                    9.11262
                ]
            },
            "faces": {
                "north": {
                    "uv": [
                        6.75,
                        9.875,
                        6.875,
                        10
                    ],
                    "texture": "#0"
                },
                "east": {
                    "uv": [
                        6.75,
                        9.875,
                        6.875,
                        10
                    ],
                    "texture": "#0"
                },
                "south": {
                    "uv": [
                        6.75,
                        9.875,
                        6.875,
                        10
                    ],
                    "texture": "#0"
                },
                "west": {
                    "uv": [
                        6.75,
                        9.875,
                        6.875,
                        10
                    ],
                    "texture": "#0"
                },
                "up": {
                    "uv": [
                        6.75,
                        9.875,
                        6.875,
                        10
                    ],
                    "texture": "#0"
                },
                "down": {
                    "uv": [
                        6.75,
                        9.875,
                        6.875,
                        10
                    ],
                    "texture": "#0"
                }
            }
        },
        {
            "from": [
                7.84,
                2.27327,
                8.55857
            ],
            "to": [
                8.16,
                2.38327,
                8.65857
            ],
            "rotation": {
                "angle": -22.5,
                "axis": "x",
                "origin": [
                    8,
                    2.32827,
                    8.60857
                ]
            },
            "faces": {
                "north": {
                    "uv": [
                        8.625,
                        10.625,
                        8.75,
                        10.75
                    ],
                    "rotation": 90,
                    "texture": "#0"
                },
                "east": {
                    "uv": [
                        8.625,
                        10.625,
                        8.75,
                        10.75
                    ],
                    "rotation": 90,
                    "texture": "#0"
                },
                "south": {
                    "uv": [
                        8.625,
                        10.625,
                        8.75,
                        10.75
                    ],
                    "rotation": 90,
                    "texture": "#0"
                },
                "west": {
                    "uv": [
                        8.625,
                        10.625,
                        8.75,
                        10.75
                    ],
                    "rotation": 90,
                    "texture": "#0"
                },
                "up": {
                    "uv": [
                        8.625,
                        10.625,
                        8.75,
                        10.75
                    ],
                    "rotation": 90,
                    "texture": "#0"
                },
                "down": {
                    "uv": [
                        8.625,
                        10.625,
                        8.75,
                        10.75
                    ],
                    "rotation": 90,
                    "texture": "#0"
                }
            }
        },
        {
            "from": [
                7.64,
                2.11582,
                8.21753
            ],
            "to": [
                8.36,
                2.16582,
                8.45513
            ],
            "rotation": {
                "angle": 22.5,
                "axis": "x",
                "origin": [
                    8,
                    2.14082,
                    8.97383
                ]
            },
            "faces": {
                "north": {
                    "uv": [
                        8.625,
                        10.625,
                        8.75,
                        10.75
                    ],
                    "rotation": 90,
                    "texture": "#0"
                },
                "east": {
                    "uv": [
                        8.625,
                        10.625,
                        8.75,
                        10.75
                    ],
                    "rotation": 90,
                    "texture": "#0"
                },
                "south": {
                    "uv": [
                        8.625,
                        10.625,
                        8.75,
                        10.75
                    ],
                    "rotation": 90,
                    "texture": "#0"
                },
                "west": {
                    "uv": [
                        8.625,
                        10.625,
                        8.75,
                        10.75
                    ],
                    "rotation": 90,
                    "texture": "#0"
                },
                "up": {
                    "uv": [
                        8.625,
                        10.625,
                        8.75,
                        10.75
                    ],
                    "rotation": 90,
                    "texture": "#0"
                },
                "down": {
                    "uv": [
                        8.625,
                        10.625,
                        8.75,
                        10.75
                    ],
                    "rotation": 90,
                    "texture": "#0"
                }
            }
        },
        {
            "from": [
                7.865,
                2.24215,
                9.85314
            ],
            "to": [
                8.135,
                2.33215,
                9.92114
            ],
            "rotation": {
                "angle": 0,
                "axis": "y",
                "origin": [
                    8,
                    2.00715,
                    9.25714
                ]
            },
            "faces": {
                "north": {
                    "uv": [
                        8.625,
                        10.625,
                        8.75,
                        10.75
                    ],
                    "rotation": 90,
                    "texture": "#0"
                },
                "east": {
                    "uv": [
                        8.625,
                        10.625,
                        8.75,
                        10.75
                    ],
                    "rotation": 90,
                    "texture": "#0"
                },
                "south": {
                    "uv": [
                        8.625,
                        10.625,
                        8.75,
                        10.75
                    ],
                    "rotation": 90,
                    "texture": "#0"
                },
                "west": {
                    "uv": [
                        8.625,
                        10.625,
                        8.75,
                        10.75
                    ],
                    "rotation": 90,
                    "texture": "#0"
                },
                "up": {
                    "uv": [
                        8.625,
                        10.625,
                        8.75,
                        10.75
                    ],
                    "rotation": 90,
                    "texture": "#0"
                },
                "down": {
                    "uv": [
                        8.625,
                        10.625,
                        8.75,
                        10.75
                    ],
                    "rotation": 90,
                    "texture": "#0"
                }
            }
        }
    ],
    "display": {
        "thirdperson_righthand": {
            "translation": [
                -0.25,
                3.5,
                1.25
            ]
        },
        "thirdperson_lefthand": {
            "translation": [
                -0.25,
                3.5,
                1
            ]
        },
        "firstperson_righthand": {
            "translation": [
                0,
                7.25,
                2.25
            ],
            "scale": [
                1.1,
                1.1,
                1.1
            ]
        },
        "firstperson_lefthand": {
            "translation": [
                0,
                7.25,
                2.25
            ],
            "scale": [
                1.1,
                1.1,
                1.1
            ]
        },
        "ground": {
            "rotation": [
                0,
                0,
                90
            ],
            "translation": [
                0,
                -2,
                0
            ],
            "scale": [
                1.3,
                1.3,
                1.3
            ]
        },
        "gui": {
            "rotation": [
                22,
                137,
                0
            ],
            "translation": [
                3,
                9.25,
                0
            ],
            "scale": [
                3.1,
                3.1,
                3.1
            ]
        },
        "head": {
            "translation": [
                0,
                15.25,
                -3.5
            ],
            "scale": [
                2,
                2,
                2
            ]
        },
        "fixed": {
            "rotation": [
                90,
                45,
                -90
            ]
        }
    }
}