{
    "textures": {
        "0": "gci:items/gun_mammoth/mammoth",
        "1": "gci:items/gun_mammoth/optic_uni_scope_reflex_small",
        "2": "gci:items/gun_mammoth/optic_uni_scope_assault",
        "3": "gci:items/gun_mammoth/barrel_uni_compensator",
        "5": "gci:items/gun_mammoth/barrel_uni_silencer",
        "8": "gci:items/gun_mammoth/barrel_uni_supressor",
        "12": "gci:items/gun_mammoth/reflex_scope",
        "13": "gci:items/gun_mammoth/holo",
        "14": "gci:items/gun_mammoth/holo",
        "particle": "gci:items/gun_mammoth/mammoth"
    },
    "elements": [
        {
            "from": [
                6.96,
                17.64,
                14.59972
            ],
            "to": [
                9.04,
                20.28,
                21.79972
            ],
            "rotation": {
                "angle": 0,
                "axis": "y",
                "origin": [
                    8,
                    4.6,
                    16.99972
                ]
            },
            "faces": {
                "north": {
                    "uv": [
                        7.25,
                        15.25,
                        7.75,
                        16
                    ],
                    "texture": "#0"
                },
                "east": {
                    "uv": [
                        5,
                        15.25,
                        7.25,
                        16
                    ],
                    "texture": "#0"
                },
                "south": {
                    "uv": [
                        10,
                        15.25,
                        10.5,
                        16
                    ],
                    "texture": "#0"
                },
                "west": {
                    "uv": [
                        7.75,
                        15.25,
                        10,
                        16
                    ],
                    "texture": "#0"
                },
                "up": {
                    "uv": [
                        7.75,
                        15.25,
                        7.25,
                        13
                    ],
                    "texture": "#0"
                },
                "down": {
                    "uv": [
                        8.25,
                        13,
                        7.75,
                        15.25
                    ],
                    "texture": "#0"
                }
            }
        },
        {
            "from": [
                6.88,
                17.80883,
                21.21944
            ],
            "to": [
                9.12,
                21.24883,
                22.33944
            ],
            "rotation": {
                "angle": -22.5,
                "axis": "x",
                "origin": [
                    8,
                    19.40883,
                    23.45944
                ]
            },
            "faces": {
                "north": {
                    "uv": [
                        5.25,
                        9.75,
                        5.75,
                        10.75
                    ],
                    "texture": "#0"
                },
                "east": {
                    "uv": [
                        5,
                        9.75,
                        5.25,
                        10.75
                    ],
                    "texture": "#0"
                },
                "south": {
                    "uv": [
                        6,
                        9.75,
                        6.5,
                        10.75
                    ],
                    "texture": "#0"
                },
                "west": {
                    "uv": [
                        5.75,
                        9.75,
                        6,
                        10.75
                    ],
                    "texture": "#0"
                },
                "up": {
                    "uv": [
                        5.75,
                        9.75,
                        5.25,
                        9.5
                    ],
                    "texture": "#0"
                },
                "down": {
                    "uv": [
                        6.25,
                        9.5,
                        5.75,
                        9.75
                    ],
                    "texture": "#0"
                }
            }
        }
    ],
    "display": {
        "thirdperson_righthand": {
            "rotation": [
                0,
                0,
                2
            ],
            "translation": [
                -0.25,
                -5.25,
                -1.25
            ],
            "scale": [
                0.56,
                0.56,
                0.56
            ]
        },
        "thirdperson_lefthand": {
            "rotation": [
                0,
                0,
                2
            ],
            "translation": [
                -0.25,
                -5.25,
                -1.25
            ],
            "scale": [
                0.56,
                0.56,
                0.56
            ]
        },
        "firstperson_righthand": {
            "rotation": [
                0.5,
                4,
                10
            ],
            "translation": [
                1,
                -7.25,
                -5.25
            ]
        },
        "firstperson_lefthand": {
            "rotation": [
                0.5,
                4,
                10
            ],
            "translation": [
                1,
                -7.25,
                -5.25
            ]
        },
        "ground": {
            "scale": [
                0.4,
                0.4,
                0.4
            ]
        },
        "gui": {
            "rotation": [
                -90,
                52.5,
                90
            ],
            "translation": [
                6,
                -3,
                0
            ],
            "scale": [
                0.75977,
                0.75977,
                0.75977
            ]
        },
        "fixed": {
            "rotation": [
                -90,
                -53.25,
                -90
            ],
            "translation": [
                -7,
                -4.5,
                0
            ]
        }
    }
}