{
    "textures": {
        "0": "gci:items/gun_mammoth/mammoth",
        "1": "gci:items/gun_mammoth/optic_uni_scope_reflex_small",
        "2": "gci:items/gun_mammoth/optic_uni_scope_assault",
        "3": "gci:items/gun_mammoth/barrel_uni_compensator",
        "5": "gci:items/gun_mammoth/barrel_uni_silencer",
        "8": "gci:items/gun_mammoth/barrel_uni_supressor",
        "12": "gci:items/gun_mammoth/reflex_scope",
        "13": "gci:items/gun_mammoth/holo",
        "14": "gci:items/gun_mammoth/holo",
        "particle": "gci:items/gun_mammoth/mammoth"
    },
    "elements": [
        {
            "from": [
                7.20402,
                22.15715,
                3.95985
            ],
            "to": [
                8.75922,
                22.44875,
                5.90385
            ],
            "rotation": {
                "angle": 0,
                "axis": "y",
                "origin": [
                    7.98162,
                    21.96275,
                    3.95985
                ]
            },
            "faces": {
                "north": {
                    "uv": [
                        6,
                        6,
                        5,
                        6.5
                    ],
                    "texture": "#14"
                },
                "east": {
                    "uv": [
                        7,
                        4.5,
                        6,
                        5
                    ],
                    "texture": "#14"
                },
                "south": {
                    "uv": [
                        7,
                        4,
                        6,
                        4.5
                    ],
                    "texture": "#14"
                },
                "west": {
                    "uv": [
                        7,
                        5,
                        6,
                        5.5
                    ],
                    "texture": "#14"
                },
                "up": {
                    "uv": [
                        2,
                        3,
                        1,
                        4
                    ],
                    "texture": "#14"
                },
                "down": {
                    "uv": [
                        3,
                        4,
                        2,
                        3
                    ],
                    "texture": "#14"
                }
            }
        },
        {
            "from": [
                7.10682,
                22.23005,
                5.51505
            ],
            "to": [
                8.85642,
                22.42445,
                5.70945
            ],
            "rotation": {
                "angle": -45,
                "axis": "x",
                "origin": [
                    7.59282,
                    22.37585,
                    5.66085
                ]
            },
            "faces": {
                "north": {
                    "uv": [
                        7,
                        6,
                        6,
                        6.5
                    ],
                    "texture": "#14"
                },
                "east": {
                    "uv": [
                        6.5,
                        8,
                        6,
                        8.5
                    ],
                    "texture": "#14"
                },
                "south": {
                    "uv": [
                        7,
                        5.5,
                        6,
                        6
                    ],
                    "texture": "#14"
                },
                "west": {
                    "uv": [
                        8.5,
                        6,
                        8,
                        6.5
                    ],
                    "texture": "#14"
                },
                "up": {
                    "uv": [
                        1,
                        6.5,
                        0,
                        7
                    ],
                    "texture": "#14"
                },
                "down": {
                    "uv": [
                        7.5,
                        1,
                        6.5,
                        0.5
                    ],
                    "texture": "#14"
                }
            }
        },
        {
            "from": [
                7.10682,
                22.23005,
                4.05705
            ],
            "to": [
                8.85642,
                22.42445,
                4.25145
            ],
            "rotation": {
                "angle": -45,
                "axis": "x",
                "origin": [
                    7.59282,
                    22.37585,
                    4.20285
                ]
            },
            "faces": {
                "north": {
                    "uv": [
                        7.5,
                        1.5,
                        6.5,
                        2
                    ],
                    "texture": "#14"
                },
                "east": {
                    "uv": [
                        7,
                        8,
                        6.5,
                        8.5
                    ],
                    "texture": "#14"
                },
                "south": {
                    "uv": [
                        7.5,
                        1,
                        6.5,
                        1.5
                    ],
                    "texture": "#14"
                },
                "west": {
                    "uv": [
                        8.5,
                        6.5,
                        8,
                        7
                    ],
                    "texture": "#14"
                },
                "up": {
                    "uv": [
                        3,
                        6.5,
                        2,
                        7
                    ],
                    "texture": "#14"
                },
                "down": {
                    "uv": [
                        4,
                        7,
                        3,
                        6.5
                    ],
                    "texture": "#14"
                }
            }
        },
        {
            "from": [
                6.81522,
                22.44875,
                3.37665
            ],
            "to": [
                9.14802,
                23.42075,
                6.48705
            ],
            "rotation": {
                "angle": 0,
                "axis": "y",
                "origin": [
                    7.98162,
                    22.44875,
                    4.54305
                ]
            },
            "faces": {
                "north": {
                    "uv": [
                        7.5,
                        2,
                        6,
                        2.5
                    ],
                    "texture": "#14"
                },
                "east": {
                    "uv": [
                        6,
                        4,
                        4,
                        4.5
                    ],
                    "texture": "#14"
                },
                "south": {
                    "uv": [
                        3.5,
                        6,
                        2,
                        6.5
                    ],
                    "texture": "#14"
                },
                "west": {
                    "uv": [
                        6,
                        4.5,
                        4,
                        5
                    ],
                    "texture": "#14"
                },
                "up": {
                    "uv": [
                        1.5,
                        0,
                        0,
                        2
                    ],
                    "texture": "#14"
                },
                "down": {
                    "uv": [
                        3,
                        2,
                        1.5,
                        0
                    ],
                    "texture": "#14"
                }
            }
        },
        {
            "from": [
                7.88442,
                23.90675,
                4.93185
            ],
            "to": [
                8.07882,
                24.10115,
                4.93185
            ],
            "rotation": {
                "angle": 0,
                "axis": "y",
                "origin": [
                    7.98162,
                    23.51795,
                    4.54305
                ]
            },
            "faces": {
                "north": {
                    "uv": [
                        7.5,
                        8.5,
                        7,
                        9
                    ],
                    "texture": "#14"
                },
                "east": {
                    "uv": [
                        0,
                        0,
                        0,
                        0.5
                    ],
                    "texture": "#14"
                },
                "south": {
                    "uv": [
                        9,
                        6.5,
                        8.5,
                        7
                    ],
                    "texture": "#14"
                },
                "west": {
                    "uv": [
                        0,
                        0,
                        0,
                        0.5
                    ],
                    "texture": "#14"
                },
                "up": {
                    "uv": [
                        0.5,
                        0,
                        0,
                        0
                    ],
                    "texture": "#14"
                },
                "down": {
                    "uv": [
                        0.5,
                        0,
                        0,
                        0
                    ],
                    "texture": "#14"
                }
            }
        },
        {
            "from": [
                7.30122,
                23.61515,
                4.93185
            ],
            "to": [
                7.49562,
                24.39275,
                4.93185
            ],
            "rotation": {
                "angle": 0,
                "axis": "y",
                "origin": [
                    7.39842,
                    23.51795,
                    4.54305
                ]
            },
            "faces": {
                "north": {
                    "uv": [
                        8,
                        8.5,
                        7.5,
                        9
                    ],
                    "texture": "#14"
                },
                "east": {
                    "uv": [
                        0,
                        0,
                        0,
                        0.5
                    ],
                    "texture": "#14"
                },
                "south": {
                    "uv": [
                        9,
                        7,
                        8.5,
                        7.5
                    ],
                    "texture": "#14"
                },
                "west": {
                    "uv": [
                        0,
                        0,
                        0,
                        0.5
                    ],
                    "texture": "#14"
                },
                "up": {
                    "uv": [
                        0.5,
                        0,
                        0,
                        0
                    ],
                    "texture": "#14"
                },
                "down": {
                    "uv": [
                        0.5,
                        0,
                        0,
                        0
                    ],
                    "texture": "#14"
                }
            }
        },
        {
            "from": [
                8.46762,
                23.61515,
                4.93185
            ],
            "to": [
                8.66202,
                24.39275,
                4.93185
            ],
            "rotation": {
                "angle": 0,
                "axis": "y",
                "origin": [
                    8.56482,
                    23.51795,
                    4.54305
                ]
            },
            "faces": {
                "north": {
                    "uv": [
                        8.5,
                        8.5,
                        8,
                        9
                    ],
                    "texture": "#14"
                },
                "east": {
                    "uv": [
                        0,
                        0,
                        0,
                        0.5
                    ],
                    "texture": "#14"
                },
                "south": {
                    "uv": [
                        9,
                        7.5,
                        8.5,
                        8
                    ],
                    "texture": "#14"
                },
                "west": {
                    "uv": [
                        0,
                        0,
                        0,
                        0.5
                    ],
                    "texture": "#14"
                },
                "up": {
                    "uv": [
                        0.5,
                        0,
                        0,
                        0
                    ],
                    "texture": "#14"
                },
                "down": {
                    "uv": [
                        0.5,
                        0,
                        0,
                        0
                    ],
                    "texture": "#14"
                }
            }
        },
        {
            "from": [
                7.02141,
                24.58715,
                4.05705
            ],
            "to": [
                8.94183,
                24.89054,
                6.00105
            ],
            "rotation": {
                "angle": 0,
                "axis": "y",
                "origin": [
                    7.77543,
                    23.91854,
                    3.08505
                ]
            },
            "faces": {
                "north": {
                    "uv": [
                        8.5,
                        0.5,
                        7.5,
                        1
                    ],
                    "texture": "#14"
                },
                "east": {
                    "uv": [
                        8.5,
                        0,
                        7.5,
                        0.5
                    ],
                    "texture": "#14"
                },
                "south": {
                    "uv": [
                        1,
                        7.5,
                        0,
                        8
                    ],
                    "texture": "#14"
                },
                "west": {
                    "uv": [
                        2,
                        7.5,
                        1,
                        8
                    ],
                    "texture": "#14"
                },
                "up": {
                    "uv": [
                        1,
                        5,
                        0,
                        6
                    ],
                    "texture": "#14"
                },
                "down": {
                    "uv": [
                        6,
                        1,
                        5,
                        0
                    ],
                    "texture": "#14"
                }
            }
        },
        {
            "from": [
                8.85642,
                23.42075,
                4.05705
            ],
            "to": [
                9.14802,
                24.68435,
                6.00105
            ],
            "rotation": {
                "angle": 0,
                "axis": "y",
                "origin": [
                    7.98162,
                    23.42075,
                    3.08505
                ]
            },
            "faces": {
                "north": {
                    "uv": [
                        2.5,
                        7.5,
                        2,
                        8.5
                    ],
                    "texture": "#14"
                },
                "east": {
                    "uv": [
                        2,
                        5,
                        1,
                        6
                    ],
                    "texture": "#14"
                },
                "south": {
                    "uv": [
                        8,
                        1,
                        7.5,
                        2
                    ],
                    "texture": "#14"
                },
                "west": {
                    "uv": [
                        6,
                        1,
                        5,
                        2
                    ],
                    "texture": "#14"
                },
                "up": {
                    "uv": [
                        8,
                        2,
                        7.5,
                        3
                    ],
                    "texture": "#14"
                },
                "down": {
                    "uv": [
                        3,
                        8.5,
                        2.5,
                        7.5
                    ],
                    "texture": "#14"
                }
            }
        },
        {
            "from": [
                9.14802,
                22.64315,
                4.83465
            ],
            "to": [
                9.34242,
                24.19835,
                6.29265
            ],
            "rotation": {
                "angle": 0,
                "axis": "y",
                "origin": [
                    8.27322,
                    22.64315,
                    3.37665
                ]
            },
            "faces": {
                "north": {
                    "uv": [
                        8,
                        3,
                        7.5,
                        4
                    ],
                    "texture": "#14"
                },
                "east": {
                    "uv": [
                        3,
                        5,
                        2,
                        6
                    ],
                    "texture": "#14"
                },
                "south": {
                    "uv": [
                        3.5,
                        7.5,
                        3,
                        8.5
                    ],
                    "texture": "#14"
                },
                "west": {
                    "uv": [
                        6,
                        2,
                        5,
                        3
                    ],
                    "texture": "#14"
                },
                "up": {
                    "uv": [
                        4,
                        7.5,
                        3.5,
                        8.5
                    ],
                    "texture": "#14"
                },
                "down": {
                    "uv": [
                        8,
                        5,
                        7.5,
                        4
                    ],
                    "texture": "#14"
                }
            }
        },
        {
            "from": [
                6.62082,
                22.64315,
                4.83465
            ],
            "to": [
                6.81522,
                24.19835,
                6.29265
            ],
            "rotation": {
                "angle": 0,
                "axis": "y",
                "origin": [
                    7.69002,
                    22.64315,
                    3.37665
                ]
            },
            "faces": {
                "north": {
                    "uv": [
                        6,
                        7.5,
                        5.5,
                        8.5
                    ],
                    "texture": "#14"
                },
                "east": {
                    "uv": [
                        4,
                        5,
                        3,
                        6
                    ],
                    "texture": "#14"
                },
                "south": {
                    "uv": [
                        5.5,
                        7.5,
                        5,
                        8.5
                    ],
                    "texture": "#14"
                },
                "west": {
                    "uv": [
                        6,
                        3,
                        5,
                        4
                    ],
                    "texture": "#14"
                },
                "up": {
                    "uv": [
                        8,
                        5.5,
                        7.5,
                        6.5
                    ],
                    "texture": "#14"
                },
                "down": {
                    "uv": [
                        8,
                        7.5,
                        7.5,
                        6.5
                    ],
                    "texture": "#14"
                }
            }
        },
        {
            "from": [
                6.81522,
                23.42075,
                4.05705
            ],
            "to": [
                7.10682,
                24.68435,
                6.00105
            ],
            "rotation": {
                "angle": 0,
                "axis": "y",
                "origin": [
                    7.98162,
                    23.42075,
                    3.08505
                ]
            },
            "faces": {
                "north": {
                    "uv": [
                        8,
                        7.5,
                        7.5,
                        8.5
                    ],
                    "texture": "#14"
                },
                "east": {
                    "uv": [
                        5,
                        5,
                        4,
                        6
                    ],
                    "texture": "#14"
                },
                "south": {
                    "uv": [
                        7.5,
                        7.5,
                        7,
                        8.5
                    ],
                    "texture": "#14"
                },
                "west": {
                    "uv": [
                        6,
                        5,
                        5,
                        6
                    ],
                    "texture": "#14"
                },
                "up": {
                    "uv": [
                        0.5,
                        8,
                        0,
                        9
                    ],
                    "texture": "#14"
                },
                "down": {
                    "uv": [
                        1,
                        9,
                        0.5,
                        8
                    ],
                    "texture": "#14"
                }
            }
        },
        {
            "from": [
                6.47359,
                23.85958,
                4.05705
            ],
            "to": [
                6.66799,
                24.15118,
                6.00105
            ],
            "rotation": {
                "angle": -45,
                "axis": "z",
                "origin": [
                    7.63999,
                    23.85958,
                    3.08505
                ]
            },
            "faces": {
                "north": {
                    "uv": [
                        9,
                        8.5,
                        8.5,
                        9
                    ],
                    "texture": "#14"
                },
                "east": {
                    "uv": [
                        2,
                        8,
                        1,
                        8.5
                    ],
                    "texture": "#14"
                },
                "south": {
                    "uv": [
                        9,
                        8,
                        8.5,
                        8.5
                    ],
                    "texture": "#14"
                },
                "west": {
                    "uv": [
                        9,
                        1,
                        8,
                        1.5
                    ],
                    "texture": "#14"
                },
                "up": {
                    "uv": [
                        8.5,
                        1.5,
                        8,
                        2.5
                    ],
                    "texture": "#14"
                },
                "down": {
                    "uv": [
                        8.5,
                        3.5,
                        8,
                        2.5
                    ],
                    "texture": "#14"
                }
            }
        },
        {
            "from": [
                9.29525,
                23.85958,
                4.05705
            ],
            "to": [
                9.48965,
                24.15118,
                6.00105
            ],
            "rotation": {
                "angle": 45,
                "axis": "z",
                "origin": [
                    8.32325,
                    23.85958,
                    3.08505
                ]
            },
            "faces": {
                "north": {
                    "uv": [
                        9.5,
                        0,
                        9,
                        0.5
                    ],
                    "texture": "#14"
                },
                "east": {
                    "uv": [
                        9,
                        3.5,
                        8,
                        4
                    ],
                    "texture": "#14"
                },
                "south": {
                    "uv": [
                        0.5,
                        9,
                        0,
                        9.5
                    ],
                    "texture": "#14"
                },
                "west": {
                    "uv": [
                        5,
                        8,
                        4,
                        8.5
                    ],
                    "texture": "#14"
                },
                "up": {
                    "uv": [
                        8.5,
                        4,
                        8,
                        5
                    ],
                    "texture": "#14"
                },
                "down": {
                    "uv": [
                        8.5,
                        6,
                        8,
                        5
                    ],
                    "texture": "#14"
                }
            }
        },
        {
            "from": [
                6.81522,
                22.59774,
                3.15367
            ],
            "to": [
                9.14802,
                23.49575,
                3.52564
            ],
            "rotation": {
                "angle": -22.5,
                "axis": "x",
                "origin": [
                    7.05822,
                    23.08374,
                    3.63967
                ]
            },
            "faces": {
                "north": {
                    "uv": [
                        7.5,
                        3,
                        6,
                        3.5
                    ],
                    "texture": "#14"
                },
                "east": {
                    "uv": [
                        1,
                        9,
                        0.5,
                        9.5
                    ],
                    "texture": "#14"
                },
                "south": {
                    "uv": [
                        7.5,
                        2.5,
                        6,
                        3
                    ],
                    "texture": "#14"
                },
                "west": {
                    "uv": [
                        9.5,
                        0.5,
                        9,
                        1
                    ],
                    "texture": "#14"
                },
                "up": {
                    "uv": [
                        5,
                        6,
                        3.5,
                        6.5
                    ],
                    "texture": "#14"
                },
                "down": {
                    "uv": [
                        7.5,
                        4,
                        6,
                        3.5
                    ],
                    "texture": "#14"
                }
            }
        },
        {
            "from": [
                6.32922,
                22.58103,
                3.11371
            ],
            "to": [
                6.81522,
                23.45583,
                3.98851
            ],
            "rotation": {
                "angle": -22.5,
                "axis": "x",
                "origin": [
                    4.72542,
                    23.16423,
                    3.51934
                ]
            },
            "faces": {
                "north": {
                    "uv": [
                        2,
                        9,
                        1.5,
                        9.5
                    ],
                    "texture": "#14"
                },
                "east": {
                    "uv": [
                        9.5,
                        1,
                        9,
                        1.5
                    ],
                    "texture": "#14"
                },
                "south": {
                    "uv": [
                        1.5,
                        9,
                        1,
                        9.5
                    ],
                    "texture": "#14"
                },
                "west": {
                    "uv": [
                        9.5,
                        1.5,
                        9,
                        2
                    ],
                    "texture": "#14"
                },
                "up": {
                    "uv": [
                        2.5,
                        9,
                        2,
                        9.5
                    ],
                    "texture": "#14"
                },
                "down": {
                    "uv": [
                        9.5,
                        2.5,
                        9,
                        2
                    ],
                    "texture": "#14"
                }
            }
        }
    ],
    "display": {
        "thirdperson_righthand": {
            "rotation": [
                0,
                0,
                2
            ],
            "translation": [
                -0.25,
                -5.25,
                -1.25
            ],
            "scale": [
                0.56,
                0.56,
                0.56
            ]
        },
        "thirdperson_lefthand": {
            "rotation": [
                0,
                0,
                2
            ],
            "translation": [
                -0.25,
                -5.25,
                -1.25
            ],
            "scale": [
                0.56,
                0.56,
                0.56
            ]
        },
        "firstperson_righthand": {
            "rotation": [
                0.5,
                4,
                10
            ],
            "translation": [
                1,
                -7.25,
                -5.25
            ]
        },
        "firstperson_lefthand": {
            "rotation": [
                0.5,
                4,
                10
            ],
            "translation": [
                1,
                -7.25,
                -5.25
            ]
        },
        "ground": {
            "scale": [
                0.4,
                0.4,
                0.4
            ]
        },
        "gui": {
            "rotation": [
                -90,
                52.5,
                90
            ],
            "translation": [
                6,
                -3,
                0
            ],
            "scale": [
                0.75977,
                0.75977,
                0.75977
            ]
        },
        "fixed": {
            "rotation": [
                -90,
                -53.25,
                -90
            ],
            "translation": [
                -7,
                -4.5,
                0
            ]
        }
    }
}