{
    "textures": {
        "0": "gci:items/common/mpz",
        "particle": "gci:items/common/mpz"
    },
    "elements": [
        {
            "from": [
                3.19309,
                19.30145,
                0.4026
            ],
            "to": [
                3.83711,
                19.60415,
                7.1906
            ],
            "rotation": {
                "angle": 0,
                "axis": "y",
                "origin": [
                    3.5151,
                    5.38905,
                    3.7966
                ]
            },
            "faces": {
                "north": {
                    "uv": [
                        3.33333,
                        14,
                        4.75,
                        15.33333
                    ],
                    "texture": "#0"
                },
                "east": {
                    "uv": [
                        3.33333,
                        14,
                        4.75,
                        15.33333
                    ],
                    "texture": "#0"
                },
                "south": {
                    "uv": [
                        3.33333,
                        14,
                        4.75,
                        15.33333
                    ],
                    "texture": "#0"
                },
                "west": {
                    "uv": [
                        3.33333,
                        14,
                        4.75,
                        15.33333
                    ],
                    "texture": "#0"
                },
                "up": {
                    "uv": [
                        3.33333,
                        14,
                        4.75,
                        15.33333
                    ],
                    "texture": "#0"
                },
                "down": {
                    "uv": [
                        3.33333,
                        14,
                        4.75,
                        15.33333
                    ],
                    "texture": "#0"
                }
            }
        },
        {
            "from": [
                3.18665,
                19.42342,
                0.38472
            ],
            "to": [
                3.84355,
                19.83218,
                7.20848
            ],
            "rotation": {
                "angle": 0,
                "axis": "y",
                "origin": [
                    3.5151,
                    5.10377,
                    3.7966
                ]
            },
            "faces": {
                "north": {
                    "uv": [
                        0.66667,
                        3.33333,
                        2.08333,
                        4.66667
                    ],
                    "texture": "#0"
                },
                "east": {
                    "uv": [
                        0.66667,
                        3.33333,
                        2.08333,
                        4.66667
                    ],
                    "texture": "#0"
                },
                "south": {
                    "uv": [
                        0.66667,
                        3.33333,
                        2.08333,
                        4.66667
                    ],
                    "texture": "#0"
                },
                "west": {
                    "uv": [
                        0.66667,
                        3.33333,
                        2.08333,
                        4.66667
                    ],
                    "texture": "#0"
                },
                "up": {
                    "uv": [
                        0.66667,
                        3.33333,
                        2.08333,
                        4.66667
                    ],
                    "texture": "#0"
                },
                "down": {
                    "uv": [
                        0.66667,
                        3.33333,
                        2.08333,
                        4.66667
                    ],
                    "texture": "#0"
                }
            }
        },
        {
            "from": [
                3.19309,
                19.30145,
                0.4026
            ],
            "to": [
                3.83711,
                19.60415,
                7.1906
            ],
            "rotation": {
                "angle": 0,
                "axis": "y",
                "origin": [
                    3.5151,
                    5.38905,
                    3.7966
                ]
            },
            "faces": {
                "north": {
                    "uv": [
                        3.33333,
                        14,
                        4.75,
                        15.33333
                    ],
                    "texture": "#0"
                },
                "east": {
                    "uv": [
                        3.33333,
                        14,
                        4.75,
                        15.33333
                    ],
                    "texture": "#0"
                },
                "south": {
                    "uv": [
                        3.33333,
                        14,
                        4.75,
                        15.33333
                    ],
                    "texture": "#0"
                },
                "west": {
                    "uv": [
                        3.33333,
                        14,
                        4.75,
                        15.33333
                    ],
                    "texture": "#0"
                },
                "up": {
                    "uv": [
                        3.33333,
                        14,
                        4.75,
                        15.33333
                    ],
                    "texture": "#0"
                },
                "down": {
                    "uv": [
                        3.33333,
                        14,
                        4.75,
                        15.33333
                    ],
                    "texture": "#0"
                }
            }
        },
        {
            "from": [
                3.18665,
                19.42342,
                0.38472
            ],
            "to": [
                3.84355,
                19.83218,
                7.20848
            ],
            "rotation": {
                "angle": 0,
                "axis": "y",
                "origin": [
                    3.5151,
                    5.10377,
                    3.7966
                ]
            },
            "faces": {
                "north": {
                    "uv": [
                        0.66667,
                        3.33333,
                        2.08333,
                        4.66667
                    ],
                    "texture": "#0"
                },
                "east": {
                    "uv": [
                        0.66667,
                        3.33333,
                        2.08333,
                        4.66667
                    ],
                    "texture": "#0"
                },
                "south": {
                    "uv": [
                        0.66667,
                        3.33333,
                        2.08333,
                        4.66667
                    ],
                    "texture": "#0"
                },
                "west": {
                    "uv": [
                        0.66667,
                        3.33333,
                        2.08333,
                        4.66667
                    ],
                    "texture": "#0"
                },
                "up": {
                    "uv": [
                        0.66667,
                        3.33333,
                        2.08333,
                        4.66667
                    ],
                    "texture": "#0"
                },
                "down": {
                    "uv": [
                        0.66667,
                        3.33333,
                        2.08333,
                        4.66667
                    ],
                    "texture": "#0"
                }
            }
        },
        {
            "from": [
                3.22453,
                19.80448,
                1.28318
            ],
            "to": [
                3.80567,
                22.10112,
                2.12088
            ],
            "rotation": {
                "angle": 0,
                "axis": "y",
                "origin": [
                    3.5151,
                    5.68033,
                    2.6343
                ]
            },
            "faces": {
                "north": {
                    "uv": [
                        0.33333,
                        11.33333,
                        1.75,
                        12.66667
                    ],
                    "texture": "#0"
                },
                "east": {
                    "uv": [
                        0.33333,
                        11.33333,
                        1.75,
                        12.66667
                    ],
                    "texture": "#0"
                },
                "south": {
                    "uv": [
                        0.33333,
                        11.33333,
                        1.75,
                        12.66667
                    ],
                    "texture": "#0"
                },
                "west": {
                    "uv": [
                        0.33333,
                        11.33333,
                        1.75,
                        12.66667
                    ],
                    "texture": "#0"
                },
                "up": {
                    "uv": [
                        0.33333,
                        11.33333,
                        1.75,
                        12.66667
                    ],
                    "texture": "#0"
                },
                "down": {
                    "uv": [
                        0.33333,
                        11.33333,
                        1.75,
                        12.66667
                    ],
                    "texture": "#0"
                }
            }
        },
        {
            "from": [
                3.22453,
                19.80448,
                2.12088
            ],
            "to": [
                3.80567,
                22.10112,
                2.95858
            ],
            "rotation": {
                "angle": 0,
                "axis": "y",
                "origin": [
                    3.5151,
                    5.68033,
                    1.472
                ]
            },
            "faces": {
                "north": {
                    "uv": [
                        3.33333,
                        11.33333,
                        4.75,
                        12.66667
                    ],
                    "texture": "#0"
                },
                "east": {
                    "uv": [
                        3.33333,
                        11.33333,
                        4.75,
                        12.66667
                    ],
                    "texture": "#0"
                },
                "south": {
                    "uv": [
                        3.33333,
                        11.33333,
                        4.75,
                        12.66667
                    ],
                    "texture": "#0"
                },
                "west": {
                    "uv": [
                        3.33333,
                        11.33333,
                        4.75,
                        12.66667
                    ],
                    "texture": "#0"
                },
                "up": {
                    "uv": [
                        3.33333,
                        11.33333,
                        4.75,
                        12.66667
                    ],
                    "texture": "#0"
                },
                "down": {
                    "uv": [
                        3.33333,
                        11.33333,
                        4.75,
                        12.66667
                    ],
                    "texture": "#0"
                }
            }
        },
        {
            "from": [
                3.22453,
                19.80448,
                2.95858
            ],
            "to": [
                3.80567,
                22.10112,
                3.79628
            ],
            "rotation": {
                "angle": 0,
                "axis": "y",
                "origin": [
                    3.5151,
                    5.68033,
                    3.6097
                ]
            },
            "faces": {
                "north": {
                    "uv": [
                        0.66667,
                        11.33333,
                        2.08333,
                        12.66667
                    ],
                    "texture": "#0"
                },
                "east": {
                    "uv": [
                        0.66667,
                        11.33333,
                        2.08333,
                        12.66667
                    ],
                    "texture": "#0"
                },
                "south": {
                    "uv": [
                        0.66667,
                        11.33333,
                        2.08333,
                        12.66667
                    ],
                    "texture": "#0"
                },
                "west": {
                    "uv": [
                        0.66667,
                        11.33333,
                        2.08333,
                        12.66667
                    ],
                    "texture": "#0"
                },
                "up": {
                    "uv": [
                        0.66667,
                        11.33333,
                        2.08333,
                        12.66667
                    ],
                    "texture": "#0"
                },
                "down": {
                    "uv": [
                        0.66667,
                        11.33333,
                        2.08333,
                        12.66667
                    ],
                    "texture": "#0"
                }
            }
        },
        {
            "from": [
                3.22453,
                19.80448,
                3.79628
            ],
            "to": [
                3.80567,
                22.10112,
                4.63398
            ],
            "rotation": {
                "angle": 0,
                "axis": "y",
                "origin": [
                    3.5151,
                    5.68033,
                    2.4474
                ]
            },
            "faces": {
                "north": {
                    "uv": [
                        3.33333,
                        11.33333,
                        4.75,
                        12.66667
                    ],
                    "texture": "#0"
                },
                "east": {
                    "uv": [
                        3.33333,
                        11.33333,
                        4.75,
                        12.66667
                    ],
                    "texture": "#0"
                },
                "south": {
                    "uv": [
                        3.33333,
                        11.33333,
                        4.75,
                        12.66667
                    ],
                    "texture": "#0"
                },
                "west": {
                    "uv": [
                        3.33333,
                        11.33333,
                        4.75,
                        12.66667
                    ],
                    "texture": "#0"
                },
                "up": {
                    "uv": [
                        3.33333,
                        11.33333,
                        4.75,
                        12.66667
                    ],
                    "texture": "#0"
                },
                "down": {
                    "uv": [
                        3.33333,
                        11.33333,
                        4.75,
                        12.66667
                    ],
                    "texture": "#0"
                }
            }
        },
        {
            "from": [
                3.22453,
                19.80448,
                4.63398
            ],
            "to": [
                3.80567,
                22.10112,
                5.47168
            ],
            "rotation": {
                "angle": 0,
                "axis": "y",
                "origin": [
                    3.5151,
                    5.68033,
                    1.2851
                ]
            },
            "faces": {
                "north": {
                    "uv": [
                        0.33333,
                        11.33333,
                        1.75,
                        12.66667
                    ],
                    "texture": "#0"
                },
                "east": {
                    "uv": [
                        0.33333,
                        11.33333,
                        1.75,
                        12.66667
                    ],
                    "texture": "#0"
                },
                "south": {
                    "uv": [
                        0.33333,
                        11.33333,
                        1.75,
                        12.66667
                    ],
                    "texture": "#0"
                },
                "west": {
                    "uv": [
                        0.33333,
                        11.33333,
                        1.75,
                        12.66667
                    ],
                    "texture": "#0"
                },
                "up": {
                    "uv": [
                        0.33333,
                        11.33333,
                        1.75,
                        12.66667
                    ],
                    "texture": "#0"
                },
                "down": {
                    "uv": [
                        0.33333,
                        11.33333,
                        1.75,
                        12.66667
                    ],
                    "texture": "#0"
                }
            }
        },
        {
            "from": [
                3.22453,
                19.80448,
                5.47168
            ],
            "to": [
                3.80567,
                22.10112,
                6.30938
            ],
            "rotation": {
                "angle": 0,
                "axis": "y",
                "origin": [
                    3.5151,
                    5.68033,
                    2.4228
                ]
            },
            "faces": {
                "north": {
                    "uv": [
                        3.33333,
                        11.33333,
                        4.75,
                        12.66667
                    ],
                    "texture": "#0"
                },
                "east": {
                    "uv": [
                        3.33333,
                        11.33333,
                        4.75,
                        12.66667
                    ],
                    "texture": "#0"
                },
                "south": {
                    "uv": [
                        3.33333,
                        11.33333,
                        4.75,
                        12.66667
                    ],
                    "texture": "#0"
                },
                "west": {
                    "uv": [
                        3.33333,
                        11.33333,
                        4.75,
                        12.66667
                    ],
                    "texture": "#0"
                },
                "up": {
                    "uv": [
                        3.33333,
                        11.33333,
                        4.75,
                        12.66667
                    ],
                    "texture": "#0"
                },
                "down": {
                    "uv": [
                        3.33333,
                        11.33333,
                        4.75,
                        12.66667
                    ],
                    "texture": "#0"
                }
            }
        },
        {
            "from": [
                3.22453,
                19.80448,
                6.30938
            ],
            "to": [
                3.80567,
                22.10112,
                7.14708
            ],
            "rotation": {
                "angle": 0,
                "axis": "y",
                "origin": [
                    3.5151,
                    5.68033,
                    1.2605
                ]
            },
            "faces": {
                "north": {
                    "uv": [
                        0.33333,
                        11.33333,
                        1.75,
                        12.66667
                    ],
                    "texture": "#0"
                },
                "east": {
                    "uv": [
                        0.33333,
                        11.33333,
                        1.75,
                        12.66667
                    ],
                    "texture": "#0"
                },
                "south": {
                    "uv": [
                        0.33333,
                        11.33333,
                        1.75,
                        12.66667
                    ],
                    "texture": "#0"
                },
                "west": {
                    "uv": [
                        0.33333,
                        11.33333,
                        1.75,
                        12.66667
                    ],
                    "texture": "#0"
                },
                "up": {
                    "uv": [
                        0.33333,
                        11.33333,
                        1.75,
                        12.66667
                    ],
                    "texture": "#0"
                },
                "down": {
                    "uv": [
                        0.33333,
                        11.33333,
                        1.75,
                        12.66667
                    ],
                    "texture": "#0"
                }
            }
        },
        {
            "from": [
                3.19309,
                19.30145,
                0.4026
            ],
            "to": [
                3.83711,
                19.60415,
                7.1906
            ],
            "rotation": {
                "angle": 0,
                "axis": "y",
                "origin": [
                    3.5151,
                    5.38905,
                    3.7966
                ]
            },
            "faces": {
                "north": {
                    "uv": [
                        3.33333,
                        14,
                        4.75,
                        15.33333
                    ],
                    "texture": "#0"
                },
                "east": {
                    "uv": [
                        3.33333,
                        14,
                        4.75,
                        15.33333
                    ],
                    "texture": "#0"
                },
                "south": {
                    "uv": [
                        3.33333,
                        14,
                        4.75,
                        15.33333
                    ],
                    "texture": "#0"
                },
                "west": {
                    "uv": [
                        3.33333,
                        14,
                        4.75,
                        15.33333
                    ],
                    "texture": "#0"
                },
                "up": {
                    "uv": [
                        3.33333,
                        14,
                        4.75,
                        15.33333
                    ],
                    "texture": "#0"
                },
                "down": {
                    "uv": [
                        3.33333,
                        14,
                        4.75,
                        15.33333
                    ],
                    "texture": "#0"
                }
            }
        },
        {
            "from": [
                3.18665,
                19.42342,
                0.38472
            ],
            "to": [
                3.84355,
                19.83218,
                7.20848
            ],
            "rotation": {
                "angle": 0,
                "axis": "y",
                "origin": [
                    3.5151,
                    5.10377,
                    3.7966
                ]
            },
            "faces": {
                "north": {
                    "uv": [
                        0.66667,
                        3.33333,
                        2.08333,
                        4.66667
                    ],
                    "texture": "#0"
                },
                "east": {
                    "uv": [
                        0.66667,
                        3.33333,
                        2.08333,
                        4.66667
                    ],
                    "texture": "#0"
                },
                "south": {
                    "uv": [
                        0.66667,
                        3.33333,
                        2.08333,
                        4.66667
                    ],
                    "texture": "#0"
                },
                "west": {
                    "uv": [
                        0.66667,
                        3.33333,
                        2.08333,
                        4.66667
                    ],
                    "texture": "#0"
                },
                "up": {
                    "uv": [
                        0.66667,
                        3.33333,
                        2.08333,
                        4.66667
                    ],
                    "texture": "#0"
                },
                "down": {
                    "uv": [
                        0.66667,
                        3.33333,
                        2.08333,
                        4.66667
                    ],
                    "texture": "#0"
                }
            }
        },
        {
            "from": [
                3.22453,
                19.80448,
                0.44548
            ],
            "to": [
                3.80567,
                22.10112,
                1.28318
            ],
            "rotation": {
                "angle": 0,
                "axis": "y",
                "origin": [
                    3.5151,
                    5.68033,
                    3.7966
                ]
            },
            "faces": {
                "north": {
                    "uv": [
                        3.33333,
                        11.33333,
                        4.75,
                        12.66667
                    ],
                    "texture": "#0"
                },
                "east": {
                    "uv": [
                        3.33333,
                        11.33333,
                        4.75,
                        12.66667
                    ],
                    "texture": "#0"
                },
                "south": {
                    "uv": [
                        3.33333,
                        11.33333,
                        4.75,
                        12.66667
                    ],
                    "texture": "#0"
                },
                "west": {
                    "uv": [
                        3.33333,
                        11.33333,
                        4.75,
                        12.66667
                    ],
                    "texture": "#0"
                },
                "up": {
                    "uv": [
                        3.33333,
                        11.33333,
                        4.75,
                        12.66667
                    ],
                    "texture": "#0"
                },
                "down": {
                    "uv": [
                        3.33333,
                        11.33333,
                        4.75,
                        12.66667
                    ],
                    "texture": "#0"
                }
            }
        },
        {
            "from": [
                3.22453,
                19.80448,
                1.28318
            ],
            "to": [
                3.80567,
                22.10112,
                2.12088
            ],
            "rotation": {
                "angle": 0,
                "axis": "y",
                "origin": [
                    3.5151,
                    5.68033,
                    2.6343
                ]
            },
            "faces": {
                "north": {
                    "uv": [
                        0.33333,
                        11.33333,
                        1.75,
                        12.66667
                    ],
                    "texture": "#0"
                },
                "east": {
                    "uv": [
                        0.33333,
                        11.33333,
                        1.75,
                        12.66667
                    ],
                    "texture": "#0"
                },
                "south": {
                    "uv": [
                        0.33333,
                        11.33333,
                        1.75,
                        12.66667
                    ],
                    "texture": "#0"
                },
                "west": {
                    "uv": [
                        0.33333,
                        11.33333,
                        1.75,
                        12.66667
                    ],
                    "texture": "#0"
                },
                "up": {
                    "uv": [
                        0.33333,
                        11.33333,
                        1.75,
                        12.66667
                    ],
                    "texture": "#0"
                },
                "down": {
                    "uv": [
                        0.33333,
                        11.33333,
                        1.75,
                        12.66667
                    ],
                    "texture": "#0"
                }
            }
        },
        {
            "from": [
                3.22453,
                19.80448,
                2.12088
            ],
            "to": [
                3.80567,
                22.10112,
                2.95858
            ],
            "rotation": {
                "angle": 0,
                "axis": "y",
                "origin": [
                    3.5151,
                    5.68033,
                    1.472
                ]
            },
            "faces": {
                "north": {
                    "uv": [
                        3.33333,
                        11.33333,
                        4.75,
                        12.66667
                    ],
                    "texture": "#0"
                },
                "east": {
                    "uv": [
                        3.33333,
                        11.33333,
                        4.75,
                        12.66667
                    ],
                    "texture": "#0"
                },
                "south": {
                    "uv": [
                        3.33333,
                        11.33333,
                        4.75,
                        12.66667
                    ],
                    "texture": "#0"
                },
                "west": {
                    "uv": [
                        3.33333,
                        11.33333,
                        4.75,
                        12.66667
                    ],
                    "texture": "#0"
                },
                "up": {
                    "uv": [
                        3.33333,
                        11.33333,
                        4.75,
                        12.66667
                    ],
                    "texture": "#0"
                },
                "down": {
                    "uv": [
                        3.33333,
                        11.33333,
                        4.75,
                        12.66667
                    ],
                    "texture": "#0"
                }
            }
        },
        {
            "from": [
                3.22453,
                19.80448,
                2.95858
            ],
            "to": [
                3.80567,
                22.10112,
                3.79628
            ],
            "rotation": {
                "angle": 0,
                "axis": "y",
                "origin": [
                    3.5151,
                    5.68033,
                    3.6097
                ]
            },
            "faces": {
                "north": {
                    "uv": [
                        0.66667,
                        11.33333,
                        2.08333,
                        12.66667
                    ],
                    "texture": "#0"
                },
                "east": {
                    "uv": [
                        0.66667,
                        11.33333,
                        2.08333,
                        12.66667
                    ],
                    "texture": "#0"
                },
                "south": {
                    "uv": [
                        0.66667,
                        11.33333,
                        2.08333,
                        12.66667
                    ],
                    "texture": "#0"
                },
                "west": {
                    "uv": [
                        0.66667,
                        11.33333,
                        2.08333,
                        12.66667
                    ],
                    "texture": "#0"
                },
                "up": {
                    "uv": [
                        0.66667,
                        11.33333,
                        2.08333,
                        12.66667
                    ],
                    "texture": "#0"
                },
                "down": {
                    "uv": [
                        0.66667,
                        11.33333,
                        2.08333,
                        12.66667
                    ],
                    "texture": "#0"
                }
            }
        },
        {
            "from": [
                3.22453,
                19.80448,
                3.79628
            ],
            "to": [
                3.80567,
                22.10112,
                4.63398
            ],
            "rotation": {
                "angle": 0,
                "axis": "y",
                "origin": [
                    3.5151,
                    5.68033,
                    2.4474
                ]
            },
            "faces": {
                "north": {
                    "uv": [
                        3.33333,
                        11.33333,
                        4.75,
                        12.66667
                    ],
                    "texture": "#0"
                },
                "east": {
                    "uv": [
                        3.33333,
                        11.33333,
                        4.75,
                        12.66667
                    ],
                    "texture": "#0"
                },
                "south": {
                    "uv": [
                        3.33333,
                        11.33333,
                        4.75,
                        12.66667
                    ],
                    "texture": "#0"
                },
                "west": {
                    "uv": [
                        3.33333,
                        11.33333,
                        4.75,
                        12.66667
                    ],
                    "texture": "#0"
                },
                "up": {
                    "uv": [
                        3.33333,
                        11.33333,
                        4.75,
                        12.66667
                    ],
                    "texture": "#0"
                },
                "down": {
                    "uv": [
                        3.33333,
                        11.33333,
                        4.75,
                        12.66667
                    ],
                    "texture": "#0"
                }
            }
        },
        {
            "from": [
                3.22453,
                19.80448,
                4.63398
            ],
            "to": [
                3.80567,
                22.10112,
                5.47168
            ],
            "rotation": {
                "angle": 0,
                "axis": "y",
                "origin": [
                    3.5151,
                    5.68033,
                    1.2851
                ]
            },
            "faces": {
                "north": {
                    "uv": [
                        0.33333,
                        11.33333,
                        1.75,
                        12.66667
                    ],
                    "texture": "#0"
                },
                "east": {
                    "uv": [
                        0.33333,
                        11.33333,
                        1.75,
                        12.66667
                    ],
                    "texture": "#0"
                },
                "south": {
                    "uv": [
                        0.33333,
                        11.33333,
                        1.75,
                        12.66667
                    ],
                    "texture": "#0"
                },
                "west": {
                    "uv": [
                        0.33333,
                        11.33333,
                        1.75,
                        12.66667
                    ],
                    "texture": "#0"
                },
                "up": {
                    "uv": [
                        0.33333,
                        11.33333,
                        1.75,
                        12.66667
                    ],
                    "texture": "#0"
                },
                "down": {
                    "uv": [
                        0.33333,
                        11.33333,
                        1.75,
                        12.66667
                    ],
                    "texture": "#0"
                }
            }
        },
        {
            "from": [
                3.22453,
                19.80448,
                5.47168
            ],
            "to": [
                3.80567,
                22.10112,
                6.30938
            ],
            "rotation": {
                "angle": 0,
                "axis": "y",
                "origin": [
                    3.5151,
                    5.68033,
                    2.4228
                ]
            },
            "faces": {
                "north": {
                    "uv": [
                        3.33333,
                        11.33333,
                        4.75,
                        12.66667
                    ],
                    "texture": "#0"
                },
                "east": {
                    "uv": [
                        3.33333,
                        11.33333,
                        4.75,
                        12.66667
                    ],
                    "texture": "#0"
                },
                "south": {
                    "uv": [
                        3.33333,
                        11.33333,
                        4.75,
                        12.66667
                    ],
                    "texture": "#0"
                },
                "west": {
                    "uv": [
                        3.33333,
                        11.33333,
                        4.75,
                        12.66667
                    ],
                    "texture": "#0"
                },
                "up": {
                    "uv": [
                        3.33333,
                        11.33333,
                        4.75,
                        12.66667
                    ],
                    "texture": "#0"
                },
                "down": {
                    "uv": [
                        3.33333,
                        11.33333,
                        4.75,
                        12.66667
                    ],
                    "texture": "#0"
                }
            }
        },
        {
            "from": [
                3.22453,
                19.80448,
                6.30938
            ],
            "to": [
                3.80567,
                22.10112,
                7.14708
            ],
            "rotation": {
                "angle": 0,
                "axis": "y",
                "origin": [
                    3.5151,
                    5.68033,
                    1.2605
                ]
            },
            "faces": {
                "north": {
                    "uv": [
                        0.33333,
                        11.33333,
                        1.75,
                        12.66667
                    ],
                    "texture": "#0"
                },
                "east": {
                    "uv": [
                        0.33333,
                        11.33333,
                        1.75,
                        12.66667
                    ],
                    "texture": "#0"
                },
                "south": {
                    "uv": [
                        0.33333,
                        11.33333,
                        1.75,
                        12.66667
                    ],
                    "texture": "#0"
                },
                "west": {
                    "uv": [
                        0.33333,
                        11.33333,
                        1.75,
                        12.66667
                    ],
                    "texture": "#0"
                },
                "up": {
                    "uv": [
                        0.33333,
                        11.33333,
                        1.75,
                        12.66667
                    ],
                    "texture": "#0"
                },
                "down": {
                    "uv": [
                        0.33333,
                        11.33333,
                        1.75,
                        12.66667
                    ],
                    "texture": "#0"
                }
            }
        }
    ],
    "display": {
        "thirdperson_righthand": {
            "translation": [
                6.5,
                -6,
                7.75
            ],
            "scale": [
                1.5,
                1.5,
                1.5
            ]
        },
        "thirdperson_lefthand": {
            "rotation": [
                0,
                -180,
                0
            ],
            "translation": [
                6.75,
                -6,
                -4.5
            ],
            "scale": [
                1.5,
                1.5,
                1.5
            ]
        },
        "firstperson_righthand": {
            "rotation": [
                -26,
                9,
                0
            ],
            "translation": [
                0.75,
                1.25,
                9.25
            ]
        },
        "firstperson_lefthand": {
            "rotation": [
                -26,
                9,
                0
            ],
            "translation": [
                -7.75,
                1.25,
                10
            ]
        },
        "ground": {
            "rotation": [
                44,
                0,
                0
            ],
            "translation": [
                4,
                2,
                2.5
            ]
        },
        "gui": {
            "rotation": [
                90,
                45,
                -90
            ],
            "translation": [
                2,
                -4.25,
                0
            ],
            "scale": [
                1.1,
                1.1,
                1.1
            ]
        },
        "fixed": {
            "rotation": [
                90,
                45,
                -90
            ],
            "translation": [
                2.75,
                -5.75,
                -7.25
            ],
            "scale": [
                1.5,
                1.5,
                1.5
            ]
        }
    }
}