{
    "textures": {
        "1": "gci:items/common/all_in_one",
        "particle": "gci:items/common/all_in_one"
    },
    "elements": [
        {
            "name": "hexadecagon",
            "from": [
                7.3653,
                -11.8331,
                8.69422
            ],
            "to": [
                8.6347,
                -1.60685,
                8.94672
            ],
            "rotation": {
                "angle": 45,
                "axis": "y",
                "origin": [
                    8,
                    0.2869,
                    8.82047
                ]
            },
            "faces": {
                "north": {
                    "uv": [
                        6.65,
                        12.625,
                        6.725,
                        11.5125
                    ],
                    "texture": "#1"
                },
                "east": {
                    "uv": [
                        6.65,
                        12.625,
                        6.725,
                        11.5125
                    ],
                    "texture": "#1"
                },
                "south": {
                    "uv": [
                        6.65,
                        12.625,
                        6.725,
                        11.5125
                    ],
                    "texture": "#1"
                },
                "west": {
                    "uv": [
                        6.65,
                        12.625,
                        6.725,
                        11.5125
                    ],
                    "texture": "#1"
                },
                "up": {
                    "uv": [
                        6.65,
                        12.625,
                        6.725,
                        11.5125
                    ],
                    "rotation": 90,
                    "texture": "#1"
                },
                "down": {
                    "uv": [
                        6.65,
                        12.625,
                        6.725,
                        11.5125
                    ],
                    "rotation": 270,
                    "texture": "#1"
                }
            }
        },
        {
            "name": "hexadecagon",
            "from": [
                7.3653,
                -11.8331,
                8.69422
            ],
            "to": [
                8.6347,
                -1.60685,
                8.94672
            ],
            "rotation": {
                "angle": 22.5,
                "axis": "y",
                "origin": [
                    8,
                    0.2869,
                    8.82047
                ]
            },
            "faces": {
                "north": {
                    "uv": [
                        6.65,
                        12.625,
                        6.725,
                        11.5125
                    ],
                    "texture": "#1"
                },
                "east": {
                    "uv": [
                        6.65,
                        12.625,
                        6.725,
                        11.5125
                    ],
                    "texture": "#1"
                },
                "south": {
                    "uv": [
                        6.65,
                        12.625,
                        6.725,
                        11.5125
                    ],
                    "texture": "#1"
                },
                "west": {
                    "uv": [
                        6.65,
                        12.625,
                        6.725,
                        11.5125
                    ],
                    "texture": "#1"
                },
                "up": {
                    "uv": [
                        6.65,
                        12.625,
                        6.725,
                        11.5125
                    ],
                    "rotation": 90,
                    "texture": "#1"
                },
                "down": {
                    "uv": [
                        6.65,
                        12.625,
                        6.725,
                        11.5125
                    ],
                    "rotation": 270,
                    "texture": "#1"
                }
            }
        },
        {
            "name": "hexadecagon",
            "from": [
                7.3653,
                -11.8331,
                8.69422
            ],
            "to": [
                8.6347,
                -1.60685,
                8.94672
            ],
            "rotation": {
                "angle": 0,
                "axis": "y",
                "origin": [
                    8,
                    0.2869,
                    8.82047
                ]
            },
            "faces": {
                "north": {
                    "uv": [
                        6.65,
                        12.625,
                        6.725,
                        11.5125
                    ],
                    "texture": "#1"
                },
                "east": {
                    "uv": [
                        6.65,
                        12.625,
                        6.725,
                        11.5125
                    ],
                    "texture": "#1"
                },
                "south": {
                    "uv": [
                        6.65,
                        12.625,
                        6.725,
                        11.5125
                    ],
                    "texture": "#1"
                },
                "west": {
                    "uv": [
                        6.65,
                        12.625,
                        6.725,
                        11.5125
                    ],
                    "texture": "#1"
                },
                "up": {
                    "uv": [
                        6.65,
                        12.625,
                        6.725,
                        11.5125
                    ],
                    "rotation": 90,
                    "texture": "#1"
                },
                "down": {
                    "uv": [
                        6.65,
                        12.625,
                        6.725,
                        11.5125
                    ],
                    "rotation": 270,
                    "texture": "#1"
                }
            }
        },
        {
            "name": "hexadecagon",
            "from": [
                7.3653,
                -11.8331,
                8.69422
            ],
            "to": [
                8.6347,
                -1.60685,
                8.94672
            ],
            "rotation": {
                "angle": -22.5,
                "axis": "y",
                "origin": [
                    8,
                    0.2869,
                    8.82047
                ]
            },
            "faces": {
                "north": {
                    "uv": [
                        6.65,
                        12.625,
                        6.725,
                        11.5125
                    ],
                    "texture": "#1"
                },
                "east": {
                    "uv": [
                        6.65,
                        12.625,
                        6.725,
                        11.5125
                    ],
                    "texture": "#1"
                },
                "south": {
                    "uv": [
                        6.65,
                        12.625,
                        6.725,
                        11.5125
                    ],
                    "texture": "#1"
                },
                "west": {
                    "uv": [
                        6.65,
                        12.625,
                        6.725,
                        11.5125
                    ],
                    "texture": "#1"
                },
                "up": {
                    "uv": [
                        6.65,
                        12.625,
                        6.725,
                        11.5125
                    ],
                    "rotation": 90,
                    "texture": "#1"
                },
                "down": {
                    "uv": [
                        6.65,
                        12.625,
                        6.725,
                        11.5125
                    ],
                    "rotation": 270,
                    "texture": "#1"
                }
            }
        },
        {
            "name": "hexadecagon",
            "from": [
                7.3653,
                -11.8331,
                8.69422
            ],
            "to": [
                8.6347,
                -1.60685,
                8.94672
            ],
            "rotation": {
                "angle": -45,
                "axis": "y",
                "origin": [
                    8,
                    0.2869,
                    8.82047
                ]
            },
            "faces": {
                "north": {
                    "uv": [
                        6.65,
                        12.625,
                        6.725,
                        11.5125
                    ],
                    "texture": "#1"
                },
                "east": {
                    "uv": [
                        6.65,
                        12.625,
                        6.725,
                        11.5125
                    ],
                    "texture": "#1"
                },
                "south": {
                    "uv": [
                        6.65,
                        12.625,
                        6.725,
                        11.5125
                    ],
                    "texture": "#1"
                },
                "west": {
                    "uv": [
                        6.65,
                        12.625,
                        6.725,
                        11.5125
                    ],
                    "texture": "#1"
                },
                "up": {
                    "uv": [
                        6.65,
                        12.625,
                        6.725,
                        11.5125
                    ],
                    "rotation": 90,
                    "texture": "#1"
                },
                "down": {
                    "uv": [
                        6.65,
                        12.625,
                        6.725,
                        11.5125
                    ],
                    "rotation": 270,
                    "texture": "#1"
                }
            }
        },
        {
            "name": "hexadecagon",
            "from": [
                7.87375,
                -11.8331,
                8.18577
            ],
            "to": [
                8.12625,
                -1.60685,
                9.45517
            ],
            "rotation": {
                "angle": 22.5,
                "axis": "y",
                "origin": [
                    8,
                    0.2869,
                    8.82047
                ]
            },
            "faces": {
                "north": {
                    "uv": [
                        6.65,
                        12.625,
                        6.725,
                        11.5125
                    ],
                    "texture": "#1"
                },
                "east": {
                    "uv": [
                        6.65,
                        12.625,
                        6.725,
                        11.5125
                    ],
                    "texture": "#1"
                },
                "south": {
                    "uv": [
                        6.65,
                        12.625,
                        6.725,
                        11.5125
                    ],
                    "texture": "#1"
                },
                "west": {
                    "uv": [
                        6.65,
                        12.625,
                        6.725,
                        11.5125
                    ],
                    "texture": "#1"
                },
                "up": {
                    "uv": [
                        6.65,
                        12.625,
                        6.725,
                        11.5125
                    ],
                    "rotation": 90,
                    "texture": "#1"
                },
                "down": {
                    "uv": [
                        6.65,
                        12.625,
                        6.725,
                        11.5125
                    ],
                    "rotation": 270,
                    "texture": "#1"
                }
            }
        },
        {
            "name": "hexadecagon",
            "from": [
                7.87375,
                -11.8331,
                8.18577
            ],
            "to": [
                8.12625,
                -1.60685,
                9.45517
            ],
            "rotation": {
                "angle": 0,
                "axis": "y",
                "origin": [
                    8,
                    0.2869,
                    8.82047
                ]
            },
            "faces": {
                "north": {
                    "uv": [
                        6.65,
                        12.625,
                        6.725,
                        11.5125
                    ],
                    "texture": "#1"
                },
                "east": {
                    "uv": [
                        6.65,
                        12.625,
                        6.725,
                        11.5125
                    ],
                    "texture": "#1"
                },
                "south": {
                    "uv": [
                        6.65,
                        12.625,
                        6.725,
                        11.5125
                    ],
                    "texture": "#1"
                },
                "west": {
                    "uv": [
                        6.65,
                        12.625,
                        6.725,
                        11.5125
                    ],
                    "texture": "#1"
                },
                "up": {
                    "uv": [
                        6.65,
                        12.625,
                        6.725,
                        11.5125
                    ],
                    "rotation": 90,
                    "texture": "#1"
                },
                "down": {
                    "uv": [
                        6.65,
                        12.625,
                        6.725,
                        11.5125
                    ],
                    "rotation": 270,
                    "texture": "#1"
                }
            }
        },
        {
            "name": "hexadecagon",
            "from": [
                7.87375,
                -11.8331,
                8.18577
            ],
            "to": [
                8.12625,
                -1.60685,
                9.45517
            ],
            "rotation": {
                "angle": -22.5,
                "axis": "y",
                "origin": [
                    8,
                    0.2869,
                    8.82047
                ]
            },
            "faces": {
                "north": {
                    "uv": [
                        6.65,
                        12.625,
                        6.725,
                        11.5125
                    ],
                    "texture": "#1"
                },
                "east": {
                    "uv": [
                        6.65,
                        12.625,
                        6.725,
                        11.5125
                    ],
                    "texture": "#1"
                },
                "south": {
                    "uv": [
                        6.65,
                        12.625,
                        6.725,
                        11.5125
                    ],
                    "texture": "#1"
                },
                "west": {
                    "uv": [
                        6.65,
                        12.625,
                        6.725,
                        11.5125
                    ],
                    "texture": "#1"
                },
                "up": {
                    "uv": [
                        6.65,
                        12.625,
                        6.725,
                        11.5125
                    ],
                    "rotation": 90,
                    "texture": "#1"
                },
                "down": {
                    "uv": [
                        6.65,
                        12.625,
                        6.725,
                        11.5125
                    ],
                    "rotation": 270,
                    "texture": "#1"
                }
            }
        }
    ],
    "display": {
        "thirdperson_righthand": {
            "rotation": [
                0,
                -90,
                0
            ],
            "translation": [
                0.5,
                15.75,
                1.25
            ]
        },
        "thirdperson_lefthand": {
            "rotation": [
                0,
                -90,
                0
            ],
            "translation": [
                0.5,
                15.75,
                1.25
            ]
        },
        "firstperson_righthand": {
            "rotation": [
                0,
                -90,
                45
            ],
            "translation": [
                0,
                4,
                -5.5
            ]
        },
        "firstperson_lefthand": {
            "rotation": [
                0,
                -90,
                45
            ],
            "translation": [
                0,
                4,
                -5.5
            ]
        },
        "ground": {
            "rotation": [
                0,
                0,
                45
            ],
            "translation": [
                0,
                11.25,
                0
            ]
        },
        "gui": {
            "rotation": [
                0,
                0,
                45
            ],
            "translation": [
                0,
                0.5,
                0
            ],
            "scale": [
                0.5,
                0.5,
                0.5
            ]
        },
        "fixed": {
            "rotation": [
                -180,
                0,
                -45.75
            ],
            "translation": [
                0,
                0,
                -0.5
            ]
        }
    }
}