{
    "textures": {
        "0": "gci:items/common/all_in_one",
        "2": "gci:items/common/mpz",
        "particle": "gci:items/common/all_in_one"
    },
    "elements": [
        {
            "name": "octagon",
            "from": [
                8.48223,
                4.75,
                -4.05
            ],
            "to": [
                9.51777,
                5.6,
                0.45
            ],
            "rotation": {
                "angle": 45,
                "axis": "z",
                "origin": [
                    9,
                    6,
                    -1.8
                ]
            },
            "faces": {
                "north": {
                    "uv": [
                        1.375,
                        10.125,
                        1.5,
                        10.25
                    ],
                    "texture": "#0"
                },
                "east": {
                    "uv": [
                        1.375,
                        10.125,
                        1.5,
                        10.25
                    ],
                    "texture": "#0"
                },
                "south": {
                    "uv": [
                        1.375,
                        10.125,
                        1.5,
                        10.25
                    ],
                    "texture": "#0"
                },
                "west": {
                    "uv": [
                        1.375,
                        10.125,
                        1.5,
                        10.25
                    ],
                    "texture": "#0"
                },
                "up": {
                    "uv": [
                        1.375,
                        10.125,
                        1.5,
                        10.25
                    ],
                    "texture": "#0"
                },
                "down": {
                    "uv": [
                        1.375,
                        10.125,
                        1.5,
                        10.25
                    ],
                    "texture": "#0"
                }
            }
        },
        {
            "name": "octagon",
            "from": [
                8.48223,
                4.75,
                -4.05
            ],
            "to": [
                9.51777,
                5.6,
                0.45
            ],
            "rotation": {
                "angle": 0,
                "axis": "y",
                "origin": [
                    9,
                    6,
                    -1.8
                ]
            },
            "faces": {
                "north": {
                    "uv": [
                        1.375,
                        10.125,
                        1.5,
                        10.25
                    ],
                    "texture": "#0"
                },
                "east": {
                    "uv": [
                        1.375,
                        10.125,
                        1.5,
                        10.25
                    ],
                    "texture": "#0"
                },
                "south": {
                    "uv": [
                        1.375,
                        10.125,
                        1.5,
                        10.25
                    ],
                    "texture": "#0"
                },
                "west": {
                    "uv": [
                        1.375,
                        10.125,
                        1.5,
                        10.25
                    ],
                    "texture": "#0"
                },
                "up": {
                    "uv": [
                        1.375,
                        10.125,
                        1.5,
                        10.25
                    ],
                    "texture": "#0"
                },
                "down": {
                    "uv": [
                        1.375,
                        10.125,
                        1.5,
                        10.25
                    ],
                    "texture": "#0"
                }
            }
        },
        {
            "name": "octagon",
            "from": [
                8.48223,
                6.4,
                -4.05
            ],
            "to": [
                9.51777,
                7.25,
                0.45
            ],
            "rotation": {
                "angle": 45,
                "axis": "z",
                "origin": [
                    9,
                    6,
                    -1.8
                ]
            },
            "faces": {
                "north": {
                    "uv": [
                        1.375,
                        10.125,
                        1.5,
                        10.25
                    ],
                    "texture": "#0"
                },
                "east": {
                    "uv": [
                        1.375,
                        10.125,
                        1.5,
                        10.25
                    ],
                    "texture": "#0"
                },
                "south": {
                    "uv": [
                        1.375,
                        10.125,
                        1.5,
                        10.25
                    ],
                    "texture": "#0"
                },
                "west": {
                    "uv": [
                        1.375,
                        10.125,
                        1.5,
                        10.25
                    ],
                    "texture": "#0"
                },
                "up": {
                    "uv": [
                        1.375,
                        10.125,
                        1.5,
                        10.25
                    ],
                    "texture": "#0"
                },
                "down": {
                    "uv": [
                        1.375,
                        10.125,
                        1.5,
                        10.25
                    ],
                    "texture": "#0"
                }
            }
        },
        {
            "name": "octagon",
            "from": [
                8.48223,
                6.4,
                -4.05
            ],
            "to": [
                9.51777,
                7.25,
                0.45
            ],
            "rotation": {
                "angle": 0,
                "axis": "y",
                "origin": [
                    9,
                    6,
                    -1.8
                ]
            },
            "faces": {
                "north": {
                    "uv": [
                        1.375,
                        10.125,
                        1.5,
                        10.25
                    ],
                    "texture": "#0"
                },
                "east": {
                    "uv": [
                        1.375,
                        10.125,
                        1.5,
                        10.25
                    ],
                    "texture": "#0"
                },
                "south": {
                    "uv": [
                        1.375,
                        10.125,
                        1.5,
                        10.25
                    ],
                    "texture": "#0"
                },
                "west": {
                    "uv": [
                        1.375,
                        10.125,
                        1.5,
                        10.25
                    ],
                    "texture": "#0"
                },
                "up": {
                    "uv": [
                        1.375,
                        10.125,
                        1.5,
                        10.25
                    ],
                    "texture": "#0"
                },
                "down": {
                    "uv": [
                        1.375,
                        10.125,
                        1.5,
                        10.25
                    ],
                    "texture": "#0"
                }
            }
        },
        {
            "name": "octagon",
            "from": [
                7.75,
                5.48223,
                -4.05
            ],
            "to": [
                8.6,
                6.51777,
                0.45
            ],
            "rotation": {
                "angle": 45,
                "axis": "z",
                "origin": [
                    9,
                    6,
                    -1.8
                ]
            },
            "faces": {
                "north": {
                    "uv": [
                        1.375,
                        10.125,
                        1.5,
                        10.25
                    ],
                    "texture": "#0"
                },
                "east": {
                    "uv": [
                        1.375,
                        10.125,
                        1.5,
                        10.25
                    ],
                    "texture": "#0"
                },
                "south": {
                    "uv": [
                        1.375,
                        10.125,
                        1.5,
                        10.25
                    ],
                    "texture": "#0"
                },
                "west": {
                    "uv": [
                        1.375,
                        10.125,
                        1.5,
                        10.25
                    ],
                    "texture": "#0"
                },
                "up": {
                    "uv": [
                        1.375,
                        10.125,
                        1.5,
                        10.25
                    ],
                    "texture": "#0"
                },
                "down": {
                    "uv": [
                        1.375,
                        10.125,
                        1.5,
                        10.25
                    ],
                    "texture": "#0"
                }
            }
        },
        {
            "name": "octagon",
            "from": [
                7.75,
                5.48223,
                -4.05
            ],
            "to": [
                8.6,
                6.51777,
                0.45
            ],
            "rotation": {
                "angle": 0,
                "axis": "y",
                "origin": [
                    9,
                    6,
                    -1.8
                ]
            },
            "faces": {
                "north": {
                    "uv": [
                        1.375,
                        10.125,
                        1.5,
                        10.25
                    ],
                    "texture": "#0"
                },
                "east": {
                    "uv": [
                        1.375,
                        10.125,
                        1.5,
                        10.25
                    ],
                    "texture": "#0"
                },
                "south": {
                    "uv": [
                        1.375,
                        10.125,
                        1.5,
                        10.25
                    ],
                    "texture": "#0"
                },
                "west": {
                    "uv": [
                        1.375,
                        10.125,
                        1.5,
                        10.25
                    ],
                    "texture": "#0"
                },
                "up": {
                    "uv": [
                        1.375,
                        10.125,
                        1.5,
                        10.25
                    ],
                    "texture": "#0"
                },
                "down": {
                    "uv": [
                        1.375,
                        10.125,
                        1.5,
                        10.25
                    ],
                    "texture": "#0"
                }
            }
        },
        {
            "name": "octagon",
            "from": [
                9.4,
                5.48223,
                -4.05
            ],
            "to": [
                10.25,
                6.51777,
                0.45
            ],
            "rotation": {
                "angle": 45,
                "axis": "z",
                "origin": [
                    9,
                    6,
                    -1.8
                ]
            },
            "faces": {
                "north": {
                    "uv": [
                        1.375,
                        10.125,
                        1.5,
                        10.25
                    ],
                    "texture": "#0"
                },
                "east": {
                    "uv": [
                        1.375,
                        10.125,
                        1.5,
                        10.25
                    ],
                    "texture": "#0"
                },
                "south": {
                    "uv": [
                        1.375,
                        10.125,
                        1.5,
                        10.25
                    ],
                    "texture": "#0"
                },
                "west": {
                    "uv": [
                        1.375,
                        10.125,
                        1.5,
                        10.25
                    ],
                    "texture": "#0"
                },
                "up": {
                    "uv": [
                        1.375,
                        10.125,
                        1.5,
                        10.25
                    ],
                    "texture": "#0"
                },
                "down": {
                    "uv": [
                        1.375,
                        10.125,
                        1.5,
                        10.25
                    ],
                    "texture": "#0"
                }
            }
        },
        {
            "name": "octagon",
            "from": [
                9.4,
                5.48223,
                -4.05
            ],
            "to": [
                10.25,
                6.51777,
                0.45
            ],
            "rotation": {
                "angle": 0,
                "axis": "y",
                "origin": [
                    9,
                    6,
                    -1.8
                ]
            },
            "faces": {
                "north": {
                    "uv": [
                        1.375,
                        10.125,
                        1.5,
                        10.25
                    ],
                    "texture": "#0"
                },
                "east": {
                    "uv": [
                        1.375,
                        10.125,
                        1.5,
                        10.25
                    ],
                    "texture": "#0"
                },
                "south": {
                    "uv": [
                        1.375,
                        10.125,
                        1.5,
                        10.25
                    ],
                    "texture": "#0"
                },
                "west": {
                    "uv": [
                        1.375,
                        10.125,
                        1.5,
                        10.25
                    ],
                    "texture": "#0"
                },
                "up": {
                    "uv": [
                        1.375,
                        10.125,
                        1.5,
                        10.25
                    ],
                    "texture": "#0"
                },
                "down": {
                    "uv": [
                        1.375,
                        10.125,
                        1.5,
                        10.25
                    ],
                    "texture": "#0"
                }
            }
        }
    ],
    "display": {
        "thirdperson_righthand": {
            "translation": [
                -0.75,
                3.25,
                0.5
            ],
            "scale": [
                0.8,
                0.8,
                0.8
            ]
        },
        "thirdperson_lefthand": {
            "translation": [
                0.5,
                3.5,
                0.5
            ],
            "scale": [
                0.8,
                0.8,
                0.8
            ]
        },
        "firstperson_righthand": {
            "translation": [
                -5.5,
                6.5,
                1.25
            ],
            "scale": [
                1,
                1,
                0.9
            ]
        },
        "firstperson_lefthand": {
            "translation": [
                -5,
                6.75,
                1.75
            ],
            "scale": [
                1,
                1,
                0.9
            ]
        },
        "ground": {
            "translation": [
                0,
                2.5,
                0
            ],
            "scale": [
                0.88,
                0.88,
                0.88
            ]
        },
        "gui": {
            "rotation": [
                20,
                27,
                -14
            ],
            "translation": [
                -0.25,
                4.75,
                0
            ],
            "scale": [
                1.35547,
                1.35547,
                1.35547
            ]
        },
        "head": {
            "rotation": [
                0,
                122,
                90
            ],
            "translation": [
                -3.25,
                7.25,
                1.75
            ]
        },
        "fixed": {
            "rotation": [
                -45,
                90,
                45
            ],
            "translation": [
                0.25,
                4,
                0.25
            ]
        }
    }
}